%!PS-Adobe-3.0 EPSF-3.0
%%Title: pi_results.eps
%%Creator: matplotlib version 2.2.2, http://matplotlib.org/
%%CreationDate: Mon Jun 11 16:00:58 2018
%%Orientation: portrait
%%BoundingBox: 115 262 496 529
%%EndComments
%%BeginProlog
/mpldict 9 dict def
mpldict begin
/m { moveto } bind def
/l { lineto } bind def
/r { rlineto } bind def
/c { curveto } bind def
/cl { closepath } bind def
/box {
m
1 index 0 r
0 exch r
neg 0 r
cl
} bind def
/clipbox {
box
clip
newpath
} bind def
%!PS-Adobe-3.0 Resource-Font
%%Title: DejaVu Sans
%%Copyright: Copyright (c) 2003 by Bitstream, Inc. All Rights Reserved. Copyright (c) 2006 by Tavmjong Bah. All Rights Reserved. DejaVu changes are in public domain 
%%Creator: Converted from TrueType to type 3 by PPR
25 dict begin
/_d{bind def}bind def
/_m{moveto}_d
/_l{lineto}_d
/_cl{closepath eofill}_d
/_c{curveto}_d
/_sc{7 -1 roll{setcachedevice}{pop pop pop pop pop pop}ifelse}_d
/_e{exec}_d
/FontName /DejaVuSans def
/PaintType 0 def
/FontMatrix[.001 0 0 .001 0 0]def
/FontBBox[-1021 -463 1793 1232]def
/FontType 3 def
/Encoding [ /space /zero /one /two /three /four /six /eight /nine /J /M /R /T /U /W /bracketleft /bracketright /a /b /c /d /e /f /g /i /m /n /o /q /r /s /t /u /x ] def
/FontInfo 10 dict dup begin
/FamilyName (DejaVu Sans) def
/FullName (DejaVu Sans) def
/Notice (Copyright (c) 2003 by Bitstream, Inc. All Rights Reserved. Copyright (c) 2006 by Tavmjong Bah. All Rights Reserved. DejaVu changes are in public domain ) def
/Weight (Book) def
/Version (Version 2.35) def
/ItalicAngle 0.0 def
/isFixedPitch false def
/UnderlinePosition -130 def
/UnderlineThickness 90 def
end readonly def
/CharStrings 35 dict dup begin
/.notdef 0 def
/space{318 0 0 0 0 0 _sc
}_d
/zero{636 0 66 -13 570 742 _sc
318 664 _m
267 664 229 639 203 589 _c
177 539 165 464 165 364 _c
165 264 177 189 203 139 _c
229 89 267 64 318 64 _c
369 64 407 89 433 139 _c
458 189 471 264 471 364 _c
471 464 458 539 433 589 _c
407 639 369 664 318 664 _c
318 742 _m
399 742 461 709 505 645 _c
548 580 570 486 570 364 _c
570 241 548 147 505 83 _c
461 19 399 -13 318 -13 _c
236 -13 173 19 130 83 _c
87 147 66 241 66 364 _c
66 486 87 580 130 645 _c
173 709 236 742 318 742 _c
_cl}_d
/one{636 0 110 0 544 729 _sc
124 83 _m
285 83 _l
285 639 _l
110 604 _l
110 694 _l
284 729 _l
383 729 _l
383 83 _l
544 83 _l
544 0 _l
124 0 _l
124 83 _l
_cl}_d
/two{{636 0 73 0 536 742 _sc
192 83 _m
536 83 _l
536 0 _l
73 0 _l
73 83 _l
110 121 161 173 226 239 _c
290 304 331 346 348 365 _c
380 400 402 430 414 455 _c
426 479 433 504 433 528 _c
433 566 419 598 392 622 _c
365 646 330 659 286 659 _c
255 659 222 653 188 643 _c
154 632 117 616 78 594 _c
78 694 _l
118 710 155 722 189 730 _c
223 738 255 742 284 742 _c
}_e{359 742 419 723 464 685 _c
509 647 532 597 532 534 _c
532 504 526 475 515 449 _c
504 422 484 390 454 354 _c
446 344 420 317 376 272 _c
332 227 271 164 192 83 _c
_cl}_e}_d
/three{{636 0 76 -13 556 742 _sc
406 393 _m
453 383 490 362 516 330 _c
542 298 556 258 556 212 _c
556 140 531 84 482 45 _c
432 6 362 -13 271 -13 _c
240 -13 208 -10 176 -4 _c
144 1 110 10 76 22 _c
76 117 _l
103 101 133 89 166 81 _c
198 73 232 69 268 69 _c
330 69 377 81 409 105 _c
441 129 458 165 458 212 _c
458 254 443 288 413 312 _c
383 336 341 349 287 349 _c
}_e{202 349 _l
202 430 _l
291 430 _l
339 430 376 439 402 459 _c
428 478 441 506 441 543 _c
441 580 427 609 401 629 _c
374 649 336 659 287 659 _c
260 659 231 656 200 650 _c
169 644 135 635 98 623 _c
98 711 _l
135 721 170 729 203 734 _c
235 739 266 742 296 742 _c
370 742 429 725 473 691 _c
517 657 539 611 539 553 _c
539 513 527 479 504 451 _c
481 423 448 403 406 393 _c
_cl}_e}_d
/four{636 0 49 0 580 729 _sc
378 643 _m
129 254 _l
378 254 _l
378 643 _l
352 729 _m
476 729 _l
476 254 _l
580 254 _l
580 172 _l
476 172 _l
476 0 _l
378 0 _l
378 172 _l
49 172 _l
49 267 _l
352 729 _l
_cl}_d
/six{{636 0 70 -13 573 742 _sc
330 404 _m
286 404 251 388 225 358 _c
199 328 186 286 186 234 _c
186 181 199 139 225 109 _c
251 79 286 64 330 64 _c
374 64 409 79 435 109 _c
461 139 474 181 474 234 _c
474 286 461 328 435 358 _c
409 388 374 404 330 404 _c
526 713 _m
526 623 _l
501 635 476 644 451 650 _c
425 656 400 659 376 659 _c
310 659 260 637 226 593 _c
}_e{192 549 172 482 168 394 _c
187 422 211 444 240 459 _c
269 474 301 482 336 482 _c
409 482 467 459 509 415 _c
551 371 573 310 573 234 _c
573 159 550 99 506 54 _c
462 9 403 -13 330 -13 _c
246 -13 181 19 137 83 _c
92 147 70 241 70 364 _c
70 479 97 571 152 639 _c
206 707 280 742 372 742 _c
396 742 421 739 447 735 _c
472 730 498 723 526 713 _c
_cl}_e}_d
/eight{{636 0 68 -13 568 742 _sc
318 346 _m
271 346 234 333 207 308 _c
180 283 167 249 167 205 _c
167 161 180 126 207 101 _c
234 76 271 64 318 64 _c
364 64 401 76 428 102 _c
455 127 469 161 469 205 _c
469 249 455 283 429 308 _c
402 333 365 346 318 346 _c
219 388 _m
177 398 144 418 120 447 _c
96 476 85 511 85 553 _c
85 611 105 657 147 691 _c
188 725 245 742 318 742 _c
}_e{390 742 447 725 489 691 _c
530 657 551 611 551 553 _c
551 511 539 476 515 447 _c
491 418 459 398 417 388 _c
464 377 501 355 528 323 _c
554 291 568 251 568 205 _c
568 134 546 80 503 43 _c
459 5 398 -13 318 -13 _c
237 -13 175 5 132 43 _c
89 80 68 134 68 205 _c
68 251 81 291 108 323 _c
134 355 171 377 219 388 _c
183 544 _m
183 506 194 476 218 455 _c
}_e{242 434 275 424 318 424 _c
360 424 393 434 417 455 _c
441 476 453 506 453 544 _c
453 582 441 611 417 632 _c
393 653 360 664 318 664 _c
275 664 242 653 218 632 _c
194 611 183 582 183 544 _c
_cl}_e}_d
/nine{{636 0 63 -13 566 742 _sc
110 15 _m
110 105 _l
134 93 159 84 185 78 _c
210 72 235 69 260 69 _c
324 69 374 90 408 134 _c
442 178 462 244 468 334 _c
448 306 424 284 396 269 _c
367 254 335 247 300 247 _c
226 247 168 269 126 313 _c
84 357 63 417 63 494 _c
63 568 85 628 129 674 _c
173 719 232 742 306 742 _c
390 742 455 709 499 645 _c
543 580 566 486 566 364 _c
}_e{566 248 538 157 484 89 _c
429 21 356 -13 264 -13 _c
239 -13 214 -10 189 -6 _c
163 -2 137 5 110 15 _c
306 324 _m
350 324 385 339 411 369 _c
437 399 450 441 450 494 _c
450 546 437 588 411 618 _c
385 648 350 664 306 664 _c
262 664 227 648 201 618 _c
175 588 162 546 162 494 _c
162 441 175 399 201 369 _c
227 339 262 324 306 324 _c
_cl}_e}_d
/J{295 0 -51 -199 197 729 _sc
98 729 _m
197 729 _l
197 51 _l
197 -36 180 -99 147 -139 _c
113 -179 60 -199 -13 -199 _c
-51 -199 _l
-51 -116 _l
-20 -116 _l
22 -116 53 -103 71 -79 _c
89 -55 98 -11 98 51 _c
98 729 _l
_cl}_d
/M{863 0 98 0 765 729 _sc
98 729 _m
245 729 _l
431 233 _l
618 729 _l
765 729 _l
765 0 _l
669 0 _l
669 640 _l
481 140 _l
382 140 _l
194 640 _l
194 0 _l
98 0 _l
98 729 _l
_cl}_d
/R{{695 0 98 0 666 729 _sc
444 342 _m
465 334 486 319 506 296 _c
526 272 546 240 566 199 _c
666 0 _l
560 0 _l
467 187 _l
443 235 419 268 397 284 _c
374 300 343 308 304 308 _c
197 308 _l
197 0 _l
98 0 _l
98 729 _l
321 729 _l
404 729 466 711 507 677 _c
548 642 569 589 569 519 _c
569 473 558 434 537 404 _c
515 374 484 353 444 342 _c
197 648 _m
197 389 _l
321 389 _l
}_e{368 389 404 400 428 422 _c
452 444 465 476 465 519 _c
465 561 452 593 428 615 _c
404 637 368 648 321 648 _c
197 648 _l
_cl}_e}_d
/T{611 0 -2 0 614 729 _sc
-2 729 _m
614 729 _l
614 646 _l
355 646 _l
355 0 _l
256 0 _l
256 646 _l
-2 646 _l
-2 729 _l
_cl}_d
/U{732 0 87 -13 645 729 _sc
87 729 _m
186 729 _l
186 286 _l
186 208 200 151 228 117 _c
256 83 302 66 366 66 _c
429 66 475 83 503 117 _c
531 151 546 208 546 286 _c
546 729 _l
645 729 _l
645 274 _l
645 178 621 107 574 59 _c
527 11 458 -13 366 -13 _c
274 -13 204 11 157 59 _c
110 107 87 178 87 274 _c
87 729 _l
_cl}_d
/W{989 0 33 0 956 729 _sc
33 729 _m
133 729 _l
286 113 _l
439 729 _l
550 729 _l
703 113 _l
856 729 _l
956 729 _l
773 0 _l
649 0 _l
495 633 _l
340 0 _l
216 0 _l
33 729 _l
_cl}_d
/bracketleft{390 0 86 -131 293 760 _sc
86 760 _m
293 760 _l
293 690 _l
176 690 _l
176 -61 _l
293 -61 _l
293 -131 _l
86 -131 _l
86 760 _l
_cl}_d
/bracketright{390 0 97 -131 304 760 _sc
304 760 _m
304 -131 _l
97 -131 _l
97 -61 _l
214 -61 _l
214 690 _l
97 690 _l
97 760 _l
304 760 _l
_cl}_d
/a{{613 0 60 -13 522 560 _sc
343 275 _m
270 275 220 266 192 250 _c
164 233 150 205 150 165 _c
150 133 160 107 181 89 _c
202 70 231 61 267 61 _c
317 61 357 78 387 114 _c
417 149 432 196 432 255 _c
432 275 _l
343 275 _l
522 312 _m
522 0 _l
432 0 _l
432 83 _l
411 49 385 25 355 10 _c
325 -5 287 -13 243 -13 _c
187 -13 142 2 109 33 _c
76 64 60 106 60 159 _c
}_e{60 220 80 266 122 298 _c
163 329 224 345 306 345 _c
432 345 _l
432 354 _l
432 395 418 427 391 450 _c
364 472 326 484 277 484 _c
245 484 215 480 185 472 _c
155 464 127 453 100 439 _c
100 522 _l
132 534 164 544 195 550 _c
226 556 256 560 286 560 _c
365 560 424 539 463 498 _c
502 457 522 395 522 312 _c
_cl}_e}_d
/b{{635 0 91 -13 580 760 _sc
487 273 _m
487 339 473 390 446 428 _c
418 466 381 485 334 485 _c
286 485 249 466 222 428 _c
194 390 181 339 181 273 _c
181 207 194 155 222 117 _c
249 79 286 61 334 61 _c
381 61 418 79 446 117 _c
473 155 487 207 487 273 _c
181 464 _m
199 496 223 520 252 536 _c
281 552 316 560 356 560 _c
422 560 476 533 518 481 _c
559 428 580 359 580 273 _c
}_e{580 187 559 117 518 65 _c
476 13 422 -13 356 -13 _c
316 -13 281 -5 252 10 _c
223 25 199 49 181 82 _c
181 0 _l
91 0 _l
91 760 _l
181 760 _l
181 464 _l
_cl}_e}_d
/c{{550 0 55 -13 488 560 _sc
488 526 _m
488 442 _l
462 456 437 466 411 473 _c
385 480 360 484 334 484 _c
276 484 230 465 198 428 _c
166 391 150 339 150 273 _c
150 206 166 154 198 117 _c
230 80 276 62 334 62 _c
360 62 385 65 411 72 _c
437 79 462 90 488 104 _c
488 21 _l
462 9 436 0 410 -5 _c
383 -10 354 -13 324 -13 _c
242 -13 176 12 128 64 _c
}_e{79 115 55 185 55 273 _c
55 362 79 432 128 483 _c
177 534 244 560 330 560 _c
358 560 385 557 411 551 _c
437 545 463 537 488 526 _c
_cl}_e}_d
/d{{635 0 55 -13 544 760 _sc
454 464 _m
454 760 _l
544 760 _l
544 0 _l
454 0 _l
454 82 _l
435 49 411 25 382 10 _c
353 -5 319 -13 279 -13 _c
213 -13 159 13 117 65 _c
75 117 55 187 55 273 _c
55 359 75 428 117 481 _c
159 533 213 560 279 560 _c
319 560 353 552 382 536 _c
411 520 435 496 454 464 _c
148 273 _m
148 207 161 155 188 117 _c
215 79 253 61 301 61 _c
}_e{348 61 385 79 413 117 _c
440 155 454 207 454 273 _c
454 339 440 390 413 428 _c
385 466 348 485 301 485 _c
253 485 215 466 188 428 _c
161 390 148 339 148 273 _c
_cl}_e}_d
/e{{615 0 55 -13 562 560 _sc
562 296 _m
562 252 _l
149 252 _l
153 190 171 142 205 110 _c
238 78 284 62 344 62 _c
378 62 412 66 444 74 _c
476 82 509 95 541 113 _c
541 28 _l
509 14 476 3 442 -3 _c
408 -9 373 -13 339 -13 _c
251 -13 182 12 131 62 _c
80 112 55 181 55 268 _c
55 357 79 428 127 481 _c
175 533 241 560 323 560 _c
397 560 455 536 498 489 _c
}_e{540 441 562 377 562 296 _c
472 322 _m
471 371 457 410 431 440 _c
404 469 368 484 324 484 _c
274 484 234 469 204 441 _c
174 413 156 373 152 322 _c
472 322 _l
_cl}_e}_d
/f{352 0 23 0 371 760 _sc
371 760 _m
371 685 _l
285 685 _l
253 685 230 678 218 665 _c
205 652 199 629 199 595 _c
199 547 _l
347 547 _l
347 477 _l
199 477 _l
199 0 _l
109 0 _l
109 477 _l
23 477 _l
23 547 _l
109 547 _l
109 585 _l
109 645 123 690 151 718 _c
179 746 224 760 286 760 _c
371 760 _l
_cl}_d
/g{{635 0 55 -207 544 560 _sc
454 280 _m
454 344 440 395 414 431 _c
387 467 349 485 301 485 _c
253 485 215 467 188 431 _c
161 395 148 344 148 280 _c
148 215 161 165 188 129 _c
215 93 253 75 301 75 _c
349 75 387 93 414 129 _c
440 165 454 215 454 280 _c
544 68 _m
544 -24 523 -93 482 -139 _c
440 -184 377 -207 292 -207 _c
260 -207 231 -204 203 -200 _c
175 -195 147 -188 121 -178 _c
}_e{121 -91 _l
147 -105 173 -115 199 -122 _c
225 -129 251 -133 278 -133 _c
336 -133 380 -117 410 -87 _c
439 -56 454 -10 454 52 _c
454 96 _l
435 64 411 40 382 24 _c
353 8 319 0 279 0 _c
211 0 157 25 116 76 _c
75 127 55 195 55 280 _c
55 364 75 432 116 483 _c
157 534 211 560 279 560 _c
319 560 353 552 382 536 _c
411 520 435 496 454 464 _c
454 547 _l
544 547 _l
}_e{544 68 _l
_cl}_e}_d
/i{278 0 94 0 184 760 _sc
94 547 _m
184 547 _l
184 0 _l
94 0 _l
94 547 _l
94 760 _m
184 760 _l
184 646 _l
94 646 _l
94 760 _l
_cl}_d
/m{{974 0 91 0 889 560 _sc
520 442 _m
542 482 569 511 600 531 _c
631 550 668 560 711 560 _c
767 560 811 540 842 500 _c
873 460 889 403 889 330 _c
889 0 _l
799 0 _l
799 327 _l
799 379 789 418 771 444 _c
752 469 724 482 686 482 _c
639 482 602 466 575 435 _c
548 404 535 362 535 309 _c
535 0 _l
445 0 _l
445 327 _l
445 379 435 418 417 444 _c
398 469 369 482 331 482 _c
}_e{285 482 248 466 221 435 _c
194 404 181 362 181 309 _c
181 0 _l
91 0 _l
91 547 _l
181 547 _l
181 462 _l
201 495 226 520 255 536 _c
283 552 317 560 357 560 _c
397 560 430 550 458 530 _c
486 510 506 480 520 442 _c
_cl}_e}_d
/n{634 0 91 0 549 560 _sc
549 330 _m
549 0 _l
459 0 _l
459 327 _l
459 379 448 417 428 443 _c
408 469 378 482 338 482 _c
289 482 251 466 223 435 _c
195 404 181 362 181 309 _c
181 0 _l
91 0 _l
91 547 _l
181 547 _l
181 462 _l
202 494 227 519 257 535 _c
286 551 320 560 358 560 _c
420 560 468 540 500 501 _c
532 462 549 405 549 330 _c
_cl}_d
/o{612 0 55 -13 557 560 _sc
306 484 _m
258 484 220 465 192 427 _c
164 389 150 338 150 273 _c
150 207 163 156 191 118 _c
219 80 257 62 306 62 _c
354 62 392 80 420 118 _c
448 156 462 207 462 273 _c
462 337 448 389 420 427 _c
392 465 354 484 306 484 _c
306 560 _m
384 560 445 534 490 484 _c
534 433 557 363 557 273 _c
557 183 534 113 490 63 _c
445 12 384 -13 306 -13 _c
227 -13 165 12 121 63 _c
77 113 55 183 55 273 _c
55 363 77 433 121 484 _c
165 534 227 560 306 560 _c
_cl}_d
/q{{635 0 55 -207 544 560 _sc
148 273 _m
148 207 161 155 188 117 _c
215 79 253 61 301 61 _c
348 61 385 79 413 117 _c
440 155 454 207 454 273 _c
454 339 440 390 413 428 _c
385 466 348 485 301 485 _c
253 485 215 466 188 428 _c
161 390 148 339 148 273 _c
454 82 _m
435 49 411 25 382 10 _c
353 -5 319 -13 279 -13 _c
213 -13 159 13 117 65 _c
75 117 55 187 55 273 _c
}_e{55 359 75 428 117 481 _c
159 533 213 560 279 560 _c
319 560 353 552 382 536 _c
411 520 435 496 454 464 _c
454 547 _l
544 547 _l
544 -207 _l
454 -207 _l
454 82 _l
_cl}_e}_d
/r{411 0 91 0 411 560 _sc
411 463 _m
401 469 390 473 378 476 _c
366 478 353 480 339 480 _c
288 480 249 463 222 430 _c
194 397 181 350 181 288 _c
181 0 _l
91 0 _l
91 547 _l
181 547 _l
181 462 _l
199 495 224 520 254 536 _c
284 552 321 560 365 560 _c
371 560 378 559 386 559 _c
393 558 401 557 411 555 _c
411 463 _l
_cl}_d
/s{{521 0 54 -13 472 560 _sc
443 531 _m
443 446 _l
417 458 391 468 364 475 _c
336 481 308 485 279 485 _c
234 485 200 478 178 464 _c
156 450 145 430 145 403 _c
145 382 153 366 169 354 _c
185 342 217 330 265 320 _c
296 313 _l
360 299 405 279 432 255 _c
458 230 472 195 472 151 _c
472 100 452 60 412 31 _c
372 1 316 -13 246 -13 _c
216 -13 186 -10 154 -5 _c
}_e{122 0 89 8 54 20 _c
54 113 _l
87 95 120 82 152 74 _c
184 65 216 61 248 61 _c
290 61 323 68 346 82 _c
368 96 380 117 380 144 _c
380 168 371 187 355 200 _c
339 213 303 226 247 238 _c
216 245 _l
160 257 119 275 95 299 _c
70 323 58 356 58 399 _c
58 450 76 490 112 518 _c
148 546 200 560 268 560 _c
301 560 332 557 362 552 _c
391 547 418 540 443 531 _c
}_e{_cl}_e}_d
/t{392 0 27 0 368 702 _sc
183 702 _m
183 547 _l
368 547 _l
368 477 _l
183 477 _l
183 180 _l
183 135 189 106 201 94 _c
213 81 238 75 276 75 _c
368 75 _l
368 0 _l
276 0 _l
206 0 158 13 132 39 _c
106 65 93 112 93 180 _c
93 477 _l
27 477 _l
27 547 _l
93 547 _l
93 702 _l
183 702 _l
_cl}_d
/u{634 0 85 -13 543 560 _sc
85 216 _m
85 547 _l
175 547 _l
175 219 _l
175 167 185 129 205 103 _c
225 77 255 64 296 64 _c
344 64 383 79 411 110 _c
439 141 453 183 453 237 _c
453 547 _l
543 547 _l
543 0 _l
453 0 _l
453 84 _l
431 50 405 26 377 10 _c
348 -5 315 -13 277 -13 _c
214 -13 166 6 134 45 _c
101 83 85 140 85 216 _c
311 560 _m
311 560 _l
_cl}_d
/x{592 0 29 0 559 547 _sc
549 547 _m
351 281 _l
559 0 _l
453 0 _l
294 215 _l
135 0 _l
29 0 _l
241 286 _l
47 547 _l
153 547 _l
298 352 _l
443 547 _l
549 547 _l
_cl}_d
end readonly def

/BuildGlyph
 {exch begin
 CharStrings exch
 2 copy known not{pop /.notdef}if
 true 3 1 roll get exec
 end}_d

/BuildChar {
 1 index /Encoding get exch get
 1 index /BuildGlyph get exec
}_d

FontName currentdict end definefont pop
%!PS-Adobe-3.0 Resource-Font
%%Title: DejaVu Sans Oblique
%%Copyright: Copyright (c) 2003 by Bitstream, Inc. All Rights Reserved. Copyright (c) 2006 by Tavmjong Bah. All Rights Reserved. DejaVu changes are in public domain 
%%Creator: Converted from TrueType to type 3 by PPR
25 dict begin
/_d{bind def}bind def
/_m{moveto}_d
/_l{lineto}_d
/_cl{closepath eofill}_d
/_c{curveto}_d
/_sc{7 -1 roll{setcachedevice}{pop pop pop pop pop pop}ifelse}_d
/_e{exec}_d
/FontName /DejaVuSans-Oblique def
/PaintType 0 def
/FontMatrix[.001 0 0 .001 0 0]def
/FontBBox[-1016 -350 1659 1068]def
/FontType 3 def
/Encoding [ /a /k /m /q /r /x ] def
/FontInfo 10 dict dup begin
/FamilyName (DejaVu Sans) def
/FullName (DejaVu Sans Oblique) def
/Notice (Copyright (c) 2003 by Bitstream, Inc. All Rights Reserved. Copyright (c) 2006 by Tavmjong Bah. All Rights Reserved. DejaVu changes are in public domain ) def
/Weight (Oblique) def
/Version (Version 2.35) def
/ItalicAngle -11.0 def
/isFixedPitch false def
/UnderlinePosition -130 def
/UnderlineThickness 90 def
end readonly def
/CharStrings 7 dict dup begin
/.notdef 0 def
/a{{613 0 41 -13 547 560 _sc
537 312 _m
476 0 _l
386 0 _l
403 83 _l
376 50 346 26 312 10 _c
278 -5 241 -13 200 -13 _c
153 -13 115 1 85 29 _c
55 57 41 93 41 138 _c
41 202 66 252 117 289 _c
168 326 238 345 328 345 _c
453 345 _l
458 369 _l
458 371 459 374 459 377 _c
459 380 460 385 460 392 _c
460 421 448 444 424 460 _c
400 476 367 484 325 484 _c
}_e{295 484 265 480 235 472 _c
204 464 172 453 140 439 _c
156 522 _l
190 534 223 544 255 550 _c
287 556 319 560 349 560 _c
413 560 462 546 496 518 _c
530 490 547 449 547 396 _c
547 385 546 372 544 358 _c
542 343 540 328 537 312 _c
440 275 _m
350 275 _l
276 275 222 265 187 245 _c
151 225 134 195 134 154 _c
134 125 143 102 161 86 _c
179 70 204 62 236 62 _c
}_e{284 62 327 79 363 114 _c
399 149 424 196 436 255 _c
440 275 _l
_cl}_e}_d
/k{579 0 35 0 612 760 _sc
183 760 _m
273 760 _l
187 317 _l
495 547 _l
612 547 _l
268 285 _l
519 0 _l
410 0 _l
177 267 _l
125 0 _l
35 0 _l
183 760 _l
_cl}_d
/m{{974 0 35 0 906 560 _sc
898 330 _m
834 0 _l
744 0 _l
807 327 _l
809 341 811 353 813 363 _c
814 373 815 381 815 389 _c
815 418 806 441 790 457 _c
774 473 751 482 722 482 _c
678 482 639 465 605 433 _c
571 400 549 357 539 305 _c
479 0 _l
389 0 _l
453 327 _l
455 339 457 350 459 360 _c
460 370 461 380 461 388 _c
461 418 452 441 436 457 _c
420 473 397 482 369 482 _c
}_e{325 482 285 465 251 433 _c
217 400 195 357 185 305 _c
125 0 _l
35 0 _l
142 547 _l
232 547 _l
215 462 _l
239 494 267 518 300 535 _c
333 551 368 560 406 560 _c
445 560 477 549 503 529 _c
529 508 544 479 550 442 _c
577 480 609 510 645 530 _c
681 550 719 560 759 560 _c
805 560 841 546 867 519 _c
893 492 906 454 906 405 _c
906 394 905 382 904 369 _c
}_e{902 356 900 343 898 330 _c
_cl}_e}_d
/q{{635 0 46 -205 597 560 _sc
417 82 _m
393 50 364 27 332 11 _c
299 -5 263 -13 223 -13 _c
167 -13 124 5 93 42 _c
61 79 46 130 46 196 _c
46 248 55 299 75 348 _c
94 397 122 441 158 481 _c
181 506 208 525 239 539 _c
269 553 301 560 335 560 _c
375 560 409 552 435 536 _c
461 520 479 496 491 464 _c
507 546 _l
597 546 _l
451 -205 _l
361 -205 _l
417 82 _l
139 209 _m
}_e{139 161 149 124 169 99 _c
189 73 219 61 257 61 _c
313 61 362 88 402 142 _c
442 196 462 262 462 340 _c
462 386 451 422 431 447 _c
410 472 380 485 342 485 _c
313 485 287 478 263 465 _c
239 451 218 432 200 407 _c
181 380 166 349 155 313 _c
144 277 139 243 139 209 _c
_cl}_e}_d
/r{411 0 35 0 463 560 _sc
446 464 _m
436 468 426 472 414 475 _c
402 477 390 479 377 479 _c
329 479 287 460 251 424 _c
215 388 192 339 180 279 _c
125 0 _l
35 0 _l
142 547 _l
232 547 _l
215 462 _l
238 493 266 517 300 534 _c
333 551 368 560 406 560 _c
415 560 424 559 434 558 _c
444 557 453 555 463 553 _c
446 464 _l
_cl}_d
/x{592 0 -25 0 600 547 _sc
600 547 _m
349 279 _l
503 0 _l
400 0 _l
284 217 _l
83 0 _l
-25 0 _l
243 288 _l
100 547 _l
203 547 _l
308 349 _l
491 547 _l
600 547 _l
_cl}_d
end readonly def

/BuildGlyph
 {exch begin
 CharStrings exch
 2 copy known not{pop /.notdef}if
 true 3 1 roll get exec
 end}_d

/BuildChar {
 1 index /Encoding get exch get
 1 index /BuildGlyph get exec
}_d

FontName currentdict end definefont pop
end
%%EndProlog
mpldict begin
115.181 262.92 translate
381.637 266.16 0 0 clipbox
gsave
0 0 m
381.6375 0 l
381.6375 266.16 l
0 266.16 l
cl
1.000 setgray
fill
grestore
gsave
36.1375 154.66 m
370.9375 154.66 l
370.9375 255.46 l
36.1375 255.46 l
cl
1.000 setgray
fill
grestore
0.800 setlinewidth
1 setlinejoin
0 setlinecap
[0.8 1.32] 0 setdash
0.690 setgray
gsave
334.8 100.8 36.14 154.7 clipbox
36.1375 154.66 m
36.1375 255.46 l
stroke
grestore
[] 0 setdash
0.000 setgray
gsave
/o {
gsave
newpath
translate
0.8 setlinewidth
1 setlinejoin
0 setlinecap
0 0 m
0 -3.5 l

gsave
0.000 setgray
fill
grestore
stroke
grestore
} bind def
36.1375 154.66 o
grestore
/DejaVuSans findfont
8.000 scalefont
setfont
gsave
33.590625 141.581875 translate
0.000000 rotate
0.000000 0.000000 m /zero glyphshow
grestore
[0.8 1.32] 0 setdash
0.690 setgray
gsave
334.8 100.8 36.14 154.7 clipbox
85.372794 154.66 m
85.372794 255.46 l
stroke
grestore
[] 0 setdash
0.000 setgray
gsave
/o {
gsave
newpath
translate
0.8 setlinewidth
1 setlinejoin
0 setlinecap
0 0 m
0 -3.5 l

gsave
0.000 setgray
fill
grestore
stroke
grestore
} bind def
85.3728 154.66 o
grestore
gsave
77.732169 141.581875 translate
0.000000 rotate
0.000000 0.000000 m /two glyphshow
5.089844 0.000000 m /zero glyphshow
10.179688 0.000000 m /zero glyphshow
grestore
[0.8 1.32] 0 setdash
0.690 setgray
gsave
334.8 100.8 36.14 154.7 clipbox
134.608088 154.66 m
134.608088 255.46 l
stroke
grestore
[] 0 setdash
0.000 setgray
gsave
/o {
gsave
newpath
translate
0.8 setlinewidth
1 setlinejoin
0 setlinecap
0 0 m
0 -3.5 l

gsave
0.000 setgray
fill
grestore
stroke
grestore
} bind def
134.608 154.66 o
grestore
gsave
126.967463 141.581875 translate
0.000000 rotate
0.000000 0.000000 m /four glyphshow
5.089844 0.000000 m /zero glyphshow
10.179688 0.000000 m /zero glyphshow
grestore
[0.8 1.32] 0 setdash
0.690 setgray
gsave
334.8 100.8 36.14 154.7 clipbox
183.843382 154.66 m
183.843382 255.46 l
stroke
grestore
[] 0 setdash
0.000 setgray
gsave
/o {
gsave
newpath
translate
0.8 setlinewidth
1 setlinejoin
0 setlinecap
0 0 m
0 -3.5 l

gsave
0.000 setgray
fill
grestore
stroke
grestore
} bind def
183.843 154.66 o
grestore
gsave
176.202757 141.581875 translate
0.000000 rotate
0.000000 0.000000 m /six glyphshow
5.089844 0.000000 m /zero glyphshow
10.179688 0.000000 m /zero glyphshow
grestore
[0.8 1.32] 0 setdash
0.690 setgray
gsave
334.8 100.8 36.14 154.7 clipbox
233.078676 154.66 m
233.078676 255.46 l
stroke
grestore
[] 0 setdash
0.000 setgray
gsave
/o {
gsave
newpath
translate
0.8 setlinewidth
1 setlinejoin
0 setlinecap
0 0 m
0 -3.5 l

gsave
0.000 setgray
fill
grestore
stroke
grestore
} bind def
233.079 154.66 o
grestore
gsave
225.438051 141.581875 translate
0.000000 rotate
0.000000 0.000000 m /eight glyphshow
5.089844 0.000000 m /zero glyphshow
10.179688 0.000000 m /zero glyphshow
grestore
[0.8 1.32] 0 setdash
0.690 setgray
gsave
334.8 100.8 36.14 154.7 clipbox
282.313971 154.66 m
282.313971 255.46 l
stroke
grestore
[] 0 setdash
0.000 setgray
gsave
/o {
gsave
newpath
translate
0.8 setlinewidth
1 setlinejoin
0 setlinecap
0 0 m
0 -3.5 l

gsave
0.000 setgray
fill
grestore
stroke
grestore
} bind def
282.314 154.66 o
grestore
gsave
272.126471 141.581875 translate
0.000000 rotate
0.000000 0.000000 m /one glyphshow
5.089844 0.000000 m /zero glyphshow
10.179688 0.000000 m /zero glyphshow
15.269531 0.000000 m /zero glyphshow
grestore
[0.8 1.32] 0 setdash
0.690 setgray
gsave
334.8 100.8 36.14 154.7 clipbox
331.549265 154.66 m
331.549265 255.46 l
stroke
grestore
[] 0 setdash
0.000 setgray
gsave
/o {
gsave
newpath
translate
0.8 setlinewidth
1 setlinejoin
0 setlinecap
0 0 m
0 -3.5 l

gsave
0.000 setgray
fill
grestore
stroke
grestore
} bind def
331.549 154.66 o
grestore
gsave
321.361765 141.581875 translate
0.000000 rotate
0.000000 0.000000 m /one glyphshow
5.089844 0.000000 m /two glyphshow
10.179688 0.000000 m /zero glyphshow
15.269531 0.000000 m /zero glyphshow
grestore
gsave
172.865625 129.831875 translate
0.000000 rotate
0.000000 0.000000 m /T glyphshow
4.886719 0.000000 m /i glyphshow
7.109375 0.000000 m /m glyphshow
14.902344 0.000000 m /e glyphshow
19.824219 0.000000 m /space glyphshow
22.367188 0.000000 m /bracketleft glyphshow
25.488281 0.000000 m /s glyphshow
29.656250 0.000000 m /e glyphshow
34.578125 0.000000 m /c glyphshow
38.976562 0.000000 m /o glyphshow
43.871094 0.000000 m /n glyphshow
48.941406 0.000000 m /d glyphshow
54.019531 0.000000 m /s glyphshow
58.187500 0.000000 m /bracketright glyphshow
grestore
[0.8 1.32] 0 setdash
0.690 setgray
gsave
334.8 100.8 36.14 154.7 clipbox
36.1375 159.241818 m
370.9375 159.241818 l
stroke
grestore
[] 0 setdash
0.000 setgray
gsave
/o {
gsave
newpath
translate
0.8 setlinewidth
1 setlinejoin
0 setlinecap
0 0 m
-3.5 0 l

gsave
0.000 setgray
fill
grestore
stroke
grestore
} bind def
36.1375 159.242 o
grestore
gsave
24.043750 156.202756 translate
0.000000 rotate
0.000000 0.000000 m /zero glyphshow
grestore
[0.8 1.32] 0 setdash
0.690 setgray
gsave
334.8 100.8 36.14 154.7 clipbox
36.1375 189.787273 m
370.9375 189.787273 l
stroke
grestore
[] 0 setdash
0.000 setgray
gsave
/o {
gsave
newpath
translate
0.8 setlinewidth
1 setlinejoin
0 setlinecap
0 0 m
-3.5 0 l

gsave
0.000 setgray
fill
grestore
stroke
grestore
} bind def
36.1375 189.787 o
grestore
gsave
18.950000 186.748210 translate
0.000000 rotate
0.000000 0.000000 m /two glyphshow
5.089844 0.000000 m /zero glyphshow
grestore
[0.8 1.32] 0 setdash
0.690 setgray
gsave
334.8 100.8 36.14 154.7 clipbox
36.1375 220.332727 m
370.9375 220.332727 l
stroke
grestore
[] 0 setdash
0.000 setgray
gsave
/o {
gsave
newpath
translate
0.8 setlinewidth
1 setlinejoin
0 setlinecap
0 0 m
-3.5 0 l

gsave
0.000 setgray
fill
grestore
stroke
grestore
} bind def
36.1375 220.333 o
grestore
gsave
18.950000 217.293665 translate
0.000000 rotate
0.000000 0.000000 m /four glyphshow
5.089844 0.000000 m /zero glyphshow
grestore
[0.8 1.32] 0 setdash
0.690 setgray
gsave
334.8 100.8 36.14 154.7 clipbox
36.1375 250.878182 m
370.9375 250.878182 l
stroke
grestore
[] 0 setdash
0.000 setgray
gsave
/o {
gsave
newpath
translate
0.8 setlinewidth
1 setlinejoin
0 setlinecap
0 0 m
-3.5 0 l

gsave
0.000 setgray
fill
grestore
stroke
grestore
} bind def
36.1375 250.878 o
grestore
gsave
18.950000 247.839119 translate
0.000000 rotate
0.000000 0.000000 m /six glyphshow
5.089844 0.000000 m /zero glyphshow
grestore
gsave
13.278125 196.810000 translate
90.000000 rotate
0.000000 0.000000 m /J glyphshow
2.359375 0.000000 m /o glyphshow
7.253906 0.000000 m /b glyphshow
12.332031 0.000000 m /s glyphshow
grestore
1.500 setlinewidth
[5.55 2.4] 0 setdash
0.502 setgray
gsave
334.8 100.8 36.14 154.7 clipbox
36.1375 250.878182 m
37.45673 250.878182 l
38.527255 250.878182 l
39.874626 250.878182 l
41.192202 250.878182 l
42.22605 250.878182 l
43.60875 250.878182 l
44.78837 250.878182 l
45.978317 250.878182 l
47.82695 250.878182 l
49.199533 250.878182 l
50.910451 250.878182 l
52.947577 250.878182 l
54.810359 250.878182 l
56.39216 250.878182 l
58.501137 250.878182 l
59.895714 250.878182 l
61.701456 250.878182 l
62.990253 250.878182 l
64.768445 250.878182 l
66.555437 250.878182 l
68.245873 250.878182 l
69.649095 250.878182 l
71.3049 250.878182 l
73.329689 250.878182 l
75.098121 250.878182 l
77.202944 250.878182 l
78.975442 250.878182 l
80.477129 250.878182 l
81.966535 250.878182 l
83.997493 250.878182 l
85.786796 250.878182 l
87.538774 250.878182 l
89.034335 250.878182 l
90.466259 250.878182 l
91.906448 250.878182 l
93.625548 250.878182 l
95.408297 250.878182 l
96.889462 250.878182 l
98.212148 250.878182 l
99.9729 250.878182 l
101.685786 250.878182 l
103.429553 250.878182 l
104.999029 250.878182 l
106.673115 250.878182 l
108.431273 250.878182 l
110.181185 250.878182 l
112.255202 250.878182 l
114.019517 250.878182 l
115.410439 250.878182 l
117.143959 250.878182 l
118.803617 250.878182 l
120.178127 250.878182 l
121.379505 250.878182 l
122.494568 250.878182 l
123.849132 250.878182 l
124.956221 250.878182 l
126.307215 250.878182 l
127.409147 250.878182 l
128.756589 250.878182 l
129.849815 250.878182 l
131.182852 250.878182 l
132.513964 250.878182 l
133.59794 250.878182 l
134.93644 250.878182 l
136.024861 250.878182 l
137.361012 250.878182 l
138.697751 250.878182 l
140.03376 250.878182 l
141.369105 250.878182 l
142.523127 250.878182 l
143.854987 250.878182 l
144.941374 250.878182 l
146.275169 250.878182 l
147.36223 250.878182 l
148.694605 250.878182 l
150.027295 250.878182 l
151.362087 250.878182 l
152.693171 250.878182 l
153.778421 250.878182 l
155.112986 250.878182 l
156.199189 250.878182 l
157.530119 250.878182 l
158.861611 250.878182 l
159.949785 250.878182 l
161.283151 250.878182 l
162.368268 250.878182 l
163.701043 250.878182 l
165.037044 250.878182 l
166.438768 250.878182 l
167.523713 250.878182 l
168.855808 250.878182 l
170.190245 250.878182 l
171.275582 250.878182 l
172.606959 250.878182 l
173.692104 250.878182 l
175.026501 250.878182 l
176.358877 250.878182 l
177.443657 250.878182 l
stroke
grestore
2 setlinecap
[] 0 setdash
0.122 0.467 0.706 setrgbcolor
gsave
334.8 100.8 36.14 154.7 clipbox
36.1375 159.241818 m
42.22605 159.241818 l
42.22605 172.987273 l
44.78837 172.987273 l
44.78837 189.787273 l
45.978317 189.787273 l
45.978317 202.005455 l
49.199533 202.005455 l
49.199533 209.641818 l
50.910451 209.641818 l
50.910451 208.114545 l
56.39216 208.114545 l
56.39216 215.750909 l
58.501137 215.750909 l
58.501137 205.06 l
59.895714 205.06 l
59.895714 212.696364 l
61.701456 212.696364 l
61.701456 203.532727 l
62.990253 203.532727 l
62.990253 200.478182 l
64.768445 200.478182 l
64.768445 195.896364 l
66.555437 195.896364 l
66.555437 192.841818 l
68.245873 192.841818 l
68.245873 206.587273 l
71.3049 206.587273 l
71.3049 205.06 l
73.329689 205.06 l
73.329689 202.005455 l
75.098121 202.005455 l
75.098121 208.114545 l
77.202944 208.114545 l
77.202944 203.532727 l
78.975442 203.532727 l
78.975442 206.587273 l
80.477129 206.587273 l
80.477129 205.06 l
81.966535 205.06 l
81.966535 198.950909 l
83.997493 198.950909 l
83.997493 197.423636 l
85.786796 197.423636 l
85.786796 200.478182 l
87.538774 200.478182 l
87.538774 202.005455 l
91.906448 202.005455 l
91.906448 208.114545 l
93.625548 208.114545 l
93.625548 211.169091 l
95.408297 211.169091 l
95.408297 206.587273 l
96.889462 206.587273 l
96.889462 200.478182 l
98.212148 200.478182 l
98.212148 192.841818 l
99.9729 192.841818 l
99.9729 203.532727 l
101.685786 203.532727 l
101.685786 195.896364 l
103.429553 195.896364 l
103.429553 203.532727 l
104.999029 203.532727 l
104.999029 208.114545 l
106.673115 208.114545 l
106.673115 211.169091 l
108.431273 211.169091 l
108.431273 209.641818 l
110.181185 209.641818 l
110.181185 202.005455 l
114.019517 202.005455 l
114.019517 194.369091 l
115.410439 194.369091 l
115.410439 189.787273 l
117.143959 189.787273 l
117.143959 202.005455 l
118.803617 202.005455 l
118.803617 195.896364 l
120.178127 195.896364 l
120.178127 197.423636 l
121.379505 197.423636 l
121.379505 189.787273 l
122.494568 189.787273 l
122.494568 185.205455 l
123.849132 185.205455 l
123.849132 182.150909 l
124.956221 182.150909 l
124.956221 180.623636 l
127.409147 180.623636 l
127.409147 168.405455 l
128.756589 168.405455 l
128.756589 159.241818 l
177.443657 159.241818 l
177.443657 159.241818 l
stroke
grestore
1.000 0.498 0.055 setrgbcolor
gsave
334.8 100.8 36.14 154.7 clipbox
36.1375 159.241818 m
41.192202 159.241818 l
41.192202 168.405455 l
42.22605 168.405455 l
42.22605 159.241818 l
43.60875 159.241818 l
43.60875 169.932727 l
44.78837 169.932727 l
44.78837 159.241818 l
47.82695 159.241818 l
47.82695 171.46 l
49.199533 171.46 l
49.199533 159.241818 l
52.947577 159.241818 l
52.947577 160.769091 l
54.810359 160.769091 l
54.810359 159.241818 l
66.555437 159.241818 l
66.555437 169.932727 l
68.245873 169.932727 l
68.245873 159.241818 l
81.966535 159.241818 l
81.966535 168.405455 l
83.997493 168.405455 l
83.997493 165.350909 l
85.786796 165.350909 l
85.786796 159.241818 l
90.466259 159.241818 l
90.466259 168.405455 l
91.906448 168.405455 l
91.906448 159.241818 l
98.212148 159.241818 l
98.212148 169.932727 l
99.9729 169.932727 l
99.9729 159.241818 l
115.410439 159.241818 l
115.410439 168.405455 l
117.143959 168.405455 l
117.143959 159.241818 l
118.803617 159.241818 l
118.803617 168.405455 l
120.178127 168.405455 l
120.178127 159.241818 l
177.443657 159.241818 l
177.443657 159.241818 l
stroke
grestore
0 setlinecap
[5.55 2.4] 0 setdash
0.502 setgray
gsave
334.8 100.8 36.14 154.7 clipbox
36.1375 220.332727 m
39.943804 220.332727 l
43.850544 220.332727 l
47.979698 220.332727 l
52.068355 220.332727 l
56.11271 220.332727 l
61.204321 220.332727 l
66.721535 220.332727 l
71.957675 220.332727 l
77.881127 220.332727 l
83.49236 220.332727 l
89.08753 220.332727 l
95.095882 220.332727 l
100.962486 220.332727 l
107.057122 220.332727 l
112.378273 220.332727 l
118.135394 220.332727 l
123.650839 220.332727 l
129.774156 220.332727 l
135.63041 220.332727 l
141.213964 220.332727 l
147.360442 220.332727 l
152.964532 220.332727 l
159.208821 220.332727 l
165.060633 220.332727 l
171.437839 220.332727 l
177.324161 220.332727 l
183.290092 220.332727 l
189.433458 220.332727 l
195.193788 220.332727 l
201.459294 220.332727 l
207.116137 220.332727 l
213.058589 220.332727 l
219.174089 220.332727 l
223.947461 220.332727 l
229.429976 220.332727 l
235.197139 220.332727 l
240.985976 220.332727 l
246.889 220.332727 l
252.810313 220.332727 l
258.968309 220.332727 l
265.287408 220.332727 l
270.979432 220.332727 l
276.903416 220.332727 l
282.761687 220.332727 l
288.450216 220.332727 l
294.624337 220.332727 l
300.539161 220.332727 l
305.525317 220.332727 l
310.98895 220.332727 l
315.362097 220.332727 l
320.183376 220.332727 l
325.315343 220.332727 l
329.751413 220.332727 l
334.746343 220.332727 l
340.053147 220.332727 l
343.960582 220.332727 l
348.057455 220.332727 l
351.785932 220.332727 l
355.491383 220.332727 l
359.229258 220.332727 l
363.223342 220.332727 l
367.095402 220.332727 l
371.08937 220.332727 l
374.995586 220.332727 l
378.801257 220.332727 l
382.607176 220.332727 l
382.6375 220.332727 l
stroke
grestore
2 setlinecap
[] 0 setdash
0.173 0.627 0.173 setrgbcolor
gsave
334.8 100.8 36.14 154.7 clipbox
36.1375 159.241818 m
39.943804 159.241818 l
39.943804 166.878182 l
43.850544 166.878182 l
43.850544 186.732727 l
47.979698 186.732727 l
47.979698 188.26 l
52.068355 188.26 l
52.068355 206.587273 l
56.11271 206.587273 l
56.11271 209.641818 l
61.204321 209.641818 l
61.204321 208.114545 l
66.721535 208.114545 l
66.721535 220.332727 l
71.957675 220.332727 l
71.957675 215.750909 l
77.881127 215.750909 l
77.881127 214.223636 l
83.49236 214.223636 l
83.49236 221.86 l
89.08753 221.86 l
89.08753 218.805455 l
95.095882 218.805455 l
95.095882 223.387273 l
100.962486 223.387273 l
100.962486 209.641818 l
107.057122 209.641818 l
107.057122 217.278182 l
112.378273 217.278182 l
112.378273 212.696364 l
118.135394 212.696364 l
118.135394 223.387273 l
123.650839 223.387273 l
123.650839 215.750909 l
129.774156 215.750909 l
129.774156 214.223636 l
135.63041 214.223636 l
135.63041 221.86 l
141.213964 221.86 l
141.213964 217.278182 l
147.360442 217.278182 l
147.360442 223.387273 l
152.964532 223.387273 l
152.964532 218.805455 l
159.208821 218.805455 l
159.208821 223.387273 l
165.060633 223.387273 l
165.060633 218.805455 l
171.437839 218.805455 l
171.437839 212.696364 l
177.324161 212.696364 l
177.324161 223.387273 l
183.290092 223.387273 l
183.290092 215.750909 l
189.433458 215.750909 l
189.433458 224.914545 l
195.193788 224.914545 l
195.193788 217.278182 l
201.459294 217.278182 l
201.459294 220.332727 l
213.058589 220.332727 l
213.058589 221.86 l
219.174089 221.86 l
219.174089 211.169091 l
223.947461 211.169091 l
223.947461 215.750909 l
235.197139 215.750909 l
235.197139 220.332727 l
246.889 220.332727 l
246.889 217.278182 l
252.810313 217.278182 l
252.810313 224.914545 l
258.968309 224.914545 l
258.968309 215.750909 l
265.287408 215.750909 l
265.287408 208.114545 l
270.979432 208.114545 l
270.979432 218.805455 l
276.903416 218.805455 l
276.903416 215.750909 l
282.761687 215.750909 l
282.761687 221.86 l
288.450216 221.86 l
288.450216 220.332727 l
294.624337 220.332727 l
294.624337 218.805455 l
300.539161 218.805455 l
300.539161 211.169091 l
310.98895 211.169091 l
310.98895 203.532727 l
315.362097 203.532727 l
315.362097 208.114545 l
320.183376 208.114545 l
320.183376 214.223636 l
325.315343 214.223636 l
325.315343 208.114545 l
329.751413 208.114545 l
329.751413 209.641818 l
334.746343 209.641818 l
334.746343 205.06 l
340.053147 205.06 l
340.053147 194.369091 l
343.960582 194.369091 l
343.960582 186.732727 l
348.057455 186.732727 l
348.057455 179.096364 l
351.785932 179.096364 l
351.785932 171.46 l
355.491383 171.46 l
355.491383 165.350909 l
359.229258 165.350909 l
359.229258 159.241818 l
382.6375 159.241818 l
382.6375 159.241818 l
stroke
grestore
0.800 setlinewidth
0 setlinejoin
[] 0 setdash
0.000 setgray
gsave
36.1375 154.66 m
36.1375 255.46 l
stroke
grestore
gsave
370.9375 154.66 m
370.9375 255.46 l
stroke
grestore
gsave
36.1375 154.66 m
370.9375 154.66 l
stroke
grestore
gsave
36.1375 255.46 m
370.9375 255.46 l
stroke
grestore
1.000 setlinewidth
0 setlinecap
0.800 setgray
gsave
269.7375 224.31 m
365.3375 224.31 l
366.404167 224.31 366.9375 224.843333 366.9375 225.91 c
366.9375 249.86 l
366.9375 250.926667 366.404167 251.46 365.3375 251.46 c
269.7375 251.46 l
268.670833 251.46 268.1375 250.926667 268.1375 249.86 c
268.1375 225.91 l
268.1375 224.843333 268.670833 224.31 269.7375 224.31 c
cl
gsave
1.000 setgray
fill
grestore
stroke
grestore
1.500 setlinewidth
1 setlinejoin
[5.55 2.4] 0 setdash
0.502 setgray
gsave
271.3375 244.981875 m
287.3375 244.981875 l
stroke
grestore
0.000 setgray
gsave
293.737500 242.181875 translate
0.000000 rotate
0.000000 0.000000 m /R glyphshow
5.558594 0.000000 m /e glyphshow
10.480469 0.000000 m /f glyphshow
13.296875 0.000000 m /e glyphshow
18.218750 0.000000 m /r glyphshow
21.507812 0.000000 m /e glyphshow
26.429688 0.000000 m /n glyphshow
31.500000 0.000000 m /c glyphshow
35.898438 0.000000 m /e glyphshow
grestore
2 setlinecap
[] 0 setdash
0.122 0.467 0.706 setrgbcolor
gsave
271.3375 232.31 m
287.3375 232.31 l
stroke
grestore
0.000 setgray
gsave
293.737500 229.510000 translate
0.000000 rotate
/DejaVuSans findfont
8.0 scalefont
setfont
0.000000 0.921875 moveto
/W glyphshow

7.910156 0.921875 moveto
/a glyphshow

12.812500 0.921875 moveto
/i glyphshow

15.035156 0.921875 moveto
/t glyphshow

18.171875 0.921875 moveto
/i glyphshow

20.394531 0.921875 moveto
/n glyphshow

25.464844 0.921875 moveto
/g glyphshow

30.542969 0.921875 moveto
/space glyphshow

33.085938 0.921875 moveto
/q glyphshow

38.164062 0.921875 moveto
/u glyphshow

43.234375 0.921875 moveto
/e glyphshow

48.156250 0.921875 moveto
/u glyphshow

53.226562 0.921875 moveto
/e glyphshow

58.148438 0.921875 moveto
/space glyphshow

/DejaVuSans-Oblique findfont
8.0 scalefont
setfont
60.691406 0.921875 moveto
/q glyphshow

/DejaVuSans-Oblique findfont
5.6 scalefont
setfont
65.769531 -0.390625 moveto
/k glyphshow


grestore
gsave
36.1375 33.7 m
370.9375 33.7 l
370.9375 134.5 l
36.1375 134.5 l
cl
1.000 setgray
fill
grestore
0.800 setlinewidth
0 setlinecap
[0.8 1.32] 0 setdash
0.690 setgray
gsave
334.8 100.8 36.14 33.7 clipbox
36.1375 33.7 m
36.1375 134.5 l
stroke
grestore
[] 0 setdash
0.000 setgray
gsave
/o {
gsave
newpath
translate
0.8 setlinewidth
1 setlinejoin
0 setlinecap
0 0 m
0 -3.5 l

gsave
0.000 setgray
fill
grestore
stroke
grestore
} bind def
36.1375 33.7 o
grestore
gsave
33.590625 20.621875 translate
0.000000 rotate
0.000000 0.000000 m /zero glyphshow
grestore
[0.8 1.32] 0 setdash
0.690 setgray
gsave
334.8 100.8 36.14 33.7 clipbox
85.372794 33.7 m
85.372794 134.5 l
stroke
grestore
[] 0 setdash
0.000 setgray
gsave
/o {
gsave
newpath
translate
0.8 setlinewidth
1 setlinejoin
0 setlinecap
0 0 m
0 -3.5 l

gsave
0.000 setgray
fill
grestore
stroke
grestore
} bind def
85.3728 33.7 o
grestore
gsave
77.732169 20.621875 translate
0.000000 rotate
0.000000 0.000000 m /two glyphshow
5.089844 0.000000 m /zero glyphshow
10.179688 0.000000 m /zero glyphshow
grestore
[0.8 1.32] 0 setdash
0.690 setgray
gsave
334.8 100.8 36.14 33.7 clipbox
134.608088 33.7 m
134.608088 134.5 l
stroke
grestore
[] 0 setdash
0.000 setgray
gsave
/o {
gsave
newpath
translate
0.8 setlinewidth
1 setlinejoin
0 setlinecap
0 0 m
0 -3.5 l

gsave
0.000 setgray
fill
grestore
stroke
grestore
} bind def
134.608 33.7 o
grestore
gsave
126.967463 20.621875 translate
0.000000 rotate
0.000000 0.000000 m /four glyphshow
5.089844 0.000000 m /zero glyphshow
10.179688 0.000000 m /zero glyphshow
grestore
[0.8 1.32] 0 setdash
0.690 setgray
gsave
334.8 100.8 36.14 33.7 clipbox
183.843382 33.7 m
183.843382 134.5 l
stroke
grestore
[] 0 setdash
0.000 setgray
gsave
/o {
gsave
newpath
translate
0.8 setlinewidth
1 setlinejoin
0 setlinecap
0 0 m
0 -3.5 l

gsave
0.000 setgray
fill
grestore
stroke
grestore
} bind def
183.843 33.7 o
grestore
gsave
176.202757 20.621875 translate
0.000000 rotate
0.000000 0.000000 m /six glyphshow
5.089844 0.000000 m /zero glyphshow
10.179688 0.000000 m /zero glyphshow
grestore
[0.8 1.32] 0 setdash
0.690 setgray
gsave
334.8 100.8 36.14 33.7 clipbox
233.078676 33.7 m
233.078676 134.5 l
stroke
grestore
[] 0 setdash
0.000 setgray
gsave
/o {
gsave
newpath
translate
0.8 setlinewidth
1 setlinejoin
0 setlinecap
0 0 m
0 -3.5 l

gsave
0.000 setgray
fill
grestore
stroke
grestore
} bind def
233.079 33.7 o
grestore
gsave
225.438051 20.621875 translate
0.000000 rotate
0.000000 0.000000 m /eight glyphshow
5.089844 0.000000 m /zero glyphshow
10.179688 0.000000 m /zero glyphshow
grestore
[0.8 1.32] 0 setdash
0.690 setgray
gsave
334.8 100.8 36.14 33.7 clipbox
282.313971 33.7 m
282.313971 134.5 l
stroke
grestore
[] 0 setdash
0.000 setgray
gsave
/o {
gsave
newpath
translate
0.8 setlinewidth
1 setlinejoin
0 setlinecap
0 0 m
0 -3.5 l

gsave
0.000 setgray
fill
grestore
stroke
grestore
} bind def
282.314 33.7 o
grestore
gsave
272.126471 20.621875 translate
0.000000 rotate
0.000000 0.000000 m /one glyphshow
5.089844 0.000000 m /zero glyphshow
10.179688 0.000000 m /zero glyphshow
15.269531 0.000000 m /zero glyphshow
grestore
[0.8 1.32] 0 setdash
0.690 setgray
gsave
334.8 100.8 36.14 33.7 clipbox
331.549265 33.7 m
331.549265 134.5 l
stroke
grestore
[] 0 setdash
0.000 setgray
gsave
/o {
gsave
newpath
translate
0.8 setlinewidth
1 setlinejoin
0 setlinecap
0 0 m
0 -3.5 l

gsave
0.000 setgray
fill
grestore
stroke
grestore
} bind def
331.549 33.7 o
grestore
gsave
321.361765 20.621875 translate
0.000000 rotate
0.000000 0.000000 m /one glyphshow
5.089844 0.000000 m /two glyphshow
10.179688 0.000000 m /zero glyphshow
15.269531 0.000000 m /zero glyphshow
grestore
gsave
172.865625 8.871875 translate
0.000000 rotate
0.000000 0.000000 m /T glyphshow
4.886719 0.000000 m /i glyphshow
7.109375 0.000000 m /m glyphshow
14.902344 0.000000 m /e glyphshow
19.824219 0.000000 m /space glyphshow
22.367188 0.000000 m /bracketleft glyphshow
25.488281 0.000000 m /s glyphshow
29.656250 0.000000 m /e glyphshow
34.578125 0.000000 m /c glyphshow
38.976562 0.000000 m /o glyphshow
43.871094 0.000000 m /n glyphshow
48.941406 0.000000 m /d glyphshow
54.019531 0.000000 m /s glyphshow
58.187500 0.000000 m /bracketright glyphshow
grestore
[0.8 1.32] 0 setdash
0.690 setgray
gsave
334.8 100.8 36.14 33.7 clipbox
36.1375 43.78 m
370.9375 43.78 l
stroke
grestore
[] 0 setdash
0.000 setgray
gsave
/o {
gsave
newpath
translate
0.8 setlinewidth
1 setlinejoin
0 setlinecap
0 0 m
-3.5 0 l

gsave
0.000 setgray
fill
grestore
stroke
grestore
} bind def
36.1375 43.78 o
grestore
gsave
24.043750 40.740938 translate
0.000000 rotate
0.000000 0.000000 m /zero glyphshow
grestore
[0.8 1.32] 0 setdash
0.690 setgray
gsave
334.8 100.8 36.14 33.7 clipbox
36.1375 63.94 m
370.9375 63.94 l
stroke
grestore
[] 0 setdash
0.000 setgray
gsave
/o {
gsave
newpath
translate
0.8 setlinewidth
1 setlinejoin
0 setlinecap
0 0 m
-3.5 0 l

gsave
0.000 setgray
fill
grestore
stroke
grestore
} bind def
36.1375 63.94 o
grestore
gsave
24.043750 60.900938 translate
0.000000 rotate
0.000000 0.000000 m /three glyphshow
grestore
[0.8 1.32] 0 setdash
0.690 setgray
gsave
334.8 100.8 36.14 33.7 clipbox
36.1375 84.1 m
370.9375 84.1 l
stroke
grestore
[] 0 setdash
0.000 setgray
gsave
/o {
gsave
newpath
translate
0.8 setlinewidth
1 setlinejoin
0 setlinecap
0 0 m
-3.5 0 l

gsave
0.000 setgray
fill
grestore
stroke
grestore
} bind def
36.1375 84.1 o
grestore
gsave
24.043750 81.060938 translate
0.000000 rotate
0.000000 0.000000 m /six glyphshow
grestore
[0.8 1.32] 0 setdash
0.690 setgray
gsave
334.8 100.8 36.14 33.7 clipbox
36.1375 104.26 m
370.9375 104.26 l
stroke
grestore
[] 0 setdash
0.000 setgray
gsave
/o {
gsave
newpath
translate
0.8 setlinewidth
1 setlinejoin
0 setlinecap
0 0 m
-3.5 0 l

gsave
0.000 setgray
fill
grestore
stroke
grestore
} bind def
36.1375 104.26 o
grestore
gsave
24.043750 101.220938 translate
0.000000 rotate
0.000000 0.000000 m /nine glyphshow
grestore
[0.8 1.32] 0 setdash
0.690 setgray
gsave
334.8 100.8 36.14 33.7 clipbox
36.1375 124.42 m
370.9375 124.42 l
stroke
grestore
[] 0 setdash
0.000 setgray
gsave
/o {
gsave
newpath
translate
0.8 setlinewidth
1 setlinejoin
0 setlinecap
0 0 m
-3.5 0 l

gsave
0.000 setgray
fill
grestore
stroke
grestore
} bind def
36.1375 124.42 o
grestore
gsave
18.950000 121.380938 translate
0.000000 rotate
0.000000 0.000000 m /one glyphshow
5.089844 0.000000 m /two glyphshow
grestore
gsave
13.278125 63.389063 translate
90.000000 rotate
0.000000 0.000000 m /R glyphshow
5.558594 0.000000 m /e glyphshow
10.480469 0.000000 m /s glyphshow
14.648438 0.000000 m /o glyphshow
19.542969 0.000000 m /u glyphshow
24.613281 0.000000 m /r glyphshow
27.902344 0.000000 m /c glyphshow
32.300781 0.000000 m /e glyphshow
37.222656 0.000000 m /s glyphshow
grestore
1.500 setlinewidth
[5.55 2.4] 0 setdash
0.502 setgray
gsave
334.8 100.8 36.14 33.7 clipbox
36.1375 70.66 m
37.45673 70.66 l
38.527255 70.66 l
39.874626 70.66 l
41.192202 70.66 l
42.22605 70.66 l
43.60875 70.66 l
44.78837 70.66 l
45.978317 70.66 l
47.82695 70.66 l
49.199533 70.66 l
50.910451 70.66 l
52.947577 70.66 l
54.810359 70.66 l
56.39216 70.66 l
58.501137 70.66 l
59.895714 70.66 l
61.701456 70.66 l
62.990253 70.66 l
64.768445 70.66 l
66.555437 70.66 l
68.245873 70.66 l
69.649095 70.66 l
71.3049 70.66 l
73.329689 70.66 l
75.098121 70.66 l
77.202944 70.66 l
78.975442 70.66 l
80.477129 70.66 l
81.966535 70.66 l
83.997493 70.66 l
85.786796 70.66 l
87.538774 70.66 l
89.034335 70.66 l
90.466259 70.66 l
91.906448 70.66 l
93.625548 70.66 l
95.408297 70.66 l
96.889462 70.66 l
98.212148 70.66 l
99.9729 70.66 l
101.685786 70.66 l
103.429553 70.66 l
104.999029 70.66 l
106.673115 70.66 l
108.431273 70.66 l
110.181185 70.66 l
112.255202 70.66 l
114.019517 70.66 l
115.410439 70.66 l
117.143959 70.66 l
118.803617 70.66 l
120.178127 70.66 l
121.379505 70.66 l
122.494568 70.66 l
123.849132 70.66 l
124.956221 70.66 l
126.307215 70.66 l
127.409147 70.66 l
128.756589 70.66 l
129.849815 70.66 l
131.182852 70.66 l
132.513964 70.66 l
133.59794 70.66 l
134.93644 70.66 l
136.024861 70.66 l
137.361012 70.66 l
138.697751 70.66 l
140.03376 70.66 l
141.369105 70.66 l
142.523127 70.66 l
143.854987 70.66 l
144.941374 70.66 l
146.275169 70.66 l
147.36223 70.66 l
148.694605 70.66 l
150.027295 70.66 l
151.362087 70.66 l
152.693171 70.66 l
153.778421 70.66 l
155.112986 70.66 l
156.199189 70.66 l
157.530119 70.66 l
158.861611 70.66 l
159.949785 70.66 l
161.283151 70.66 l
162.368268 70.66 l
163.701043 70.66 l
165.037044 70.66 l
166.438768 70.66 l
167.523713 70.66 l
168.855808 70.66 l
170.190245 70.66 l
171.275582 70.66 l
172.606959 70.66 l
173.692104 70.66 l
175.026501 70.66 l
176.358877 70.66 l
177.443657 70.66 l
stroke
grestore
2 setlinecap
[] 0 setdash
0.173 0.627 0.173 setrgbcolor
gsave
334.8 100.8 36.14 33.7 clipbox
36.1375 44.29744 m
39.874626 44.22352 l
39.874626 44.1496 l
43.60875 44.07568 l
43.60875 49.39792 l
44.78837 49.39792 l
44.78837 54.42448 l
45.978317 54.42448 l
45.978317 57.15952 l
47.82695 57.15952 l
47.82695 59.00752 l
49.199533 59.00752 l
49.199533 61.44688 l
50.910451 61.44688 l
50.910451 58.71184 l
52.947577 58.71184 l
52.947577 59.89456 l
54.810359 59.89456 l
54.810359 62.77744 l
56.39216 62.77744 l
56.39216 63.66448 l
58.501137 63.66448 l
58.501137 62.03824 l
59.895714 62.03824 l
59.895714 62.77744 l
61.701456 62.77744 l
61.701456 61.29904 l
62.990253 61.29904 l
62.990253 59.89456 l
64.768445 59.89456 l
64.768445 64.77328 l
66.555437 64.77328 l
66.555437 63.14704 l
68.245873 63.14704 l
68.245873 67.50832 l
69.649095 67.50832 l
69.649095 67.73008 l
71.3049 67.73008 l
71.3049 68.76496 l
73.329689 68.76496 l
73.329689 64.92112 l
75.098121 64.92112 l
75.098121 67.36048 l
77.202944 67.36048 l
77.202944 65.51248 l
78.975442 65.51248 l
78.975442 67.36048 l
80.477129 67.36048 l
80.477129 68.98672 l
81.966535 68.98672 l
81.966535 65.14288 l
83.997493 65.14288 l
83.997493 65.80816 l
85.786796 65.80816 l
85.786796 64.03408 l
87.538774 64.03408 l
87.538774 67.804 l
89.034335 67.804 l
89.034335 67.65616 l
90.466259 67.65616 l
90.466259 65.73424 l
91.906448 65.73424 l
91.906448 67.65616 l
93.625548 67.65616 l
93.625548 68.69104 l
95.408297 68.69104 l
95.408297 66.6952 l
96.889462 66.6952 l
96.889462 64.92112 l
98.212148 64.92112 l
98.212148 61.66864 l
99.9729 61.66864 l
99.9729 66.10384 l
101.685786 66.10384 l
101.685786 70.66 l
103.429553 70.66 l
103.429553 69.652 l
104.999029 69.652 l
104.999029 68.1736 l
106.673115 68.1736 l
106.673115 68.9128 l
108.431273 68.9128 l
108.431273 68.39536 l
110.181185 68.39536 l
110.181185 67.804 l
112.255202 67.804 l
112.255202 68.9128 l
114.019517 68.9128 l
114.019517 70.24336 l
115.410439 70.24336 l
115.410439 66.17776 l
117.143959 66.17776 l
117.143959 69.06064 l
118.803617 69.06064 l
118.803617 70.61296 l
122.494568 70.66 l
122.494568 67.13872 l
124.956221 67.13872 l
124.956221 65.29072 l
126.307215 65.29072 l
126.307215 63.59056 l
127.409147 63.59056 l
127.409147 61.96432 l
128.756589 61.96432 l
128.756589 60.55984 l
129.849815 60.55984 l
129.849815 59.15536 l
131.182852 59.15536 l
131.182852 56.78992 l
133.59794 56.78992 l
133.59794 55.75504 l
134.93644 55.75504 l
134.93644 55.9768 l
136.024861 55.9768 l
136.024861 55.01584 l
137.361012 55.01584 l
137.361012 53.31568 l
138.697751 53.31568 l
138.697751 52.50256 l
140.03376 52.50256 l
140.03376 51.83728 l
141.369105 51.83728 l
141.369105 51.172 l
142.523127 51.172 l
142.523127 52.35472 l
143.854987 52.35472 l
143.854987 51.68944 l
144.941374 51.68944 l
144.941374 51.02416 l
147.36223 51.02416 l
147.36223 50.4328 l
148.694605 50.4328 l
148.694605 49.91536 l
150.027295 49.91536 l
150.027295 49.39792 l
151.362087 49.39792 l
151.362087 48.9544 l
152.693171 48.9544 l
152.693171 48.5848 l
153.778421 48.5848 l
153.778421 48.14128 l
155.112986 48.14128 l
155.112986 47.8456 l
156.199189 47.8456 l
156.199189 47.476 l
157.530119 47.476 l
157.530119 47.18032 l
158.861611 47.18032 l
158.861611 46.88464 l
159.949785 46.88464 l
159.949785 46.66288 l
161.283151 46.66288 l
161.283151 46.44112 l
162.368268 46.44112 l
162.368268 46.21936 l
163.701043 46.21936 l
163.701043 45.9976 l
165.037044 45.9976 l
165.037044 45.84976 l
166.438768 45.84976 l
166.438768 45.70192 l
167.523713 45.70192 l
167.523713 45.55408 l
168.855808 45.55408 l
168.855808 45.9976 l
170.190245 45.9976 l
170.190245 45.77584 l
171.275582 45.77584 l
171.275582 45.628 l
172.606959 45.628 l
172.606959 50.21104 l
173.692104 50.21104 l
173.692104 49.6936 l
175.026501 49.6936 l
175.026501 49.25008 l
176.358877 49.25008 l
176.358877 49.39792 l
177.443657 49.39792 l
177.443657 49.39792 l
stroke
grestore
0.839 0.153 0.157 setrgbcolor
gsave
334.8 100.8 36.14 33.7 clipbox
36.1375 44.217853 m
36.1375 44.097339 l
37.45673 44.097339 l
37.45673 43.913855 l
38.527255 43.913855 l
38.527255 44.075618 l
42.22605 44.1534 l
42.22605 44.202369 l
44.78837 44.189785 l
44.78837 43.988955 l
45.978317 43.988955 l
45.978317 44.193862 l
47.82695 44.193862 l
47.82695 43.99889 l
49.199533 43.99889 l
49.199533 44.3246 l
50.910451 44.3246 l
50.910451 44.192097 l
54.810359 44.252481 l
54.810359 44.039962 l
59.895714 44.027352 l
59.895714 43.82955 l
61.701456 43.82955 l
61.701456 44.213725 l
62.990253 44.213725 l
62.990253 43.859305 l
64.768445 43.859305 l
64.768445 44.145323 l
66.555437 44.145323 l
66.555437 43.868363 l
68.245873 43.868363 l
68.245873 44.184608 l
69.649095 44.184608 l
69.649095 43.871218 l
71.3049 43.871218 l
71.3049 44.118265 l
73.329689 44.118265 l
73.329689 43.795108 l
75.098121 43.795108 l
75.098121 44.128766 l
77.202944 44.128766 l
77.202944 44.407023 l
78.975442 44.407023 l
78.975442 44.283334 l
81.966535 44.301462 l
81.966535 43.794175 l
83.997493 43.794175 l
83.997493 44.032445 l
85.786796 44.032445 l
85.786796 44.41507 l
87.538774 44.41507 l
87.538774 43.921105 l
91.906448 43.945564 l
91.906448 44.301495 l
93.625548 44.301495 l
93.625548 44.158523 l
95.408297 44.158523 l
95.408297 44.434294 l
98.212148 44.427929 l
98.212148 44.310774 l
99.9729 44.310774 l
99.9729 44.020965 l
101.685786 44.020965 l
101.685786 44.401074 l
103.429553 44.401074 l
103.429553 43.949301 l
104.999029 43.949301 l
104.999029 44.210264 l
106.673115 44.210264 l
106.673115 43.795408 l
108.431273 43.795408 l
108.431273 44.039839 l
110.181185 44.039839 l
110.181185 44.370346 l
112.255202 44.370346 l
112.255202 43.88128 l
114.019517 43.88128 l
114.019517 44.402572 l
115.410439 44.402572 l
115.410439 43.870569 l
117.143959 43.870569 l
117.143959 44.382604 l
118.803617 44.382604 l
118.803617 44.071151 l
120.178127 44.071151 l
120.178127 44.417613 l
121.379505 44.417613 l
121.379505 44.100443 l
123.849132 44.008552 l
123.849132 44.280681 l
124.956221 44.280681 l
124.956221 44.032149 l
126.307215 44.032149 l
126.307215 44.21822 l
129.849815 44.229434 l
129.849815 43.889716 l
131.182852 43.889716 l
131.182852 44.405304 l
132.513964 44.405304 l
132.513964 43.921798 l
138.697751 43.962711 l
138.697751 44.308602 l
142.523127 44.410045 l
142.523127 43.840094 l
143.854987 43.840094 l
143.854987 43.960903 l
144.941374 43.960903 l
144.941374 43.816702 l
147.36223 43.795424 l
147.36223 44.378212 l
148.694605 44.378212 l
148.694605 44.123541 l
150.027295 44.123541 l
150.027295 44.43066 l
152.693171 44.324337 l
152.693171 44.277935 l
155.112986 44.280706 l
155.112986 44.423792 l
156.199189 44.423792 l
156.199189 44.071328 l
157.530119 44.071328 l
157.530119 43.801453 l
158.861611 43.801453 l
158.861611 44.134195 l
159.949785 44.134195 l
159.949785 43.840219 l
162.368268 43.789981 l
162.368268 44.280604 l
163.701043 44.280604 l
163.701043 44.422656 l
165.037044 44.422656 l
165.037044 43.80424 l
166.438768 43.80424 l
166.438768 44.012965 l
167.523713 44.012965 l
167.523713 44.28397 l
168.855808 44.28397 l
168.855808 44.004221 l
171.275582 43.910462 l
171.275582 43.88184 l
172.606959 43.88184 l
172.606959 44.035043 l
173.692104 44.035043 l
173.692104 44.430434 l
175.026501 44.430434 l
175.026501 44.058136 l
176.358877 44.058136 l
176.358877 44.236768 l
177.443657 44.236768 l
177.443657 44.236768 l
stroke
grestore
0 setlinecap
[5.55 2.4] 0 setdash
0.502 setgray
gsave
334.8 100.8 36.14 33.7 clipbox
36.137532 124.42 m
39.94382 124.42 l
43.85057 124.42 l
47.979716 124.42 l
52.068396 124.42 l
56.112767 124.42 l
61.204343 124.42 l
66.721619 124.42 l
71.95776 124.42 l
77.881146 124.42 l
83.49238 124.42 l
89.087602 124.42 l
95.095911 124.42 l
100.962588 124.42 l
107.05714 124.42 l
112.378327 124.42 l
118.135433 124.42 l
123.650899 124.42 l
129.774184 124.42 l
135.630507 124.42 l
141.21401 124.42 l
147.360466 124.42 l
152.964556 124.42 l
159.208866 124.42 l
165.060685 124.42 l
171.437902 124.42 l
177.324188 124.42 l
183.290122 124.42 l
189.433517 124.42 l
195.193881 124.42 l
201.459316 124.42 l
207.116157 124.42 l
213.058645 124.42 l
219.175324 124.42 l
223.947484 124.42 l
229.430065 124.42 l
235.197164 124.42 l
240.986005 124.42 l
246.889092 124.42 l
252.810332 124.42 l
258.968389 124.42 l
265.287434 124.42 l
270.979454 124.42 l
276.903497 124.42 l
282.761775 124.42 l
288.450239 124.42 l
294.624362 124.42 l
300.539183 124.42 l
305.525343 124.42 l
310.988971 124.42 l
315.36212 124.42 l
320.183396 124.42 l
325.315367 124.42 l
329.751431 124.42 l
334.746437 124.42 l
340.05317 124.42 l
343.960604 124.42 l
348.057478 124.42 l
351.785954 124.42 l
355.491407 124.42 l
359.229283 124.42 l
363.22337 124.42 l
367.095431 124.42 l
371.089383 124.42 l
374.995602 124.42 l
378.801273 124.42 l
382.607192 124.42 l
382.6375 124.42 l
stroke
grestore
2 setlinecap
[] 0 setdash
0.580 0.404 0.741 setrgbcolor
gsave
334.8 100.8 36.14 33.7 clipbox
36.137532 43.78 m
39.94382 43.78 l
39.94382 124.42 l
56.112767 124.42 l
56.112767 63.94 l
61.204343 63.94 l
61.204343 124.42 l
66.721619 124.42 l
66.721619 97.54 l
71.95776 97.54 l
71.95776 124.42 l
83.49238 124.42 l
83.49238 117.7 l
89.087602 117.7 l
89.087602 124.42 l
95.095911 124.42 l
95.095911 110.98 l
100.962588 110.98 l
100.962588 117.7 l
107.05714 117.7 l
107.05714 110.98 l
112.378327 110.98 l
112.378327 124.42 l
118.135433 124.42 l
118.135433 84.1 l
123.650899 84.1 l
123.650899 124.42 l
129.774184 124.42 l
129.774184 117.7 l
141.21401 117.7 l
141.21401 110.98 l
147.360466 110.98 l
147.360466 84.1 l
152.964556 84.1 l
152.964556 117.7 l
159.208866 117.7 l
159.208866 84.1 l
165.060685 84.1 l
165.060685 110.98 l
171.437902 110.98 l
171.437902 117.7 l
177.324188 117.7 l
177.324188 97.54 l
183.290122 97.54 l
183.290122 117.7 l
189.433517 117.7 l
189.433517 97.54 l
195.193881 97.54 l
195.193881 117.7 l
201.459316 117.7 l
201.459316 97.54 l
207.116157 97.54 l
207.116157 117.7 l
213.058645 117.7 l
213.058645 90.82 l
219.175324 90.82 l
219.175324 117.7 l
223.947484 117.7 l
223.947484 90.82 l
229.430065 90.82 l
229.430065 124.42 l
235.197164 124.42 l
235.197164 90.82 l
240.986005 90.82 l
240.986005 124.42 l
252.810332 124.42 l
252.810332 104.26 l
258.968389 104.26 l
258.968389 124.42 l
265.287434 124.42 l
265.287434 110.98 l
270.979454 110.98 l
270.979454 124.42 l
276.903497 124.42 l
276.903497 110.98 l
294.624362 110.98 l
294.624362 124.42 l
300.539183 124.42 l
300.539183 110.98 l
310.988971 110.98 l
310.988971 117.7 l
315.36212 117.7 l
315.36212 104.26 l
320.183396 104.26 l
320.183396 117.7 l
325.315367 117.7 l
325.315367 110.98 l
329.751431 110.98 l
329.751431 117.7 l
334.746437 117.7 l
334.746437 110.98 l
340.05317 110.98 l
340.05317 117.7 l
343.960604 117.7 l
343.960604 124.42 l
348.057478 124.42 l
348.057478 110.98 l
351.785954 110.98 l
351.785954 124.42 l
355.491407 124.42 l
355.491407 110.98 l
363.22337 110.98 l
363.22337 70.66 l
367.095431 70.66 l
367.095431 43.78 l
382.6375 43.78 l
382.6375 43.78 l
stroke
grestore
0.800 setlinewidth
0 setlinejoin
[] 0 setdash
0.000 setgray
gsave
36.1375 33.7 m
36.1375 134.5 l
stroke
grestore
gsave
370.9375 33.7 m
370.9375 134.5 l
stroke
grestore
gsave
36.1375 33.7 m
370.9375 33.7 l
stroke
grestore
gsave
36.1375 134.5 m
370.9375 134.5 l
stroke
grestore
1.000 setlinewidth
0 setlinecap
0.800 setgray
gsave
239.7375 37.7 m
365.3375 37.7 l
366.404167 37.7 366.9375 38.233333 366.9375 39.3 c
366.9375 64.5 l
366.9375 65.566667 366.404167 66.1 365.3375 66.1 c
239.7375 66.1 l
238.670833 66.1 238.1375 65.566667 238.1375 64.5 c
238.1375 39.3 l
238.1375 38.233333 238.670833 37.7 239.7375 37.7 c
cl
gsave
1.000 setgray
fill
grestore
stroke
grestore
1.500 setlinewidth
1 setlinejoin
[5.55 2.4] 0 setdash
0.502 setgray
gsave
241.3375 58.7 m
257.3375 58.7 l
stroke
grestore
0.000 setgray
gsave
263.737500 55.900000 translate
0.000000 rotate
/DejaVuSans findfont
8.0 scalefont
setfont
0.000000 0.921875 moveto
/M glyphshow

6.902344 0.921875 moveto
/a glyphshow

11.804688 0.921875 moveto
/x glyphshow

16.539062 0.921875 moveto
/i glyphshow

18.761719 0.921875 moveto
/m glyphshow

26.554688 0.921875 moveto
/u glyphshow

31.625000 0.921875 moveto
/m glyphshow

39.417969 0.921875 moveto
/space glyphshow

41.960938 0.921875 moveto
/r glyphshow

45.250000 0.921875 moveto
/e glyphshow

50.171875 0.921875 moveto
/s glyphshow

54.339844 0.921875 moveto
/o glyphshow

59.234375 0.921875 moveto
/u glyphshow

64.304688 0.921875 moveto
/r glyphshow

67.593750 0.921875 moveto
/c glyphshow

71.992188 0.921875 moveto
/e glyphshow

76.914062 0.921875 moveto
/s glyphshow

81.082031 0.921875 moveto
/space glyphshow

/DejaVuSans-Oblique findfont
8.0 scalefont
setfont
83.625000 0.921875 moveto
/r glyphshow

/DejaVuSans-Oblique findfont
5.6 scalefont
setfont
86.914062 -0.390625 moveto
/m glyphshow

92.369141 -0.390625 moveto
/a glyphshow

95.800781 -0.390625 moveto
/x glyphshow


grestore
2 setlinecap
[] 0 setdash
0.122 0.467 0.706 setrgbcolor
gsave
241.3375 45.7 m
257.3375 45.7 l
stroke
grestore
0.000 setgray
gsave
263.737500 42.900000 translate
0.000000 rotate
/DejaVuSans findfont
8.0 scalefont
setfont
0.000000 0.921875 moveto
/U glyphshow

5.855469 0.921875 moveto
/s glyphshow

10.023438 0.921875 moveto
/e glyphshow

14.945312 0.921875 moveto
/d glyphshow

20.023438 0.921875 moveto
/space glyphshow

22.566406 0.921875 moveto
/r glyphshow

25.855469 0.921875 moveto
/e glyphshow

30.777344 0.921875 moveto
/s glyphshow

34.945312 0.921875 moveto
/o glyphshow

39.839844 0.921875 moveto
/u glyphshow

44.910156 0.921875 moveto
/r glyphshow

48.199219 0.921875 moveto
/c glyphshow

52.597656 0.921875 moveto
/e glyphshow

57.519531 0.921875 moveto
/s glyphshow

61.687500 0.921875 moveto
/space glyphshow

/DejaVuSans-Oblique findfont
8.0 scalefont
setfont
64.230469 0.921875 moveto
/r glyphshow

/DejaVuSans-Oblique findfont
5.6 scalefont
setfont
67.519531 -0.390625 moveto
/k glyphshow


grestore

end
showpage
