Waiting;0;1525943742.90957;cluster_1
Running;0;1525943742.90957;cluster_1
Stress;0.02;1525943742.90957;cluster_1
Waiting;0;1525943747.432472;cluster_1
Running;0;1525943747.432472;cluster_1
Stress;0.02;1525943747.432472;cluster_1
Waiting;0;1525943747.731999;cluster_0
Running;0;1525943747.731999;cluster_0
Stress;0.0;1525943747.731999;cluster_0
Waiting;0;1525943752.4704182;cluster_0
Running;0;1525943752.4704182;cluster_0
Stress;0.0;1525943752.4704182;cluster_0
Waiting;0;1525943752.9579835;cluster_1
Running;0;1525943752.9579835;cluster_1
Stress;0.09;1525943752.9579835;cluster_1
Waiting;0;1525943757.4677033;cluster_1
Running;0;1525943757.4677033;cluster_1
Stress;0.09;1525943757.4677033;cluster_1
Waiting;0;1525943757.8152297;cluster_0
Running;0;1525943757.8152297;cluster_0
Stress;0.0;1525943757.8152297;cluster_0
Waiting;0;1525943762.13479;cluster_0
Running;0;1525943762.13479;cluster_0
Stress;0.0;1525943762.13479;cluster_0
Action;30;1525943762.13479;cluster_0
Waiting;0;1525943762.9824052;cluster_1
Running;0;1525943762.9824052;cluster_1
Stress;0.08;1525943762.9824052;cluster_1
Waiting;0;1525943768.495784;cluster_1
Running;0;1525943768.495784;cluster_1
Stress;0.07;1525943768.495784;cluster_1
Waiting;30;1525943767.7805693;cluster_0
Running;0;1525943767.7805693;cluster_0
Stress;0.0;1525943767.7805693;cluster_0
Waiting;0;1525943773.0029037;cluster_1
Running;0;1525943773.0029037;cluster_1
Stress;0.07;1525943773.0029037;cluster_1
Waiting;21;1525943772.5203395;cluster_0
Running;7;1525943772.5203395;cluster_0
Stress;0.0;1525943772.5203395;cluster_0
Waiting;0;1525943778.5239253;cluster_1
Running;0;1525943778.5239253;cluster_1
Stress;0.06;1525943778.5239253;cluster_1
Waiting;0;1525943777.3231156;cluster_0
Running;30;1525943777.3231156;cluster_0
Stress;0.0;1525943777.3231156;cluster_0
Waiting;0;1525943783.0327787;cluster_1
Running;0;1525943783.0327787;cluster_1
Stress;2.3;1525943783.0327787;cluster_1
Waiting;0;1525943782.1171815;cluster_0
Running;30;1525943782.1171815;cluster_0
Stress;0.0;1525943782.1171815;cluster_0
Waiting;0;1525943788.5374708;cluster_1
Running;0;1525943788.5374708;cluster_1
Stress;3.96;1525943788.5374708;cluster_1
Waiting;0;1525943787.1178281;cluster_0
Running;30;1525943787.1178281;cluster_0
Stress;0.0;1525943787.1178281;cluster_0
Waiting;0;1525943792.1794288;cluster_0
Running;30;1525943792.1794288;cluster_0
Stress;0.0;1525943792.1794288;cluster_0
Waiting;0;1525943793.9991307;cluster_1
Running;0;1525943793.9991307;cluster_1
Stress;4.92;1525943793.9991307;cluster_1
Waiting;0;1525943799.5166;cluster_1
Running;0;1525943799.5166;cluster_1
Stress;4.53;1525943799.5166;cluster_1
Waiting;0;1525943797.943315;cluster_0
Running;30;1525943797.943315;cluster_0
Stress;0.0;1525943797.943315;cluster_0
Waiting;0;1525943804.0255244;cluster_1
Running;0;1525943804.0255244;cluster_1
Stress;4.16;1525943804.0255244;cluster_1
Waiting;0;1525943803.988368;cluster_0
Running;30;1525943803.988368;cluster_0
Stress;0.0;1525943803.988368;cluster_0
Waiting;0;1525943809.5477738;cluster_1
Running;0;1525943809.5477738;cluster_1
Stress;3.83;1525943809.5477738;cluster_1
Waiting;0;1525943809.0065014;cluster_0
Running;30;1525943809.0065014;cluster_0
Stress;0.0;1525943809.0065014;cluster_0
Waiting;0;1525943814.059938;cluster_1
Running;0;1525943814.059938;cluster_1
Stress;3.52;1525943814.059938;cluster_1
Waiting;0;1525943814.7454734;cluster_0
Running;30;1525943814.7454734;cluster_0
Stress;0.0;1525943814.7454734;cluster_0
Waiting;0;1525943819.5621545;cluster_1
Running;0;1525943819.5621545;cluster_1
Stress;3.24;1525943819.5621545;cluster_1
Waiting;0;1525943819.7695253;cluster_0
Running;30;1525943819.7695253;cluster_0
Stress;0.0;1525943819.7695253;cluster_0
Waiting;0;1525943824.0814426;cluster_1
Running;0;1525943824.0814426;cluster_1
Stress;2.98;1525943824.0814426;cluster_1
Waiting;0;1525943824.5293527;cluster_0
Running;30;1525943824.5293527;cluster_0
Stress;0.0;1525943824.5293527;cluster_0
Waiting;0;1525943829.5946927;cluster_1
Running;0;1525943829.5946927;cluster_1
Stress;2.74;1525943829.5946927;cluster_1
Waiting;0;1525943829.2802823;cluster_0
Running;30;1525943829.2802823;cluster_0
Stress;0.0;1525943829.2802823;cluster_0
Waiting;0;1525943834.0991085;cluster_1
Running;0;1525943834.0991085;cluster_1
Stress;2.52;1525943834.0991085;cluster_1
Waiting;0;1525943834.3525262;cluster_0
Running;29;1525943834.3525262;cluster_0
Stress;0.0;1525943834.3525262;cluster_0
Waiting;0;1525943839.6226947;cluster_1
Running;0;1525943839.6226947;cluster_1
Stress;2.32;1525943839.6226947;cluster_1
Waiting;0;1525943839.2415159;cluster_0
Running;27;1525943839.2415159;cluster_0
Stress;0.0;1525943839.2415159;cluster_0
Waiting;0;1525943844.1401973;cluster_1
Running;0;1525943844.1401973;cluster_1
Stress;2.21;1525943844.1401973;cluster_1
Waiting;0;1525943844.9753046;cluster_0
Running;19;1525943844.9753046;cluster_0
Stress;0.0;1525943844.9753046;cluster_0
Waiting;0;1525943849.6405416;cluster_1
Running;0;1525943849.6405416;cluster_1
Stress;2.04;1525943849.6405416;cluster_1
Waiting;0;1525943850.9392314;cluster_0
Running;8;1525943850.9392314;cluster_0
Stress;0.0;1525943850.9392314;cluster_0
Waiting;0;1525943854.154075;cluster_1
Running;0;1525943854.154075;cluster_1
Stress;1.95;1525943854.154075;cluster_1
Waiting;0;1525943856.262314;cluster_0
Running;0;1525943856.262314;cluster_0
Stress;0.0;1525943856.262314;cluster_0
Waiting;0;1525943859.6596487;cluster_1
Running;0;1525943859.6596487;cluster_1
Stress;1.8;1525943859.6596487;cluster_1
Waiting;0;1525943861.1529615;cluster_0
Running;0;1525943861.1529615;cluster_0
Stress;0.0;1525943861.1529615;cluster_0
Waiting;0;1525943864.1656787;cluster_1
Running;0;1525943864.1656787;cluster_1
Stress;1.59;1525943864.1656787;cluster_1
Waiting;0;1525943866.4491522;cluster_0
Running;0;1525943866.4491522;cluster_0
Stress;0.0;1525943866.4491522;cluster_0
Waiting;0;1525943869.9552894;cluster_1
Running;0;1525943869.9552894;cluster_1
Stress;1.47;1525943869.9552894;cluster_1
Waiting;0;1525943871.7551992;cluster_0
Running;0;1525943871.7551992;cluster_0
Stress;0.0;1525943871.7551992;cluster_0
Waiting;0;1525943874.472134;cluster_1
Running;0;1525943874.472134;cluster_1
Stress;1.47;1525943874.472134;cluster_1
Waiting;0;1525943876.0521295;cluster_0
Running;0;1525943876.0521295;cluster_0
Stress;0.0;1525943876.0521295;cluster_0
Waiting;0;1525943879.9852633;cluster_1
Running;0;1525943879.9852633;cluster_1
Stress;1.24;1525943879.9852633;cluster_1
Waiting;0;1525943881.3493993;cluster_0
Running;0;1525943881.3493993;cluster_0
Stress;0.0;1525943881.3493993;cluster_0
Waiting;0;1525943885.4907522;cluster_1
Running;0;1525943885.4907522;cluster_1
Stress;1.14;1525943885.4907522;cluster_1
Waiting;0;1525943886.6540377;cluster_0
Running;0;1525943886.6540377;cluster_0
Stress;0.0;1525943886.6540377;cluster_0
Waiting;0;1525943890.0043807;cluster_1
Running;0;1525943890.0043807;cluster_1
Stress;1.05;1525943890.0043807;cluster_1
Waiting;0;1525943891.9551616;cluster_0
Running;0;1525943891.9551616;cluster_0
Stress;0.0;1525943891.9551616;cluster_0
Waiting;0;1525943895.5064313;cluster_1
Running;0;1525943895.5064313;cluster_1
Stress;0.96;1525943895.5064313;cluster_1
Waiting;0;1525943897.2501547;cluster_0
Running;0;1525943897.2501547;cluster_0
Stress;0.0;1525943897.2501547;cluster_0
Waiting;0;1525943900.0121334;cluster_1
Running;0;1525943900.0121334;cluster_1
Stress;0.89;1525943900.0121334;cluster_1
Waiting;0;1525943902.5457227;cluster_0
Running;0;1525943902.5457227;cluster_0
Stress;0.0;1525943902.5457227;cluster_0
Waiting;0;1525943905.5347254;cluster_1
Running;0;1525943905.5347254;cluster_1
Stress;0.82;1525943905.5347254;cluster_1
Waiting;0;1525943907.8563895;cluster_0
Running;0;1525943907.8563895;cluster_0
Stress;0.0;1525943907.8563895;cluster_0
Waiting;0;1525943910.0508745;cluster_1
Running;0;1525943910.0508745;cluster_1
Stress;0.75;1525943910.0508745;cluster_1
Waiting;0;1525943912.1635387;cluster_0
Running;0;1525943912.1635387;cluster_0
Stress;0.0;1525943912.1635387;cluster_0
Waiting;0;1525943915.5546315;cluster_1
Running;0;1525943915.5546315;cluster_1
Stress;0.69;1525943915.5546315;cluster_1
Waiting;0;1525943917.4587371;cluster_0
Running;0;1525943917.4587371;cluster_0
Stress;0.0;1525943917.4587371;cluster_0
Waiting;0;1525943920.0553536;cluster_1
Running;0;1525943920.0553536;cluster_1
Stress;0.63;1525943920.0553536;cluster_1
Waiting;0;1525943922.7698615;cluster_0
Running;0;1525943922.7698615;cluster_0
Stress;0.0;1525943922.7698615;cluster_0
Waiting;0;1525943925.5630827;cluster_1
Running;0;1525943925.5630827;cluster_1
Stress;0.58;1525943925.5630827;cluster_1
Waiting;0;1525943927.0978143;cluster_0
Running;0;1525943927.0978143;cluster_0
Stress;0.0;1525943927.0978143;cluster_0
Waiting;0;1525943930.0707192;cluster_1
Running;0;1525943930.0707192;cluster_1
Stress;0.54;1525943930.0707192;cluster_1
Waiting;0;1525943932.672943;cluster_0
Running;0;1525943932.672943;cluster_0
Stress;0.0;1525943932.672943;cluster_0
Waiting;0;1525943935.5873413;cluster_1
Running;0;1525943935.5873413;cluster_1
Stress;0.49;1525943935.5873413;cluster_1
Waiting;0;1525943937.98393;cluster_0
Running;0;1525943937.98393;cluster_0
Stress;0.0;1525943937.98393;cluster_0
Waiting;0;1525943940.3755918;cluster_1
Running;0;1525943940.3755918;cluster_1
Stress;0.45;1525943940.3755918;cluster_1
Waiting;0;1525943943.2891114;cluster_0
Running;0;1525943943.2891114;cluster_0
Stress;0.0;1525943943.2891114;cluster_0
Waiting;0;1525943945.8744822;cluster_1
Running;0;1525943945.8744822;cluster_1
Stress;0.5;1525943945.8744822;cluster_1
Waiting;0;1525943948.583641;cluster_0
Running;0;1525943948.583641;cluster_0
Stress;0.0;1525943948.583641;cluster_0
Action;40;1525943948.583641;cluster_0
Waiting;0;1525943950.3884568;cluster_1
Running;0;1525943950.3884568;cluster_1
Stress;0.46;1525943950.3884568;cluster_1
Waiting;0;1525943955.9034083;cluster_1
Running;0;1525943955.9034083;cluster_1
Stress;2.74;1525943955.9034083;cluster_1
Waiting;10;1525943953.4849977;cluster_0
Running;30;1525943953.4849977;cluster_0
Stress;0.0;1525943953.4849977;cluster_0
Action;20;1525943953.4849977;cluster_0
Waiting;0;1525943960.4147832;cluster_1
Running;0;1525943960.4147832;cluster_1
Stress;4.85;1525943960.4147832;cluster_1
Waiting;0;1525943959.0359478;cluster_0
Running;60;1525943959.0359478;cluster_0
Stress;0.0;1525943959.0359478;cluster_0
Waiting;0;1525943965.9406123;cluster_1
Running;0;1525943965.9406123;cluster_1
Stress;9.02;1525943965.9406123;cluster_1
Waiting;0;1525943964.5176792;cluster_0
Running;60;1525943964.5176792;cluster_0
Stress;0.0;1525943964.5176792;cluster_0
Waiting;0;1525943970.4615762;cluster_1
Running;0;1525943970.4615762;cluster_1
Stress;12.87;1525943970.4615762;cluster_1
Waiting;0;1525943969.95606;cluster_0
Running;60;1525943969.95606;cluster_0
Stress;0.0;1525943969.95606;cluster_0
Waiting;0;1525943975.9668255;cluster_1
Running;0;1525943975.9668255;cluster_1
Stress;16.4;1525943975.9668255;cluster_1
Waiting;0;1525943975.773113;cluster_0
Running;60;1525943975.773113;cluster_0
Stress;0.0;1525943975.773113;cluster_0
Waiting;0;1525943980.471877;cluster_1
Running;0;1525943980.471877;cluster_1
Stress;19.65;1525943980.471877;cluster_1
Waiting;0;1525943980.1687832;cluster_0
Running;60;1525943980.1687832;cluster_0
Stress;0.0;1525943980.1687832;cluster_0
Waiting;0;1525943985.976179;cluster_1
Running;0;1525943985.976179;cluster_1
Stress;22.56;1525943985.976179;cluster_1
Waiting;0;1525943985.6755548;cluster_0
Running;60;1525943985.6755548;cluster_0
Stress;0.0;1525943985.6755548;cluster_0
Waiting;0;1525943991.488637;cluster_1
Running;0;1525943991.488637;cluster_1
Stress;25.08;1525943991.488637;cluster_1
Waiting;0;1525943990.110507;cluster_0
Running;60;1525943990.110507;cluster_0
Stress;0.0;1525943990.110507;cluster_0
Waiting;0;1525943996.0057902;cluster_1
Running;0;1525943996.0057902;cluster_1
Stress;27.08;1525943996.0057902;cluster_1
Waiting;0;1525943995.8172207;cluster_0
Running;60;1525943995.8172207;cluster_0
Stress;0.0;1525943995.8172207;cluster_0
Waiting;0;1525944001.5338638;cluster_1
Running;0;1525944001.5338638;cluster_1
Stress;28.75;1525944001.5338638;cluster_1
Waiting;0;1525944000.2872593;cluster_0
Running;60;1525944000.2872593;cluster_0
Stress;0.0;1525944000.2872593;cluster_0
Waiting;0;1525944006.0550666;cluster_1
Running;0;1525944006.0550666;cluster_1
Stress;30.13;1525944006.0550666;cluster_1
Waiting;0;1525944005.7672656;cluster_0
Running;60;1525944005.7672656;cluster_0
Stress;0.0;1525944005.7672656;cluster_0
Waiting;0;1525944011.592513;cluster_1
Running;0;1525944011.592513;cluster_1
Stress;30.76;1525944011.592513;cluster_1
Waiting;0;1525944010.2181265;cluster_0
Running;59;1525944010.2181265;cluster_0
Stress;0.0;1525944010.2181265;cluster_0
Waiting;0;1525944016.106904;cluster_1
Running;0;1525944016.106904;cluster_1
Stress;28.38;1525944016.106904;cluster_1
Waiting;0;1525944015.957263;cluster_0
Running;59;1525944015.957263;cluster_0
Stress;0.0;1525944015.957263;cluster_0
Waiting;0;1525944021.6089642;cluster_1
Running;0;1525944021.6089642;cluster_1
Stress;26.19;1525944021.6089642;cluster_1
Waiting;0;1525944021.40412;cluster_0
Running;57;1525944021.40412;cluster_0
Stress;0.0;1525944021.40412;cluster_0
Waiting;0;1525944026.1230679;cluster_1
Running;0;1525944026.1230679;cluster_1
Stress;24.09;1525944026.1230679;cluster_1
Waiting;0;1525944026.828849;cluster_0
Running;57;1525944026.828849;cluster_0
Stress;0.0;1525944026.828849;cluster_0
Waiting;0;1525944031.6312604;cluster_1
Running;0;1525944031.6312604;cluster_1
Stress;22.16;1525944031.6312604;cluster_1
Waiting;0;1525944031.9372554;cluster_0
Running;57;1525944031.9372554;cluster_0
Stress;0.0;1525944031.9372554;cluster_0
Waiting;0;1525944036.1625028;cluster_1
Running;0;1525944036.1625028;cluster_1
Stress;20.39;1525944036.1625028;cluster_1
Waiting;0;1525944041.6755207;cluster_1
Running;0;1525944041.6755207;cluster_1
Stress;18.75;1525944041.6755207;cluster_1
Waiting;0;1525944037.281506;cluster_0
Running;56;1525944037.281506;cluster_0
Stress;0.0;1525944037.281506;cluster_0
Waiting;0;1525944046.1819463;cluster_1
Running;0;1525944046.1819463;cluster_1
Stress;17.25;1525944046.1819463;cluster_1
Waiting;0;1525944042.858597;cluster_0
Running;55;1525944042.858597;cluster_0
Stress;0.0;1525944042.858597;cluster_0
Waiting;0;1525944051.692869;cluster_1
Running;0;1525944051.692869;cluster_1
Stress;15.87;1525944051.692869;cluster_1
Waiting;0;1525944048.2353075;cluster_0
Running;54;1525944048.2353075;cluster_0
Stress;0.0;1525944048.2353075;cluster_0
Waiting;0;1525944056.2065797;cluster_1
Running;0;1525944056.2065797;cluster_1
Stress;14.6;1525944056.2065797;cluster_1
Waiting;0;1525944053.49972;cluster_0
Running;50;1525944053.49972;cluster_0
Stress;0.0;1525944053.49972;cluster_0
Waiting;0;1525944061.7271407;cluster_1
Running;0;1525944061.7271407;cluster_1
Stress;13.43;1525944061.7271407;cluster_1
Waiting;0;1525944058.6067848;cluster_0
Running;48;1525944058.6067848;cluster_0
Stress;0.0;1525944058.6067848;cluster_0
Waiting;0;1525944066.2484279;cluster_1
Running;0;1525944066.2484279;cluster_1
Stress;12.35;1525944066.2484279;cluster_1
Waiting;0;1525944063.7122893;cluster_0
Running;44;1525944063.7122893;cluster_0
Stress;0.0;1525944063.7122893;cluster_0
Waiting;0;1525944071.757088;cluster_1
Running;0;1525944071.757088;cluster_1
Stress;11.36;1525944071.757088;cluster_1
Waiting;0;1525944068.6409883;cluster_0
Running;31;1525944068.6409883;cluster_0
Stress;0.0;1525944068.6409883;cluster_0
Waiting;0;1525944076.277583;cluster_1
Running;0;1525944076.277583;cluster_1
Waiting;0;1525944073.3853583;cluster_0
Running;0;1525944073.3853583;cluster_0
Stress;0.0;1525944073.3853583;cluster_0
Stress;10.45;1525944076.277583;cluster_1
Waiting;0;1525944078.895305;cluster_0
Running;0;1525944078.895305;cluster_0
Stress;0.0;1525944078.895305;cluster_0
Waiting;0;1525944081.0634887;cluster_1
Running;0;1525944081.0634887;cluster_1
Stress;9.62;1525944081.0634887;cluster_1
Waiting;0;1525944083.3955657;cluster_0
Running;0;1525944083.3955657;cluster_0
Stress;0.0;1525944083.3955657;cluster_0
Waiting;0;1525944086.5716267;cluster_1
Running;0;1525944086.5716267;cluster_1
Stress;8.85;1525944086.5716267;cluster_1
Waiting;0;1525944088.696865;cluster_0
Running;0;1525944088.696865;cluster_0
Stress;0.0;1525944088.696865;cluster_0
Waiting;0;1525944091.0871518;cluster_1
Running;0;1525944091.0871518;cluster_1
Stress;8.14;1525944091.0871518;cluster_1
Waiting;0;1525944093.9971108;cluster_0
Running;0;1525944093.9971108;cluster_0
Stress;0.0;1525944093.9971108;cluster_0
Waiting;0;1525944096.6007707;cluster_1
Running;0;1525944096.6007707;cluster_1
Stress;7.49;1525944096.6007707;cluster_1
Waiting;0;1525944099.3077092;cluster_0
Running;0;1525944099.3077092;cluster_0
Stress;0.0;1525944099.3077092;cluster_0
Waiting;0;1525944101.1245272;cluster_1
Running;0;1525944101.1245272;cluster_1
Stress;6.89;1525944101.1245272;cluster_1
Waiting;0;1525944104.6125538;cluster_0
Running;0;1525944104.6125538;cluster_0
Stress;0.0;1525944104.6125538;cluster_0
Waiting;0;1525944106.6395757;cluster_1
Running;0;1525944106.6395757;cluster_1
Stress;6.33;1525944106.6395757;cluster_1
Waiting;0;1525944109.9509833;cluster_0
Running;0;1525944109.9509833;cluster_0
Stress;0.0;1525944109.9509833;cluster_0
Waiting;0;1525944111.1477516;cluster_1
Running;0;1525944111.1477516;cluster_1
Stress;5.83;1525944111.1477516;cluster_1
Waiting;0;1525944115.280078;cluster_0
Running;0;1525944115.280078;cluster_0
Stress;0.0;1525944115.280078;cluster_0
Waiting;0;1525944116.6555226;cluster_1
Running;0;1525944116.6555226;cluster_1
Stress;5.36;1525944116.6555226;cluster_1
Waiting;0;1525944120.579287;cluster_0
Running;0;1525944120.579287;cluster_0
Stress;0.0;1525944120.579287;cluster_0
Waiting;0;1525944121.1713946;cluster_1
Running;0;1525944121.1713946;cluster_1
Stress;5.01;1525944121.1713946;cluster_1
Waiting;0;1525944125.878026;cluster_0
Running;0;1525944125.878026;cluster_0
Stress;0.0;1525944125.878026;cluster_0
Waiting;0;1525944126.6834831;cluster_1
Running;0;1525944126.6834831;cluster_1
Stress;4.61;1525944126.6834831;cluster_1
Waiting;0;1525944130.1969934;cluster_0
Running;0;1525944130.1969934;cluster_0
Stress;0.0;1525944130.1969934;cluster_0
Waiting;0;1525944131.2128093;cluster_1
Running;0;1525944131.2128093;cluster_1
Stress;4.24;1525944131.2128093;cluster_1
Waiting;0;1525944135.4966626;cluster_0
Running;0;1525944135.4966626;cluster_0
Stress;0.0;1525944135.4966626;cluster_0
Waiting;0;1525944136.7271645;cluster_1
Running;0;1525944136.7271645;cluster_1
Stress;3.9;1525944136.7271645;cluster_1
Waiting;0;1525944140.7939818;cluster_0
Running;0;1525944140.7939818;cluster_0
Stress;0.0;1525944140.7939818;cluster_0
Waiting;0;1525944141.2311888;cluster_1
Running;0;1525944141.2311888;cluster_1
Stress;3.59;1525944141.2311888;cluster_1
Waiting;0;1525944145.1060762;cluster_0
Running;0;1525944145.1060762;cluster_0
Stress;0.0;1525944145.1060762;cluster_0
Waiting;0;1525944146.735992;cluster_1
Running;0;1525944146.735992;cluster_1
Stress;0.0;1525944146.735992;cluster_1
Waiting;0;1525944150.4046996;cluster_0
Running;0;1525944150.4046996;cluster_0
Stress;0.0;1525944150.4046996;cluster_0
Waiting;0;1525944151.3677776;cluster_1
Running;0;1525944151.3677776;cluster_1
Stress;3.04;1525944151.3677776;cluster_1
Waiting;0;1525944155.7099543;cluster_0
Running;0;1525944155.7099543;cluster_0
Stress;0.0;1525944155.7099543;cluster_0
Waiting;0;1525944156.8924341;cluster_1
Running;0;1525944156.8924341;cluster_1
Stress;2.79;1525944156.8924341;cluster_1
Waiting;0;1525944160.0189743;cluster_0
Running;0;1525944160.0189743;cluster_0
Stress;0.0;1525944160.0189743;cluster_0
Waiting;0;1525944161.4046073;cluster_1
Running;0;1525944161.4046073;cluster_1
Stress;2.57;1525944161.4046073;cluster_1
Waiting;0;1525944165.3288805;cluster_0
Running;0;1525944165.3288805;cluster_0
Stress;0.0;1525944165.3288805;cluster_0
Waiting;0;1525944166.9154356;cluster_1
Running;0;1525944166.9154356;cluster_1
Stress;2.36;1525944166.9154356;cluster_1
Waiting;0;1525944170.6269968;cluster_0
Running;0;1525944170.6269968;cluster_0
Stress;0.0;1525944170.6269968;cluster_0
Waiting;0;1525944171.4192379;cluster_1
Running;0;1525944171.4192379;cluster_1
Stress;2.17;1525944171.4192379;cluster_1
Waiting;0;1525944175.9265819;cluster_0
Running;0;1525944175.9265819;cluster_0
Stress;0.0;1525944175.9265819;cluster_0
Waiting;0;1525944176.936043;cluster_1
Running;0;1525944176.936043;cluster_1
Stress;2.0;1525944176.936043;cluster_1
Waiting;0;1525944181.4440753;cluster_1
Running;0;1525944181.4440753;cluster_1
Stress;1.84;1525944181.4440753;cluster_1
Waiting;0;1525944181.2428517;cluster_0
Running;0;1525944181.2428517;cluster_0
Stress;0.0;1525944181.2428517;cluster_0
Waiting;0;1525944186.8236048;cluster_0
Running;0;1525944186.8236048;cluster_0
Stress;0.0;1525944186.8236048;cluster_0
Waiting;0;1525944186.9602015;cluster_1
Running;0;1525944186.9602015;cluster_1
Stress;1.69;1525944186.9602015;cluster_1
Waiting;0;1525944191.1247847;cluster_0
Running;0;1525944191.1247847;cluster_0
Stress;0.0;1525944191.1247847;cluster_0
Waiting;0;1525944191.4794211;cluster_1
Running;0;1525944191.4794211;cluster_1
Stress;1.56;1525944191.4794211;cluster_1
Waiting;0;1525944196.4451654;cluster_0
Running;0;1525944196.4451654;cluster_0
Stress;0.0;1525944196.4451654;cluster_0
Waiting;0;1525944196.9889612;cluster_1
Running;0;1525944196.9889612;cluster_1
Stress;1.43;1525944196.9889612;cluster_1
Waiting;0;1525944201.745729;cluster_0
Running;0;1525944201.745729;cluster_0
Stress;0.0;1525944201.745729;cluster_0
Waiting;0;1525944202.4955654;cluster_1
Running;0;1525944202.4955654;cluster_1
Stress;1.32;1525944202.4955654;cluster_1
Waiting;0;1525944206.042014;cluster_0
Running;0;1525944206.042014;cluster_0
Stress;0.0;1525944206.042014;cluster_0
Waiting;0;1525944207.0036328;cluster_1
Running;0;1525944207.0036328;cluster_1
Stress;1.21;1525944207.0036328;cluster_1
Waiting;0;1525944211.3521006;cluster_0
Running;0;1525944211.3521006;cluster_0
Stress;0.0;1525944211.3521006;cluster_0
Waiting;0;1525944212.5074773;cluster_1
Running;0;1525944212.5074773;cluster_1
Stress;1.11;1525944212.5074773;cluster_1
Waiting;0;1525944216.6493185;cluster_0
Running;0;1525944216.6493185;cluster_0
Stress;0.0;1525944216.6493185;cluster_0
Waiting;0;1525944217.0162082;cluster_1
Running;0;1525944217.0162082;cluster_1
Stress;0.0;1525944217.0162082;cluster_1
Waiting;0;1525944221.9524016;cluster_0
Running;0;1525944221.9524016;cluster_0
Stress;0.0;1525944221.9524016;cluster_0
Waiting;0;1525944222.672708;cluster_1
Running;0;1525944222.672708;cluster_1
Stress;0.94;1525944222.672708;cluster_1
Waiting;0;1525944227.2116435;cluster_1
Running;0;1525944227.2116435;cluster_1
Waiting;0;1525944227.262569;cluster_0
Running;0;1525944227.262569;cluster_0
Stress;0.87;1525944227.2116435;cluster_1
Stress;0.0;1525944227.262569;cluster_0
Waiting;0;1525944232.5682068;cluster_0
Running;0;1525944232.5682068;cluster_0
Stress;0.0;1525944232.5682068;cluster_0
Waiting;0;1525944232.7268739;cluster_1
Running;0;1525944232.7268739;cluster_1
Stress;0.8;1525944232.7268739;cluster_1
Waiting;0;1525944237.2323558;cluster_1
Running;0;1525944237.2323558;cluster_1
Stress;0.73;1525944237.2323558;cluster_1
Waiting;0;1525944237.8662205;cluster_0
Running;0;1525944237.8662205;cluster_0
Stress;0.0;1525944237.8662205;cluster_0
Waiting;0;1525944242.1774583;cluster_0
Running;0;1525944242.1774583;cluster_0
Stress;0.0;1525944242.1774583;cluster_0
Waiting;0;1525944242.7387578;cluster_1
Running;0;1525944242.7387578;cluster_1
Stress;0.67;1525944242.7387578;cluster_1
Waiting;0;1525944247.2401896;cluster_1
Running;0;1525944247.2401896;cluster_1
Stress;0.62;1525944247.2401896;cluster_1
Waiting;0;1525944247.4776592;cluster_0
Running;0;1525944247.4776592;cluster_0
Stress;0.0;1525944247.4776592;cluster_0
Waiting;0;1525944252.771679;cluster_1
Running;0;1525944252.771679;cluster_1
Stress;0.57;1525944252.771679;cluster_1
Waiting;0;1525944252.7964957;cluster_0
Running;0;1525944252.7964957;cluster_0
Stress;0.0;1525944252.7964957;cluster_0
Waiting;0;1525944257.2768557;cluster_1
Running;0;1525944257.2768557;cluster_1
Stress;0.52;1525944257.2768557;cluster_1
Waiting;0;1525944257.3766963;cluster_0
Running;0;1525944257.3766963;cluster_0
Stress;0.0;1525944257.3766963;cluster_0
Waiting;0;1525944262.787728;cluster_1
Running;0;1525944262.787728;cluster_1
Waiting;0;1525944262.6979172;cluster_0
Running;0;1525944262.6979172;cluster_0
Stress;0.0;1525944262.6979172;cluster_0
Stress;0.48;1525944262.787728;cluster_1
Waiting;0;1525944267.0076933;cluster_0
Running;0;1525944267.0076933;cluster_0
Stress;0.0;1525944267.0076933;cluster_0
Waiting;0;1525944267.30022;cluster_1
Running;0;1525944267.30022;cluster_1
Stress;0.44;1525944267.30022;cluster_1
Waiting;0;1525944272.3038943;cluster_0
Running;0;1525944272.3038943;cluster_0
Stress;0.0;1525944272.3038943;cluster_0
Waiting;0;1525944272.8117156;cluster_1
Running;0;1525944272.8117156;cluster_1
Stress;0.41;1525944272.8117156;cluster_1
Waiting;0;1525944277.319832;cluster_1
Running;0;1525944277.319832;cluster_1
Stress;0.37;1525944277.319832;cluster_1
Waiting;0;1525944277.6151764;cluster_0
Running;0;1525944277.6151764;cluster_0
Stress;0.0;1525944277.6151764;cluster_0
Waiting;0;1525944282.8345804;cluster_1
Running;0;1525944282.8345804;cluster_1
Stress;0.34;1525944282.8345804;cluster_1
Waiting;0;1525944282.9214284;cluster_0
Running;0;1525944282.9214284;cluster_0
Stress;0.0;1525944282.9214284;cluster_0
Waiting;0;1525944287.3666565;cluster_1
Running;0;1525944287.3666565;cluster_1
Stress;0.32;1525944287.3666565;cluster_1
Waiting;0;1525944288.2218425;cluster_0
Running;0;1525944288.2218425;cluster_0
Stress;0.0;1525944288.2218425;cluster_0
Waiting;0;1525944292.876488;cluster_1
Running;0;1525944292.876488;cluster_1
Stress;0.29;1525944292.876488;cluster_1
Waiting;0;1525944293.5425844;cluster_0
Running;0;1525944293.5425844;cluster_0
Stress;0.0;1525944293.5425844;cluster_0
Waiting;0;1525944297.4043155;cluster_1
Running;0;1525944297.4043155;cluster_1
Stress;0.27;1525944297.4043155;cluster_1
Waiting;0;1525944298.8418303;cluster_0
Running;0;1525944298.8418303;cluster_0
Stress;0.0;1525944298.8418303;cluster_0
Waiting;0;1525944302.9162;cluster_1
Running;0;1525944302.9162;cluster_1
Stress;0.25;1525944302.9162;cluster_1
Waiting;0;1525944303.1453955;cluster_0
Running;0;1525944303.1453955;cluster_0
Stress;0.0;1525944303.1453955;cluster_0
Waiting;0;1525944307.4306767;cluster_1
Running;0;1525944307.4306767;cluster_1
Stress;0.23;1525944307.4306767;cluster_1
Waiting;0;1525944308.459687;cluster_0
Running;0;1525944308.459687;cluster_0
Stress;0.0;1525944308.459687;cluster_0
Waiting;0;1525944312.9322543;cluster_1
Running;0;1525944312.9322543;cluster_1
Stress;0.21;1525944312.9322543;cluster_1
Waiting;0;1525944313.759619;cluster_0
Running;0;1525944313.759619;cluster_0
Stress;0.0;1525944313.759619;cluster_0
Waiting;0;1525944317.454714;cluster_1
Running;0;1525944317.454714;cluster_1
Stress;0.19;1525944317.454714;cluster_1
Waiting;0;1525944318.0566857;cluster_0
Running;0;1525944318.0566857;cluster_0
Stress;0.0;1525944318.0566857;cluster_0
Waiting;0;1525944322.9747431;cluster_1
Running;0;1525944322.9747431;cluster_1
Stress;0.17;1525944322.9747431;cluster_1
Waiting;0;1525944323.374837;cluster_0
Running;0;1525944323.374837;cluster_0
Stress;0.0;1525944323.374837;cluster_0
Waiting;0;1525944327.4811811;cluster_1
Running;0;1525944327.4811811;cluster_1
Stress;0.24;1525944327.4811811;cluster_1
Waiting;0;1525944328.9599667;cluster_0
Running;0;1525944328.9599667;cluster_0
Stress;0.0;1525944328.9599667;cluster_0
Waiting;0;1525944332.9945738;cluster_1
Running;0;1525944332.9945738;cluster_1
Stress;0.22;1525944332.9945738;cluster_1
Waiting;0;1525944334.2657096;cluster_0
Running;0;1525944334.2657096;cluster_0
Stress;0.0;1525944334.2657096;cluster_0
Waiting;0;1525944338.5003228;cluster_1
Running;0;1525944338.5003228;cluster_1
Stress;0.2;1525944338.5003228;cluster_1
Waiting;0;1525944339.5630999;cluster_0
Running;0;1525944339.5630999;cluster_0
Stress;0.0;1525944339.5630999;cluster_0
Waiting;0;1525944343.012017;cluster_1
Running;0;1525944343.012017;cluster_1
Stress;0.19;1525944343.012017;cluster_1
Waiting;0;1525944344.8941376;cluster_0
Running;0;1525944344.8941376;cluster_0
Stress;0.0;1525944344.8941376;cluster_0
Waiting;0;1525944348.5184488;cluster_1
Running;0;1525944348.5184488;cluster_1
Stress;0.17;1525944348.5184488;cluster_1
Waiting;0;1525944349.2012088;cluster_0
Running;0;1525944349.2012088;cluster_0
Stress;0.0;1525944349.2012088;cluster_0
Waiting;0;1525944353.0369852;cluster_1
Running;0;1525944353.0369852;cluster_1
Stress;0.16;1525944353.0369852;cluster_1
Waiting;0;1525944354.4985468;cluster_0
Running;0;1525944354.4985468;cluster_0
Stress;0.0;1525944354.4985468;cluster_0
Waiting;0;1525944358.5549202;cluster_1
Running;0;1525944358.5549202;cluster_1
Stress;0.14;1525944358.5549202;cluster_1
Waiting;0;1525944359.8097522;cluster_0
Running;0;1525944359.8097522;cluster_0
Stress;0.0;1525944359.8097522;cluster_0
Waiting;0;1525944363.070135;cluster_1
Running;0;1525944363.070135;cluster_1
Stress;0.13;1525944363.070135;cluster_1
Waiting;0;1525944364.107453;cluster_0
Running;0;1525944364.107453;cluster_0
Stress;0.0;1525944364.107453;cluster_0
Waiting;0;1525944368.856252;cluster_1
Running;0;1525944368.856252;cluster_1
Stress;0.12;1525944368.856252;cluster_1
Waiting;0;1525944369.4055133;cluster_0
Running;0;1525944369.4055133;cluster_0
Stress;0.0;1525944369.4055133;cluster_0
Waiting;0;1525944373.3641984;cluster_1
Running;0;1525944373.3641984;cluster_1
Stress;0.11;1525944373.3641984;cluster_1
Waiting;0;1525944374.7194812;cluster_0
Running;0;1525944374.7194812;cluster_0
Stress;0.0;1525944374.7194812;cluster_0
Waiting;0;1525944378.880297;cluster_1
Running;0;1525944378.880297;cluster_1
Stress;0.1;1525944378.880297;cluster_1
Waiting;0;1525944379.0212433;cluster_0
Running;0;1525944379.0212433;cluster_0
Stress;0.0;1525944379.0212433;cluster_0
Waiting;0;1525944383.3929424;cluster_1
Running;0;1525944383.3929424;cluster_1
Stress;0.09;1525944383.3929424;cluster_1
Waiting;0;1525944384.3193965;cluster_0
Running;0;1525944384.3193965;cluster_0
Stress;0.0;1525944384.3193965;cluster_0
Waiting;0;1525944388.9028213;cluster_1
Running;0;1525944388.9028213;cluster_1
Stress;0.09;1525944388.9028213;cluster_1
Waiting;0;1525944389.6310096;cluster_0
Running;0;1525944389.6310096;cluster_0
Stress;0.0;1525944389.6310096;cluster_0
Waiting;0;1525944393.4118044;cluster_1
Running;0;1525944393.4118044;cluster_1
Stress;0.08;1525944393.4118044;cluster_1
Waiting;0;1525944394.9304411;cluster_0
Running;0;1525944394.9304411;cluster_0
Stress;0.0;1525944394.9304411;cluster_0
Waiting;0;1525944398.920929;cluster_1
Running;0;1525944398.920929;cluster_1
Stress;0.07;1525944398.920929;cluster_1
Waiting;0;1525944400.2281344;cluster_0
Running;0;1525944400.2281344;cluster_0
Stress;0.0;1525944400.2281344;cluster_0
Waiting;0;1525944403.4278038;cluster_1
Running;0;1525944403.4278038;cluster_1
Stress;0.07;1525944403.4278038;cluster_1
