Stress;0.09;1525941541.4169152;cluster_1
Waiting;0;1525941541.9203494;cluster_0
Running;0;1525941541.9203494;cluster_0
Stress;0.0;1525941541.9203494;cluster_0
Waiting;0;1525941546.247074;cluster_1
Running;0;1525941546.247074;cluster_1
Stress;0.08;1525941546.247074;cluster_1
Waiting;0;1525941547.209097;cluster_0
Running;0;1525941547.209097;cluster_0
Stress;0.0;1525941547.209097;cluster_0
Waiting;0;1525941551.7598734;cluster_1
Running;0;1525941551.7598734;cluster_1
Stress;0.07;1525941551.7598734;cluster_1
Waiting;0;1525941552.8911557;cluster_0
Running;0;1525941552.8911557;cluster_0
Stress;0.0;1525941552.8911557;cluster_0
Waiting;0;1525941556.2658896;cluster_1
Running;0;1525941556.2658896;cluster_1
Stress;0.07;1525941556.2658896;cluster_1
Waiting;0;1525941557.2078269;cluster_0
Running;0;1525941557.2078269;cluster_0
Stress;0.0;1525941557.2078269;cluster_0
Action;30;1525941557.2078269;cluster_0
Waiting;0;1525941561.7802484;cluster_1
Running;0;1525941561.7802484;cluster_1
Stress;0.06;1525941561.7802484;cluster_1
Waiting;0;1525941562.1173663;cluster_0
Running;28;1525941562.1173663;cluster_0
Stress;0.0;1525941562.1173663;cluster_0
Waiting;0;1525941566.2925882;cluster_1
Running;0;1525941566.2925882;cluster_1
Stress;1.34;1525941566.2925882;cluster_1
Waiting;0;1525941567.9962974;cluster_0
Running;30;1525941567.9962974;cluster_0
Stress;0.0;1525941567.9962974;cluster_0
Waiting;0;1525941571.8061361;cluster_1
Running;0;1525941571.8061361;cluster_1
Stress;3.31;1525941571.8061361;cluster_1
Waiting;0;1525941573.016093;cluster_0
Running;30;1525941573.016093;cluster_0
Stress;0.0;1525941573.016093;cluster_0
Waiting;0;1525941576.3194132;cluster_1
Running;0;1525941576.3194132;cluster_1
Stress;4.89;1525941576.3194132;cluster_1
Waiting;0;1525941578.865524;cluster_0
Running;30;1525941578.865524;cluster_0
Stress;0.0;1525941578.865524;cluster_0
Waiting;0;1525941581.8362143;cluster_1
Running;0;1525941581.8362143;cluster_1
Stress;4.9;1525941581.8362143;cluster_1
Waiting;0;1525941586.3511517;cluster_1
Running;0;1525941586.3511517;cluster_1
Waiting;0;1525941583.5863037;cluster_0
Running;30;1525941583.5863037;cluster_0
Stress;0.0;1525941583.5863037;cluster_0
Stress;4.51;1525941586.3511517;cluster_1
Waiting;0;1525941588.552375;cluster_0
Running;30;1525941588.552375;cluster_0
Stress;0.0;1525941588.552375;cluster_0
Waiting;0;1525941591.8599627;cluster_1
Running;0;1525941591.8599627;cluster_1
Stress;4.15;1525941591.8599627;cluster_1
Waiting;0;1525941593.3415844;cluster_0
Running;30;1525941593.3415844;cluster_0
Stress;0.0;1525941593.3415844;cluster_0
Waiting;0;1525941596.386761;cluster_1
Running;0;1525941596.386761;cluster_1
Stress;3.81;1525941596.386761;cluster_1
Waiting;0;1525941598.3106725;cluster_0
Running;30;1525941598.3106725;cluster_0
Stress;0.0;1525941598.3106725;cluster_0
Waiting;0;1525941601.8934927;cluster_1
Running;0;1525941601.8934927;cluster_1
Stress;3.51;1525941601.8934927;cluster_1
Waiting;0;1525941603.3614686;cluster_0
Running;30;1525941603.3614686;cluster_0
Stress;0.0;1525941603.3614686;cluster_0
Waiting;0;1525941606.414817;cluster_1
Running;0;1525941606.414817;cluster_1
Stress;3.23;1525941606.414817;cluster_1
Waiting;0;1525941608.0473156;cluster_0
Running;30;1525941608.0473156;cluster_0
Stress;0.0;1525941608.0473156;cluster_0
Waiting;0;1525941611.9316432;cluster_1
Running;0;1525941611.9316432;cluster_1
Stress;2.81;1525941611.9316432;cluster_1
Waiting;0;1525941613.0224771;cluster_0
Running;30;1525941613.0224771;cluster_0
Stress;0.0;1525941613.0224771;cluster_0
Waiting;0;1525941616.7243981;cluster_1
Running;0;1525941616.7243981;cluster_1
Stress;2.81;1525941616.7243981;cluster_1
Waiting;0;1525941618.02015;cluster_0
Running;30;1525941618.02015;cluster_0
Stress;0.0;1525941618.02015;cluster_0
Waiting;0;1525941621.2345946;cluster_1
Running;0;1525941621.2345946;cluster_1
Stress;2.58;1525941621.2345946;cluster_1
Waiting;0;1525941623.7287707;cluster_0
Running;27;1525941623.7287707;cluster_0
Stress;0.0;1525941623.7287707;cluster_0
Waiting;0;1525941626.7431405;cluster_1
Running;0;1525941626.7431405;cluster_1
Stress;2.38;1525941626.7431405;cluster_1
Waiting;0;1525941631.2469273;cluster_1
Running;0;1525941631.2469273;cluster_1
Waiting;0;1525941628.6682217;cluster_0
Running;26;1525941628.6682217;cluster_0
Stress;0.0;1525941628.6682217;cluster_0
Stress;2.19;1525941631.2469273;cluster_1
Waiting;0;1525941633.5329692;cluster_0
Running;19;1525941633.5329692;cluster_0
Stress;0.0;1525941633.5329692;cluster_0
Waiting;0;1525941636.7550662;cluster_1
Running;0;1525941636.7550662;cluster_1
Stress;2.09;1525941636.7550662;cluster_1
Waiting;0;1525941638.0461206;cluster_0
Running;0;1525941638.0461206;cluster_0
Stress;0.0;1525941638.0461206;cluster_0
Waiting;0;1525941641.272286;cluster_1
Running;0;1525941641.272286;cluster_1
Stress;1.92;1525941641.272286;cluster_1
Waiting;0;1525941643.5551562;cluster_0
Running;0;1525941643.5551562;cluster_0
Stress;0.0;1525941643.5551562;cluster_0
Waiting;0;1525941646.7829633;cluster_1
Running;0;1525941646.7829633;cluster_1
Stress;1.77;1525941646.7829633;cluster_1
Waiting;0;1525941648.0288565;cluster_0
Running;0;1525941648.0288565;cluster_0
Stress;0.0;1525941648.0288565;cluster_0
Waiting;0;1525941651.2969835;cluster_1
Running;0;1525941651.2969835;cluster_1
Stress;1.63;1525941651.2969835;cluster_1
Waiting;0;1525941653.2727633;cluster_0
Running;0;1525941653.2727633;cluster_0
Stress;0.0;1525941653.2727633;cluster_0
Waiting;0;1525941656.8034687;cluster_1
Running;0;1525941656.8034687;cluster_1
Stress;1.5;1525941656.8034687;cluster_1
Waiting;0;1525941658.5379195;cluster_0
Running;0;1525941658.5379195;cluster_0
Stress;0.0;1525941658.5379195;cluster_0
Waiting;0;1525941661.3152099;cluster_1
Running;0;1525941661.3152099;cluster_1
Stress;1.38;1525941661.3152099;cluster_1
Waiting;0;1525941663.7842932;cluster_0
Running;0;1525941663.7842932;cluster_0
Stress;0.0;1525941663.7842932;cluster_0
Waiting;0;1525941666.8273556;cluster_1
Running;0;1525941666.8273556;cluster_1
Stress;1.27;1525941666.8273556;cluster_1
Waiting;0;1525941668.0374095;cluster_0
Running;0;1525941668.0374095;cluster_0
Stress;0.0;1525941668.0374095;cluster_0
Waiting;0;1525941671.3423712;cluster_1
Running;0;1525941671.3423712;cluster_1
Stress;1.17;1525941671.3423712;cluster_1
Waiting;0;1525941673.2805867;cluster_0
Running;0;1525941673.2805867;cluster_0
Stress;0.0;1525941673.2805867;cluster_0
Waiting;0;1525941676.8512497;cluster_1
Running;0;1525941676.8512497;cluster_1
Stress;1.07;1525941676.8512497;cluster_1
Waiting;0;1525941678.5459383;cluster_0
Running;0;1525941678.5459383;cluster_0
Stress;0.0;1525941678.5459383;cluster_0
Waiting;0;1525941681.367219;cluster_1
Running;0;1525941681.367219;cluster_1
Stress;0.0;1525941681.367219;cluster_1
Waiting;0;1525941683.788947;cluster_0
Running;0;1525941683.788947;cluster_0
Stress;0.0;1525941683.788947;cluster_0
Waiting;0;1525941686.0875227;cluster_1
Running;0;1525941686.0875227;cluster_1
Stress;0.91;1525941686.0875227;cluster_1
Waiting;0;1525941688.038008;cluster_0
Running;0;1525941688.038008;cluster_0
Stress;0.0;1525941688.038008;cluster_0
Waiting;0;1525941691.6101148;cluster_1
Running;0;1525941691.6101148;cluster_1
Stress;0.83;1525941691.6101148;cluster_1
Waiting;0;1525941693.5934358;cluster_0
Running;0;1525941693.5934358;cluster_0
Stress;0.0;1525941693.5934358;cluster_0
Waiting;0;1525941696.1200786;cluster_1
Running;0;1525941696.1200786;cluster_1
Stress;0.77;1525941696.1200786;cluster_1
Waiting;0;1525941698.8542688;cluster_0
Running;0;1525941698.8542688;cluster_0
Stress;0.0;1525941698.8542688;cluster_0
Waiting;0;1525941701.6388211;cluster_1
Running;0;1525941701.6388211;cluster_1
Stress;0.71;1525941701.6388211;cluster_1
Waiting;0;1525941703.0964203;cluster_0
Running;0;1525941703.0964203;cluster_0
Stress;0.0;1525941703.0964203;cluster_0
Waiting;0;1525941706.147455;cluster_1
Running;0;1525941706.147455;cluster_1
Stress;0.65;1525941706.147455;cluster_1
Waiting;0;1525941708.3398094;cluster_0
Running;0;1525941708.3398094;cluster_0
Stress;0.0;1525941708.3398094;cluster_0
Waiting;0;1525941711.6584847;cluster_1
Running;0;1525941711.6584847;cluster_1
Stress;0.6;1525941711.6584847;cluster_1
Waiting;0;1525941713.6189246;cluster_0
Running;0;1525941713.6189246;cluster_0
Stress;0.0;1525941713.6189246;cluster_0
Waiting;0;1525941716.1678386;cluster_1
Running;0;1525941716.1678386;cluster_1
Stress;0.55;1525941716.1678386;cluster_1
Waiting;0;1525941718.8643057;cluster_0
Running;0;1525941718.8643057;cluster_0
Stress;0.0;1525941718.8643057;cluster_0
Waiting;0;1525941721.6752255;cluster_1
Running;0;1525941721.6752255;cluster_1
Stress;0.5;1525941721.6752255;cluster_1
Waiting;0;1525941723.1105876;cluster_0
Running;0;1525941723.1105876;cluster_0
Stress;0.0;1525941723.1105876;cluster_0
Waiting;0;1525941726.183541;cluster_1
Running;0;1525941726.183541;cluster_1
Stress;0.46;1525941726.183541;cluster_1
Waiting;0;1525941728.3541129;cluster_0
Running;0;1525941728.3541129;cluster_0
Stress;0.0;1525941728.3541129;cluster_0
Waiting;0;1525941731.705887;cluster_1
Running;0;1525941731.705887;cluster_1
Stress;0.43;1525941731.705887;cluster_1
Waiting;0;1525941733.6137178;cluster_0
Running;0;1525941733.6137178;cluster_0
Stress;0.0;1525941733.6137178;cluster_0
Waiting;0;1525941736.212415;cluster_1
Running;0;1525941736.212415;cluster_1
Stress;0.39;1525941736.212415;cluster_1
Waiting;0;1525941738.8587484;cluster_0
Running;0;1525941738.8587484;cluster_0
Stress;0.0;1525941738.8587484;cluster_0
Waiting;0;1525941741.711278;cluster_1
Running;0;1525941741.711278;cluster_1
Stress;0.36;1525941741.711278;cluster_1
Waiting;0;1525941743.1036277;cluster_0
Running;0;1525941743.1036277;cluster_0
Stress;0.0;1525941743.1036277;cluster_0
Action;40;1525941743.1036277;cluster_0
Waiting;0;1525941746.2168963;cluster_1
Running;0;1525941746.2168963;cluster_1
Stress;0.33;1525941746.2168963;cluster_1
Waiting;0;1525941751.7319176;cluster_1
Running;0;1525941751.7319176;cluster_1
Stress;1.83;1525941751.7319176;cluster_1
Waiting;10;1525941748.9517937;cluster_0
Running;30;1525941748.9517937;cluster_0
Stress;0.0;1525941748.9517937;cluster_0
Action;30;1525941748.9517937;cluster_0
Waiting;0;1525941756.0990264;cluster_1
Running;0;1525941756.0990264;cluster_1
Stress;3.92;1525941756.0990264;cluster_1
Waiting;10;1525941754.6447399;cluster_0
Running;60;1525941754.6447399;cluster_0
Stress;0.0;1525941754.6447399;cluster_0
Waiting;0;1525941761.9337714;cluster_1
Running;0;1525941761.9337714;cluster_1
Stress;8.09;1525941761.9337714;cluster_1
Waiting;10;1525941759.795046;cluster_0
Running;60;1525941759.795046;cluster_0
Stress;0.0;1525941759.795046;cluster_0
Waiting;0;1525941766.4377642;cluster_1
Running;0;1525941766.4377642;cluster_1
Stress;12.09;1525941766.4377642;cluster_1
Waiting;10;1525941765.6186056;cluster_0
Running;60;1525941765.6186056;cluster_0
Stress;0.0;1525941765.6186056;cluster_0
Waiting;0;1525941771.9482205;cluster_1
Running;0;1525941771.9482205;cluster_1
Stress;15.69;1525941771.9482205;cluster_1
Waiting;10;1525941771.7307737;cluster_0
Running;60;1525941771.7307737;cluster_0
Stress;0.0;1525941771.7307737;cluster_0
Waiting;0;1525941776.4602132;cluster_1
Running;0;1525941776.4602132;cluster_1
Stress;18.99;1525941776.4602132;cluster_1
Waiting;10;1525941776.4864266;cluster_0
Running;60;1525941776.4864266;cluster_0
Stress;0.0;1525941776.4864266;cluster_0
Waiting;0;1525941781.9727597;cluster_1
Running;0;1525941781.9727597;cluster_1
Stress;22.04;1525941781.9727597;cluster_1
Waiting;10;1525941781.373977;cluster_0
Running;60;1525941781.373977;cluster_0
Stress;0.0;1525941781.373977;cluster_0
Waiting;0;1525941786.4786549;cluster_1
Running;0;1525941786.4786549;cluster_1
Stress;24.84;1525941786.4786549;cluster_1
Waiting;10;1525941786.2490706;cluster_0
Running;60;1525941786.2490706;cluster_0
Stress;0.0;1525941786.2490706;cluster_0
Waiting;0;1525941791.9847264;cluster_1
Running;0;1525941791.9847264;cluster_1
Stress;27.25;1525941791.9847264;cluster_1
Waiting;10;1525941791.0060918;cluster_0
Running;60;1525941791.0060918;cluster_0
Stress;0.0;1525941791.0060918;cluster_0
Waiting;0;1525941797.512017;cluster_1
Running;0;1525941797.512017;cluster_1
Stress;29.4;1525941797.512017;cluster_1
Waiting;0;1525941802.0295668;cluster_1
Running;0;1525941802.0295668;cluster_1
Waiting;10;1525941797.4531782;cluster_0
Running;60;1525941797.4531782;cluster_0
Stress;0.0;1525941797.4531782;cluster_0
Stress;31.21;1525941802.0295668;cluster_1
Waiting;0;1525941807.55917;cluster_1
Running;0;1525941807.55917;cluster_1
Stress;32.63;1525941807.55917;cluster_1
Waiting;9;1525941802.326381;cluster_0
Running;59;1525941802.326381;cluster_0
Stress;0.0;1525941802.326381;cluster_0
Waiting;0;1525941812.0776653;cluster_1
Running;0;1525941812.0776653;cluster_1
Stress;33.46;1525941812.0776653;cluster_1
Waiting;9;1525941808.4065976;cluster_0
Running;59;1525941808.4065976;cluster_0
Stress;0.0;1525941808.4065976;cluster_0
Waiting;9;1525941813.2124262;cluster_0
Running;59;1525941813.2124262;cluster_0
Waiting;0;1525941817.5921829;cluster_1
Running;0;1525941817.5921829;cluster_1
Stress;0.0;1525941813.2124262;cluster_0
Stress;32.38;1525941817.5921829;cluster_1
Waiting;0;1525941822.0999122;cluster_1
Running;0;1525941822.0999122;cluster_1
Stress;29.87;1525941822.0999122;cluster_1
Waiting;7;1525941818.911859;cluster_0
Running;60;1525941818.911859;cluster_0
Stress;0.0;1525941818.911859;cluster_0
Waiting;0;1525941827.6280746;cluster_1
Running;0;1525941827.6280746;cluster_1
Stress;27.48;1525941827.6280746;cluster_1
Waiting;7;1525941823.6355407;cluster_0
Running;60;1525941823.6355407;cluster_0
Stress;0.0;1525941823.6355407;cluster_0
Waiting;0;1525941832.1495886;cluster_1
Running;0;1525941832.1495886;cluster_1
Stress;25.28;1525941832.1495886;cluster_1
Waiting;7;1525941828.015168;cluster_0
Running;60;1525941828.015168;cluster_0
Stress;0.0;1525941828.015168;cluster_0
Waiting;7;1525941833.9667542;cluster_0
Running;60;1525941833.9667542;cluster_0
Stress;0.0;1525941833.9667542;cluster_0
Waiting;0;1525941837.652965;cluster_1
Running;0;1525941837.652965;cluster_1
Stress;23.25;1525941837.652965;cluster_1
Waiting;0;1525941842.1656935;cluster_1
Running;0;1525941842.1656935;cluster_1
Stress;21.39;1525941842.1656935;cluster_1
Waiting;7;1525941839.3607318;cluster_0
Running;60;1525941839.3607318;cluster_0
Stress;0.0;1525941839.3607318;cluster_0
Waiting;0;1525941847.6905978;cluster_1
Running;0;1525941847.6905978;cluster_1
Stress;19.68;1525941847.6905978;cluster_1
Waiting;6;1525941844.0457451;cluster_0
Running;59;1525941844.0457451;cluster_0
Stress;0.0;1525941844.0457451;cluster_0
Waiting;0;1525941852.2046888;cluster_1
Running;0;1525941852.2046888;cluster_1
Stress;18.1;1525941852.2046888;cluster_1
Waiting;6;1525941849.7916281;cluster_0
Running;58;1525941849.7916281;cluster_0
Stress;0.0;1525941849.7916281;cluster_0
Waiting;0;1525941857.7228174;cluster_1
Running;0;1525941857.7228174;cluster_1
Stress;16.65;1525941857.7228174;cluster_1
Waiting;3;1525941854.382984;cluster_0
Running;59;1525941854.382984;cluster_0
Stress;0.0;1525941854.382984;cluster_0
Waiting;0;1525941862.246626;cluster_1
Running;0;1525941862.246626;cluster_1
Stress;15.32;1525941862.246626;cluster_1
Waiting;0;1525941860.3249226;cluster_0
Running;57;1525941860.3249226;cluster_0
Stress;0.0;1525941860.3249226;cluster_0
Waiting;0;1525941867.761299;cluster_1
Running;0;1525941867.761299;cluster_1
Stress;14.09;1525941867.761299;cluster_1
Waiting;0;1525941865.6859674;cluster_0
Running;38;1525941865.6859674;cluster_0
Stress;0.0;1525941865.6859674;cluster_0
Waiting;0;1525941872.275223;cluster_1
Running;0;1525941872.275223;cluster_1
Stress;12.96;1525941872.275223;cluster_1
Waiting;0;1525941871.6695108;cluster_0
Running;21;1525941871.6695108;cluster_0
Stress;0.0;1525941871.6695108;cluster_0
Waiting;0;1525941876.3395488;cluster_0
Running;9;1525941876.3395488;cluster_0
Stress;0.0;1525941876.3395488;cluster_0
Waiting;0;1525941877.7860577;cluster_1
Running;0;1525941877.7860577;cluster_1
Stress;11.92;1525941877.7860577;cluster_1
Waiting;0;1525941881.665087;cluster_0
Running;7;1525941881.665087;cluster_0
Stress;0.0;1525941881.665087;cluster_0
Waiting;0;1525941882.3023174;cluster_1
Running;0;1525941882.3023174;cluster_1
Stress;10.97;1525941882.3023174;cluster_1
Waiting;0;1525941886.9879618;cluster_0
Running;2;1525941886.9879618;cluster_0
Stress;0.0;1525941886.9879618;cluster_0
Waiting;0;1525941887.8032396;cluster_1
Running;0;1525941887.8032396;cluster_1
Stress;10.09;1525941887.8032396;cluster_1
Waiting;0;1525941892.3292818;cluster_1
Running;0;1525941892.3292818;cluster_1
Waiting;0;1525941892.2813663;cluster_0
Running;0;1525941892.2813663;cluster_0
Stress;0.0;1525941892.2813663;cluster_0
Stress;9.28;1525941892.3292818;cluster_1
Waiting;0;1525941897.5568433;cluster_0
Running;0;1525941897.5568433;cluster_0
Stress;0.0;1525941897.5568433;cluster_0
Waiting;0;1525941897.843612;cluster_1
Running;0;1525941897.843612;cluster_1
Stress;8.54;1525941897.843612;cluster_1
Waiting;0;1525941902.2135682;cluster_1
Running;0;1525941902.2135682;cluster_1
Stress;7.85;1525941902.2135682;cluster_1
Waiting;0;1525941902.8318787;cluster_0
Running;0;1525941902.8318787;cluster_0
Stress;0.0;1525941902.8318787;cluster_0
Waiting;0;1525941907.1246614;cluster_0
Running;0;1525941907.1246614;cluster_0
Stress;0.0;1525941907.1246614;cluster_0
Waiting;0;1525941907.7358623;cluster_1
Running;0;1525941907.7358623;cluster_1
Stress;7.23;1525941907.7358623;cluster_1
Waiting;0;1525941912.2302794;cluster_1
Running;0;1525941912.2302794;cluster_1
Stress;6.65;1525941912.2302794;cluster_1
Waiting;0;1525941912.3966732;cluster_0
Running;0;1525941912.3966732;cluster_0
Stress;0.0;1525941912.3966732;cluster_0
Waiting;0;1525941917.7363105;cluster_1
Running;0;1525941917.7363105;cluster_1
Waiting;0;1525941917.6815217;cluster_0
Running;0;1525941917.6815217;cluster_0
Stress;0.0;1525941917.6815217;cluster_0
Stress;6.11;1525941917.7363105;cluster_1
Waiting;0;1525941922.2499974;cluster_1
Running;0;1525941922.2499974;cluster_1
Stress;5.62;1525941922.2499974;cluster_1
Waiting;0;1525941922.9641776;cluster_0
Running;0;1525941922.9641776;cluster_0
Stress;0.0;1525941922.9641776;cluster_0
Waiting;0;1525941927.7605011;cluster_1
Running;0;1525941927.7605011;cluster_1
Stress;5.17;1525941927.7605011;cluster_1
Waiting;0;1525941928.5279534;cluster_0
Running;0;1525941928.5279534;cluster_0
Stress;0.0;1525941928.5279534;cluster_0
Waiting;0;1525941932.2666748;cluster_1
Running;0;1525941932.2666748;cluster_1
Stress;4.76;1525941932.2666748;cluster_1
Waiting;0;1525941933.8023753;cluster_0
Running;0;1525941933.8023753;cluster_0
Stress;0.0;1525941933.8023753;cluster_0
Waiting;0;1525941937.7768855;cluster_1
Running;0;1525941937.7768855;cluster_1
Stress;4.38;1525941937.7768855;cluster_1
Waiting;0;1525941938.0896957;cluster_0
Running;0;1525941938.0896957;cluster_0
Stress;0.0;1525941938.0896957;cluster_0
Waiting;0;1525941942.2887356;cluster_1
Running;0;1525941942.2887356;cluster_1
Stress;4.03;1525941942.2887356;cluster_1
Waiting;0;1525941943.393604;cluster_0
Running;0;1525941943.393604;cluster_0
Stress;0.0;1525941943.393604;cluster_0
Waiting;0;1525941947.9113905;cluster_1
Running;0;1525941947.9113905;cluster_1
Stress;3.7;1525941947.9113905;cluster_1
Waiting;0;1525941948.6868098;cluster_0
Running;0;1525941948.6868098;cluster_0
Stress;0.0;1525941948.6868098;cluster_0
Waiting;0;1525941952.424727;cluster_1
Running;0;1525941952.424727;cluster_1
Stress;3.41;1525941952.424727;cluster_1
Waiting;0;1525941953.9590752;cluster_0
Running;0;1525941953.9590752;cluster_0
Stress;0.0;1525941953.9590752;cluster_0
Waiting;0;1525941957.936368;cluster_1
Running;0;1525941957.936368;cluster_1
Stress;3.13;1525941957.936368;cluster_1
Waiting;0;1525941959.2322109;cluster_0
Running;0;1525941959.2322109;cluster_0
Stress;0.0;1525941959.2322109;cluster_0
Waiting;0;1525941962.44244;cluster_1
Running;0;1525941962.44244;cluster_1
Stress;2.88;1525941962.44244;cluster_1
Waiting;0;1525941964.5174234;cluster_0
Running;0;1525941964.5174234;cluster_0
Stress;0.0;1525941964.5174234;cluster_0
Waiting;0;1525941967.9523532;cluster_1
Running;0;1525941967.9523532;cluster_1
Stress;2.65;1525941967.9523532;cluster_1
Waiting;0;1525941969.7943094;cluster_0
Running;0;1525941969.7943094;cluster_0
Stress;0.0;1525941969.7943094;cluster_0
Waiting;0;1525941972.3255064;cluster_1
Running;0;1525941972.3255064;cluster_1
Stress;2.44;1525941972.3255064;cluster_1
Waiting;0;1525941974.0675576;cluster_0
Running;0;1525941974.0675576;cluster_0
Stress;0.0;1525941974.0675576;cluster_0
Waiting;0;1525941977.1075096;cluster_1
Running;0;1525941977.1075096;cluster_1
Stress;2.24;1525941977.1075096;cluster_1
Waiting;0;1525941979.3500483;cluster_0
Running;0;1525941979.3500483;cluster_0
Stress;0.0;1525941979.3500483;cluster_0
Waiting;0;1525941982.6206243;cluster_1
Running;0;1525941982.6206243;cluster_1
Stress;2.06;1525941982.6206243;cluster_1
Waiting;0;1525941984.6274219;cluster_0
Running;0;1525941984.6274219;cluster_0
Stress;0.0;1525941984.6274219;cluster_0
Waiting;0;1525941987.1315496;cluster_1
Running;0;1525941987.1315496;cluster_1
Stress;1.9;1525941987.1315496;cluster_1
Waiting;0;1525941989.8996105;cluster_0
Running;0;1525941989.8996105;cluster_0
Stress;0.0;1525941989.8996105;cluster_0
Waiting;0;1525941992.6399367;cluster_1
Running;0;1525941992.6399367;cluster_1
Stress;1.75;1525941992.6399367;cluster_1
Waiting;0;1525941994.1724343;cluster_0
Running;0;1525941994.1724343;cluster_0
Stress;0.0;1525941994.1724343;cluster_0
Waiting;0;1525941997.16664;cluster_1
Running;0;1525941997.16664;cluster_1
Stress;1.61;1525941997.16664;cluster_1
Waiting;0;1525941999.7661664;cluster_0
Running;0;1525941999.7661664;cluster_0
Stress;0.0;1525941999.7661664;cluster_0
Waiting;0;1525942002.6712067;cluster_1
Running;0;1525942002.6712067;cluster_1
Stress;1.48;1525942002.6712067;cluster_1
Waiting;0;1525942004.0553577;cluster_0
Running;0;1525942004.0553577;cluster_0
Stress;0.0;1525942004.0553577;cluster_0
Waiting;0;1525942007.1793752;cluster_1
Running;0;1525942007.1793752;cluster_1
Stress;1.44;1525942007.1793752;cluster_1
Waiting;0;1525942009.3299937;cluster_0
Running;0;1525942009.3299937;cluster_0
Stress;0.0;1525942009.3299937;cluster_0
Waiting;0;1525942012.686713;cluster_1
Running;0;1525942012.686713;cluster_1
Stress;1.32;1525942012.686713;cluster_1
Waiting;0;1525942014.612178;cluster_0
Running;0;1525942014.612178;cluster_0
Stress;0.0;1525942014.612178;cluster_0
Waiting;0;1525942017.2115574;cluster_1
Running;0;1525942017.2115574;cluster_1
Stress;1.22;1525942017.2115574;cluster_1
Waiting;0;1525942019.8878167;cluster_0
Running;0;1525942019.8878167;cluster_0
Stress;0.0;1525942019.8878167;cluster_0
Waiting;0;1525942022.714533;cluster_1
Running;0;1525942022.714533;cluster_1
Stress;1.12;1525942022.714533;cluster_1
Waiting;0;1525942024.1584332;cluster_0
Running;0;1525942024.1584332;cluster_0
Stress;0.0;1525942024.1584332;cluster_0
Waiting;0;1525942027.2275314;cluster_1
Running;0;1525942027.2275314;cluster_1
Stress;1.03;1525942027.2275314;cluster_1
Waiting;0;1525942029.4312532;cluster_0
Running;0;1525942029.4312532;cluster_0
Stress;0.0;1525942029.4312532;cluster_0
Waiting;0;1525942032.7268999;cluster_1
Running;0;1525942032.7268999;cluster_1
Stress;0.95;1525942032.7268999;cluster_1
Waiting;0;1525942034.718952;cluster_0
Running;0;1525942034.718952;cluster_0
Stress;0.0;1525942034.718952;cluster_0
Waiting;0;1525942037.2353404;cluster_1
Running;0;1525942037.2353404;cluster_1
Stress;0.87;1525942037.2353404;cluster_1
Waiting;0;1525942039.9908545;cluster_0
Running;0;1525942039.9908545;cluster_0
Stress;0.0;1525942039.9908545;cluster_0
Waiting;0;1525942042.7448776;cluster_1
Running;0;1525942042.7448776;cluster_1
Stress;0.74;1525942042.7448776;cluster_1
Waiting;0;1525942045.2708864;cluster_0
Running;0;1525942045.2708864;cluster_0
Stress;0.0;1525942045.2708864;cluster_0
Waiting;0;1525942047.558048;cluster_1
Running;0;1525942047.558048;cluster_1
Stress;0.74;1525942047.558048;cluster_1
Waiting;0;1525942050.5435627;cluster_0
Running;0;1525942050.5435627;cluster_0
Stress;0.0;1525942050.5435627;cluster_0
Waiting;0;1525942052.0712316;cluster_1
Running;0;1525942052.0712316;cluster_1
Stress;0.68;1525942052.0712316;cluster_1
Waiting;0;1525942055.8328574;cluster_0
Running;0;1525942055.8328574;cluster_0
Stress;0.0;1525942055.8328574;cluster_0
Waiting;0;1525942057.5812068;cluster_1
Running;0;1525942057.5812068;cluster_1
Stress;0.62;1525942057.5812068;cluster_1
Waiting;0;1525942060.1072576;cluster_0
Running;0;1525942060.1072576;cluster_0
Stress;0.0;1525942060.1072576;cluster_0
Waiting;0;1525942062.0829632;cluster_1
Running;0;1525942062.0829632;cluster_1
Stress;0.57;1525942062.0829632;cluster_1
Waiting;0;1525942065.3877196;cluster_0
Running;0;1525942065.3877196;cluster_0
Stress;0.0;1525942065.3877196;cluster_0
Waiting;0;1525942067.5826592;cluster_1
Running;0;1525942067.5826592;cluster_1
Stress;0.53;1525942067.5826592;cluster_1
Waiting;0;1525942070.7059016;cluster_0
Running;0;1525942070.7059016;cluster_0
Stress;0.0;1525942070.7059016;cluster_0
Waiting;0;1525942072.0868218;cluster_1
Running;0;1525942072.0868218;cluster_1
Stress;0.48;1525942072.0868218;cluster_1
Waiting;0;1525942075.2695744;cluster_0
Running;0;1525942075.2695744;cluster_0
Stress;0.0;1525942075.2695744;cluster_0
Waiting;0;1525942077.6038496;cluster_1
Running;0;1525942077.6038496;cluster_1
Stress;0.44;1525942077.6038496;cluster_1
Waiting;0;1525942080.5448496;cluster_0
Running;0;1525942080.5448496;cluster_0
Stress;0.0;1525942080.5448496;cluster_0
Waiting;0;1525942082.1167626;cluster_1
Running;0;1525942082.1167626;cluster_1
Stress;0.41;1525942082.1167626;cluster_1
Waiting;0;1525942085.8246324;cluster_0
Running;0;1525942085.8246324;cluster_0
Stress;0.0;1525942085.8246324;cluster_0
Waiting;0;1525942087.6312385;cluster_1
Running;0;1525942087.6312385;cluster_1
Stress;0.38;1525942087.6312385;cluster_1
Waiting;0;1525942090.1104124;cluster_0
Running;0;1525942090.1104124;cluster_0
Stress;0.0;1525942090.1104124;cluster_0
Waiting;0;1525942092.13131;cluster_1
Running;0;1525942092.13131;cluster_1
Stress;0.35;1525942092.13131;cluster_1
Waiting;0;1525942095.3822162;cluster_0
Running;0;1525942095.3822162;cluster_0
Stress;0.0;1525942095.3822162;cluster_0
Waiting;0;1525942097.645122;cluster_1
Running;0;1525942097.645122;cluster_1
Stress;0.32;1525942097.645122;cluster_1
Waiting;0;1525942100.6550798;cluster_0
Running;0;1525942100.6550798;cluster_0
Stress;0.0;1525942100.6550798;cluster_0
Waiting;0;1525942102.1511343;cluster_1
Running;0;1525942102.1511343;cluster_1
Stress;0.29;1525942102.1511343;cluster_1
Waiting;0;1525942105.9389827;cluster_0
Running;0;1525942105.9389827;cluster_0
Stress;0.0;1525942105.9389827;cluster_0
Waiting;0;1525942107.656099;cluster_1
Running;0;1525942107.656099;cluster_1
Stress;0.27;1525942107.656099;cluster_1
Waiting;0;1525942111.2231307;cluster_0
Running;0;1525942111.2231307;cluster_0
Stress;0.0;1525942111.2231307;cluster_0
Waiting;0;1525942112.1774592;cluster_1
Running;0;1525942112.1774592;cluster_1
Stress;0.0;1525942112.1774592;cluster_1
Waiting;0;1525942116.4955957;cluster_0
Running;0;1525942116.4955957;cluster_0
Stress;0.0;1525942116.4955957;cluster_0
Waiting;0;1525942117.8112571;cluster_1
Running;0;1525942117.8112571;cluster_1
Stress;0.23;1525942117.8112571;cluster_1
Waiting;0;1525942121.771772;cluster_0
Running;0;1525942121.771772;cluster_0
Stress;0.0;1525942121.771772;cluster_0
Waiting;0;1525942122.3309636;cluster_1
Running;0;1525942122.3309636;cluster_1
Stress;0.21;1525942122.3309636;cluster_1
Waiting;0;1525942126.0575457;cluster_0
Running;0;1525942126.0575457;cluster_0
Stress;0.0;1525942126.0575457;cluster_0
Waiting;0;1525942127.8425822;cluster_1
Running;0;1525942127.8425822;cluster_1
Stress;0.19;1525942127.8425822;cluster_1
Waiting;0;1525942131.3395295;cluster_0
Running;0;1525942131.3395295;cluster_0
Stress;0.0;1525942131.3395295;cluster_0
Waiting;0;1525942132.3481877;cluster_1
Running;0;1525942132.3481877;cluster_1
Stress;0.18;1525942132.3481877;cluster_1
Waiting;0;1525942136.613714;cluster_0
Running;0;1525942136.613714;cluster_0
Stress;0.0;1525942136.613714;cluster_0
Waiting;0;1525942137.844021;cluster_1
Running;0;1525942137.844021;cluster_1
Stress;0.16;1525942137.844021;cluster_1
Waiting;0;1525942142.3649983;cluster_1
Running;0;1525942142.3649983;cluster_1
Stress;0.15;1525942142.3649983;cluster_1
Waiting;0;1525942141.89269;cluster_0
Running;0;1525942141.89269;cluster_0
Stress;0.0;1525942141.89269;cluster_0
Waiting;0;1525942146.4678051;cluster_0
Running;0;1525942146.4678051;cluster_0
Stress;0.0;1525942146.4678051;cluster_0
Waiting;0;1525942147.8707016;cluster_1
Running;0;1525942147.8707016;cluster_1
Stress;0.14;1525942147.8707016;cluster_1
Waiting;0;1525942151.7448113;cluster_0
Running;0;1525942151.7448113;cluster_0
Stress;0.0;1525942151.7448113;cluster_0
Waiting;0;1525942152.3709593;cluster_1
Running;0;1525942152.3709593;cluster_1
Stress;0.12;1525942152.3709593;cluster_1
