%!PS-Adobe-3.0 EPSF-3.0
%%Title: test.eps
%%Creator: matplotlib version 2.2.2, http://matplotlib.org/
%%CreationDate: Sun Jun 10 18:57:00 2018
%%Orientation: portrait
%%BoundingBox: 115 262 496 529
%%EndComments
%%BeginProlog
/mpldict 9 dict def
mpldict begin
/m { moveto } bind def
/l { lineto } bind def
/r { rlineto } bind def
/c { curveto } bind def
/cl { closepath } bind def
/box {
m
1 index 0 r
0 exch r
neg 0 r
cl
} bind def
/clipbox {
box
clip
newpath
} bind def
%!PS-Adobe-3.0 Resource-Font
%%Title: DejaVu Sans
%%Copyright: Copyright (c) 2003 by Bitstream, Inc. All Rights Reserved. Copyright (c) 2006 by Tavmjong Bah. All Rights Reserved. DejaVu changes are in public domain 
%%Creator: Converted from TrueType to type 3 by PPR
25 dict begin
/_d{bind def}bind def
/_m{moveto}_d
/_l{lineto}_d
/_cl{closepath eofill}_d
/_c{curveto}_d
/_sc{7 -1 roll{setcachedevice}{pop pop pop pop pop pop}ifelse}_d
/_e{exec}_d
/FontName /DejaVuSans def
/PaintType 0 def
/FontMatrix[.001 0 0 .001 0 0]def
/FontBBox[-1021 -463 1793 1232]def
/FontType 3 def
/Encoding [ /space /zero /one /two /three /four /five /six /eight /nine /J /M /R /T /U /W /bracketleft /bracketright /a /b /c /d /e /g /i /m /n /o /q /r /s /t /u /x ] def
/FontInfo 10 dict dup begin
/FamilyName (DejaVu Sans) def
/FullName (DejaVu Sans) def
/Notice (Copyright (c) 2003 by Bitstream, Inc. All Rights Reserved. Copyright (c) 2006 by Tavmjong Bah. All Rights Reserved. DejaVu changes are in public domain ) def
/Weight (Book) def
/Version (Version 2.35) def
/ItalicAngle 0.0 def
/isFixedPitch false def
/UnderlinePosition -130 def
/UnderlineThickness 90 def
end readonly def
/CharStrings 35 dict dup begin
/.notdef 0 def
/space{318 0 0 0 0 0 _sc
}_d
/zero{636 0 66 -13 570 742 _sc
318 664 _m
267 664 229 639 203 589 _c
177 539 165 464 165 364 _c
165 264 177 189 203 139 _c
229 89 267 64 318 64 _c
369 64 407 89 433 139 _c
458 189 471 264 471 364 _c
471 464 458 539 433 589 _c
407 639 369 664 318 664 _c
318 742 _m
399 742 461 709 505 645 _c
548 580 570 486 570 364 _c
570 241 548 147 505 83 _c
461 19 399 -13 318 -13 _c
236 -13 173 19 130 83 _c
87 147 66 241 66 364 _c
66 486 87 580 130 645 _c
173 709 236 742 318 742 _c
_cl}_d
/one{636 0 110 0 544 729 _sc
124 83 _m
285 83 _l
285 639 _l
110 604 _l
110 694 _l
284 729 _l
383 729 _l
383 83 _l
544 83 _l
544 0 _l
124 0 _l
124 83 _l
_cl}_d
/two{{636 0 73 0 536 742 _sc
192 83 _m
536 83 _l
536 0 _l
73 0 _l
73 83 _l
110 121 161 173 226 239 _c
290 304 331 346 348 365 _c
380 400 402 430 414 455 _c
426 479 433 504 433 528 _c
433 566 419 598 392 622 _c
365 646 330 659 286 659 _c
255 659 222 653 188 643 _c
154 632 117 616 78 594 _c
78 694 _l
118 710 155 722 189 730 _c
223 738 255 742 284 742 _c
}_e{359 742 419 723 464 685 _c
509 647 532 597 532 534 _c
532 504 526 475 515 449 _c
504 422 484 390 454 354 _c
446 344 420 317 376 272 _c
332 227 271 164 192 83 _c
_cl}_e}_d
/three{{636 0 76 -13 556 742 _sc
406 393 _m
453 383 490 362 516 330 _c
542 298 556 258 556 212 _c
556 140 531 84 482 45 _c
432 6 362 -13 271 -13 _c
240 -13 208 -10 176 -4 _c
144 1 110 10 76 22 _c
76 117 _l
103 101 133 89 166 81 _c
198 73 232 69 268 69 _c
330 69 377 81 409 105 _c
441 129 458 165 458 212 _c
458 254 443 288 413 312 _c
383 336 341 349 287 349 _c
}_e{202 349 _l
202 430 _l
291 430 _l
339 430 376 439 402 459 _c
428 478 441 506 441 543 _c
441 580 427 609 401 629 _c
374 649 336 659 287 659 _c
260 659 231 656 200 650 _c
169 644 135 635 98 623 _c
98 711 _l
135 721 170 729 203 734 _c
235 739 266 742 296 742 _c
370 742 429 725 473 691 _c
517 657 539 611 539 553 _c
539 513 527 479 504 451 _c
481 423 448 403 406 393 _c
_cl}_e}_d
/four{636 0 49 0 580 729 _sc
378 643 _m
129 254 _l
378 254 _l
378 643 _l
352 729 _m
476 729 _l
476 254 _l
580 254 _l
580 172 _l
476 172 _l
476 0 _l
378 0 _l
378 172 _l
49 172 _l
49 267 _l
352 729 _l
_cl}_d
/five{{636 0 77 -13 549 729 _sc
108 729 _m
495 729 _l
495 646 _l
198 646 _l
198 467 _l
212 472 227 476 241 478 _c
255 480 270 482 284 482 _c
365 482 429 459 477 415 _c
525 370 549 310 549 234 _c
549 155 524 94 475 51 _c
426 8 357 -13 269 -13 _c
238 -13 207 -10 175 -6 _c
143 -1 111 6 77 17 _c
77 116 _l
106 100 136 88 168 80 _c
199 72 232 69 267 69 _c
}_e{323 69 368 83 401 113 _c
433 143 450 183 450 234 _c
450 284 433 324 401 354 _c
368 384 323 399 267 399 _c
241 399 214 396 188 390 _c
162 384 135 375 108 363 _c
108 729 _l
_cl}_e}_d
/six{{636 0 70 -13 573 742 _sc
330 404 _m
286 404 251 388 225 358 _c
199 328 186 286 186 234 _c
186 181 199 139 225 109 _c
251 79 286 64 330 64 _c
374 64 409 79 435 109 _c
461 139 474 181 474 234 _c
474 286 461 328 435 358 _c
409 388 374 404 330 404 _c
526 713 _m
526 623 _l
501 635 476 644 451 650 _c
425 656 400 659 376 659 _c
310 659 260 637 226 593 _c
}_e{192 549 172 482 168 394 _c
187 422 211 444 240 459 _c
269 474 301 482 336 482 _c
409 482 467 459 509 415 _c
551 371 573 310 573 234 _c
573 159 550 99 506 54 _c
462 9 403 -13 330 -13 _c
246 -13 181 19 137 83 _c
92 147 70 241 70 364 _c
70 479 97 571 152 639 _c
206 707 280 742 372 742 _c
396 742 421 739 447 735 _c
472 730 498 723 526 713 _c
_cl}_e}_d
/eight{{636 0 68 -13 568 742 _sc
318 346 _m
271 346 234 333 207 308 _c
180 283 167 249 167 205 _c
167 161 180 126 207 101 _c
234 76 271 64 318 64 _c
364 64 401 76 428 102 _c
455 127 469 161 469 205 _c
469 249 455 283 429 308 _c
402 333 365 346 318 346 _c
219 388 _m
177 398 144 418 120 447 _c
96 476 85 511 85 553 _c
85 611 105 657 147 691 _c
188 725 245 742 318 742 _c
}_e{390 742 447 725 489 691 _c
530 657 551 611 551 553 _c
551 511 539 476 515 447 _c
491 418 459 398 417 388 _c
464 377 501 355 528 323 _c
554 291 568 251 568 205 _c
568 134 546 80 503 43 _c
459 5 398 -13 318 -13 _c
237 -13 175 5 132 43 _c
89 80 68 134 68 205 _c
68 251 81 291 108 323 _c
134 355 171 377 219 388 _c
183 544 _m
183 506 194 476 218 455 _c
}_e{242 434 275 424 318 424 _c
360 424 393 434 417 455 _c
441 476 453 506 453 544 _c
453 582 441 611 417 632 _c
393 653 360 664 318 664 _c
275 664 242 653 218 632 _c
194 611 183 582 183 544 _c
_cl}_e}_d
/nine{{636 0 63 -13 566 742 _sc
110 15 _m
110 105 _l
134 93 159 84 185 78 _c
210 72 235 69 260 69 _c
324 69 374 90 408 134 _c
442 178 462 244 468 334 _c
448 306 424 284 396 269 _c
367 254 335 247 300 247 _c
226 247 168 269 126 313 _c
84 357 63 417 63 494 _c
63 568 85 628 129 674 _c
173 719 232 742 306 742 _c
390 742 455 709 499 645 _c
543 580 566 486 566 364 _c
}_e{566 248 538 157 484 89 _c
429 21 356 -13 264 -13 _c
239 -13 214 -10 189 -6 _c
163 -2 137 5 110 15 _c
306 324 _m
350 324 385 339 411 369 _c
437 399 450 441 450 494 _c
450 546 437 588 411 618 _c
385 648 350 664 306 664 _c
262 664 227 648 201 618 _c
175 588 162 546 162 494 _c
162 441 175 399 201 369 _c
227 339 262 324 306 324 _c
_cl}_e}_d
/J{295 0 -51 -199 197 729 _sc
98 729 _m
197 729 _l
197 51 _l
197 -36 180 -99 147 -139 _c
113 -179 60 -199 -13 -199 _c
-51 -199 _l
-51 -116 _l
-20 -116 _l
22 -116 53 -103 71 -79 _c
89 -55 98 -11 98 51 _c
98 729 _l
_cl}_d
/M{863 0 98 0 765 729 _sc
98 729 _m
245 729 _l
431 233 _l
618 729 _l
765 729 _l
765 0 _l
669 0 _l
669 640 _l
481 140 _l
382 140 _l
194 640 _l
194 0 _l
98 0 _l
98 729 _l
_cl}_d
/R{{695 0 98 0 666 729 _sc
444 342 _m
465 334 486 319 506 296 _c
526 272 546 240 566 199 _c
666 0 _l
560 0 _l
467 187 _l
443 235 419 268 397 284 _c
374 300 343 308 304 308 _c
197 308 _l
197 0 _l
98 0 _l
98 729 _l
321 729 _l
404 729 466 711 507 677 _c
548 642 569 589 569 519 _c
569 473 558 434 537 404 _c
515 374 484 353 444 342 _c
197 648 _m
197 389 _l
321 389 _l
}_e{368 389 404 400 428 422 _c
452 444 465 476 465 519 _c
465 561 452 593 428 615 _c
404 637 368 648 321 648 _c
197 648 _l
_cl}_e}_d
/T{611 0 -2 0 614 729 _sc
-2 729 _m
614 729 _l
614 646 _l
355 646 _l
355 0 _l
256 0 _l
256 646 _l
-2 646 _l
-2 729 _l
_cl}_d
/U{732 0 87 -13 645 729 _sc
87 729 _m
186 729 _l
186 286 _l
186 208 200 151 228 117 _c
256 83 302 66 366 66 _c
429 66 475 83 503 117 _c
531 151 546 208 546 286 _c
546 729 _l
645 729 _l
645 274 _l
645 178 621 107 574 59 _c
527 11 458 -13 366 -13 _c
274 -13 204 11 157 59 _c
110 107 87 178 87 274 _c
87 729 _l
_cl}_d
/W{989 0 33 0 956 729 _sc
33 729 _m
133 729 _l
286 113 _l
439 729 _l
550 729 _l
703 113 _l
856 729 _l
956 729 _l
773 0 _l
649 0 _l
495 633 _l
340 0 _l
216 0 _l
33 729 _l
_cl}_d
/bracketleft{390 0 86 -131 293 760 _sc
86 760 _m
293 760 _l
293 690 _l
176 690 _l
176 -61 _l
293 -61 _l
293 -131 _l
86 -131 _l
86 760 _l
_cl}_d
/bracketright{390 0 97 -131 304 760 _sc
304 760 _m
304 -131 _l
97 -131 _l
97 -61 _l
214 -61 _l
214 690 _l
97 690 _l
97 760 _l
304 760 _l
_cl}_d
/a{{613 0 60 -13 522 560 _sc
343 275 _m
270 275 220 266 192 250 _c
164 233 150 205 150 165 _c
150 133 160 107 181 89 _c
202 70 231 61 267 61 _c
317 61 357 78 387 114 _c
417 149 432 196 432 255 _c
432 275 _l
343 275 _l
522 312 _m
522 0 _l
432 0 _l
432 83 _l
411 49 385 25 355 10 _c
325 -5 287 -13 243 -13 _c
187 -13 142 2 109 33 _c
76 64 60 106 60 159 _c
}_e{60 220 80 266 122 298 _c
163 329 224 345 306 345 _c
432 345 _l
432 354 _l
432 395 418 427 391 450 _c
364 472 326 484 277 484 _c
245 484 215 480 185 472 _c
155 464 127 453 100 439 _c
100 522 _l
132 534 164 544 195 550 _c
226 556 256 560 286 560 _c
365 560 424 539 463 498 _c
502 457 522 395 522 312 _c
_cl}_e}_d
/b{{635 0 91 -13 580 760 _sc
487 273 _m
487 339 473 390 446 428 _c
418 466 381 485 334 485 _c
286 485 249 466 222 428 _c
194 390 181 339 181 273 _c
181 207 194 155 222 117 _c
249 79 286 61 334 61 _c
381 61 418 79 446 117 _c
473 155 487 207 487 273 _c
181 464 _m
199 496 223 520 252 536 _c
281 552 316 560 356 560 _c
422 560 476 533 518 481 _c
559 428 580 359 580 273 _c
}_e{580 187 559 117 518 65 _c
476 13 422 -13 356 -13 _c
316 -13 281 -5 252 10 _c
223 25 199 49 181 82 _c
181 0 _l
91 0 _l
91 760 _l
181 760 _l
181 464 _l
_cl}_e}_d
/c{{550 0 55 -13 488 560 _sc
488 526 _m
488 442 _l
462 456 437 466 411 473 _c
385 480 360 484 334 484 _c
276 484 230 465 198 428 _c
166 391 150 339 150 273 _c
150 206 166 154 198 117 _c
230 80 276 62 334 62 _c
360 62 385 65 411 72 _c
437 79 462 90 488 104 _c
488 21 _l
462 9 436 0 410 -5 _c
383 -10 354 -13 324 -13 _c
242 -13 176 12 128 64 _c
}_e{79 115 55 185 55 273 _c
55 362 79 432 128 483 _c
177 534 244 560 330 560 _c
358 560 385 557 411 551 _c
437 545 463 537 488 526 _c
_cl}_e}_d
/d{{635 0 55 -13 544 760 _sc
454 464 _m
454 760 _l
544 760 _l
544 0 _l
454 0 _l
454 82 _l
435 49 411 25 382 10 _c
353 -5 319 -13 279 -13 _c
213 -13 159 13 117 65 _c
75 117 55 187 55 273 _c
55 359 75 428 117 481 _c
159 533 213 560 279 560 _c
319 560 353 552 382 536 _c
411 520 435 496 454 464 _c
148 273 _m
148 207 161 155 188 117 _c
215 79 253 61 301 61 _c
}_e{348 61 385 79 413 117 _c
440 155 454 207 454 273 _c
454 339 440 390 413 428 _c
385 466 348 485 301 485 _c
253 485 215 466 188 428 _c
161 390 148 339 148 273 _c
_cl}_e}_d
/e{{615 0 55 -13 562 560 _sc
562 296 _m
562 252 _l
149 252 _l
153 190 171 142 205 110 _c
238 78 284 62 344 62 _c
378 62 412 66 444 74 _c
476 82 509 95 541 113 _c
541 28 _l
509 14 476 3 442 -3 _c
408 -9 373 -13 339 -13 _c
251 -13 182 12 131 62 _c
80 112 55 181 55 268 _c
55 357 79 428 127 481 _c
175 533 241 560 323 560 _c
397 560 455 536 498 489 _c
}_e{540 441 562 377 562 296 _c
472 322 _m
471 371 457 410 431 440 _c
404 469 368 484 324 484 _c
274 484 234 469 204 441 _c
174 413 156 373 152 322 _c
472 322 _l
_cl}_e}_d
/g{{635 0 55 -207 544 560 _sc
454 280 _m
454 344 440 395 414 431 _c
387 467 349 485 301 485 _c
253 485 215 467 188 431 _c
161 395 148 344 148 280 _c
148 215 161 165 188 129 _c
215 93 253 75 301 75 _c
349 75 387 93 414 129 _c
440 165 454 215 454 280 _c
544 68 _m
544 -24 523 -93 482 -139 _c
440 -184 377 -207 292 -207 _c
260 -207 231 -204 203 -200 _c
175 -195 147 -188 121 -178 _c
}_e{121 -91 _l
147 -105 173 -115 199 -122 _c
225 -129 251 -133 278 -133 _c
336 -133 380 -117 410 -87 _c
439 -56 454 -10 454 52 _c
454 96 _l
435 64 411 40 382 24 _c
353 8 319 0 279 0 _c
211 0 157 25 116 76 _c
75 127 55 195 55 280 _c
55 364 75 432 116 483 _c
157 534 211 560 279 560 _c
319 560 353 552 382 536 _c
411 520 435 496 454 464 _c
454 547 _l
544 547 _l
}_e{544 68 _l
_cl}_e}_d
/i{278 0 94 0 184 760 _sc
94 547 _m
184 547 _l
184 0 _l
94 0 _l
94 547 _l
94 760 _m
184 760 _l
184 646 _l
94 646 _l
94 760 _l
_cl}_d
/m{{974 0 91 0 889 560 _sc
520 442 _m
542 482 569 511 600 531 _c
631 550 668 560 711 560 _c
767 560 811 540 842 500 _c
873 460 889 403 889 330 _c
889 0 _l
799 0 _l
799 327 _l
799 379 789 418 771 444 _c
752 469 724 482 686 482 _c
639 482 602 466 575 435 _c
548 404 535 362 535 309 _c
535 0 _l
445 0 _l
445 327 _l
445 379 435 418 417 444 _c
398 469 369 482 331 482 _c
}_e{285 482 248 466 221 435 _c
194 404 181 362 181 309 _c
181 0 _l
91 0 _l
91 547 _l
181 547 _l
181 462 _l
201 495 226 520 255 536 _c
283 552 317 560 357 560 _c
397 560 430 550 458 530 _c
486 510 506 480 520 442 _c
_cl}_e}_d
/n{634 0 91 0 549 560 _sc
549 330 _m
549 0 _l
459 0 _l
459 327 _l
459 379 448 417 428 443 _c
408 469 378 482 338 482 _c
289 482 251 466 223 435 _c
195 404 181 362 181 309 _c
181 0 _l
91 0 _l
91 547 _l
181 547 _l
181 462 _l
202 494 227 519 257 535 _c
286 551 320 560 358 560 _c
420 560 468 540 500 501 _c
532 462 549 405 549 330 _c
_cl}_d
/o{612 0 55 -13 557 560 _sc
306 484 _m
258 484 220 465 192 427 _c
164 389 150 338 150 273 _c
150 207 163 156 191 118 _c
219 80 257 62 306 62 _c
354 62 392 80 420 118 _c
448 156 462 207 462 273 _c
462 337 448 389 420 427 _c
392 465 354 484 306 484 _c
306 560 _m
384 560 445 534 490 484 _c
534 433 557 363 557 273 _c
557 183 534 113 490 63 _c
445 12 384 -13 306 -13 _c
227 -13 165 12 121 63 _c
77 113 55 183 55 273 _c
55 363 77 433 121 484 _c
165 534 227 560 306 560 _c
_cl}_d
/q{{635 0 55 -207 544 560 _sc
148 273 _m
148 207 161 155 188 117 _c
215 79 253 61 301 61 _c
348 61 385 79 413 117 _c
440 155 454 207 454 273 _c
454 339 440 390 413 428 _c
385 466 348 485 301 485 _c
253 485 215 466 188 428 _c
161 390 148 339 148 273 _c
454 82 _m
435 49 411 25 382 10 _c
353 -5 319 -13 279 -13 _c
213 -13 159 13 117 65 _c
75 117 55 187 55 273 _c
}_e{55 359 75 428 117 481 _c
159 533 213 560 279 560 _c
319 560 353 552 382 536 _c
411 520 435 496 454 464 _c
454 547 _l
544 547 _l
544 -207 _l
454 -207 _l
454 82 _l
_cl}_e}_d
/r{411 0 91 0 411 560 _sc
411 463 _m
401 469 390 473 378 476 _c
366 478 353 480 339 480 _c
288 480 249 463 222 430 _c
194 397 181 350 181 288 _c
181 0 _l
91 0 _l
91 547 _l
181 547 _l
181 462 _l
199 495 224 520 254 536 _c
284 552 321 560 365 560 _c
371 560 378 559 386 559 _c
393 558 401 557 411 555 _c
411 463 _l
_cl}_d
/s{{521 0 54 -13 472 560 _sc
443 531 _m
443 446 _l
417 458 391 468 364 475 _c
336 481 308 485 279 485 _c
234 485 200 478 178 464 _c
156 450 145 430 145 403 _c
145 382 153 366 169 354 _c
185 342 217 330 265 320 _c
296 313 _l
360 299 405 279 432 255 _c
458 230 472 195 472 151 _c
472 100 452 60 412 31 _c
372 1 316 -13 246 -13 _c
216 -13 186 -10 154 -5 _c
}_e{122 0 89 8 54 20 _c
54 113 _l
87 95 120 82 152 74 _c
184 65 216 61 248 61 _c
290 61 323 68 346 82 _c
368 96 380 117 380 144 _c
380 168 371 187 355 200 _c
339 213 303 226 247 238 _c
216 245 _l
160 257 119 275 95 299 _c
70 323 58 356 58 399 _c
58 450 76 490 112 518 _c
148 546 200 560 268 560 _c
301 560 332 557 362 552 _c
391 547 418 540 443 531 _c
}_e{_cl}_e}_d
/t{392 0 27 0 368 702 _sc
183 702 _m
183 547 _l
368 547 _l
368 477 _l
183 477 _l
183 180 _l
183 135 189 106 201 94 _c
213 81 238 75 276 75 _c
368 75 _l
368 0 _l
276 0 _l
206 0 158 13 132 39 _c
106 65 93 112 93 180 _c
93 477 _l
27 477 _l
27 547 _l
93 547 _l
93 702 _l
183 702 _l
_cl}_d
/u{634 0 85 -13 543 560 _sc
85 216 _m
85 547 _l
175 547 _l
175 219 _l
175 167 185 129 205 103 _c
225 77 255 64 296 64 _c
344 64 383 79 411 110 _c
439 141 453 183 453 237 _c
453 547 _l
543 547 _l
543 0 _l
453 0 _l
453 84 _l
431 50 405 26 377 10 _c
348 -5 315 -13 277 -13 _c
214 -13 166 6 134 45 _c
101 83 85 140 85 216 _c
311 560 _m
311 560 _l
_cl}_d
/x{592 0 29 0 559 547 _sc
549 547 _m
351 281 _l
559 0 _l
453 0 _l
294 215 _l
135 0 _l
29 0 _l
241 286 _l
47 547 _l
153 547 _l
298 352 _l
443 547 _l
549 547 _l
_cl}_d
end readonly def

/BuildGlyph
 {exch begin
 CharStrings exch
 2 copy known not{pop /.notdef}if
 true 3 1 roll get exec
 end}_d

/BuildChar {
 1 index /Encoding get exch get
 1 index /BuildGlyph get exec
}_d

FontName currentdict end definefont pop
%!PS-Adobe-3.0 Resource-Font
%%Title: DejaVu Sans Oblique
%%Copyright: Copyright (c) 2003 by Bitstream, Inc. All Rights Reserved. Copyright (c) 2006 by Tavmjong Bah. All Rights Reserved. DejaVu changes are in public domain 
%%Creator: Converted from TrueType to type 3 by PPR
25 dict begin
/_d{bind def}bind def
/_m{moveto}_d
/_l{lineto}_d
/_cl{closepath eofill}_d
/_c{curveto}_d
/_sc{7 -1 roll{setcachedevice}{pop pop pop pop pop pop}ifelse}_d
/_e{exec}_d
/FontName /DejaVuSans-Oblique def
/PaintType 0 def
/FontMatrix[.001 0 0 .001 0 0]def
/FontBBox[-1016 -350 1659 1068]def
/FontType 3 def
/Encoding [ /a /k /m /q /r /x ] def
/FontInfo 10 dict dup begin
/FamilyName (DejaVu Sans) def
/FullName (DejaVu Sans Oblique) def
/Notice (Copyright (c) 2003 by Bitstream, Inc. All Rights Reserved. Copyright (c) 2006 by Tavmjong Bah. All Rights Reserved. DejaVu changes are in public domain ) def
/Weight (Oblique) def
/Version (Version 2.35) def
/ItalicAngle -11.0 def
/isFixedPitch false def
/UnderlinePosition -130 def
/UnderlineThickness 90 def
end readonly def
/CharStrings 7 dict dup begin
/.notdef 0 def
/a{{613 0 41 -13 547 560 _sc
537 312 _m
476 0 _l
386 0 _l
403 83 _l
376 50 346 26 312 10 _c
278 -5 241 -13 200 -13 _c
153 -13 115 1 85 29 _c
55 57 41 93 41 138 _c
41 202 66 252 117 289 _c
168 326 238 345 328 345 _c
453 345 _l
458 369 _l
458 371 459 374 459 377 _c
459 380 460 385 460 392 _c
460 421 448 444 424 460 _c
400 476 367 484 325 484 _c
}_e{295 484 265 480 235 472 _c
204 464 172 453 140 439 _c
156 522 _l
190 534 223 544 255 550 _c
287 556 319 560 349 560 _c
413 560 462 546 496 518 _c
530 490 547 449 547 396 _c
547 385 546 372 544 358 _c
542 343 540 328 537 312 _c
440 275 _m
350 275 _l
276 275 222 265 187 245 _c
151 225 134 195 134 154 _c
134 125 143 102 161 86 _c
179 70 204 62 236 62 _c
}_e{284 62 327 79 363 114 _c
399 149 424 196 436 255 _c
440 275 _l
_cl}_e}_d
/k{579 0 35 0 612 760 _sc
183 760 _m
273 760 _l
187 317 _l
495 547 _l
612 547 _l
268 285 _l
519 0 _l
410 0 _l
177 267 _l
125 0 _l
35 0 _l
183 760 _l
_cl}_d
/m{{974 0 35 0 906 560 _sc
898 330 _m
834 0 _l
744 0 _l
807 327 _l
809 341 811 353 813 363 _c
814 373 815 381 815 389 _c
815 418 806 441 790 457 _c
774 473 751 482 722 482 _c
678 482 639 465 605 433 _c
571 400 549 357 539 305 _c
479 0 _l
389 0 _l
453 327 _l
455 339 457 350 459 360 _c
460 370 461 380 461 388 _c
461 418 452 441 436 457 _c
420 473 397 482 369 482 _c
}_e{325 482 285 465 251 433 _c
217 400 195 357 185 305 _c
125 0 _l
35 0 _l
142 547 _l
232 547 _l
215 462 _l
239 494 267 518 300 535 _c
333 551 368 560 406 560 _c
445 560 477 549 503 529 _c
529 508 544 479 550 442 _c
577 480 609 510 645 530 _c
681 550 719 560 759 560 _c
805 560 841 546 867 519 _c
893 492 906 454 906 405 _c
906 394 905 382 904 369 _c
}_e{902 356 900 343 898 330 _c
_cl}_e}_d
/q{{635 0 46 -205 597 560 _sc
417 82 _m
393 50 364 27 332 11 _c
299 -5 263 -13 223 -13 _c
167 -13 124 5 93 42 _c
61 79 46 130 46 196 _c
46 248 55 299 75 348 _c
94 397 122 441 158 481 _c
181 506 208 525 239 539 _c
269 553 301 560 335 560 _c
375 560 409 552 435 536 _c
461 520 479 496 491 464 _c
507 546 _l
597 546 _l
451 -205 _l
361 -205 _l
417 82 _l
139 209 _m
}_e{139 161 149 124 169 99 _c
189 73 219 61 257 61 _c
313 61 362 88 402 142 _c
442 196 462 262 462 340 _c
462 386 451 422 431 447 _c
410 472 380 485 342 485 _c
313 485 287 478 263 465 _c
239 451 218 432 200 407 _c
181 380 166 349 155 313 _c
144 277 139 243 139 209 _c
_cl}_e}_d
/r{411 0 35 0 463 560 _sc
446 464 _m
436 468 426 472 414 475 _c
402 477 390 479 377 479 _c
329 479 287 460 251 424 _c
215 388 192 339 180 279 _c
125 0 _l
35 0 _l
142 547 _l
232 547 _l
215 462 _l
238 493 266 517 300 534 _c
333 551 368 560 406 560 _c
415 560 424 559 434 558 _c
444 557 453 555 463 553 _c
446 464 _l
_cl}_d
/x{592 0 -25 0 600 547 _sc
600 547 _m
349 279 _l
503 0 _l
400 0 _l
284 217 _l
83 0 _l
-25 0 _l
243 288 _l
100 547 _l
203 547 _l
308 349 _l
491 547 _l
600 547 _l
_cl}_d
end readonly def

/BuildGlyph
 {exch begin
 CharStrings exch
 2 copy known not{pop /.notdef}if
 true 3 1 roll get exec
 end}_d

/BuildChar {
 1 index /Encoding get exch get
 1 index /BuildGlyph get exec
}_d

FontName currentdict end definefont pop
end
%%EndProlog
mpldict begin
115.181 262.92 translate
381.637 266.16 0 0 clipbox
gsave
0 0 m
381.6375 0 l
381.6375 266.16 l
0 266.16 l
cl
1.000 setgray
fill
grestore
gsave
36.1375 154.66 m
370.9375 154.66 l
370.9375 255.46 l
36.1375 255.46 l
cl
1.000 setgray
fill
grestore
0.800 setlinewidth
1 setlinejoin
0 setlinecap
[0.8 1.32] 0 setdash
0.690 setgray
gsave
334.8 100.8 36.14 154.7 clipbox
36.1375 154.66 m
36.1375 255.46 l
stroke
grestore
[] 0 setdash
0.000 setgray
gsave
/o {
gsave
newpath
translate
0.8 setlinewidth
1 setlinejoin
0 setlinecap
0 0 m
0 -3.5 l

gsave
0.000 setgray
fill
grestore
stroke
grestore
} bind def
36.1375 154.66 o
grestore
/DejaVuSans findfont
8.000 scalefont
setfont
gsave
33.590625 141.581875 translate
0.000000 rotate
0.000000 0.000000 m /zero glyphshow
grestore
[0.8 1.32] 0 setdash
0.690 setgray
gsave
334.8 100.8 36.14 154.7 clipbox
78.795638 154.66 m
78.795638 255.46 l
stroke
grestore
[] 0 setdash
0.000 setgray
gsave
/o {
gsave
newpath
translate
0.8 setlinewidth
1 setlinejoin
0 setlinecap
0 0 m
0 -3.5 l

gsave
0.000 setgray
fill
grestore
stroke
grestore
} bind def
78.7956 154.66 o
grestore
gsave
71.155013 141.581875 translate
0.000000 rotate
0.000000 0.000000 m /two glyphshow
5.089844 0.000000 m /zero glyphshow
10.179688 0.000000 m /zero glyphshow
grestore
[0.8 1.32] 0 setdash
0.690 setgray
gsave
334.8 100.8 36.14 154.7 clipbox
121.453777 154.66 m
121.453777 255.46 l
stroke
grestore
[] 0 setdash
0.000 setgray
gsave
/o {
gsave
newpath
translate
0.8 setlinewidth
1 setlinejoin
0 setlinecap
0 0 m
0 -3.5 l

gsave
0.000 setgray
fill
grestore
stroke
grestore
} bind def
121.454 154.66 o
grestore
gsave
113.813152 141.581875 translate
0.000000 rotate
0.000000 0.000000 m /four glyphshow
5.089844 0.000000 m /zero glyphshow
10.179688 0.000000 m /zero glyphshow
grestore
[0.8 1.32] 0 setdash
0.690 setgray
gsave
334.8 100.8 36.14 154.7 clipbox
164.111915 154.66 m
164.111915 255.46 l
stroke
grestore
[] 0 setdash
0.000 setgray
gsave
/o {
gsave
newpath
translate
0.8 setlinewidth
1 setlinejoin
0 setlinecap
0 0 m
0 -3.5 l

gsave
0.000 setgray
fill
grestore
stroke
grestore
} bind def
164.112 154.66 o
grestore
gsave
156.471290 141.581875 translate
0.000000 rotate
0.000000 0.000000 m /six glyphshow
5.089844 0.000000 m /zero glyphshow
10.179688 0.000000 m /zero glyphshow
grestore
[0.8 1.32] 0 setdash
0.690 setgray
gsave
334.8 100.8 36.14 154.7 clipbox
206.770054 154.66 m
206.770054 255.46 l
stroke
grestore
[] 0 setdash
0.000 setgray
gsave
/o {
gsave
newpath
translate
0.8 setlinewidth
1 setlinejoin
0 setlinecap
0 0 m
0 -3.5 l

gsave
0.000 setgray
fill
grestore
stroke
grestore
} bind def
206.77 154.66 o
grestore
gsave
199.129429 141.581875 translate
0.000000 rotate
0.000000 0.000000 m /eight glyphshow
5.089844 0.000000 m /zero glyphshow
10.179688 0.000000 m /zero glyphshow
grestore
[0.8 1.32] 0 setdash
0.690 setgray
gsave
334.8 100.8 36.14 154.7 clipbox
249.428192 154.66 m
249.428192 255.46 l
stroke
grestore
[] 0 setdash
0.000 setgray
gsave
/o {
gsave
newpath
translate
0.8 setlinewidth
1 setlinejoin
0 setlinecap
0 0 m
0 -3.5 l

gsave
0.000 setgray
fill
grestore
stroke
grestore
} bind def
249.428 154.66 o
grestore
gsave
239.240692 141.581875 translate
0.000000 rotate
0.000000 0.000000 m /one glyphshow
5.089844 0.000000 m /zero glyphshow
10.179688 0.000000 m /zero glyphshow
15.269531 0.000000 m /zero glyphshow
grestore
[0.8 1.32] 0 setdash
0.690 setgray
gsave
334.8 100.8 36.14 154.7 clipbox
292.086331 154.66 m
292.086331 255.46 l
stroke
grestore
[] 0 setdash
0.000 setgray
gsave
/o {
gsave
newpath
translate
0.8 setlinewidth
1 setlinejoin
0 setlinecap
0 0 m
0 -3.5 l

gsave
0.000 setgray
fill
grestore
stroke
grestore
} bind def
292.086 154.66 o
grestore
gsave
281.898831 141.581875 translate
0.000000 rotate
0.000000 0.000000 m /one glyphshow
5.089844 0.000000 m /two glyphshow
10.179688 0.000000 m /zero glyphshow
15.269531 0.000000 m /zero glyphshow
grestore
[0.8 1.32] 0 setdash
0.690 setgray
gsave
334.8 100.8 36.14 154.7 clipbox
334.744469 154.66 m
334.744469 255.46 l
stroke
grestore
[] 0 setdash
0.000 setgray
gsave
/o {
gsave
newpath
translate
0.8 setlinewidth
1 setlinejoin
0 setlinecap
0 0 m
0 -3.5 l

gsave
0.000 setgray
fill
grestore
stroke
grestore
} bind def
334.744 154.66 o
grestore
gsave
324.556969 141.581875 translate
0.000000 rotate
0.000000 0.000000 m /one glyphshow
5.089844 0.000000 m /four glyphshow
10.179688 0.000000 m /zero glyphshow
15.269531 0.000000 m /zero glyphshow
grestore
gsave
172.865625 129.831875 translate
0.000000 rotate
0.000000 0.000000 m /T glyphshow
4.886719 0.000000 m /i glyphshow
7.109375 0.000000 m /m glyphshow
14.902344 0.000000 m /e glyphshow
19.824219 0.000000 m /space glyphshow
22.367188 0.000000 m /bracketleft glyphshow
25.488281 0.000000 m /s glyphshow
29.656250 0.000000 m /e glyphshow
34.578125 0.000000 m /c glyphshow
38.976562 0.000000 m /o glyphshow
43.871094 0.000000 m /n glyphshow
48.941406 0.000000 m /d glyphshow
54.019531 0.000000 m /s glyphshow
58.187500 0.000000 m /bracketright glyphshow
grestore
[0.8 1.32] 0 setdash
0.690 setgray
gsave
334.8 100.8 36.14 154.7 clipbox
36.1375 159.241818 m
370.9375 159.241818 l
stroke
grestore
[] 0 setdash
0.000 setgray
gsave
/o {
gsave
newpath
translate
0.8 setlinewidth
1 setlinejoin
0 setlinecap
0 0 m
-3.5 0 l

gsave
0.000 setgray
fill
grestore
stroke
grestore
} bind def
36.1375 159.242 o
grestore
gsave
24.043750 156.202756 translate
0.000000 rotate
0.000000 0.000000 m /zero glyphshow
grestore
[0.8 1.32] 0 setdash
0.690 setgray
gsave
334.8 100.8 36.14 154.7 clipbox
36.1375 176.211515 m
370.9375 176.211515 l
stroke
grestore
[] 0 setdash
0.000 setgray
gsave
/o {
gsave
newpath
translate
0.8 setlinewidth
1 setlinejoin
0 setlinecap
0 0 m
-3.5 0 l

gsave
0.000 setgray
fill
grestore
stroke
grestore
} bind def
36.1375 176.212 o
grestore
gsave
24.043750 173.172453 translate
0.000000 rotate
0.000000 0.000000 m /five glyphshow
grestore
[0.8 1.32] 0 setdash
0.690 setgray
gsave
334.8 100.8 36.14 154.7 clipbox
36.1375 193.181212 m
370.9375 193.181212 l
stroke
grestore
[] 0 setdash
0.000 setgray
gsave
/o {
gsave
newpath
translate
0.8 setlinewidth
1 setlinejoin
0 setlinecap
0 0 m
-3.5 0 l

gsave
0.000 setgray
fill
grestore
stroke
grestore
} bind def
36.1375 193.181 o
grestore
gsave
18.950000 190.142150 translate
0.000000 rotate
0.000000 0.000000 m /one glyphshow
5.089844 0.000000 m /zero glyphshow
grestore
[0.8 1.32] 0 setdash
0.690 setgray
gsave
334.8 100.8 36.14 154.7 clipbox
36.1375 210.150909 m
370.9375 210.150909 l
stroke
grestore
[] 0 setdash
0.000 setgray
gsave
/o {
gsave
newpath
translate
0.8 setlinewidth
1 setlinejoin
0 setlinecap
0 0 m
-3.5 0 l

gsave
0.000 setgray
fill
grestore
stroke
grestore
} bind def
36.1375 210.151 o
grestore
gsave
18.950000 207.111847 translate
0.000000 rotate
0.000000 0.000000 m /one glyphshow
5.089844 0.000000 m /five glyphshow
grestore
[0.8 1.32] 0 setdash
0.690 setgray
gsave
334.8 100.8 36.14 154.7 clipbox
36.1375 227.120606 m
370.9375 227.120606 l
stroke
grestore
[] 0 setdash
0.000 setgray
gsave
/o {
gsave
newpath
translate
0.8 setlinewidth
1 setlinejoin
0 setlinecap
0 0 m
-3.5 0 l

gsave
0.000 setgray
fill
grestore
stroke
grestore
} bind def
36.1375 227.121 o
grestore
gsave
18.950000 224.081544 translate
0.000000 rotate
0.000000 0.000000 m /two glyphshow
5.089844 0.000000 m /zero glyphshow
grestore
[0.8 1.32] 0 setdash
0.690 setgray
gsave
334.8 100.8 36.14 154.7 clipbox
36.1375 244.090303 m
370.9375 244.090303 l
stroke
grestore
[] 0 setdash
0.000 setgray
gsave
/o {
gsave
newpath
translate
0.8 setlinewidth
1 setlinejoin
0 setlinecap
0 0 m
-3.5 0 l

gsave
0.000 setgray
fill
grestore
stroke
grestore
} bind def
36.1375 244.09 o
grestore
gsave
18.950000 241.051241 translate
0.000000 rotate
0.000000 0.000000 m /two glyphshow
5.089844 0.000000 m /five glyphshow
grestore
gsave
13.278125 196.810000 translate
90.000000 rotate
0.000000 0.000000 m /J glyphshow
2.359375 0.000000 m /o glyphshow
7.253906 0.000000 m /b glyphshow
12.332031 0.000000 m /s glyphshow
grestore
1.500 setlinewidth
2 setlinecap
0.122 0.467 0.706 setrgbcolor
gsave
334.8 100.8 36.14 154.7 clipbox
36.1375 159.241818 m
49.495769 159.241818 l
49.495769 162.635758 l
52.839173 162.635758 l
52.839173 189.787273 l
56.118505 189.787273 l
56.118505 159.241818 l
59.443813 159.241818 l
59.443813 186.393333 l
62.789368 186.393333 l
62.789368 166.029697 l
66.121632 166.029697 l
66.121632 159.241818 l
75.859322 159.241818 l
75.859322 186.393333 l
79.212054 186.393333 l
79.212054 166.029697 l
82.522035 166.029697 l
82.522035 159.241818 l
89.263309 159.241818 l
89.263309 196.575152 l
92.610991 196.575152 l
92.610991 189.787273 l
95.916546 189.787273 l
95.916546 159.241818 l
99.068693 159.241818 l
99.068693 220.332727 l
102.478744 220.332727 l
102.478744 203.36303 l
105.792778 203.36303 l
105.792778 179.605455 l
109.184555 179.605455 l
109.184555 166.029697 l
112.649103 166.029697 l
112.649103 162.635758 l
116.072929 162.635758 l
116.072929 172.817576 l
119.448625 172.817576 l
119.448625 210.150909 l
122.916889 210.150909 l
122.916889 206.75697 l
126.336492 206.75697 l
126.336492 169.423636 l
129.658204 169.423636 l
129.658204 166.029697 l
133.145762 166.029697 l
133.145762 159.241818 l
136.404555 159.241818 l
136.404555 169.423636 l
139.630004 169.423636 l
139.630004 162.635758 l
142.911661 162.635758 l
142.911661 159.241818 l
146.266749 159.241818 l
146.266749 186.393333 l
149.592516 186.393333 l
149.592516 182.999394 l
152.986081 182.999394 l
152.986081 169.423636 l
156.374685 169.423636 l
156.374685 159.241818 l
159.799177 159.241818 l
159.799177 227.120606 l
163.221377 227.120606 l
163.221377 216.938788 l
166.544742 216.938788 l
166.544742 206.75697 l
169.728991 206.75697 l
169.728991 182.999394 l
172.947158 182.999394 l
172.947158 172.817576 l
176.280148 172.817576 l
176.280148 230.514545 l
179.731393 230.514545 l
179.731393 203.36303 l
183.104651 203.36303 l
183.104651 227.120606 l
186.482093 227.120606 l
186.482093 223.726667 l
189.861315 223.726667 l
189.861315 186.393333 l
193.293139 186.393333 l
193.293139 182.999394 l
196.722763 182.999394 l
196.722763 159.241818 l
200.011504 159.241818 l
200.011504 193.181212 l
203.344506 193.181212 l
203.344506 172.817576 l
206.798361 172.817576 l
206.798361 159.241818 l
213.584624 159.241818 l
213.584624 206.75697 l
217.050253 206.75697 l
217.050253 203.36303 l
220.276229 203.36303 l
220.276229 176.211515 l
223.638329 176.211515 l
223.638329 166.029697 l
226.874382 166.029697 l
226.874382 159.241818 l
230.1804 159.241818 l
230.1804 220.332727 l
233.465096 220.332727 l
233.465096 182.999394 l
236.777497 182.999394 l
236.777497 179.605455 l
240.120622 179.605455 l
240.120622 159.241818 l
243.38173 159.241818 l
243.38173 230.514545 l
246.77482 230.514545 l
246.77482 227.120606 l
250.366285 227.120606 l
250.366285 206.75697 l
253.660328 206.75697 l
253.660328 186.393333 l
256.992849 186.393333 l
256.992849 176.211515 l
260.398776 176.211515 l
260.398776 199.969091 l
263.846305 199.969091 l
263.846305 250.878182 l
267.328541 250.878182 l
267.328541 223.726667 l
270.678673 223.726667 l
270.678673 213.544848 l
274.14589 213.544848 l
274.14589 196.575152 l
277.590201 196.575152 l
277.590201 179.605455 l
280.832172 179.605455 l
280.832172 240.696364 l
284.255056 240.696364 l
284.255056 227.120606 l
287.610958 227.120606 l
287.610958 237.302424 l
291.174326 237.302424 l
291.174326 233.908485 l
294.627749 233.908485 l
294.627749 199.969091 l
297.990469 199.969091 l
297.990469 193.181212 l
301.502494 193.181212 l
301.502494 186.393333 l
304.91436 186.393333 l
304.91436 169.423636 l
308.270061 169.423636 l
308.270061 196.575152 l
311.632106 196.575152 l
311.632106 172.817576 l
314.999582 172.817576 l
314.999582 159.241818 l
318.324405 159.241818 l
318.324405 203.36303 l
321.76526 203.36303 l
321.76526 179.605455 l
325.117155 179.605455 l
325.117155 169.423636 l
328.390887 169.423636 l
328.390887 162.635758 l
331.556018 162.635758 l
331.556018 159.241818 l
334.764699 159.241818 l
334.764699 172.817576 l
338.214368 172.817576 l
338.214368 166.029697 l
344.586897 166.029697 l
344.586897 159.241818 l
370.9375 159.241818 l
370.9375 159.241818 l
stroke
grestore
0.800 setlinewidth
0 setlinejoin
[] 0 setdash
0.000 setgray
gsave
36.1375 154.66 m
36.1375 255.46 l
stroke
grestore
gsave
370.9375 154.66 m
370.9375 255.46 l
stroke
grestore
gsave
36.1375 154.66 m
370.9375 154.66 l
stroke
grestore
gsave
36.1375 255.46 m
370.9375 255.46 l
stroke
grestore
1.000 setlinewidth
0 setlinecap
0.800 setgray
gsave
41.7375 236.06 m
137.3375 236.06 l
138.404167 236.06 138.9375 236.593333 138.9375 237.66 c
138.9375 249.86 l
138.9375 250.926667 138.404167 251.46 137.3375 251.46 c
41.7375 251.46 l
40.670833 251.46 40.1375 250.926667 40.1375 249.86 c
40.1375 237.66 l
40.1375 236.593333 40.670833 236.06 41.7375 236.06 c
cl
gsave
1.000 setgray
fill
grestore
stroke
grestore
1.500 setlinewidth
1 setlinejoin
2 setlinecap
[] 0 setdash
0.122 0.467 0.706 setrgbcolor
gsave
43.3375 244.06 m
59.3375 244.06 l
stroke
grestore
0.000 setgray
gsave
65.737500 241.260000 translate
0.000000 rotate
/DejaVuSans findfont
8.0 scalefont
setfont
0.000000 0.921875 moveto
/W glyphshow

7.910156 0.921875 moveto
/a glyphshow

12.812500 0.921875 moveto
/i glyphshow

15.035156 0.921875 moveto
/t glyphshow

18.171875 0.921875 moveto
/i glyphshow

20.394531 0.921875 moveto
/n glyphshow

25.464844 0.921875 moveto
/g glyphshow

30.542969 0.921875 moveto
/space glyphshow

33.085938 0.921875 moveto
/q glyphshow

38.164062 0.921875 moveto
/u glyphshow

43.234375 0.921875 moveto
/e glyphshow

48.156250 0.921875 moveto
/u glyphshow

53.226562 0.921875 moveto
/e glyphshow

58.148438 0.921875 moveto
/space glyphshow

/DejaVuSans-Oblique findfont
8.0 scalefont
setfont
60.691406 0.921875 moveto
/q glyphshow

/DejaVuSans-Oblique findfont
5.6 scalefont
setfont
65.769531 -0.390625 moveto
/k glyphshow


grestore
gsave
36.1375 33.7 m
370.9375 33.7 l
370.9375 134.5 l
36.1375 134.5 l
cl
1.000 setgray
fill
grestore
0.800 setlinewidth
0 setlinecap
[0.8 1.32] 0 setdash
0.690 setgray
gsave
334.8 100.8 36.14 33.7 clipbox
36.1375 33.7 m
36.1375 134.5 l
stroke
grestore
[] 0 setdash
0.000 setgray
gsave
/o {
gsave
newpath
translate
0.8 setlinewidth
1 setlinejoin
0 setlinecap
0 0 m
0 -3.5 l

gsave
0.000 setgray
fill
grestore
stroke
grestore
} bind def
36.1375 33.7 o
grestore
gsave
33.590625 20.621875 translate
0.000000 rotate
0.000000 0.000000 m /zero glyphshow
grestore
[0.8 1.32] 0 setdash
0.690 setgray
gsave
334.8 100.8 36.14 33.7 clipbox
78.795638 33.7 m
78.795638 134.5 l
stroke
grestore
[] 0 setdash
0.000 setgray
gsave
/o {
gsave
newpath
translate
0.8 setlinewidth
1 setlinejoin
0 setlinecap
0 0 m
0 -3.5 l

gsave
0.000 setgray
fill
grestore
stroke
grestore
} bind def
78.7956 33.7 o
grestore
gsave
71.155013 20.621875 translate
0.000000 rotate
0.000000 0.000000 m /two glyphshow
5.089844 0.000000 m /zero glyphshow
10.179688 0.000000 m /zero glyphshow
grestore
[0.8 1.32] 0 setdash
0.690 setgray
gsave
334.8 100.8 36.14 33.7 clipbox
121.453777 33.7 m
121.453777 134.5 l
stroke
grestore
[] 0 setdash
0.000 setgray
gsave
/o {
gsave
newpath
translate
0.8 setlinewidth
1 setlinejoin
0 setlinecap
0 0 m
0 -3.5 l

gsave
0.000 setgray
fill
grestore
stroke
grestore
} bind def
121.454 33.7 o
grestore
gsave
113.813152 20.621875 translate
0.000000 rotate
0.000000 0.000000 m /four glyphshow
5.089844 0.000000 m /zero glyphshow
10.179688 0.000000 m /zero glyphshow
grestore
[0.8 1.32] 0 setdash
0.690 setgray
gsave
334.8 100.8 36.14 33.7 clipbox
164.111915 33.7 m
164.111915 134.5 l
stroke
grestore
[] 0 setdash
0.000 setgray
gsave
/o {
gsave
newpath
translate
0.8 setlinewidth
1 setlinejoin
0 setlinecap
0 0 m
0 -3.5 l

gsave
0.000 setgray
fill
grestore
stroke
grestore
} bind def
164.112 33.7 o
grestore
gsave
156.471290 20.621875 translate
0.000000 rotate
0.000000 0.000000 m /six glyphshow
5.089844 0.000000 m /zero glyphshow
10.179688 0.000000 m /zero glyphshow
grestore
[0.8 1.32] 0 setdash
0.690 setgray
gsave
334.8 100.8 36.14 33.7 clipbox
206.770054 33.7 m
206.770054 134.5 l
stroke
grestore
[] 0 setdash
0.000 setgray
gsave
/o {
gsave
newpath
translate
0.8 setlinewidth
1 setlinejoin
0 setlinecap
0 0 m
0 -3.5 l

gsave
0.000 setgray
fill
grestore
stroke
grestore
} bind def
206.77 33.7 o
grestore
gsave
199.129429 20.621875 translate
0.000000 rotate
0.000000 0.000000 m /eight glyphshow
5.089844 0.000000 m /zero glyphshow
10.179688 0.000000 m /zero glyphshow
grestore
[0.8 1.32] 0 setdash
0.690 setgray
gsave
334.8 100.8 36.14 33.7 clipbox
249.428192 33.7 m
249.428192 134.5 l
stroke
grestore
[] 0 setdash
0.000 setgray
gsave
/o {
gsave
newpath
translate
0.8 setlinewidth
1 setlinejoin
0 setlinecap
0 0 m
0 -3.5 l

gsave
0.000 setgray
fill
grestore
stroke
grestore
} bind def
249.428 33.7 o
grestore
gsave
239.240692 20.621875 translate
0.000000 rotate
0.000000 0.000000 m /one glyphshow
5.089844 0.000000 m /zero glyphshow
10.179688 0.000000 m /zero glyphshow
15.269531 0.000000 m /zero glyphshow
grestore
[0.8 1.32] 0 setdash
0.690 setgray
gsave
334.8 100.8 36.14 33.7 clipbox
292.086331 33.7 m
292.086331 134.5 l
stroke
grestore
[] 0 setdash
0.000 setgray
gsave
/o {
gsave
newpath
translate
0.8 setlinewidth
1 setlinejoin
0 setlinecap
0 0 m
0 -3.5 l

gsave
0.000 setgray
fill
grestore
stroke
grestore
} bind def
292.086 33.7 o
grestore
gsave
281.898831 20.621875 translate
0.000000 rotate
0.000000 0.000000 m /one glyphshow
5.089844 0.000000 m /two glyphshow
10.179688 0.000000 m /zero glyphshow
15.269531 0.000000 m /zero glyphshow
grestore
[0.8 1.32] 0 setdash
0.690 setgray
gsave
334.8 100.8 36.14 33.7 clipbox
334.744469 33.7 m
334.744469 134.5 l
stroke
grestore
[] 0 setdash
0.000 setgray
gsave
/o {
gsave
newpath
translate
0.8 setlinewidth
1 setlinejoin
0 setlinecap
0 0 m
0 -3.5 l

gsave
0.000 setgray
fill
grestore
stroke
grestore
} bind def
334.744 33.7 o
grestore
gsave
324.556969 20.621875 translate
0.000000 rotate
0.000000 0.000000 m /one glyphshow
5.089844 0.000000 m /four glyphshow
10.179688 0.000000 m /zero glyphshow
15.269531 0.000000 m /zero glyphshow
grestore
gsave
172.865625 8.871875 translate
0.000000 rotate
0.000000 0.000000 m /T glyphshow
4.886719 0.000000 m /i glyphshow
7.109375 0.000000 m /m glyphshow
14.902344 0.000000 m /e glyphshow
19.824219 0.000000 m /space glyphshow
22.367188 0.000000 m /bracketleft glyphshow
25.488281 0.000000 m /s glyphshow
29.656250 0.000000 m /e glyphshow
34.578125 0.000000 m /c glyphshow
38.976562 0.000000 m /o glyphshow
43.871094 0.000000 m /n glyphshow
48.941406 0.000000 m /d glyphshow
54.019531 0.000000 m /s glyphshow
58.187500 0.000000 m /bracketright glyphshow
grestore
[0.8 1.32] 0 setdash
0.690 setgray
gsave
334.8 100.8 36.14 33.7 clipbox
36.1375 43.78 m
370.9375 43.78 l
stroke
grestore
[] 0 setdash
0.000 setgray
gsave
/o {
gsave
newpath
translate
0.8 setlinewidth
1 setlinejoin
0 setlinecap
0 0 m
-3.5 0 l

gsave
0.000 setgray
fill
grestore
stroke
grestore
} bind def
36.1375 43.78 o
grestore
gsave
24.043750 40.740938 translate
0.000000 rotate
0.000000 0.000000 m /zero glyphshow
grestore
[0.8 1.32] 0 setdash
0.690 setgray
gsave
334.8 100.8 36.14 33.7 clipbox
36.1375 63.94 m
370.9375 63.94 l
stroke
grestore
[] 0 setdash
0.000 setgray
gsave
/o {
gsave
newpath
translate
0.8 setlinewidth
1 setlinejoin
0 setlinecap
0 0 m
-3.5 0 l

gsave
0.000 setgray
fill
grestore
stroke
grestore
} bind def
36.1375 63.94 o
grestore
gsave
24.043750 60.900938 translate
0.000000 rotate
0.000000 0.000000 m /three glyphshow
grestore
[0.8 1.32] 0 setdash
0.690 setgray
gsave
334.8 100.8 36.14 33.7 clipbox
36.1375 84.1 m
370.9375 84.1 l
stroke
grestore
[] 0 setdash
0.000 setgray
gsave
/o {
gsave
newpath
translate
0.8 setlinewidth
1 setlinejoin
0 setlinecap
0 0 m
-3.5 0 l

gsave
0.000 setgray
fill
grestore
stroke
grestore
} bind def
36.1375 84.1 o
grestore
gsave
24.043750 81.060938 translate
0.000000 rotate
0.000000 0.000000 m /six glyphshow
grestore
[0.8 1.32] 0 setdash
0.690 setgray
gsave
334.8 100.8 36.14 33.7 clipbox
36.1375 104.26 m
370.9375 104.26 l
stroke
grestore
[] 0 setdash
0.000 setgray
gsave
/o {
gsave
newpath
translate
0.8 setlinewidth
1 setlinejoin
0 setlinecap
0 0 m
-3.5 0 l

gsave
0.000 setgray
fill
grestore
stroke
grestore
} bind def
36.1375 104.26 o
grestore
gsave
24.043750 101.220938 translate
0.000000 rotate
0.000000 0.000000 m /nine glyphshow
grestore
[0.8 1.32] 0 setdash
0.690 setgray
gsave
334.8 100.8 36.14 33.7 clipbox
36.1375 124.42 m
370.9375 124.42 l
stroke
grestore
[] 0 setdash
0.000 setgray
gsave
/o {
gsave
newpath
translate
0.8 setlinewidth
1 setlinejoin
0 setlinecap
0 0 m
-3.5 0 l

gsave
0.000 setgray
fill
grestore
stroke
grestore
} bind def
36.1375 124.42 o
grestore
gsave
18.950000 121.380938 translate
0.000000 rotate
0.000000 0.000000 m /one glyphshow
5.089844 0.000000 m /two glyphshow
grestore
gsave
13.278125 63.389063 translate
90.000000 rotate
0.000000 0.000000 m /R glyphshow
5.558594 0.000000 m /e glyphshow
10.480469 0.000000 m /s glyphshow
14.648438 0.000000 m /o glyphshow
19.542969 0.000000 m /u glyphshow
24.613281 0.000000 m /r glyphshow
27.902344 0.000000 m /c glyphshow
32.300781 0.000000 m /e glyphshow
37.222656 0.000000 m /s glyphshow
grestore
1.500 setlinewidth
[5.55 2.4] 0 setdash
0.502 setgray
gsave
334.8 100.8 36.14 33.7 clipbox
36.137515 124.42 m
39.50356 124.42 l
42.84041 124.42 l
46.060851 124.42 l
49.495783 124.42 l
52.839198 124.42 l
56.118522 124.42 l
59.443837 124.42 l
62.789385 124.42 l
66.121652 124.42 l
69.440764 124.42 l
72.681333 124.42 l
75.85934 124.42 l
79.212071 124.42 l
82.522056 124.42 l
85.964125 124.42 l
89.263338 124.42 l
92.61103 124.42 l
95.916565 124.42 l
99.06871 124.42 l
102.478767 124.42 l
105.792796 124.42 l
109.184575 124.42 l
112.649122 124.42 l
116.072945 124.42 l
119.448666 124.42 l
122.916949 124.42 l
126.336515 124.42 l
129.658227 124.42 l
133.145787 124.42 l
136.404573 124.42 l
139.630038 124.42 l
142.911689 124.42 l
146.266766 124.42 l
149.592553 124.42 l
152.986105 124.42 l
156.3747 124.42 l
159.799195 124.42 l
163.221435 124.42 l
166.544763 124.42 l
169.729011 124.42 l
172.947175 124.42 l
176.280163 124.42 l
179.731411 124.42 l
183.10467 124.42 l
186.482156 124.42 l
189.861336 124.42 l
193.293155 124.42 l
196.722789 124.42 l
200.011522 124.42 l
203.344538 124.42 l
206.798378 124.42 l
210.180923 124.42 l
213.58465 124.42 l
217.050295 124.42 l
220.276248 124.42 l
223.638346 124.42 l
226.874397 124.42 l
230.180417 124.42 l
233.465119 124.42 l
236.777516 124.42 l
240.120642 124.42 l
243.381747 124.42 l
246.774841 124.42 l
250.366305 124.42 l
253.660358 124.42 l
256.992867 124.42 l
260.398817 124.42 l
263.84636 124.42 l
267.328614 124.42 l
270.678689 124.42 l
274.145914 124.42 l
277.59022 124.42 l
280.832192 124.42 l
284.255109 124.42 l
287.610977 124.42 l
291.174356 124.42 l
294.627788 124.42 l
297.990492 124.42 l
301.502511 124.42 l
304.914375 124.42 l
308.270079 124.42 l
311.632132 124.42 l
314.999597 124.42 l
318.324425 124.42 l
321.765286 124.42 l
325.117175 124.42 l
328.390906 124.42 l
331.556033 124.42 l
334.764722 124.42 l
338.214402 124.42 l
341.381573 124.42 l
344.586914 124.42 l
347.770141 124.42 l
351.120269 124.42 l
354.427145 124.42 l
357.682802 124.42 l
361.046351 124.42 l
364.343583 124.42 l
367.640401 124.42 l
370.937513 124.42 l
stroke
grestore
2 setlinecap
[] 0 setdash
0.122 0.467 0.706 setrgbcolor
gsave
334.8 100.8 36.14 33.7 clipbox
36.137515 43.78 m
42.84041 43.78 l
42.84041 63.94 l
46.060851 63.94 l
46.060851 90.82 l
49.495783 90.82 l
49.495783 104.26 l
52.839198 104.26 l
52.839198 84.1 l
56.118522 84.1 l
56.118522 110.98 l
59.443837 110.98 l
59.443837 104.26 l
66.121652 104.26 l
66.121652 117.7 l
69.440764 117.7 l
69.440764 84.1 l
72.681333 84.1 l
72.681333 110.98 l
75.85934 110.98 l
75.85934 97.54 l
79.212071 97.54 l
79.212071 90.82 l
82.522056 90.82 l
82.522056 104.26 l
85.964125 104.26 l
85.964125 110.98 l
92.61103 110.98 l
92.61103 117.7 l
99.06871 117.7 l
99.06871 110.98 l
102.478767 110.98 l
102.478767 84.1 l
105.792796 84.1 l
105.792796 124.42 l
109.184575 124.42 l
109.184575 117.7 l
112.649122 117.7 l
112.649122 77.38 l
116.072945 77.38 l
116.072945 104.26 l
119.448666 104.26 l
119.448666 117.7 l
122.916949 117.7 l
122.916949 70.66 l
126.336515 70.66 l
126.336515 124.42 l
133.145787 124.42 l
133.145787 77.38 l
136.404573 77.38 l
136.404573 117.7 l
142.911689 117.7 l
142.911689 63.94 l
146.266766 63.94 l
146.266766 117.7 l
152.986105 117.7 l
152.986105 77.38 l
156.3747 77.38 l
156.3747 90.82 l
159.799195 90.82 l
159.799195 110.98 l
166.544763 110.98 l
166.544763 124.42 l
169.729011 124.42 l
169.729011 110.98 l
172.947175 110.98 l
172.947175 117.7 l
179.731411 117.7 l
179.731411 110.98 l
183.10467 110.98 l
183.10467 124.42 l
186.482156 124.42 l
186.482156 84.1 l
189.861336 84.1 l
189.861336 124.42 l
196.722789 124.42 l
196.722789 97.54 l
200.011522 97.54 l
200.011522 90.82 l
203.344538 90.82 l
203.344538 110.98 l
210.180923 110.98 l
210.180923 124.42 l
217.050295 124.42 l
217.050295 84.1 l
220.276248 84.1 l
220.276248 110.98 l
223.638346 110.98 l
223.638346 117.7 l
226.874397 117.7 l
226.874397 90.82 l
230.180417 90.82 l
230.180417 57.22 l
233.465119 57.22 l
233.465119 124.42 l
240.120642 124.42 l
240.120642 77.38 l
243.381747 77.38 l
243.381747 124.42 l
250.366305 124.42 l
250.366305 90.82 l
253.660358 90.82 l
253.660358 124.42 l
256.992867 124.42 l
256.992867 104.26 l
260.398817 104.26 l
260.398817 117.7 l
263.84636 117.7 l
263.84636 110.98 l
270.678689 110.98 l
270.678689 117.7 l
274.145914 117.7 l
274.145914 97.54 l
277.59022 97.54 l
277.59022 110.98 l
280.832192 110.98 l
280.832192 104.26 l
284.255109 104.26 l
284.255109 97.54 l
287.610977 97.54 l
287.610977 117.7 l
291.174356 117.7 l
291.174356 97.54 l
294.627788 97.54 l
294.627788 117.7 l
297.990492 117.7 l
297.990492 124.42 l
301.502511 124.42 l
301.502511 84.1 l
304.914375 84.1 l
304.914375 110.98 l
308.270079 110.98 l
308.270079 124.42 l
311.632132 124.42 l
311.632132 104.26 l
314.999597 104.26 l
314.999597 117.7 l
318.324425 117.7 l
318.324425 90.82 l
321.765286 90.82 l
321.765286 104.26 l
325.117175 104.26 l
325.117175 117.7 l
328.390906 117.7 l
328.390906 77.38 l
331.556033 77.38 l
331.556033 63.94 l
334.764722 63.94 l
334.764722 97.54 l
338.214402 97.54 l
338.214402 124.42 l
344.586914 124.42 l
344.586914 57.22 l
347.770141 57.22 l
347.770141 117.7 l
351.120269 117.7 l
351.120269 110.98 l
354.427145 110.98 l
354.427145 43.78 l
370.937513 43.78 l
370.937513 43.78 l
stroke
grestore
0.800 setlinewidth
0 setlinejoin
[] 0 setdash
0.000 setgray
gsave
36.1375 33.7 m
36.1375 134.5 l
stroke
grestore
gsave
370.9375 33.7 m
370.9375 134.5 l
stroke
grestore
gsave
36.1375 33.7 m
370.9375 33.7 l
stroke
grestore
gsave
36.1375 134.5 m
370.9375 134.5 l
stroke
grestore
1.000 setlinewidth
0 setlinecap
0.800 setgray
gsave
140.7375 37.7 m
266.3375 37.7 l
267.404167 37.7 267.9375 38.233333 267.9375 39.3 c
267.9375 64.5 l
267.9375 65.566667 267.404167 66.1 266.3375 66.1 c
140.7375 66.1 l
139.670833 66.1 139.1375 65.566667 139.1375 64.5 c
139.1375 39.3 l
139.1375 38.233333 139.670833 37.7 140.7375 37.7 c
cl
gsave
1.000 setgray
fill
grestore
stroke
grestore
1.500 setlinewidth
1 setlinejoin
[5.55 2.4] 0 setdash
0.502 setgray
gsave
142.3375 58.7 m
158.3375 58.7 l
stroke
grestore
0.000 setgray
gsave
164.737500 55.900000 translate
0.000000 rotate
/DejaVuSans findfont
8.0 scalefont
setfont
0.000000 0.921875 moveto
/M glyphshow

6.902344 0.921875 moveto
/a glyphshow

11.804688 0.921875 moveto
/x glyphshow

16.539062 0.921875 moveto
/i glyphshow

18.761719 0.921875 moveto
/m glyphshow

26.554688 0.921875 moveto
/u glyphshow

31.625000 0.921875 moveto
/m glyphshow

39.417969 0.921875 moveto
/space glyphshow

41.960938 0.921875 moveto
/r glyphshow

45.250000 0.921875 moveto
/e glyphshow

50.171875 0.921875 moveto
/s glyphshow

54.339844 0.921875 moveto
/o glyphshow

59.234375 0.921875 moveto
/u glyphshow

64.304688 0.921875 moveto
/r glyphshow

67.593750 0.921875 moveto
/c glyphshow

71.992188 0.921875 moveto
/e glyphshow

76.914062 0.921875 moveto
/s glyphshow

81.082031 0.921875 moveto
/space glyphshow

/DejaVuSans-Oblique findfont
8.0 scalefont
setfont
83.625000 0.921875 moveto
/r glyphshow

/DejaVuSans-Oblique findfont
5.6 scalefont
setfont
86.914062 -0.390625 moveto
/m glyphshow

92.369141 -0.390625 moveto
/a glyphshow

95.800781 -0.390625 moveto
/x glyphshow


grestore
2 setlinecap
[] 0 setdash
0.122 0.467 0.706 setrgbcolor
gsave
142.3375 45.7 m
158.3375 45.7 l
stroke
grestore
0.000 setgray
gsave
164.737500 42.900000 translate
0.000000 rotate
/DejaVuSans findfont
8.0 scalefont
setfont
0.000000 0.921875 moveto
/U glyphshow

5.855469 0.921875 moveto
/s glyphshow

10.023438 0.921875 moveto
/e glyphshow

14.945312 0.921875 moveto
/d glyphshow

20.023438 0.921875 moveto
/space glyphshow

22.566406 0.921875 moveto
/r glyphshow

25.855469 0.921875 moveto
/e glyphshow

30.777344 0.921875 moveto
/s glyphshow

34.945312 0.921875 moveto
/o glyphshow

39.839844 0.921875 moveto
/u glyphshow

44.910156 0.921875 moveto
/r glyphshow

48.199219 0.921875 moveto
/c glyphshow

52.597656 0.921875 moveto
/e glyphshow

57.519531 0.921875 moveto
/s glyphshow

61.687500 0.921875 moveto
/space glyphshow

/DejaVuSans-Oblique findfont
8.0 scalefont
setfont
64.230469 0.921875 moveto
/r glyphshow

/DejaVuSans-Oblique findfont
5.6 scalefont
setfont
67.519531 -0.390625 moveto
/k glyphshow


grestore

end
showpage
