%!PS-Adobe-3.0 EPSF-3.0
%%Title: results_fs.eps
%%Creator: matplotlib version 2.2.3, http://matplotlib.org/
%%CreationDate: Fri Sep 14 10:37:20 2018
%%Orientation: portrait
%%BoundingBox: 115 265 496 526
%%EndComments
%%BeginProlog
/mpldict 9 dict def
mpldict begin
/m { moveto } bind def
/l { lineto } bind def
/r { rlineto } bind def
/c { curveto } bind def
/cl { closepath } bind def
/box {
m
1 index 0 r
0 exch r
neg 0 r
cl
} bind def
/clipbox {
box
clip
newpath
} bind def
%!PS-Adobe-3.0 Resource-Font
%%Title: DejaVu Sans Oblique
%%Copyright: Copyright (c) 2003 by Bitstream, Inc. All Rights Reserved. Copyright (c) 2006 by Tavmjong Bah. All Rights Reserved. DejaVu changes are in public domain 
%%Creator: Converted from TrueType to type 3 by PPR
25 dict begin
/_d{bind def}bind def
/_m{moveto}_d
/_l{lineto}_d
/_cl{closepath eofill}_d
/_c{curveto}_d
/_sc{7 -1 roll{setcachedevice}{pop pop pop pop pop pop}ifelse}_d
/_e{exec}_d
/FontName /DejaVuSans-Oblique def
/PaintType 0 def
/FontMatrix[.001 0 0 .001 0 0]def
/FontBBox[-1016 -350 1659 1068]def
/FontType 3 def
/Encoding [ /a /f /k /m /q /r /x ] def
/FontInfo 10 dict dup begin
/FamilyName (DejaVu Sans) def
/FullName (DejaVu Sans Oblique) def
/Notice (Copyright (c) 2003 by Bitstream, Inc. All Rights Reserved. Copyright (c) 2006 by Tavmjong Bah. All Rights Reserved. DejaVu changes are in public domain ) def
/Weight (Oblique) def
/Version (Version 2.35) def
/ItalicAngle -11.0 def
/isFixedPitch false def
/UnderlinePosition -130 def
/UnderlineThickness 90 def
end readonly def
/CharStrings 8 dict dup begin
/.notdef 0 def
/a{{613 0 41 -13 547 560 _sc
537 312 _m
476 0 _l
386 0 _l
403 83 _l
376 50 346 26 312 10 _c
278 -5 241 -13 200 -13 _c
153 -13 115 1 85 29 _c
55 57 41 93 41 138 _c
41 202 66 252 117 289 _c
168 326 238 345 328 345 _c
453 345 _l
458 369 _l
458 371 459 374 459 377 _c
459 380 460 385 460 392 _c
460 421 448 444 424 460 _c
400 476 367 484 325 484 _c
}_e{295 484 265 480 235 472 _c
204 464 172 453 140 439 _c
156 522 _l
190 534 223 544 255 550 _c
287 556 319 560 349 560 _c
413 560 462 546 496 518 _c
530 490 547 449 547 396 _c
547 385 546 372 544 358 _c
542 343 540 328 537 312 _c
440 275 _m
350 275 _l
276 275 222 265 187 245 _c
151 225 134 195 134 154 _c
134 125 143 102 161 86 _c
179 70 204 62 236 62 _c
}_e{284 62 327 79 363 114 _c
399 149 424 196 436 255 _c
440 275 _l
_cl}_e}_d
/f{352 0 68 0 478 760 _sc
478 760 _m
464 685 _l
378 685 _l
345 685 321 678 307 665 _c
292 652 281 629 274 595 _c
264 547 _l
412 547 _l
399 477 _l
251 477 _l
158 0 _l
68 0 _l
161 477 _l
75 477 _l
88 547 _l
174 547 _l
181 585 _l
193 649 215 695 246 721 _c
277 747 326 760 393 760 _c
478 760 _l
_cl}_d
/k{579 0 35 0 612 760 _sc
183 760 _m
273 760 _l
187 317 _l
495 547 _l
612 547 _l
268 285 _l
519 0 _l
410 0 _l
177 267 _l
125 0 _l
35 0 _l
183 760 _l
_cl}_d
/m{{974 0 35 0 906 560 _sc
898 330 _m
834 0 _l
744 0 _l
807 327 _l
809 341 811 353 813 363 _c
814 373 815 381 815 389 _c
815 418 806 441 790 457 _c
774 473 751 482 722 482 _c
678 482 639 465 605 433 _c
571 400 549 357 539 305 _c
479 0 _l
389 0 _l
453 327 _l
455 339 457 350 459 360 _c
460 370 461 380 461 388 _c
461 418 452 441 436 457 _c
420 473 397 482 369 482 _c
}_e{325 482 285 465 251 433 _c
217 400 195 357 185 305 _c
125 0 _l
35 0 _l
142 547 _l
232 547 _l
215 462 _l
239 494 267 518 300 535 _c
333 551 368 560 406 560 _c
445 560 477 549 503 529 _c
529 508 544 479 550 442 _c
577 480 609 510 645 530 _c
681 550 719 560 759 560 _c
805 560 841 546 867 519 _c
893 492 906 454 906 405 _c
906 394 905 382 904 369 _c
}_e{902 356 900 343 898 330 _c
_cl}_e}_d
/q{{635 0 46 -205 597 560 _sc
417 82 _m
393 50 364 27 332 11 _c
299 -5 263 -13 223 -13 _c
167 -13 124 5 93 42 _c
61 79 46 130 46 196 _c
46 248 55 299 75 348 _c
94 397 122 441 158 481 _c
181 506 208 525 239 539 _c
269 553 301 560 335 560 _c
375 560 409 552 435 536 _c
461 520 479 496 491 464 _c
507 546 _l
597 546 _l
451 -205 _l
361 -205 _l
417 82 _l
139 209 _m
}_e{139 161 149 124 169 99 _c
189 73 219 61 257 61 _c
313 61 362 88 402 142 _c
442 196 462 262 462 340 _c
462 386 451 422 431 447 _c
410 472 380 485 342 485 _c
313 485 287 478 263 465 _c
239 451 218 432 200 407 _c
181 380 166 349 155 313 _c
144 277 139 243 139 209 _c
_cl}_e}_d
/r{411 0 35 0 463 560 _sc
446 464 _m
436 468 426 472 414 475 _c
402 477 390 479 377 479 _c
329 479 287 460 251 424 _c
215 388 192 339 180 279 _c
125 0 _l
35 0 _l
142 547 _l
232 547 _l
215 462 _l
238 493 266 517 300 534 _c
333 551 368 560 406 560 _c
415 560 424 559 434 558 _c
444 557 453 555 463 553 _c
446 464 _l
_cl}_d
/x{592 0 -25 0 600 547 _sc
600 547 _m
349 279 _l
503 0 _l
400 0 _l
284 217 _l
83 0 _l
-25 0 _l
243 288 _l
100 547 _l
203 547 _l
308 349 _l
491 547 _l
600 547 _l
_cl}_d
end readonly def

/BuildGlyph
 {exch begin
 CharStrings exch
 2 copy known not{pop /.notdef}if
 true 3 1 roll get exec
 end}_d

/BuildChar {
 1 index /Encoding get exch get
 1 index /BuildGlyph get exec
}_d

FontName currentdict end definefont pop
%!PS-Adobe-3.0 Resource-Font
%%Title: DejaVu Sans
%%Copyright: Copyright (c) 2003 by Bitstream, Inc. All Rights Reserved. Copyright (c) 2006 by Tavmjong Bah. All Rights Reserved. DejaVu changes are in public domain 
%%Creator: Converted from TrueType to type 3 by PPR
25 dict begin
/_d{bind def}bind def
/_m{moveto}_d
/_l{lineto}_d
/_cl{closepath eofill}_d
/_c{curveto}_d
/_sc{7 -1 roll{setcachedevice}{pop pop pop pop pop pop}ifelse}_d
/_e{exec}_d
/FontName /DejaVuSans def
/PaintType 0 def
/FontMatrix[.001 0 0 .001 0 0]def
/FontBBox[-1021 -463 1793 1232]def
/FontType 3 def
/Encoding [ /space /zero /one /two /three /four /five /six /A /F /J /R /T /W /bracketleft /bracketright /a /b /c /d /e /f /g /i /j /l /m /n /o /r /s /t /u /v ] def
/FontInfo 10 dict dup begin
/FamilyName (DejaVu Sans) def
/FullName (DejaVu Sans) def
/Notice (Copyright (c) 2003 by Bitstream, Inc. All Rights Reserved. Copyright (c) 2006 by Tavmjong Bah. All Rights Reserved. DejaVu changes are in public domain ) def
/Weight (Book) def
/Version (Version 2.35) def
/ItalicAngle 0.0 def
/isFixedPitch false def
/UnderlinePosition -130 def
/UnderlineThickness 90 def
end readonly def
/CharStrings 35 dict dup begin
/.notdef 0 def
/space{318 0 0 0 0 0 _sc
}_d
/zero{636 0 66 -13 570 742 _sc
318 664 _m
267 664 229 639 203 589 _c
177 539 165 464 165 364 _c
165 264 177 189 203 139 _c
229 89 267 64 318 64 _c
369 64 407 89 433 139 _c
458 189 471 264 471 364 _c
471 464 458 539 433 589 _c
407 639 369 664 318 664 _c
318 742 _m
399 742 461 709 505 645 _c
548 580 570 486 570 364 _c
570 241 548 147 505 83 _c
461 19 399 -13 318 -13 _c
236 -13 173 19 130 83 _c
87 147 66 241 66 364 _c
66 486 87 580 130 645 _c
173 709 236 742 318 742 _c
_cl}_d
/one{636 0 110 0 544 729 _sc
124 83 _m
285 83 _l
285 639 _l
110 604 _l
110 694 _l
284 729 _l
383 729 _l
383 83 _l
544 83 _l
544 0 _l
124 0 _l
124 83 _l
_cl}_d
/two{{636 0 73 0 536 742 _sc
192 83 _m
536 83 _l
536 0 _l
73 0 _l
73 83 _l
110 121 161 173 226 239 _c
290 304 331 346 348 365 _c
380 400 402 430 414 455 _c
426 479 433 504 433 528 _c
433 566 419 598 392 622 _c
365 646 330 659 286 659 _c
255 659 222 653 188 643 _c
154 632 117 616 78 594 _c
78 694 _l
118 710 155 722 189 730 _c
223 738 255 742 284 742 _c
}_e{359 742 419 723 464 685 _c
509 647 532 597 532 534 _c
532 504 526 475 515 449 _c
504 422 484 390 454 354 _c
446 344 420 317 376 272 _c
332 227 271 164 192 83 _c
_cl}_e}_d
/three{{636 0 76 -13 556 742 _sc
406 393 _m
453 383 490 362 516 330 _c
542 298 556 258 556 212 _c
556 140 531 84 482 45 _c
432 6 362 -13 271 -13 _c
240 -13 208 -10 176 -4 _c
144 1 110 10 76 22 _c
76 117 _l
103 101 133 89 166 81 _c
198 73 232 69 268 69 _c
330 69 377 81 409 105 _c
441 129 458 165 458 212 _c
458 254 443 288 413 312 _c
383 336 341 349 287 349 _c
}_e{202 349 _l
202 430 _l
291 430 _l
339 430 376 439 402 459 _c
428 478 441 506 441 543 _c
441 580 427 609 401 629 _c
374 649 336 659 287 659 _c
260 659 231 656 200 650 _c
169 644 135 635 98 623 _c
98 711 _l
135 721 170 729 203 734 _c
235 739 266 742 296 742 _c
370 742 429 725 473 691 _c
517 657 539 611 539 553 _c
539 513 527 479 504 451 _c
481 423 448 403 406 393 _c
_cl}_e}_d
/four{636 0 49 0 580 729 _sc
378 643 _m
129 254 _l
378 254 _l
378 643 _l
352 729 _m
476 729 _l
476 254 _l
580 254 _l
580 172 _l
476 172 _l
476 0 _l
378 0 _l
378 172 _l
49 172 _l
49 267 _l
352 729 _l
_cl}_d
/five{{636 0 77 -13 549 729 _sc
108 729 _m
495 729 _l
495 646 _l
198 646 _l
198 467 _l
212 472 227 476 241 478 _c
255 480 270 482 284 482 _c
365 482 429 459 477 415 _c
525 370 549 310 549 234 _c
549 155 524 94 475 51 _c
426 8 357 -13 269 -13 _c
238 -13 207 -10 175 -6 _c
143 -1 111 6 77 17 _c
77 116 _l
106 100 136 88 168 80 _c
199 72 232 69 267 69 _c
}_e{323 69 368 83 401 113 _c
433 143 450 183 450 234 _c
450 284 433 324 401 354 _c
368 384 323 399 267 399 _c
241 399 214 396 188 390 _c
162 384 135 375 108 363 _c
108 729 _l
_cl}_e}_d
/six{{636 0 70 -13 573 742 _sc
330 404 _m
286 404 251 388 225 358 _c
199 328 186 286 186 234 _c
186 181 199 139 225 109 _c
251 79 286 64 330 64 _c
374 64 409 79 435 109 _c
461 139 474 181 474 234 _c
474 286 461 328 435 358 _c
409 388 374 404 330 404 _c
526 713 _m
526 623 _l
501 635 476 644 451 650 _c
425 656 400 659 376 659 _c
310 659 260 637 226 593 _c
}_e{192 549 172 482 168 394 _c
187 422 211 444 240 459 _c
269 474 301 482 336 482 _c
409 482 467 459 509 415 _c
551 371 573 310 573 234 _c
573 159 550 99 506 54 _c
462 9 403 -13 330 -13 _c
246 -13 181 19 137 83 _c
92 147 70 241 70 364 _c
70 479 97 571 152 639 _c
206 707 280 742 372 742 _c
396 742 421 739 447 735 _c
472 730 498 723 526 713 _c
_cl}_e}_d
/A{684 0 8 0 676 729 _sc
342 632 _m
208 269 _l
476 269 _l
342 632 _l
286 729 _m
398 729 _l
676 0 _l
573 0 _l
507 187 _l
178 187 _l
112 0 _l
8 0 _l
286 729 _l
_cl}_d
/F{575 0 98 0 517 729 _sc
98 729 _m
517 729 _l
517 646 _l
197 646 _l
197 431 _l
486 431 _l
486 348 _l
197 348 _l
197 0 _l
98 0 _l
98 729 _l
_cl}_d
/J{295 0 -51 -199 197 729 _sc
98 729 _m
197 729 _l
197 51 _l
197 -36 180 -99 147 -139 _c
113 -179 60 -199 -13 -199 _c
-51 -199 _l
-51 -116 _l
-20 -116 _l
22 -116 53 -103 71 -79 _c
89 -55 98 -11 98 51 _c
98 729 _l
_cl}_d
/R{{695 0 98 0 666 729 _sc
444 342 _m
465 334 486 319 506 296 _c
526 272 546 240 566 199 _c
666 0 _l
560 0 _l
467 187 _l
443 235 419 268 397 284 _c
374 300 343 308 304 308 _c
197 308 _l
197 0 _l
98 0 _l
98 729 _l
321 729 _l
404 729 466 711 507 677 _c
548 642 569 589 569 519 _c
569 473 558 434 537 404 _c
515 374 484 353 444 342 _c
197 648 _m
197 389 _l
321 389 _l
}_e{368 389 404 400 428 422 _c
452 444 465 476 465 519 _c
465 561 452 593 428 615 _c
404 637 368 648 321 648 _c
197 648 _l
_cl}_e}_d
/T{611 0 -2 0 614 729 _sc
-2 729 _m
614 729 _l
614 646 _l
355 646 _l
355 0 _l
256 0 _l
256 646 _l
-2 646 _l
-2 729 _l
_cl}_d
/W{989 0 33 0 956 729 _sc
33 729 _m
133 729 _l
286 113 _l
439 729 _l
550 729 _l
703 113 _l
856 729 _l
956 729 _l
773 0 _l
649 0 _l
495 633 _l
340 0 _l
216 0 _l
33 729 _l
_cl}_d
/bracketleft{390 0 86 -131 293 760 _sc
86 760 _m
293 760 _l
293 690 _l
176 690 _l
176 -61 _l
293 -61 _l
293 -131 _l
86 -131 _l
86 760 _l
_cl}_d
/bracketright{390 0 97 -131 304 760 _sc
304 760 _m
304 -131 _l
97 -131 _l
97 -61 _l
214 -61 _l
214 690 _l
97 690 _l
97 760 _l
304 760 _l
_cl}_d
/a{{613 0 60 -13 522 560 _sc
343 275 _m
270 275 220 266 192 250 _c
164 233 150 205 150 165 _c
150 133 160 107 181 89 _c
202 70 231 61 267 61 _c
317 61 357 78 387 114 _c
417 149 432 196 432 255 _c
432 275 _l
343 275 _l
522 312 _m
522 0 _l
432 0 _l
432 83 _l
411 49 385 25 355 10 _c
325 -5 287 -13 243 -13 _c
187 -13 142 2 109 33 _c
76 64 60 106 60 159 _c
}_e{60 220 80 266 122 298 _c
163 329 224 345 306 345 _c
432 345 _l
432 354 _l
432 395 418 427 391 450 _c
364 472 326 484 277 484 _c
245 484 215 480 185 472 _c
155 464 127 453 100 439 _c
100 522 _l
132 534 164 544 195 550 _c
226 556 256 560 286 560 _c
365 560 424 539 463 498 _c
502 457 522 395 522 312 _c
_cl}_e}_d
/b{{635 0 91 -13 580 760 _sc
487 273 _m
487 339 473 390 446 428 _c
418 466 381 485 334 485 _c
286 485 249 466 222 428 _c
194 390 181 339 181 273 _c
181 207 194 155 222 117 _c
249 79 286 61 334 61 _c
381 61 418 79 446 117 _c
473 155 487 207 487 273 _c
181 464 _m
199 496 223 520 252 536 _c
281 552 316 560 356 560 _c
422 560 476 533 518 481 _c
559 428 580 359 580 273 _c
}_e{580 187 559 117 518 65 _c
476 13 422 -13 356 -13 _c
316 -13 281 -5 252 10 _c
223 25 199 49 181 82 _c
181 0 _l
91 0 _l
91 760 _l
181 760 _l
181 464 _l
_cl}_e}_d
/c{{550 0 55 -13 488 560 _sc
488 526 _m
488 442 _l
462 456 437 466 411 473 _c
385 480 360 484 334 484 _c
276 484 230 465 198 428 _c
166 391 150 339 150 273 _c
150 206 166 154 198 117 _c
230 80 276 62 334 62 _c
360 62 385 65 411 72 _c
437 79 462 90 488 104 _c
488 21 _l
462 9 436 0 410 -5 _c
383 -10 354 -13 324 -13 _c
242 -13 176 12 128 64 _c
}_e{79 115 55 185 55 273 _c
55 362 79 432 128 483 _c
177 534 244 560 330 560 _c
358 560 385 557 411 551 _c
437 545 463 537 488 526 _c
_cl}_e}_d
/d{{635 0 55 -13 544 760 _sc
454 464 _m
454 760 _l
544 760 _l
544 0 _l
454 0 _l
454 82 _l
435 49 411 25 382 10 _c
353 -5 319 -13 279 -13 _c
213 -13 159 13 117 65 _c
75 117 55 187 55 273 _c
55 359 75 428 117 481 _c
159 533 213 560 279 560 _c
319 560 353 552 382 536 _c
411 520 435 496 454 464 _c
148 273 _m
148 207 161 155 188 117 _c
215 79 253 61 301 61 _c
}_e{348 61 385 79 413 117 _c
440 155 454 207 454 273 _c
454 339 440 390 413 428 _c
385 466 348 485 301 485 _c
253 485 215 466 188 428 _c
161 390 148 339 148 273 _c
_cl}_e}_d
/e{{615 0 55 -13 562 560 _sc
562 296 _m
562 252 _l
149 252 _l
153 190 171 142 205 110 _c
238 78 284 62 344 62 _c
378 62 412 66 444 74 _c
476 82 509 95 541 113 _c
541 28 _l
509 14 476 3 442 -3 _c
408 -9 373 -13 339 -13 _c
251 -13 182 12 131 62 _c
80 112 55 181 55 268 _c
55 357 79 428 127 481 _c
175 533 241 560 323 560 _c
397 560 455 536 498 489 _c
}_e{540 441 562 377 562 296 _c
472 322 _m
471 371 457 410 431 440 _c
404 469 368 484 324 484 _c
274 484 234 469 204 441 _c
174 413 156 373 152 322 _c
472 322 _l
_cl}_e}_d
/f{352 0 23 0 371 760 _sc
371 760 _m
371 685 _l
285 685 _l
253 685 230 678 218 665 _c
205 652 199 629 199 595 _c
199 547 _l
347 547 _l
347 477 _l
199 477 _l
199 0 _l
109 0 _l
109 477 _l
23 477 _l
23 547 _l
109 547 _l
109 585 _l
109 645 123 690 151 718 _c
179 746 224 760 286 760 _c
371 760 _l
_cl}_d
/g{{635 0 55 -207 544 560 _sc
454 280 _m
454 344 440 395 414 431 _c
387 467 349 485 301 485 _c
253 485 215 467 188 431 _c
161 395 148 344 148 280 _c
148 215 161 165 188 129 _c
215 93 253 75 301 75 _c
349 75 387 93 414 129 _c
440 165 454 215 454 280 _c
544 68 _m
544 -24 523 -93 482 -139 _c
440 -184 377 -207 292 -207 _c
260 -207 231 -204 203 -200 _c
175 -195 147 -188 121 -178 _c
}_e{121 -91 _l
147 -105 173 -115 199 -122 _c
225 -129 251 -133 278 -133 _c
336 -133 380 -117 410 -87 _c
439 -56 454 -10 454 52 _c
454 96 _l
435 64 411 40 382 24 _c
353 8 319 0 279 0 _c
211 0 157 25 116 76 _c
75 127 55 195 55 280 _c
55 364 75 432 116 483 _c
157 534 211 560 279 560 _c
319 560 353 552 382 536 _c
411 520 435 496 454 464 _c
454 547 _l
544 547 _l
}_e{544 68 _l
_cl}_e}_d
/i{278 0 94 0 184 760 _sc
94 547 _m
184 547 _l
184 0 _l
94 0 _l
94 547 _l
94 760 _m
184 760 _l
184 646 _l
94 646 _l
94 760 _l
_cl}_d
/j{278 0 -17 -207 184 760 _sc
94 547 _m
184 547 _l
184 -9 _l
184 -78 170 -128 144 -160 _c
117 -191 74 -207 16 -207 _c
-17 -207 _l
-17 -131 _l
6 -131 _l
40 -131 63 -123 75 -107 _c
87 -91 94 -58 94 -9 _c
94 547 _l
94 760 _m
184 760 _l
184 646 _l
94 646 _l
94 760 _l
_cl}_d
/l{278 0 94 0 184 760 _sc
94 760 _m
184 760 _l
184 0 _l
94 0 _l
94 760 _l
_cl}_d
/m{{974 0 91 0 889 560 _sc
520 442 _m
542 482 569 511 600 531 _c
631 550 668 560 711 560 _c
767 560 811 540 842 500 _c
873 460 889 403 889 330 _c
889 0 _l
799 0 _l
799 327 _l
799 379 789 418 771 444 _c
752 469 724 482 686 482 _c
639 482 602 466 575 435 _c
548 404 535 362 535 309 _c
535 0 _l
445 0 _l
445 327 _l
445 379 435 418 417 444 _c
398 469 369 482 331 482 _c
}_e{285 482 248 466 221 435 _c
194 404 181 362 181 309 _c
181 0 _l
91 0 _l
91 547 _l
181 547 _l
181 462 _l
201 495 226 520 255 536 _c
283 552 317 560 357 560 _c
397 560 430 550 458 530 _c
486 510 506 480 520 442 _c
_cl}_e}_d
/n{634 0 91 0 549 560 _sc
549 330 _m
549 0 _l
459 0 _l
459 327 _l
459 379 448 417 428 443 _c
408 469 378 482 338 482 _c
289 482 251 466 223 435 _c
195 404 181 362 181 309 _c
181 0 _l
91 0 _l
91 547 _l
181 547 _l
181 462 _l
202 494 227 519 257 535 _c
286 551 320 560 358 560 _c
420 560 468 540 500 501 _c
532 462 549 405 549 330 _c
_cl}_d
/o{612 0 55 -13 557 560 _sc
306 484 _m
258 484 220 465 192 427 _c
164 389 150 338 150 273 _c
150 207 163 156 191 118 _c
219 80 257 62 306 62 _c
354 62 392 80 420 118 _c
448 156 462 207 462 273 _c
462 337 448 389 420 427 _c
392 465 354 484 306 484 _c
306 560 _m
384 560 445 534 490 484 _c
534 433 557 363 557 273 _c
557 183 534 113 490 63 _c
445 12 384 -13 306 -13 _c
227 -13 165 12 121 63 _c
77 113 55 183 55 273 _c
55 363 77 433 121 484 _c
165 534 227 560 306 560 _c
_cl}_d
/r{411 0 91 0 411 560 _sc
411 463 _m
401 469 390 473 378 476 _c
366 478 353 480 339 480 _c
288 480 249 463 222 430 _c
194 397 181 350 181 288 _c
181 0 _l
91 0 _l
91 547 _l
181 547 _l
181 462 _l
199 495 224 520 254 536 _c
284 552 321 560 365 560 _c
371 560 378 559 386 559 _c
393 558 401 557 411 555 _c
411 463 _l
_cl}_d
/s{{521 0 54 -13 472 560 _sc
443 531 _m
443 446 _l
417 458 391 468 364 475 _c
336 481 308 485 279 485 _c
234 485 200 478 178 464 _c
156 450 145 430 145 403 _c
145 382 153 366 169 354 _c
185 342 217 330 265 320 _c
296 313 _l
360 299 405 279 432 255 _c
458 230 472 195 472 151 _c
472 100 452 60 412 31 _c
372 1 316 -13 246 -13 _c
216 -13 186 -10 154 -5 _c
}_e{122 0 89 8 54 20 _c
54 113 _l
87 95 120 82 152 74 _c
184 65 216 61 248 61 _c
290 61 323 68 346 82 _c
368 96 380 117 380 144 _c
380 168 371 187 355 200 _c
339 213 303 226 247 238 _c
216 245 _l
160 257 119 275 95 299 _c
70 323 58 356 58 399 _c
58 450 76 490 112 518 _c
148 546 200 560 268 560 _c
301 560 332 557 362 552 _c
391 547 418 540 443 531 _c
}_e{_cl}_e}_d
/t{392 0 27 0 368 702 _sc
183 702 _m
183 547 _l
368 547 _l
368 477 _l
183 477 _l
183 180 _l
183 135 189 106 201 94 _c
213 81 238 75 276 75 _c
368 75 _l
368 0 _l
276 0 _l
206 0 158 13 132 39 _c
106 65 93 112 93 180 _c
93 477 _l
27 477 _l
27 547 _l
93 547 _l
93 702 _l
183 702 _l
_cl}_d
/u{634 0 85 -13 543 560 _sc
85 216 _m
85 547 _l
175 547 _l
175 219 _l
175 167 185 129 205 103 _c
225 77 255 64 296 64 _c
344 64 383 79 411 110 _c
439 141 453 183 453 237 _c
453 547 _l
543 547 _l
543 0 _l
453 0 _l
453 84 _l
431 50 405 26 377 10 _c
348 -5 315 -13 277 -13 _c
214 -13 166 6 134 45 _c
101 83 85 140 85 216 _c
311 560 _m
311 560 _l
_cl}_d
/v{592 0 30 0 562 547 _sc
30 547 _m
125 547 _l
296 88 _l
467 547 _l
562 547 _l
357 0 _l
235 0 _l
30 547 _l
_cl}_d
end readonly def

/BuildGlyph
 {exch begin
 CharStrings exch
 2 copy known not{pop /.notdef}if
 true 3 1 roll get exec
 end}_d

/BuildChar {
 1 index /Encoding get exch get
 1 index /BuildGlyph get exec
}_d

FontName currentdict end definefont pop
end
%%EndProlog
mpldict begin
115.181 265.08 translate
381.637 261.84 0 0 clipbox
gsave
0 0 m
381.6375 0 l
381.6375 261.84 l
0 261.84 l
cl
1.000 setgray
fill
grestore
gsave
36.1375 152.303636 m
370.9375 152.303636 l
370.9375 251.14 l
36.1375 251.14 l
cl
1.000 setgray
fill
grestore
0.800 setlinewidth
1 setlinejoin
0 setlinecap
[0.8 1.32] 0 setdash
0.690 setgray
gsave
334.8 98.84 36.14 152.3 clipbox
36.1375 152.303636 m
36.1375 251.14 l
stroke
grestore
[] 0 setdash
0.000 setgray
gsave
/o {
gsave
newpath
translate
0.8 setlinewidth
1 setlinejoin
0 setlinecap
0 0 m
0 -3.5 l

gsave
0.000 setgray
fill
grestore
stroke
grestore
} bind def
36.1375 152.304 o
grestore
/DejaVuSans findfont
8.000 scalefont
setfont
gsave
33.590625 139.225511 translate
0.000000 rotate
0.000000 0.000000 m /zero glyphshow
grestore
[0.8 1.32] 0 setdash
0.690 setgray
gsave
334.8 98.84 36.14 152.3 clipbox
97.456181 152.303636 m
97.456181 251.14 l
stroke
grestore
[] 0 setdash
0.000 setgray
gsave
/o {
gsave
newpath
translate
0.8 setlinewidth
1 setlinejoin
0 setlinecap
0 0 m
0 -3.5 l

gsave
0.000 setgray
fill
grestore
stroke
grestore
} bind def
97.4562 152.304 o
grestore
gsave
89.815556 139.225511 translate
0.000000 rotate
0.000000 0.000000 m /one glyphshow
5.089844 0.000000 m /zero glyphshow
10.179688 0.000000 m /zero glyphshow
grestore
[0.8 1.32] 0 setdash
0.690 setgray
gsave
334.8 98.84 36.14 152.3 clipbox
158.774863 152.303636 m
158.774863 251.14 l
stroke
grestore
[] 0 setdash
0.000 setgray
gsave
/o {
gsave
newpath
translate
0.8 setlinewidth
1 setlinejoin
0 setlinecap
0 0 m
0 -3.5 l

gsave
0.000 setgray
fill
grestore
stroke
grestore
} bind def
158.775 152.304 o
grestore
gsave
151.134238 139.225511 translate
0.000000 rotate
0.000000 0.000000 m /two glyphshow
5.089844 0.000000 m /zero glyphshow
10.179688 0.000000 m /zero glyphshow
grestore
[0.8 1.32] 0 setdash
0.690 setgray
gsave
334.8 98.84 36.14 152.3 clipbox
220.093544 152.303636 m
220.093544 251.14 l
stroke
grestore
[] 0 setdash
0.000 setgray
gsave
/o {
gsave
newpath
translate
0.8 setlinewidth
1 setlinejoin
0 setlinecap
0 0 m
0 -3.5 l

gsave
0.000 setgray
fill
grestore
stroke
grestore
} bind def
220.094 152.304 o
grestore
gsave
212.452919 139.225511 translate
0.000000 rotate
0.000000 0.000000 m /three glyphshow
5.089844 0.000000 m /zero glyphshow
10.179688 0.000000 m /zero glyphshow
grestore
[0.8 1.32] 0 setdash
0.690 setgray
gsave
334.8 98.84 36.14 152.3 clipbox
281.412225 152.303636 m
281.412225 251.14 l
stroke
grestore
[] 0 setdash
0.000 setgray
gsave
/o {
gsave
newpath
translate
0.8 setlinewidth
1 setlinejoin
0 setlinecap
0 0 m
0 -3.5 l

gsave
0.000 setgray
fill
grestore
stroke
grestore
} bind def
281.412 152.304 o
grestore
gsave
273.771600 139.225511 translate
0.000000 rotate
0.000000 0.000000 m /four glyphshow
5.089844 0.000000 m /zero glyphshow
10.179688 0.000000 m /zero glyphshow
grestore
[0.8 1.32] 0 setdash
0.690 setgray
gsave
334.8 98.84 36.14 152.3 clipbox
342.730907 152.303636 m
342.730907 251.14 l
stroke
grestore
[] 0 setdash
0.000 setgray
gsave
/o {
gsave
newpath
translate
0.8 setlinewidth
1 setlinejoin
0 setlinecap
0 0 m
0 -3.5 l

gsave
0.000 setgray
fill
grestore
stroke
grestore
} bind def
342.731 152.304 o
grestore
gsave
335.090282 139.225511 translate
0.000000 rotate
0.000000 0.000000 m /five glyphshow
5.089844 0.000000 m /zero glyphshow
10.179688 0.000000 m /zero glyphshow
grestore
gsave
172.865625 127.475511 translate
0.000000 rotate
0.000000 0.000000 m /T glyphshow
4.886719 0.000000 m /i glyphshow
7.109375 0.000000 m /m glyphshow
14.902344 0.000000 m /e glyphshow
19.824219 0.000000 m /space glyphshow
22.367188 0.000000 m /bracketleft glyphshow
25.488281 0.000000 m /s glyphshow
29.656250 0.000000 m /e glyphshow
34.578125 0.000000 m /c glyphshow
38.976562 0.000000 m /o glyphshow
43.871094 0.000000 m /n glyphshow
48.941406 0.000000 m /d glyphshow
54.019531 0.000000 m /s glyphshow
58.187500 0.000000 m /bracketright glyphshow
grestore
[0.8 1.32] 0 setdash
0.690 setgray
gsave
334.8 98.84 36.14 152.3 clipbox
36.1375 156.796198 m
370.9375 156.796198 l
stroke
grestore
[] 0 setdash
0.000 setgray
gsave
/o {
gsave
newpath
translate
0.8 setlinewidth
1 setlinejoin
0 setlinecap
0 0 m
-3.5 0 l

gsave
0.000 setgray
fill
grestore
stroke
grestore
} bind def
36.1375 156.796 o
grestore
gsave
24.043750 153.757136 translate
0.000000 rotate
0.000000 0.000000 m /zero glyphshow
grestore
[0.8 1.32] 0 setdash
0.690 setgray
gsave
334.8 98.84 36.14 152.3 clipbox
36.1375 186.746612 m
370.9375 186.746612 l
stroke
grestore
[] 0 setdash
0.000 setgray
gsave
/o {
gsave
newpath
translate
0.8 setlinewidth
1 setlinejoin
0 setlinecap
0 0 m
-3.5 0 l

gsave
0.000 setgray
fill
grestore
stroke
grestore
} bind def
36.1375 186.747 o
grestore
gsave
18.950000 183.707549 translate
0.000000 rotate
0.000000 0.000000 m /two glyphshow
5.089844 0.000000 m /zero glyphshow
grestore
[0.8 1.32] 0 setdash
0.690 setgray
gsave
334.8 98.84 36.14 152.3 clipbox
36.1375 216.697025 m
370.9375 216.697025 l
stroke
grestore
[] 0 setdash
0.000 setgray
gsave
/o {
gsave
newpath
translate
0.8 setlinewidth
1 setlinejoin
0 setlinecap
0 0 m
-3.5 0 l

gsave
0.000 setgray
fill
grestore
stroke
grestore
} bind def
36.1375 216.697 o
grestore
gsave
18.950000 213.657962 translate
0.000000 rotate
0.000000 0.000000 m /four glyphshow
5.089844 0.000000 m /zero glyphshow
grestore
[0.8 1.32] 0 setdash
0.690 setgray
gsave
334.8 98.84 36.14 152.3 clipbox
36.1375 246.647438 m
370.9375 246.647438 l
stroke
grestore
[] 0 setdash
0.000 setgray
gsave
/o {
gsave
newpath
translate
0.8 setlinewidth
1 setlinejoin
0 setlinecap
0 0 m
-3.5 0 l

gsave
0.000 setgray
fill
grestore
stroke
grestore
} bind def
36.1375 246.647 o
grestore
gsave
18.950000 243.608376 translate
0.000000 rotate
0.000000 0.000000 m /six glyphshow
5.089844 0.000000 m /zero glyphshow
grestore
gsave
13.278125 193.471818 translate
90.000000 rotate
0.000000 0.000000 m /J glyphshow
2.359375 0.000000 m /o glyphshow
7.253906 0.000000 m /b glyphshow
12.332031 0.000000 m /s glyphshow
grestore
1.500 setlinewidth
[5.55 2.4] 0 setdash
0.502 setgray
gsave
334.8 98.84 36.14 152.3 clipbox
36.1375 246.647438 m
39.423493 246.647438 l
42.090004 246.647438 l
45.446091 246.647438 l
48.727966 246.647438 l
51.30312 246.647438 l
54.747207 246.647438 l
57.685454 246.647438 l
60.649426 246.647438 l
65.254078 246.647438 l
68.672966 246.647438 l
72.934594 246.647438 l
78.008753 246.647438 l
82.648651 246.647438 l
86.588668 246.647438 l
91.841798 246.647438 l
95.315469 246.647438 l
99.813287 246.647438 l
103.023479 246.647438 l
107.452675 246.647438 l
111.90379 246.647438 l
116.1144 246.647438 l
119.609604 246.647438 l
123.733954 246.647438 l
128.777384 246.647438 l
133.182271 246.647438 l
138.425052 246.647438 l
142.840066 246.647438 l
146.580533 246.647438 l
150.290407 246.647438 l
155.349205 246.647438 l
159.806075 246.647438 l
164.169977 246.647438 l
167.895185 246.647438 l
171.46188 246.647438 l
175.049166 246.647438 l
179.331173 246.647438 l
183.77172 246.647438 l
187.461069 246.647438 l
190.755671 246.647438 l
195.141426 246.647438 l
199.407957 246.647438 l
203.751406 246.647438 l
207.660722 246.647438 l
211.830607 246.647438 l
216.209901 246.647438 l
220.568658 246.647438 l
225.734707 246.647438 l
230.129338 246.647438 l
233.593904 246.647438 l
237.911831 246.647438 l
242.045776 246.647438 l
245.469464 246.647438 l
248.461908 246.647438 l
251.239355 246.647438 l
254.613359 246.647438 l
257.370943 246.647438 l
260.736059 246.647438 l
263.480797 246.647438 l
266.837062 246.647438 l
269.560116 246.647438 l
272.880502 246.647438 l
276.196092 246.647438 l
278.896105 246.647438 l
282.230099 246.647438 l
284.941184 246.647438 l
288.269324 246.647438 l
291.598931 246.647438 l
294.926719 246.647438 l
298.252852 246.647438 l
301.12734 246.647438 l
304.444794 246.647438 l
307.150813 246.647438 l
310.473087 246.647438 l
313.180783 246.647438 l
316.499519 246.647438 l
319.819041 246.647438 l
323.143797 246.647438 l
326.459318 246.647438 l
329.162504 246.647438 l
332.486696 246.647438 l
335.192256 246.647438 l
338.507393 246.647438 l
341.823931 246.647438 l
344.5344 246.647438 l
347.855604 246.647438 l
350.558462 246.647438 l
353.878194 246.647438 l
357.205962 246.647438 l
360.697435 246.647438 l
363.399863 246.647438 l
366.7179 246.647438 l
370.041773 246.647438 l
372.745176 246.647438 l
376.061427 246.647438 l
378.764353 246.647438 l
382.088126 246.647438 l
382.6375 246.647438 l
stroke
grestore
2 setlinecap
[] 0 setdash
0.122 0.467 0.706 setrgbcolor
gsave
334.8 98.84 36.14 152.3 clipbox
36.1375 156.796198 m
51.30312 156.796198 l
51.30312 170.273884 l
57.685454 170.273884 l
57.685454 186.746612 l
60.649426 186.746612 l
60.649426 198.726777 l
68.672966 198.726777 l
68.672966 206.21438 l
72.934594 206.21438 l
72.934594 204.71686 l
86.588668 204.71686 l
86.588668 212.204463 l
91.841798 212.204463 l
91.841798 201.721818 l
95.315469 201.721818 l
95.315469 209.209421 l
99.813287 209.209421 l
99.813287 200.224298 l
103.023479 200.224298 l
103.023479 197.229256 l
107.452675 197.229256 l
107.452675 192.736694 l
111.90379 192.736694 l
111.90379 189.741653 l
116.1144 189.741653 l
116.1144 203.219339 l
123.733954 203.219339 l
123.733954 201.721818 l
128.777384 201.721818 l
128.777384 198.726777 l
133.182271 198.726777 l
133.182271 204.71686 l
138.425052 204.71686 l
138.425052 200.224298 l
142.840066 200.224298 l
142.840066 203.219339 l
146.580533 203.219339 l
146.580533 201.721818 l
150.290407 201.721818 l
150.290407 195.731736 l
155.349205 195.731736 l
155.349205 194.234215 l
159.806075 194.234215 l
159.806075 197.229256 l
164.169977 197.229256 l
164.169977 198.726777 l
175.049166 198.726777 l
175.049166 204.71686 l
179.331173 204.71686 l
179.331173 207.711901 l
183.77172 207.711901 l
183.77172 203.219339 l
187.461069 203.219339 l
187.461069 197.229256 l
190.755671 197.229256 l
190.755671 189.741653 l
195.141426 189.741653 l
195.141426 200.224298 l
199.407957 200.224298 l
199.407957 192.736694 l
203.751406 192.736694 l
203.751406 200.224298 l
207.660722 200.224298 l
207.660722 204.71686 l
211.830607 204.71686 l
211.830607 207.711901 l
216.209901 207.711901 l
216.209901 206.21438 l
220.568658 206.21438 l
220.568658 198.726777 l
230.129338 198.726777 l
230.129338 191.239174 l
233.593904 191.239174 l
233.593904 186.746612 l
237.911831 186.746612 l
237.911831 198.726777 l
242.045776 198.726777 l
242.045776 192.736694 l
245.469464 192.736694 l
245.469464 194.234215 l
248.461908 194.234215 l
248.461908 186.746612 l
251.239355 186.746612 l
251.239355 182.25405 l
254.613359 182.25405 l
254.613359 179.259008 l
257.370943 179.259008 l
257.370943 177.761488 l
263.480797 177.761488 l
263.480797 165.781322 l
266.837062 165.781322 l
266.837062 156.796198 l
382.6375 156.796198 l
382.6375 156.796198 l
stroke
grestore
1.000 0.498 0.055 setrgbcolor
gsave
334.8 98.84 36.14 152.3 clipbox
36.1375 156.796198 m
48.727966 156.796198 l
48.727966 165.781322 l
51.30312 165.781322 l
51.30312 156.796198 l
54.747207 156.796198 l
54.747207 167.278843 l
57.685454 167.278843 l
57.685454 156.796198 l
65.254078 156.796198 l
65.254078 168.776364 l
68.672966 168.776364 l
68.672966 156.796198 l
78.008753 156.796198 l
78.008753 158.293719 l
82.648651 158.293719 l
82.648651 156.796198 l
111.90379 156.796198 l
111.90379 167.278843 l
116.1144 167.278843 l
116.1144 156.796198 l
150.290407 156.796198 l
150.290407 165.781322 l
155.349205 165.781322 l
155.349205 162.786281 l
159.806075 162.786281 l
159.806075 156.796198 l
171.46188 156.796198 l
171.46188 165.781322 l
175.049166 165.781322 l
175.049166 156.796198 l
190.755671 156.796198 l
190.755671 167.278843 l
195.141426 167.278843 l
195.141426 156.796198 l
233.593904 156.796198 l
233.593904 165.781322 l
237.911831 165.781322 l
237.911831 156.796198 l
242.045776 156.796198 l
242.045776 165.781322 l
245.469464 165.781322 l
245.469464 156.796198 l
382.6375 156.796198 l
382.6375 156.796198 l
stroke
grestore
0.800 setlinewidth
0 setlinejoin
[] 0 setdash
0.000 setgray
gsave
36.1375 152.303636 m
36.1375 251.14 l
stroke
grestore
gsave
370.9375 152.303636 m
370.9375 251.14 l
stroke
grestore
gsave
36.1375 152.303636 m
370.9375 152.303636 l
stroke
grestore
gsave
36.1375 251.14 m
370.9375 251.14 l
stroke
grestore
1.000 setlinewidth
0 setlinecap
0.800 setgray
gsave
242.7375 205.74 m
365.3375 205.74 l
366.404167 205.74 366.9375 206.273333 366.9375 207.34 c
366.9375 245.54 l
366.9375 246.606667 366.404167 247.14 365.3375 247.14 c
242.7375 247.14 l
241.670833 247.14 241.1375 246.606667 241.1375 245.54 c
241.1375 207.34 l
241.1375 206.273333 241.670833 205.74 242.7375 205.74 c
cl
gsave
1.000 setgray
fill
grestore
stroke
grestore
1.500 setlinewidth
1 setlinejoin
[5.55 2.4] 0 setdash
0.502 setgray
gsave
244.3375 239.74 m
260.3375 239.74 l
stroke
grestore
0.000 setgray
gsave
266.737500 236.940000 translate
0.000000 rotate
/DejaVuSans findfont
8.0 scalefont
setfont
0.000000 0.921875 moveto
/A glyphshow

5.472656 0.921875 moveto
/v glyphshow

10.207031 0.921875 moveto
/a glyphshow

15.109375 0.921875 moveto
/i glyphshow

17.332031 0.921875 moveto
/l glyphshow

19.554688 0.921875 moveto
/a glyphshow

24.457031 0.921875 moveto
/b glyphshow

29.535156 0.921875 moveto
/l glyphshow

31.757812 0.921875 moveto
/e glyphshow

36.679688 0.921875 moveto
/space glyphshow

39.222656 0.921875 moveto
/r glyphshow

42.511719 0.921875 moveto
/e glyphshow

47.433594 0.921875 moveto
/s glyphshow

51.601562 0.921875 moveto
/o glyphshow

56.496094 0.921875 moveto
/u glyphshow

61.566406 0.921875 moveto
/r glyphshow

64.855469 0.921875 moveto
/c glyphshow

69.253906 0.921875 moveto
/e glyphshow

74.175781 0.921875 moveto
/s glyphshow

78.343750 0.921875 moveto
/space glyphshow

/DejaVuSans-Oblique findfont
8.0 scalefont
setfont
80.886719 0.921875 moveto
/r glyphshow

/DejaVuSans-Oblique findfont
5.6 scalefont
setfont
84.175781 -0.390625 moveto
/m glyphshow

89.630859 -0.390625 moveto
/a glyphshow

93.062500 -0.390625 moveto
/x glyphshow


grestore
2 setlinecap
[] 0 setdash
0.122 0.467 0.706 setrgbcolor
gsave
244.3375 226.74 m
260.3375 226.74 l
stroke
grestore
0.000 setgray
gsave
266.737500 223.940000 translate
0.000000 rotate
/DejaVuSans findfont
8.0 scalefont
setfont
0.000000 0.921875 moveto
/R glyphshow

5.558594 0.921875 moveto
/u glyphshow

10.628906 0.921875 moveto
/n glyphshow

15.699219 0.921875 moveto
/n glyphshow

20.769531 0.921875 moveto
/i glyphshow

22.992188 0.921875 moveto
/n glyphshow

28.062500 0.921875 moveto
/g glyphshow

33.140625 0.921875 moveto
/space glyphshow

35.683594 0.921875 moveto
/j glyphshow

37.906250 0.921875 moveto
/o glyphshow

42.800781 0.921875 moveto
/b glyphshow

47.878906 0.921875 moveto
/s glyphshow

52.046875 0.921875 moveto
/space glyphshow

/DejaVuSans-Oblique findfont
8.0 scalefont
setfont
54.589844 0.921875 moveto
/r glyphshow

/DejaVuSans-Oblique findfont
5.6 scalefont
setfont
57.878906 -0.390625 moveto
/k glyphshow


grestore
1.000 0.498 0.055 setrgbcolor
gsave
244.3375 213.74 m
260.3375 213.74 l
stroke
grestore
0.000 setgray
gsave
266.737500 210.940000 translate
0.000000 rotate
/DejaVuSans findfont
8.0 scalefont
setfont
0.000000 0.921875 moveto
/W glyphshow

7.910156 0.921875 moveto
/a glyphshow

12.812500 0.921875 moveto
/i glyphshow

15.035156 0.921875 moveto
/t glyphshow

18.171875 0.921875 moveto
/i glyphshow

20.394531 0.921875 moveto
/n glyphshow

25.464844 0.921875 moveto
/g glyphshow

30.542969 0.921875 moveto
/space glyphshow

33.085938 0.921875 moveto
/j glyphshow

35.308594 0.921875 moveto
/o glyphshow

40.203125 0.921875 moveto
/b glyphshow

45.281250 0.921875 moveto
/s glyphshow

49.449219 0.921875 moveto
/space glyphshow

/DejaVuSans-Oblique findfont
8.0 scalefont
setfont
51.992188 0.921875 moveto
/q glyphshow

/DejaVuSans-Oblique findfont
5.6 scalefont
setfont
57.070312 -0.390625 moveto
/k glyphshow


grestore
gsave
36.1375 33.7 m
370.9375 33.7 l
370.9375 132.536364 l
36.1375 132.536364 l
cl
1.000 setgray
fill
grestore
0.800 setlinewidth
0 setlinecap
[0.8 1.32] 0 setdash
0.690 setgray
gsave
334.8 98.84 36.14 33.7 clipbox
36.1375 33.7 m
36.1375 132.536364 l
stroke
grestore
[] 0 setdash
0.000 setgray
gsave
/o {
gsave
newpath
translate
0.8 setlinewidth
1 setlinejoin
0 setlinecap
0 0 m
0 -3.5 l

gsave
0.000 setgray
fill
grestore
stroke
grestore
} bind def
36.1375 33.7 o
grestore
gsave
33.590625 20.621875 translate
0.000000 rotate
0.000000 0.000000 m /zero glyphshow
grestore
[0.8 1.32] 0 setdash
0.690 setgray
gsave
334.8 98.84 36.14 33.7 clipbox
97.456181 33.7 m
97.456181 132.536364 l
stroke
grestore
[] 0 setdash
0.000 setgray
gsave
/o {
gsave
newpath
translate
0.8 setlinewidth
1 setlinejoin
0 setlinecap
0 0 m
0 -3.5 l

gsave
0.000 setgray
fill
grestore
stroke
grestore
} bind def
97.4562 33.7 o
grestore
gsave
89.815556 20.621875 translate
0.000000 rotate
0.000000 0.000000 m /one glyphshow
5.089844 0.000000 m /zero glyphshow
10.179688 0.000000 m /zero glyphshow
grestore
[0.8 1.32] 0 setdash
0.690 setgray
gsave
334.8 98.84 36.14 33.7 clipbox
158.774863 33.7 m
158.774863 132.536364 l
stroke
grestore
[] 0 setdash
0.000 setgray
gsave
/o {
gsave
newpath
translate
0.8 setlinewidth
1 setlinejoin
0 setlinecap
0 0 m
0 -3.5 l

gsave
0.000 setgray
fill
grestore
stroke
grestore
} bind def
158.775 33.7 o
grestore
gsave
151.134238 20.621875 translate
0.000000 rotate
0.000000 0.000000 m /two glyphshow
5.089844 0.000000 m /zero glyphshow
10.179688 0.000000 m /zero glyphshow
grestore
[0.8 1.32] 0 setdash
0.690 setgray
gsave
334.8 98.84 36.14 33.7 clipbox
220.093544 33.7 m
220.093544 132.536364 l
stroke
grestore
[] 0 setdash
0.000 setgray
gsave
/o {
gsave
newpath
translate
0.8 setlinewidth
1 setlinejoin
0 setlinecap
0 0 m
0 -3.5 l

gsave
0.000 setgray
fill
grestore
stroke
grestore
} bind def
220.094 33.7 o
grestore
gsave
212.452919 20.621875 translate
0.000000 rotate
0.000000 0.000000 m /three glyphshow
5.089844 0.000000 m /zero glyphshow
10.179688 0.000000 m /zero glyphshow
grestore
[0.8 1.32] 0 setdash
0.690 setgray
gsave
334.8 98.84 36.14 33.7 clipbox
281.412225 33.7 m
281.412225 132.536364 l
stroke
grestore
[] 0 setdash
0.000 setgray
gsave
/o {
gsave
newpath
translate
0.8 setlinewidth
1 setlinejoin
0 setlinecap
0 0 m
0 -3.5 l

gsave
0.000 setgray
fill
grestore
stroke
grestore
} bind def
281.412 33.7 o
grestore
gsave
273.771600 20.621875 translate
0.000000 rotate
0.000000 0.000000 m /four glyphshow
5.089844 0.000000 m /zero glyphshow
10.179688 0.000000 m /zero glyphshow
grestore
[0.8 1.32] 0 setdash
0.690 setgray
gsave
334.8 98.84 36.14 33.7 clipbox
342.730907 33.7 m
342.730907 132.536364 l
stroke
grestore
[] 0 setdash
0.000 setgray
gsave
/o {
gsave
newpath
translate
0.8 setlinewidth
1 setlinejoin
0 setlinecap
0 0 m
0 -3.5 l

gsave
0.000 setgray
fill
grestore
stroke
grestore
} bind def
342.731 33.7 o
grestore
gsave
335.090282 20.621875 translate
0.000000 rotate
0.000000 0.000000 m /five glyphshow
5.089844 0.000000 m /zero glyphshow
10.179688 0.000000 m /zero glyphshow
grestore
gsave
172.865625 8.871875 translate
0.000000 rotate
0.000000 0.000000 m /T glyphshow
4.886719 0.000000 m /i glyphshow
7.109375 0.000000 m /m glyphshow
14.902344 0.000000 m /e glyphshow
19.824219 0.000000 m /space glyphshow
22.367188 0.000000 m /bracketleft glyphshow
25.488281 0.000000 m /s glyphshow
29.656250 0.000000 m /e glyphshow
34.578125 0.000000 m /c glyphshow
38.976562 0.000000 m /o glyphshow
43.871094 0.000000 m /n glyphshow
48.941406 0.000000 m /d glyphshow
54.019531 0.000000 m /s glyphshow
58.187500 0.000000 m /bracketright glyphshow
grestore
[0.8 1.32] 0 setdash
0.690 setgray
gsave
334.8 98.84 36.14 33.7 clipbox
36.1375 38.192562 m
370.9375 38.192562 l
stroke
grestore
[] 0 setdash
0.000 setgray
gsave
/o {
gsave
newpath
translate
0.8 setlinewidth
1 setlinejoin
0 setlinecap
0 0 m
-3.5 0 l

gsave
0.000 setgray
fill
grestore
stroke
grestore
} bind def
36.1375 38.1926 o
grestore
gsave
24.043750 35.153499 translate
0.000000 rotate
0.000000 0.000000 m /zero glyphshow
grestore
[0.8 1.32] 0 setdash
0.690 setgray
gsave
334.8 98.84 36.14 33.7 clipbox
36.1375 56.795303 m
370.9375 56.795303 l
stroke
grestore
[] 0 setdash
0.000 setgray
gsave
/o {
gsave
newpath
translate
0.8 setlinewidth
1 setlinejoin
0 setlinecap
0 0 m
-3.5 0 l

gsave
0.000 setgray
fill
grestore
stroke
grestore
} bind def
36.1375 56.7953 o
grestore
gsave
24.043750 53.756241 translate
0.000000 rotate
0.000000 0.000000 m /one glyphshow
grestore
[0.8 1.32] 0 setdash
0.690 setgray
gsave
334.8 98.84 36.14 33.7 clipbox
36.1375 75.398044 m
370.9375 75.398044 l
stroke
grestore
[] 0 setdash
0.000 setgray
gsave
/o {
gsave
newpath
translate
0.8 setlinewidth
1 setlinejoin
0 setlinecap
0 0 m
-3.5 0 l

gsave
0.000 setgray
fill
grestore
stroke
grestore
} bind def
36.1375 75.398 o
grestore
gsave
24.043750 72.358982 translate
0.000000 rotate
0.000000 0.000000 m /two glyphshow
grestore
[0.8 1.32] 0 setdash
0.690 setgray
gsave
334.8 98.84 36.14 33.7 clipbox
36.1375 94.000785 m
370.9375 94.000785 l
stroke
grestore
[] 0 setdash
0.000 setgray
gsave
/o {
gsave
newpath
translate
0.8 setlinewidth
1 setlinejoin
0 setlinecap
0 0 m
-3.5 0 l

gsave
0.000 setgray
fill
grestore
stroke
grestore
} bind def
36.1375 94.0008 o
grestore
gsave
24.043750 90.961723 translate
0.000000 rotate
0.000000 0.000000 m /three glyphshow
grestore
[0.8 1.32] 0 setdash
0.690 setgray
gsave
334.8 98.84 36.14 33.7 clipbox
36.1375 112.603527 m
370.9375 112.603527 l
stroke
grestore
[] 0 setdash
0.000 setgray
gsave
/o {
gsave
newpath
translate
0.8 setlinewidth
1 setlinejoin
0 setlinecap
0 0 m
-3.5 0 l

gsave
0.000 setgray
fill
grestore
stroke
grestore
} bind def
36.1375 112.604 o
grestore
gsave
24.043750 109.564464 translate
0.000000 rotate
0.000000 0.000000 m /four glyphshow
grestore
[0.8 1.32] 0 setdash
0.690 setgray
gsave
334.8 98.84 36.14 33.7 clipbox
36.1375 131.206268 m
370.9375 131.206268 l
stroke
grestore
[] 0 setdash
0.000 setgray
gsave
/o {
gsave
newpath
translate
0.8 setlinewidth
1 setlinejoin
0 setlinecap
0 0 m
-3.5 0 l

gsave
0.000 setgray
fill
grestore
stroke
grestore
} bind def
36.1375 131.206 o
grestore
gsave
24.043750 128.167205 translate
0.000000 rotate
0.000000 0.000000 m /five glyphshow
grestore
gsave
18.371875 67.211932 translate
90.000000 rotate
0.000000 0.000000 m /l glyphshow
2.222656 0.000000 m /o glyphshow
7.117188 0.000000 m /a glyphshow
12.019531 0.000000 m /d glyphshow
17.097656 0.000000 m /a glyphshow
22.000000 0.000000 m /v glyphshow
26.734375 0.000000 m /g glyphshow
grestore
1.500 setlinewidth
[5.55 2.4] 0 setdash
0.502 setgray
gsave
334.8 98.84 36.14 33.7 clipbox
36.1375 112.603527 m
39.423493 112.603527 l
42.090004 112.603527 l
45.446091 112.603527 l
48.727966 112.603527 l
51.30312 112.603527 l
54.747207 112.603527 l
57.685454 112.603527 l
60.649426 112.603527 l
65.254078 112.603527 l
68.672966 112.603527 l
72.934594 112.603527 l
78.008753 112.603527 l
82.648651 112.603527 l
86.588668 112.603527 l
91.841798 112.603527 l
95.315469 112.603527 l
99.813287 112.603527 l
103.023479 112.603527 l
107.452675 112.603527 l
111.90379 112.603527 l
116.1144 112.603527 l
119.609604 112.603527 l
123.733954 112.603527 l
128.777384 112.603527 l
133.182271 112.603527 l
138.425052 112.603527 l
142.840066 112.603527 l
146.580533 112.603527 l
150.290407 112.603527 l
155.349205 112.603527 l
159.806075 112.603527 l
164.169977 112.603527 l
167.895185 112.603527 l
171.46188 112.603527 l
175.049166 112.603527 l
179.331173 112.603527 l
183.77172 112.603527 l
187.461069 112.603527 l
190.755671 112.603527 l
195.141426 112.603527 l
199.407957 112.603527 l
203.751406 112.603527 l
207.660722 112.603527 l
211.830607 112.603527 l
216.209901 112.603527 l
220.568658 112.603527 l
225.734707 112.603527 l
230.129338 112.603527 l
233.593904 112.603527 l
237.911831 112.603527 l
242.045776 112.603527 l
245.469464 112.603527 l
248.461908 112.603527 l
251.239355 112.603527 l
254.613359 112.603527 l
257.370943 112.603527 l
260.736059 112.603527 l
263.480797 112.603527 l
266.837062 112.603527 l
269.560116 112.603527 l
272.880502 112.603527 l
276.196092 112.603527 l
278.896105 112.603527 l
282.230099 112.603527 l
284.941184 112.603527 l
288.269324 112.603527 l
291.598931 112.603527 l
294.926719 112.603527 l
298.252852 112.603527 l
301.12734 112.603527 l
304.444794 112.603527 l
307.150813 112.603527 l
310.473087 112.603527 l
313.180783 112.603527 l
316.499519 112.603527 l
319.819041 112.603527 l
323.143797 112.603527 l
326.459318 112.603527 l
329.162504 112.603527 l
332.486696 112.603527 l
335.192256 112.603527 l
338.507393 112.603527 l
341.823931 112.603527 l
344.5344 112.603527 l
347.855604 112.603527 l
350.558462 112.603527 l
353.878194 112.603527 l
357.205962 112.603527 l
360.697435 112.603527 l
363.399863 112.603527 l
366.7179 112.603527 l
370.041773 112.603527 l
372.745176 112.603527 l
376.061427 112.603527 l
378.764353 112.603527 l
382.088126 112.603527 l
382.6375 112.603527 l
stroke
grestore
2 setlinecap
[] 0 setdash
0.173 0.627 0.173 setrgbcolor
gsave
334.8 98.84 36.14 33.7 clipbox
36.1375 39.494754 m
39.423493 39.494754 l
39.423493 39.308726 l
45.446091 39.308726 l
45.446091 39.122699 l
48.727966 39.122699 l
48.727966 38.936672 l
54.747207 38.936672 l
54.747207 52.330645 l
57.685454 52.330645 l
57.685454 64.980509 l
60.649426 64.980509 l
60.649426 71.863523 l
65.254078 71.863523 l
65.254078 76.514209 l
68.672966 76.514209 l
68.672966 82.653113 l
72.934594 82.653113 l
72.934594 75.770099 l
78.008753 75.770099 l
78.008753 78.746538 l
82.648651 78.746538 l
82.648651 86.001607 l
86.588668 86.001607 l
86.588668 88.233936 l
91.841798 88.233936 l
91.841798 84.141333 l
95.315469 84.141333 l
95.315469 86.001607 l
99.813287 86.001607 l
99.813287 82.281058 l
103.023479 82.281058 l
103.023479 78.746538 l
107.452675 78.746538 l
107.452675 91.024347 l
111.90379 91.024347 l
111.90379 86.931744 l
116.1144 86.931744 l
116.1144 97.907361 l
119.609604 97.907361 l
119.609604 98.465443 l
123.733954 98.465443 l
123.733954 101.069827 l
128.777384 101.069827 l
128.777384 91.396402 l
133.182271 91.396402 l
133.182271 97.535306 l
138.425052 97.535306 l
138.425052 92.884621 l
142.840066 92.884621 l
142.840066 97.535306 l
146.580533 97.535306 l
146.580533 101.627909 l
150.290407 101.627909 l
150.290407 91.954484 l
155.349205 91.954484 l
155.349205 93.628731 l
159.806075 93.628731 l
159.806075 89.164073 l
164.169977 89.164073 l
164.169977 98.651471 l
167.895185 98.651471 l
167.895185 98.279416 l
171.46188 98.279416 l
171.46188 93.442703 l
175.049166 93.442703 l
175.049166 98.279416 l
179.331173 98.279416 l
179.331173 100.8838 l
183.77172 100.8838 l
183.77172 95.861059 l
187.461069 95.861059 l
187.461069 91.396402 l
190.755671 91.396402 l
190.755671 83.211196 l
195.141426 83.211196 l
195.141426 94.37284 l
199.407957 94.37284 l
199.407957 38.192562 l
203.751406 38.192562 l
203.751406 117.998321 l
207.660722 117.998321 l
207.660722 128.043802 l
211.830607 128.043802 l
211.830607 114.277773 l
216.209901 114.277773 l
216.209901 108.138869 l
220.568658 108.138869 l
220.568658 110.371198 l
225.734707 110.371198 l
225.734707 110.557225 l
230.129338 110.557225 l
230.129338 104.790375 l
233.593904 104.790375 l
233.593904 94.558868 l
237.911831 94.558868 l
237.911831 101.813937 l
242.045776 101.813937 l
242.045776 105.720512 l
245.469464 105.720512 l
245.469464 107.766814 l
251.239355 107.766814 l
251.239355 96.977224 l
257.370943 96.977224 l
257.370943 92.326539 l
260.736059 92.326539 l
260.736059 88.047908 l
263.480797 88.047908 l
263.480797 83.955305 l
266.837062 83.955305 l
266.837062 80.420784 l
269.560116 80.420784 l
269.560116 76.886264 l
272.880502 76.886264 l
272.880502 70.933386 l
278.896105 70.933386 l
278.896105 68.329003 l
282.230099 68.329003 l
282.230099 68.887085 l
284.941184 68.887085 l
284.941184 66.468729 l
288.269324 66.468729 l
288.269324 62.190098 l
291.598931 62.190098 l
291.598931 60.143797 l
294.926719 60.143797 l
294.926719 58.46955 l
298.252852 58.46955 l
298.252852 56.795303 l
301.12734 56.795303 l
301.12734 59.771742 l
304.444794 59.771742 l
304.444794 58.097495 l
307.150813 58.097495 l
307.150813 56.423248 l
313.180783 56.423248 l
313.180783 54.935029 l
316.499519 54.935029 l
316.499519 53.632837 l
319.819041 53.632837 l
319.819041 52.330645 l
323.143797 52.330645 l
323.143797 51.214481 l
326.459318 51.214481 l
326.459318 50.284344 l
329.162504 50.284344 l
329.162504 49.168179 l
332.486696 49.168179 l
332.486696 48.42407 l
335.192256 48.42407 l
335.192256 47.493933 l
338.507393 47.493933 l
338.507393 46.749823 l
341.823931 46.749823 l
341.823931 46.005713 l
344.5344 46.005713 l
344.5344 45.447631 l
347.855604 45.447631 l
347.855604 44.889549 l
350.558462 44.889549 l
350.558462 44.331467 l
353.878194 44.331467 l
353.878194 43.773384 l
357.205962 43.773384 l
357.205962 43.40133 l
360.697435 43.40133 l
360.697435 43.029275 l
363.399863 43.029275 l
363.399863 42.65722 l
366.7179 42.65722 l
366.7179 43.773384 l
370.041773 43.773384 l
370.041773 43.215302 l
372.745176 43.215302 l
372.745176 42.843247 l
376.061427 42.843247 l
376.061427 54.376947 l
378.764353 54.376947 l
378.764353 53.074755 l
382.088126 53.074755 l
382.088126 51.95859 l
382.6375 51.95859 l
382.6375 51.95859 l
stroke
grestore
0.839 0.153 0.157 setrgbcolor
gsave
334.8 98.84 36.14 33.7 clipbox
36.1375 39.265034 m
36.1375 38.898977 l
39.423493 38.898977 l
39.423493 39.639175 l
42.090004 39.639175 l
42.090004 39.769554 l
45.446091 39.769554 l
45.446091 38.475113 l
48.727966 38.475113 l
48.727966 38.989538 l
54.747207 38.991751 l
54.747207 40.035284 l
57.685454 40.035284 l
57.685454 38.86247 l
60.649426 38.86247 l
60.649426 38.430965 l
65.254078 38.430965 l
65.254078 39.439685 l
72.934594 39.502678 l
72.934594 38.433606 l
78.008753 38.433606 l
78.008753 39.755257 l
91.841798 39.734287 l
91.841798 38.603833 l
95.315469 38.603833 l
95.315469 38.253272 l
99.813287 38.253272 l
99.813287 39.949957 l
103.023479 39.949957 l
103.023479 38.697583 l
107.452675 38.697583 l
107.452675 39.280121 l
111.90379 39.280121 l
111.90379 39.945295 l
116.1144 39.945295 l
116.1144 38.817805 l
119.609604 38.817805 l
119.609604 40.005903 l
123.733954 40.005903 l
123.733954 38.242869 l
128.777384 38.242869 l
128.777384 38.771385 l
133.182271 38.771385 l
133.182271 39.855115 l
138.425052 39.855115 l
138.425052 38.790805 l
142.840066 38.790805 l
142.840066 39.911005 l
146.580533 39.911005 l
146.580533 38.468111 l
150.290407 38.468111 l
150.290407 39.593643 l
155.349205 39.593643 l
155.349205 38.883882 l
167.895185 38.916368 l
167.895185 38.423856 l
175.049166 38.327737 l
175.049166 39.143915 l
179.331173 39.143915 l
179.331173 39.566482 l
183.77172 39.566482 l
183.77172 38.913492 l
187.461069 38.913492 l
187.461069 38.556578 l
190.755671 38.556578 l
190.755671 39.50725 l
195.141426 39.50725 l
195.141426 39.23793 l
199.407957 39.23793 l
199.407957 38.936661 l
207.660722 38.951936 l
207.660722 39.526372 l
216.209901 39.57712 l
216.209901 38.220712 l
225.734707 38.198203 l
225.734707 39.608095 l
230.129338 39.608095 l
230.129338 38.442163 l
233.593904 38.442163 l
233.593904 39.603035 l
237.911831 39.603035 l
237.911831 40.017832 l
242.045776 40.017832 l
242.045776 39.387796 l
245.469464 39.387796 l
245.469464 38.427141 l
248.461908 38.427141 l
248.461908 38.940641 l
251.239355 38.940641 l
251.239355 39.626042 l
257.370943 39.624111 l
257.370943 40.051339 l
260.736059 40.051339 l
260.736059 39.733751 l
263.480797 39.733751 l
263.480797 39.496359 l
266.837062 39.496359 l
266.837062 38.915019 l
269.560116 38.915019 l
269.560116 38.681432 l
272.880502 38.681432 l
272.880502 38.503991 l
276.196092 38.503991 l
276.196092 38.655426 l
278.896105 38.655426 l
278.896105 38.952965 l
282.230099 38.952965 l
282.230099 39.369675 l
284.941184 39.369675 l
284.941184 38.520539 l
288.269324 38.520539 l
288.269324 38.938062 l
291.598931 38.938062 l
291.598931 39.51354 l
294.926719 39.51354 l
294.926719 38.534167 l
298.252852 38.534167 l
298.252852 38.836122 l
301.12734 38.836122 l
301.12734 40.014789 l
304.444794 40.014789 l
304.444794 39.151964 l
307.150813 39.151964 l
307.150813 38.862123 l
310.473087 38.862123 l
310.473087 38.49345 l
313.180783 38.49345 l
313.180783 39.543927 l
316.499519 39.543927 l
316.499519 38.938187 l
319.819041 38.938187 l
319.819041 38.248679 l
323.143797 38.248679 l
323.143797 39.650323 l
326.459318 39.650323 l
326.459318 39.192153 l
329.162504 39.192153 l
329.162504 39.544654 l
332.486696 39.544654 l
332.486696 38.7151 l
338.507393 38.61385 l
338.507393 39.736973 l
341.823931 39.736973 l
341.823931 39.306076 l
344.5344 39.306076 l
344.5344 38.235719 l
347.855604 38.235719 l
347.855604 38.614973 l
350.558462 38.614973 l
350.558462 38.982717 l
353.878194 38.982717 l
353.878194 39.229091 l
357.205962 39.229091 l
357.205962 38.966783 l
360.697435 38.966783 l
360.697435 39.755368 l
363.399863 39.755368 l
363.399863 38.603928 l
370.041773 38.532388 l
370.041773 39.725054 l
372.745176 39.725054 l
372.745176 38.985456 l
376.061427 38.985456 l
376.061427 38.345501 l
378.764353 38.345501 l
378.764353 38.835898 l
382.088126 38.835898 l
382.088126 39.436144 l
382.6375 39.436144 l
382.6375 39.436144 l
stroke
grestore
0.800 setlinewidth
0 setlinejoin
[] 0 setdash
0.000 setgray
gsave
36.1375 33.7 m
36.1375 132.536364 l
stroke
grestore
gsave
370.9375 33.7 m
370.9375 132.536364 l
stroke
grestore
gsave
36.1375 33.7 m
370.9375 33.7 l
stroke
grestore
gsave
36.1375 132.536364 m
370.9375 132.536364 l
stroke
grestore
1.000 setlinewidth
0 setlinecap
0.800 setgray
gsave
270.7375 84.386364 m
365.3375 84.386364 l
366.404167 84.386364 366.9375 84.919697 366.9375 85.986364 c
366.9375 126.936364 l
366.9375 128.00303 366.404167 128.536364 365.3375 128.536364 c
270.7375 128.536364 l
269.670833 128.536364 269.1375 128.00303 269.1375 126.936364 c
269.1375 85.986364 l
269.1375 84.919697 269.670833 84.386364 270.7375 84.386364 c
cl
gsave
1.000 setgray
fill
grestore
stroke
grestore
1.500 setlinewidth
1 setlinejoin
[5.55 2.4] 0 setdash
0.502 setgray
gsave
272.3375 122.058239 m
288.3375 122.058239 l
stroke
grestore
0.000 setgray
gsave
294.737500 119.258239 translate
0.000000 rotate
0.000000 0.000000 m /R glyphshow
5.558594 0.000000 m /e glyphshow
10.480469 0.000000 m /f glyphshow
13.296875 0.000000 m /e glyphshow
18.218750 0.000000 m /r glyphshow
21.507812 0.000000 m /e glyphshow
26.429688 0.000000 m /n glyphshow
31.500000 0.000000 m /c glyphshow
35.898438 0.000000 m /e glyphshow
grestore
2 setlinecap
[] 0 setdash
0.173 0.627 0.173 setrgbcolor
gsave
272.3375 108.386364 m
288.3375 108.386364 l
stroke
grestore
0.000 setgray
gsave
294.737500 105.586364 translate
0.000000 rotate
/DejaVuSans findfont
8.0 scalefont
setfont
0.000000 0.853125 moveto
/F glyphshow

4.601562 0.853125 moveto
/i glyphshow

6.824219 0.853125 moveto
/l glyphshow

9.046875 0.853125 moveto
/e glyphshow

13.968750 0.853125 moveto
/s glyphshow

18.136719 0.853125 moveto
/e glyphshow

23.058594 0.853125 moveto
/r glyphshow

26.347656 0.853125 moveto
/v glyphshow

31.082031 0.853125 moveto
/e glyphshow

36.003906 0.853125 moveto
/r glyphshow

39.292969 0.853125 moveto
/space glyphshow

41.835938 0.853125 moveto
/l glyphshow

44.058594 0.853125 moveto
/o glyphshow

48.953125 0.853125 moveto
/a glyphshow

53.855469 0.853125 moveto
/d glyphshow

58.933594 0.853125 moveto
/space glyphshow

/DejaVuSans-Oblique findfont
8.0 scalefont
setfont
61.476562 0.853125 moveto
/f glyphshow

/DejaVuSans findfont
5.6 scalefont
setfont
64.888698 3.920313 moveto
/one glyphshow

/DejaVuSans-Oblique findfont
5.6 scalefont
setfont
64.292969 -1.334375 moveto
/k glyphshow


grestore
0.839 0.153 0.157 setrgbcolor
gsave
272.3375 93.386364 m
288.3375 93.386364 l
stroke
grestore
0.000 setgray
gsave
294.737500 90.586364 translate
0.000000 rotate
/DejaVuSans findfont
8.0 scalefont
setfont
0.000000 0.776563 moveto
/F glyphshow

4.601562 0.776563 moveto
/i glyphshow

6.824219 0.776563 moveto
/l glyphshow

9.046875 0.776563 moveto
/e glyphshow

13.968750 0.776563 moveto
/s glyphshow

18.136719 0.776563 moveto
/e glyphshow

23.058594 0.776563 moveto
/r glyphshow

26.347656 0.776563 moveto
/v glyphshow

31.082031 0.776563 moveto
/e glyphshow

36.003906 0.776563 moveto
/r glyphshow

39.292969 0.776563 moveto
/space glyphshow

41.835938 0.776563 moveto
/l glyphshow

44.058594 0.776563 moveto
/o glyphshow

48.953125 0.776563 moveto
/a glyphshow

53.855469 0.776563 moveto
/d glyphshow

58.933594 0.776563 moveto
/space glyphshow

/DejaVuSans-Oblique findfont
8.0 scalefont
setfont
61.476562 0.776563 moveto
/f glyphshow

/DejaVuSans findfont
5.6 scalefont
setfont
64.888698 3.843750 moveto
/two glyphshow

/DejaVuSans-Oblique findfont
5.6 scalefont
setfont
64.292969 -1.410937 moveto
/k glyphshow


grestore

end
showpage
