%!PS-Adobe-3.0 EPSF-3.0
%%Title: test.eps
%%Creator: matplotlib version 2.1.2, http://matplotlib.org/
%%CreationDate: Thu Mar 22 12:29:44 2018
%%Orientation: portrait
%%BoundingBox: 112 260 499 531
%%EndComments
%%BeginProlog
/mpldict 8 dict def
mpldict begin
/m { moveto } bind def
/l { lineto } bind def
/r { rlineto } bind def
/c { curveto } bind def
/cl { closepath } bind def
/box {
m
1 index 0 r
0 exch r
neg 0 r
cl
} bind def
/clipbox {
box
clip
newpath
} bind def
%!PS-Adobe-3.0 Resource-Font
%%Title: DejaVu Sans
%%Copyright: Copyright (c) 2003 by Bitstream, Inc. All Rights Reserved. Copyright (c) 2006 by Tavmjong Bah. All Rights Reserved. DejaVu changes are in public domain 
%%Creator: Converted from TrueType to type 3 by PPR
25 dict begin
/_d{bind def}bind def
/_m{moveto}_d
/_l{lineto}_d
/_cl{closepath eofill}_d
/_c{curveto}_d
/_sc{7 -1 roll{setcachedevice}{pop pop pop pop pop pop}ifelse}_d
/_e{exec}_d
/FontName /DejaVuSans def
/PaintType 0 def
/FontMatrix[.001 0 0 .001 0 0]def
/FontBBox[-1021 -463 1793 1232]def
/FontType 3 def
/Encoding [ /space /zero /one /two /three /four /six /eight /nine /A /J /R /T /U /W /bracketleft /bracketright /a /b /c /d /e /f /g /i /l /m /n /o /q /r /s /t /u /v ] def
/FontInfo 10 dict dup begin
/FamilyName (DejaVu Sans) def
/FullName (DejaVu Sans) def
/Notice (Copyright (c) 2003 by Bitstream, Inc. All Rights Reserved. Copyright (c) 2006 by Tavmjong Bah. All Rights Reserved. DejaVu changes are in public domain ) def
/Weight (Book) def
/Version (Version 2.35) def
/ItalicAngle 0.0 def
/isFixedPitch false def
/UnderlinePosition -130 def
/UnderlineThickness 90 def
end readonly def
/CharStrings 36 dict dup begin
/.notdef 0 def
/space{318 0 0 0 0 0 _sc
}_d
/zero{636 0 66 -13 570 742 _sc
318 664 _m
267 664 229 639 203 589 _c
177 539 165 464 165 364 _c
165 264 177 189 203 139 _c
229 89 267 64 318 64 _c
369 64 407 89 433 139 _c
458 189 471 264 471 364 _c
471 464 458 539 433 589 _c
407 639 369 664 318 664 _c
318 742 _m
399 742 461 709 505 645 _c
548 580 570 486 570 364 _c
570 241 548 147 505 83 _c
461 19 399 -13 318 -13 _c
236 -13 173 19 130 83 _c
87 147 66 241 66 364 _c
66 486 87 580 130 645 _c
173 709 236 742 318 742 _c
_cl}_d
/one{636 0 110 0 544 729 _sc
124 83 _m
285 83 _l
285 639 _l
110 604 _l
110 694 _l
284 729 _l
383 729 _l
383 83 _l
544 83 _l
544 0 _l
124 0 _l
124 83 _l
_cl}_d
/two{{636 0 73 0 536 742 _sc
192 83 _m
536 83 _l
536 0 _l
73 0 _l
73 83 _l
110 121 161 173 226 239 _c
290 304 331 346 348 365 _c
380 400 402 430 414 455 _c
426 479 433 504 433 528 _c
433 566 419 598 392 622 _c
365 646 330 659 286 659 _c
255 659 222 653 188 643 _c
154 632 117 616 78 594 _c
78 694 _l
118 710 155 722 189 730 _c
223 738 255 742 284 742 _c
}_e{359 742 419 723 464 685 _c
509 647 532 597 532 534 _c
532 504 526 475 515 449 _c
504 422 484 390 454 354 _c
446 344 420 317 376 272 _c
332 227 271 164 192 83 _c
_cl}_e}_d
/three{{636 0 76 -13 556 742 _sc
406 393 _m
453 383 490 362 516 330 _c
542 298 556 258 556 212 _c
556 140 531 84 482 45 _c
432 6 362 -13 271 -13 _c
240 -13 208 -10 176 -4 _c
144 1 110 10 76 22 _c
76 117 _l
103 101 133 89 166 81 _c
198 73 232 69 268 69 _c
330 69 377 81 409 105 _c
441 129 458 165 458 212 _c
458 254 443 288 413 312 _c
383 336 341 349 287 349 _c
}_e{202 349 _l
202 430 _l
291 430 _l
339 430 376 439 402 459 _c
428 478 441 506 441 543 _c
441 580 427 609 401 629 _c
374 649 336 659 287 659 _c
260 659 231 656 200 650 _c
169 644 135 635 98 623 _c
98 711 _l
135 721 170 729 203 734 _c
235 739 266 742 296 742 _c
370 742 429 725 473 691 _c
517 657 539 611 539 553 _c
539 513 527 479 504 451 _c
481 423 448 403 406 393 _c
_cl}_e}_d
/four{636 0 49 0 580 729 _sc
378 643 _m
129 254 _l
378 254 _l
378 643 _l
352 729 _m
476 729 _l
476 254 _l
580 254 _l
580 172 _l
476 172 _l
476 0 _l
378 0 _l
378 172 _l
49 172 _l
49 267 _l
352 729 _l
_cl}_d
/six{{636 0 70 -13 573 742 _sc
330 404 _m
286 404 251 388 225 358 _c
199 328 186 286 186 234 _c
186 181 199 139 225 109 _c
251 79 286 64 330 64 _c
374 64 409 79 435 109 _c
461 139 474 181 474 234 _c
474 286 461 328 435 358 _c
409 388 374 404 330 404 _c
526 713 _m
526 623 _l
501 635 476 644 451 650 _c
425 656 400 659 376 659 _c
310 659 260 637 226 593 _c
}_e{192 549 172 482 168 394 _c
187 422 211 444 240 459 _c
269 474 301 482 336 482 _c
409 482 467 459 509 415 _c
551 371 573 310 573 234 _c
573 159 550 99 506 54 _c
462 9 403 -13 330 -13 _c
246 -13 181 19 137 83 _c
92 147 70 241 70 364 _c
70 479 97 571 152 639 _c
206 707 280 742 372 742 _c
396 742 421 739 447 735 _c
472 730 498 723 526 713 _c
_cl}_e}_d
/eight{{636 0 68 -13 568 742 _sc
318 346 _m
271 346 234 333 207 308 _c
180 283 167 249 167 205 _c
167 161 180 126 207 101 _c
234 76 271 64 318 64 _c
364 64 401 76 428 102 _c
455 127 469 161 469 205 _c
469 249 455 283 429 308 _c
402 333 365 346 318 346 _c
219 388 _m
177 398 144 418 120 447 _c
96 476 85 511 85 553 _c
85 611 105 657 147 691 _c
188 725 245 742 318 742 _c
}_e{390 742 447 725 489 691 _c
530 657 551 611 551 553 _c
551 511 539 476 515 447 _c
491 418 459 398 417 388 _c
464 377 501 355 528 323 _c
554 291 568 251 568 205 _c
568 134 546 80 503 43 _c
459 5 398 -13 318 -13 _c
237 -13 175 5 132 43 _c
89 80 68 134 68 205 _c
68 251 81 291 108 323 _c
134 355 171 377 219 388 _c
183 544 _m
183 506 194 476 218 455 _c
}_e{242 434 275 424 318 424 _c
360 424 393 434 417 455 _c
441 476 453 506 453 544 _c
453 582 441 611 417 632 _c
393 653 360 664 318 664 _c
275 664 242 653 218 632 _c
194 611 183 582 183 544 _c
_cl}_e}_d
/nine{{636 0 63 -13 566 742 _sc
110 15 _m
110 105 _l
134 93 159 84 185 78 _c
210 72 235 69 260 69 _c
324 69 374 90 408 134 _c
442 178 462 244 468 334 _c
448 306 424 284 396 269 _c
367 254 335 247 300 247 _c
226 247 168 269 126 313 _c
84 357 63 417 63 494 _c
63 568 85 628 129 674 _c
173 719 232 742 306 742 _c
390 742 455 709 499 645 _c
543 580 566 486 566 364 _c
}_e{566 248 538 157 484 89 _c
429 21 356 -13 264 -13 _c
239 -13 214 -10 189 -6 _c
163 -2 137 5 110 15 _c
306 324 _m
350 324 385 339 411 369 _c
437 399 450 441 450 494 _c
450 546 437 588 411 618 _c
385 648 350 664 306 664 _c
262 664 227 648 201 618 _c
175 588 162 546 162 494 _c
162 441 175 399 201 369 _c
227 339 262 324 306 324 _c
_cl}_e}_d
/A{684 0 8 0 676 729 _sc
342 632 _m
208 269 _l
476 269 _l
342 632 _l
286 729 _m
398 729 _l
676 0 _l
573 0 _l
507 187 _l
178 187 _l
112 0 _l
8 0 _l
286 729 _l
_cl}_d
/J{295 0 -51 -199 197 729 _sc
98 729 _m
197 729 _l
197 51 _l
197 -36 180 -99 147 -139 _c
113 -179 60 -199 -13 -199 _c
-51 -199 _l
-51 -116 _l
-20 -116 _l
22 -116 53 -103 71 -79 _c
89 -55 98 -11 98 51 _c
98 729 _l
_cl}_d
/R{{695 0 98 0 666 729 _sc
444 342 _m
465 334 486 319 506 296 _c
526 272 546 240 566 199 _c
666 0 _l
560 0 _l
467 187 _l
443 235 419 268 397 284 _c
374 300 343 308 304 308 _c
197 308 _l
197 0 _l
98 0 _l
98 729 _l
321 729 _l
404 729 466 711 507 677 _c
548 642 569 589 569 519 _c
569 473 558 434 537 404 _c
515 374 484 353 444 342 _c
197 648 _m
197 389 _l
321 389 _l
}_e{368 389 404 400 428 422 _c
452 444 465 476 465 519 _c
465 561 452 593 428 615 _c
404 637 368 648 321 648 _c
197 648 _l
_cl}_e}_d
/T{611 0 -2 0 614 729 _sc
-2 729 _m
614 729 _l
614 646 _l
355 646 _l
355 0 _l
256 0 _l
256 646 _l
-2 646 _l
-2 729 _l
_cl}_d
/U{732 0 87 -13 645 729 _sc
87 729 _m
186 729 _l
186 286 _l
186 208 200 151 228 117 _c
256 83 302 66 366 66 _c
429 66 475 83 503 117 _c
531 151 546 208 546 286 _c
546 729 _l
645 729 _l
645 274 _l
645 178 621 107 574 59 _c
527 11 458 -13 366 -13 _c
274 -13 204 11 157 59 _c
110 107 87 178 87 274 _c
87 729 _l
_cl}_d
/W{989 0 33 0 956 729 _sc
33 729 _m
133 729 _l
286 113 _l
439 729 _l
550 729 _l
703 113 _l
856 729 _l
956 729 _l
773 0 _l
649 0 _l
495 633 _l
340 0 _l
216 0 _l
33 729 _l
_cl}_d
/bracketleft{390 0 86 -131 293 760 _sc
86 760 _m
293 760 _l
293 690 _l
176 690 _l
176 -61 _l
293 -61 _l
293 -131 _l
86 -131 _l
86 760 _l
_cl}_d
/bracketright{390 0 97 -131 304 760 _sc
304 760 _m
304 -131 _l
97 -131 _l
97 -61 _l
214 -61 _l
214 690 _l
97 690 _l
97 760 _l
304 760 _l
_cl}_d
/a{{613 0 60 -13 522 560 _sc
343 275 _m
270 275 220 266 192 250 _c
164 233 150 205 150 165 _c
150 133 160 107 181 89 _c
202 70 231 61 267 61 _c
317 61 357 78 387 114 _c
417 149 432 196 432 255 _c
432 275 _l
343 275 _l
522 312 _m
522 0 _l
432 0 _l
432 83 _l
411 49 385 25 355 10 _c
325 -5 287 -13 243 -13 _c
187 -13 142 2 109 33 _c
76 64 60 106 60 159 _c
}_e{60 220 80 266 122 298 _c
163 329 224 345 306 345 _c
432 345 _l
432 354 _l
432 395 418 427 391 450 _c
364 472 326 484 277 484 _c
245 484 215 480 185 472 _c
155 464 127 453 100 439 _c
100 522 _l
132 534 164 544 195 550 _c
226 556 256 560 286 560 _c
365 560 424 539 463 498 _c
502 457 522 395 522 312 _c
_cl}_e}_d
/b{{635 0 91 -13 580 760 _sc
487 273 _m
487 339 473 390 446 428 _c
418 466 381 485 334 485 _c
286 485 249 466 222 428 _c
194 390 181 339 181 273 _c
181 207 194 155 222 117 _c
249 79 286 61 334 61 _c
381 61 418 79 446 117 _c
473 155 487 207 487 273 _c
181 464 _m
199 496 223 520 252 536 _c
281 552 316 560 356 560 _c
422 560 476 533 518 481 _c
559 428 580 359 580 273 _c
}_e{580 187 559 117 518 65 _c
476 13 422 -13 356 -13 _c
316 -13 281 -5 252 10 _c
223 25 199 49 181 82 _c
181 0 _l
91 0 _l
91 760 _l
181 760 _l
181 464 _l
_cl}_e}_d
/c{{550 0 55 -13 488 560 _sc
488 526 _m
488 442 _l
462 456 437 466 411 473 _c
385 480 360 484 334 484 _c
276 484 230 465 198 428 _c
166 391 150 339 150 273 _c
150 206 166 154 198 117 _c
230 80 276 62 334 62 _c
360 62 385 65 411 72 _c
437 79 462 90 488 104 _c
488 21 _l
462 9 436 0 410 -5 _c
383 -10 354 -13 324 -13 _c
242 -13 176 12 128 64 _c
}_e{79 115 55 185 55 273 _c
55 362 79 432 128 483 _c
177 534 244 560 330 560 _c
358 560 385 557 411 551 _c
437 545 463 537 488 526 _c
_cl}_e}_d
/d{{635 0 55 -13 544 760 _sc
454 464 _m
454 760 _l
544 760 _l
544 0 _l
454 0 _l
454 82 _l
435 49 411 25 382 10 _c
353 -5 319 -13 279 -13 _c
213 -13 159 13 117 65 _c
75 117 55 187 55 273 _c
55 359 75 428 117 481 _c
159 533 213 560 279 560 _c
319 560 353 552 382 536 _c
411 520 435 496 454 464 _c
148 273 _m
148 207 161 155 188 117 _c
215 79 253 61 301 61 _c
}_e{348 61 385 79 413 117 _c
440 155 454 207 454 273 _c
454 339 440 390 413 428 _c
385 466 348 485 301 485 _c
253 485 215 466 188 428 _c
161 390 148 339 148 273 _c
_cl}_e}_d
/e{{615 0 55 -13 562 560 _sc
562 296 _m
562 252 _l
149 252 _l
153 190 171 142 205 110 _c
238 78 284 62 344 62 _c
378 62 412 66 444 74 _c
476 82 509 95 541 113 _c
541 28 _l
509 14 476 3 442 -3 _c
408 -9 373 -13 339 -13 _c
251 -13 182 12 131 62 _c
80 112 55 181 55 268 _c
55 357 79 428 127 481 _c
175 533 241 560 323 560 _c
397 560 455 536 498 489 _c
}_e{540 441 562 377 562 296 _c
472 322 _m
471 371 457 410 431 440 _c
404 469 368 484 324 484 _c
274 484 234 469 204 441 _c
174 413 156 373 152 322 _c
472 322 _l
_cl}_e}_d
/f{352 0 23 0 371 760 _sc
371 760 _m
371 685 _l
285 685 _l
253 685 230 678 218 665 _c
205 652 199 629 199 595 _c
199 547 _l
347 547 _l
347 477 _l
199 477 _l
199 0 _l
109 0 _l
109 477 _l
23 477 _l
23 547 _l
109 547 _l
109 585 _l
109 645 123 690 151 718 _c
179 746 224 760 286 760 _c
371 760 _l
_cl}_d
/g{{635 0 55 -207 544 560 _sc
454 280 _m
454 344 440 395 414 431 _c
387 467 349 485 301 485 _c
253 485 215 467 188 431 _c
161 395 148 344 148 280 _c
148 215 161 165 188 129 _c
215 93 253 75 301 75 _c
349 75 387 93 414 129 _c
440 165 454 215 454 280 _c
544 68 _m
544 -24 523 -93 482 -139 _c
440 -184 377 -207 292 -207 _c
260 -207 231 -204 203 -200 _c
175 -195 147 -188 121 -178 _c
}_e{121 -91 _l
147 -105 173 -115 199 -122 _c
225 -129 251 -133 278 -133 _c
336 -133 380 -117 410 -87 _c
439 -56 454 -10 454 52 _c
454 96 _l
435 64 411 40 382 24 _c
353 8 319 0 279 0 _c
211 0 157 25 116 76 _c
75 127 55 195 55 280 _c
55 364 75 432 116 483 _c
157 534 211 560 279 560 _c
319 560 353 552 382 536 _c
411 520 435 496 454 464 _c
454 547 _l
544 547 _l
}_e{544 68 _l
_cl}_e}_d
/i{278 0 94 0 184 760 _sc
94 547 _m
184 547 _l
184 0 _l
94 0 _l
94 547 _l
94 760 _m
184 760 _l
184 646 _l
94 646 _l
94 760 _l
_cl}_d
/l{278 0 94 0 184 760 _sc
94 760 _m
184 760 _l
184 0 _l
94 0 _l
94 760 _l
_cl}_d
/m{{974 0 91 0 889 560 _sc
520 442 _m
542 482 569 511 600 531 _c
631 550 668 560 711 560 _c
767 560 811 540 842 500 _c
873 460 889 403 889 330 _c
889 0 _l
799 0 _l
799 327 _l
799 379 789 418 771 444 _c
752 469 724 482 686 482 _c
639 482 602 466 575 435 _c
548 404 535 362 535 309 _c
535 0 _l
445 0 _l
445 327 _l
445 379 435 418 417 444 _c
398 469 369 482 331 482 _c
}_e{285 482 248 466 221 435 _c
194 404 181 362 181 309 _c
181 0 _l
91 0 _l
91 547 _l
181 547 _l
181 462 _l
201 495 226 520 255 536 _c
283 552 317 560 357 560 _c
397 560 430 550 458 530 _c
486 510 506 480 520 442 _c
_cl}_e}_d
/n{634 0 91 0 549 560 _sc
549 330 _m
549 0 _l
459 0 _l
459 327 _l
459 379 448 417 428 443 _c
408 469 378 482 338 482 _c
289 482 251 466 223 435 _c
195 404 181 362 181 309 _c
181 0 _l
91 0 _l
91 547 _l
181 547 _l
181 462 _l
202 494 227 519 257 535 _c
286 551 320 560 358 560 _c
420 560 468 540 500 501 _c
532 462 549 405 549 330 _c
_cl}_d
/o{612 0 55 -13 557 560 _sc
306 484 _m
258 484 220 465 192 427 _c
164 389 150 338 150 273 _c
150 207 163 156 191 118 _c
219 80 257 62 306 62 _c
354 62 392 80 420 118 _c
448 156 462 207 462 273 _c
462 337 448 389 420 427 _c
392 465 354 484 306 484 _c
306 560 _m
384 560 445 534 490 484 _c
534 433 557 363 557 273 _c
557 183 534 113 490 63 _c
445 12 384 -13 306 -13 _c
227 -13 165 12 121 63 _c
77 113 55 183 55 273 _c
55 363 77 433 121 484 _c
165 534 227 560 306 560 _c
_cl}_d
/q{{635 0 55 -207 544 560 _sc
148 273 _m
148 207 161 155 188 117 _c
215 79 253 61 301 61 _c
348 61 385 79 413 117 _c
440 155 454 207 454 273 _c
454 339 440 390 413 428 _c
385 466 348 485 301 485 _c
253 485 215 466 188 428 _c
161 390 148 339 148 273 _c
454 82 _m
435 49 411 25 382 10 _c
353 -5 319 -13 279 -13 _c
213 -13 159 13 117 65 _c
75 117 55 187 55 273 _c
}_e{55 359 75 428 117 481 _c
159 533 213 560 279 560 _c
319 560 353 552 382 536 _c
411 520 435 496 454 464 _c
454 547 _l
544 547 _l
544 -207 _l
454 -207 _l
454 82 _l
_cl}_e}_d
/r{411 0 91 0 411 560 _sc
411 463 _m
401 469 390 473 378 476 _c
366 478 353 480 339 480 _c
288 480 249 463 222 430 _c
194 397 181 350 181 288 _c
181 0 _l
91 0 _l
91 547 _l
181 547 _l
181 462 _l
199 495 224 520 254 536 _c
284 552 321 560 365 560 _c
371 560 378 559 386 559 _c
393 558 401 557 411 555 _c
411 463 _l
_cl}_d
/s{{521 0 54 -13 472 560 _sc
443 531 _m
443 446 _l
417 458 391 468 364 475 _c
336 481 308 485 279 485 _c
234 485 200 478 178 464 _c
156 450 145 430 145 403 _c
145 382 153 366 169 354 _c
185 342 217 330 265 320 _c
296 313 _l
360 299 405 279 432 255 _c
458 230 472 195 472 151 _c
472 100 452 60 412 31 _c
372 1 316 -13 246 -13 _c
216 -13 186 -10 154 -5 _c
}_e{122 0 89 8 54 20 _c
54 113 _l
87 95 120 82 152 74 _c
184 65 216 61 248 61 _c
290 61 323 68 346 82 _c
368 96 380 117 380 144 _c
380 168 371 187 355 200 _c
339 213 303 226 247 238 _c
216 245 _l
160 257 119 275 95 299 _c
70 323 58 356 58 399 _c
58 450 76 490 112 518 _c
148 546 200 560 268 560 _c
301 560 332 557 362 552 _c
391 547 418 540 443 531 _c
}_e{_cl}_e}_d
/t{392 0 27 0 368 702 _sc
183 702 _m
183 547 _l
368 547 _l
368 477 _l
183 477 _l
183 180 _l
183 135 189 106 201 94 _c
213 81 238 75 276 75 _c
368 75 _l
368 0 _l
276 0 _l
206 0 158 13 132 39 _c
106 65 93 112 93 180 _c
93 477 _l
27 477 _l
27 547 _l
93 547 _l
93 702 _l
183 702 _l
_cl}_d
/u{634 0 85 -13 543 560 _sc
85 216 _m
85 547 _l
175 547 _l
175 219 _l
175 167 185 129 205 103 _c
225 77 255 64 296 64 _c
344 64 383 79 411 110 _c
439 141 453 183 453 237 _c
453 547 _l
543 547 _l
543 0 _l
453 0 _l
453 84 _l
431 50 405 26 377 10 _c
348 -5 315 -13 277 -13 _c
214 -13 166 6 134 45 _c
101 83 85 140 85 216 _c
311 560 _m
311 560 _l
_cl}_d
/v{592 0 30 0 562 547 _sc
30 547 _m
125 547 _l
296 88 _l
467 547 _l
562 547 _l
357 0 _l
235 0 _l
30 547 _l
_cl}_d
end readonly def

/BuildGlyph
 {exch begin
 CharStrings exch
 2 copy known not{pop /.notdef}if
 true 3 1 roll get exec
 end}_d

/BuildChar {
 1 index /Encoding get exch get
 1 index /BuildGlyph get exec
}_d

FontName currentdict end definefont pop
end
%%EndProlog
mpldict begin
112.955 260.998 translate
386.091 270.004 0 0 clipbox
gsave
0 0 m
386.090625 0 l
386.090625 270.00375 l
0 270.00375 l
cl
1.000 setgray
fill
grestore
gsave
40.590625 158.50375 m
375.390625 158.50375 l
375.390625 259.30375 l
40.590625 259.30375 l
cl
1.000 setgray
fill
grestore
0.800 setlinewidth
1 setlinejoin
0 setlinecap
[] 0 setdash
0.000 setgray
gsave
/o {
gsave
newpath
translate
0.8 setlinewidth
1 setlinejoin
0 setlinecap
0 0 m
0 -3.5 l

gsave
0.000 setgray
fill
grestore
stroke
grestore
} bind def
40.5906 158.504 o
grestore
/DejaVuSans findfont
10.000 scalefont
setfont
gsave
37.410938 143.910000 translate
0.000000 rotate
0.000000 0.000000 m /zero glyphshow
grestore
gsave
/o {
gsave
newpath
translate
0.8 setlinewidth
1 setlinejoin
0 setlinecap
0 0 m
0 -3.5 l

gsave
0.000 setgray
fill
grestore
stroke
grestore
} bind def
100.111 158.504 o
grestore
gsave
90.571562 143.910000 translate
0.000000 rotate
0.000000 0.000000 m /two glyphshow
6.362305 0.000000 m /zero glyphshow
12.724609 0.000000 m /zero glyphshow
grestore
gsave
/o {
gsave
newpath
translate
0.8 setlinewidth
1 setlinejoin
0 setlinecap
0 0 m
0 -3.5 l

gsave
0.000 setgray
fill
grestore
stroke
grestore
} bind def
159.631 158.504 o
grestore
gsave
150.091563 143.910000 translate
0.000000 rotate
0.000000 0.000000 m /four glyphshow
6.362305 0.000000 m /zero glyphshow
12.724609 0.000000 m /zero glyphshow
grestore
gsave
/o {
gsave
newpath
translate
0.8 setlinewidth
1 setlinejoin
0 setlinecap
0 0 m
0 -3.5 l

gsave
0.000 setgray
fill
grestore
stroke
grestore
} bind def
219.151 158.504 o
grestore
gsave
209.611563 143.910000 translate
0.000000 rotate
0.000000 0.000000 m /six glyphshow
6.362305 0.000000 m /zero glyphshow
12.724609 0.000000 m /zero glyphshow
grestore
gsave
/o {
gsave
newpath
translate
0.8 setlinewidth
1 setlinejoin
0 setlinecap
0 0 m
0 -3.5 l

gsave
0.000 setgray
fill
grestore
stroke
grestore
} bind def
278.671 158.504 o
grestore
gsave
269.131563 143.910000 translate
0.000000 rotate
0.000000 0.000000 m /eight glyphshow
6.362305 0.000000 m /zero glyphshow
12.724609 0.000000 m /zero glyphshow
grestore
gsave
/o {
gsave
newpath
translate
0.8 setlinewidth
1 setlinejoin
0 setlinecap
0 0 m
0 -3.5 l

gsave
0.000 setgray
fill
grestore
stroke
grestore
} bind def
338.191 158.504 o
grestore
gsave
325.471875 143.910000 translate
0.000000 rotate
0.000000 0.000000 m /one glyphshow
6.362305 0.000000 m /zero glyphshow
12.724609 0.000000 m /zero glyphshow
19.086914 0.000000 m /zero glyphshow
grestore
gsave
169.639063 130.238125 translate
0.000000 rotate
0.000000 0.000000 m /T glyphshow
6.108398 0.000000 m /i glyphshow
8.886719 0.000000 m /m glyphshow
18.627930 0.000000 m /e glyphshow
24.780273 0.000000 m /space glyphshow
27.958984 0.000000 m /bracketleft glyphshow
31.860352 0.000000 m /s glyphshow
37.070312 0.000000 m /e glyphshow
43.222656 0.000000 m /c glyphshow
48.720703 0.000000 m /o glyphshow
54.838867 0.000000 m /n glyphshow
61.176758 0.000000 m /d glyphshow
67.524414 0.000000 m /s glyphshow
72.734375 0.000000 m /bracketright glyphshow
grestore
gsave
/o {
gsave
newpath
translate
0.8 setlinewidth
1 setlinejoin
0 setlinecap
0 0 m
-3.5 0 l

gsave
0.000 setgray
fill
grestore
stroke
grestore
} bind def
40.5906 163.086 o
grestore
gsave
27.231250 159.288693 translate
0.000000 rotate
0.000000 0.000000 m /zero glyphshow
grestore
gsave
/o {
gsave
newpath
translate
0.8 setlinewidth
1 setlinejoin
0 setlinecap
0 0 m
-3.5 0 l

gsave
0.000 setgray
fill
grestore
stroke
grestore
} bind def
40.5906 184.396 o
grestore
gsave
20.871875 180.599475 translate
0.000000 rotate
0.000000 0.000000 m /one glyphshow
6.362305 0.000000 m /zero glyphshow
grestore
gsave
/o {
gsave
newpath
translate
0.8 setlinewidth
1 setlinejoin
0 setlinecap
0 0 m
-3.5 0 l

gsave
0.000 setgray
fill
grestore
stroke
grestore
} bind def
40.5906 205.707 o
grestore
gsave
20.871875 201.910258 translate
0.000000 rotate
0.000000 0.000000 m /two glyphshow
6.362305 0.000000 m /zero glyphshow
grestore
gsave
/o {
gsave
newpath
translate
0.8 setlinewidth
1 setlinejoin
0 setlinecap
0 0 m
-3.5 0 l

gsave
0.000 setgray
fill
grestore
stroke
grestore
} bind def
40.5906 227.018 o
grestore
gsave
20.871875 223.221040 translate
0.000000 rotate
0.000000 0.000000 m /three glyphshow
6.362305 0.000000 m /zero glyphshow
grestore
gsave
/o {
gsave
newpath
translate
0.8 setlinewidth
1 setlinejoin
0 setlinecap
0 0 m
-3.5 0 l

gsave
0.000 setgray
fill
grestore
stroke
grestore
} bind def
40.5906 248.329 o
grestore
gsave
20.871875 244.531822 translate
0.000000 rotate
0.000000 0.000000 m /four glyphshow
6.362305 0.000000 m /zero glyphshow
grestore
gsave
14.793750 198.583438 translate
90.000000 rotate
0.000000 0.000000 m /J glyphshow
2.949219 0.000000 m /o glyphshow
9.067383 0.000000 m /b glyphshow
15.415039 0.000000 m /s glyphshow
grestore
1.500 setlinewidth
[5.55 2.4] 0 setdash
0.502 setgray
gsave
334.8 100.8 40.59 158.5 clipbox
40.590625 248.328697 m
45.258413 248.328697 l
49.605306 248.328697 l
54.33668 248.328697 l
58.892197 248.328697 l
63.795353 248.328697 l
68.820027 248.328697 l
74.615114 248.328697 l
79.804707 248.328697 l
85.604938 248.328697 l
90.25912 248.328697 l
95.72051 248.328697 l
101.359646 248.328697 l
107.155893 248.328697 l
113.195532 248.328697 l
118.340313 248.328697 l
124.386585 248.328697 l
130.678218 248.328697 l
136.812827 248.328697 l
142.988508 248.328697 l
149.002376 248.328697 l
155.524525 248.328697 l
161.632836 248.328697 l
168.22069 248.328697 l
174.184759 248.328697 l
180.708357 248.328697 l
186.645682 248.328697 l
192.955009 248.328697 l
198.934703 248.328697 l
205.220496 248.328697 l
211.195756 248.328697 l
217.543856 248.328697 l
223.641225 248.328697 l
228.832163 248.328697 l
234.289951 248.328697 l
240.253187 248.328697 l
246.116206 248.328697 l
252.542332 248.328697 l
258.760459 248.328697 l
265.242081 248.328697 l
271.507506 248.328697 l
276.652403 248.328697 l
281.371695 248.328697 l
286.051557 248.328697 l
290.973668 248.328697 l
295.805584 248.328697 l
301.485509 248.328697 l
306.642575 248.328697 l
311.35847 248.328697 l
316.332865 248.328697 l
320.812006 248.328697 l
325.273013 248.328697 l
329.755759 248.328697 l
334.31032 248.328697 l
339.187321 248.328697 l
343.895925 248.328697 l
348.405416 248.328697 l
352.947171 248.328697 l
357.349848 248.328697 l
361.902353 248.328697 l
366.241794 248.328697 l
370.773574 248.328697 l
375.270312 248.328697 l
379.770544 248.328697 l
384.445125 248.328697 l
387.090625 248.328697 l
stroke
grestore
2 setlinecap
[] 0 setdash
0.122 0.467 0.706 setrgbcolor
gsave
334.8 100.8 40.59 158.5 clipbox
40.590625 163.085568 m
49.605306 163.085568 l
49.605306 188.658507 l
54.33668 188.658507 l
54.33668 184.39635 l
58.892197 184.39635 l
58.892197 205.707133 l
63.795353 205.707133 l
63.795353 220.62468 l
68.820027 220.62468 l
68.820027 218.493602 l
74.615114 218.493602 l
74.615114 229.148993 l
85.604938 229.148993 l
85.604938 224.886837 l
90.25912 224.886837 l
90.25912 237.673306 l
95.72051 237.673306 l
95.72051 241.935462 l
101.359646 241.935462 l
101.359646 239.804384 l
107.155893 239.804384 l
107.155893 246.197619 l
113.195532 246.197619 l
113.195532 235.542228 l
118.340313 235.542228 l
118.340313 241.935462 l
124.386585 241.935462 l
124.386585 231.280071 l
130.678218 231.280071 l
130.678218 237.673306 l
136.812827 237.673306 l
136.812827 229.148993 l
142.988508 229.148993 l
142.988508 237.673306 l
149.002376 237.673306 l
149.002376 227.017915 l
155.524525 227.017915 l
155.524525 237.673306 l
161.632836 237.673306 l
161.632836 229.148993 l
168.22069 229.148993 l
168.22069 237.673306 l
174.184759 237.673306 l
174.184759 229.148993 l
180.708357 229.148993 l
180.708357 237.673306 l
186.645682 237.673306 l
186.645682 231.280071 l
192.955009 231.280071 l
192.955009 237.673306 l
198.934703 237.673306 l
198.934703 231.280071 l
205.220496 231.280071 l
205.220496 237.673306 l
211.195756 237.673306 l
211.195756 231.280071 l
217.543856 231.280071 l
217.543856 241.935462 l
223.641225 241.935462 l
223.641225 231.280071 l
228.832163 231.280071 l
228.832163 241.935462 l
234.289951 241.935462 l
234.289951 239.804384 l
240.253187 239.804384 l
240.253187 250.459775 l
246.116206 250.459775 l
246.116206 246.197619 l
252.542332 246.197619 l
252.542332 252.590854 l
258.760459 252.590854 l
258.760459 248.328697 l
265.242081 248.328697 l
265.242081 254.721932 l
271.507506 254.721932 l
271.507506 246.197619 l
276.652403 246.197619 l
276.652403 244.066541 l
281.371695 244.066541 l
281.371695 241.935462 l
286.051557 241.935462 l
286.051557 237.673306 l
301.485509 237.673306 l
301.485509 224.886837 l
311.35847 224.886837 l
311.35847 220.62468 l
316.332865 220.62468 l
316.332865 207.838211 l
325.273013 207.838211 l
325.273013 203.576054 l
329.755759 203.576054 l
329.755759 190.789585 l
334.31032 190.789585 l
334.31032 188.658507 l
343.895925 188.658507 l
343.895925 182.265272 l
348.405416 182.265272 l
348.405416 178.003116 l
352.947171 178.003116 l
352.947171 171.609881 l
361.902353 171.609881 l
361.902353 163.085568 l
387.090625 163.085568 l
387.090625 163.085568 l
stroke
grestore
0.800 setlinewidth
0 setlinejoin
[] 0 setdash
0.000 setgray
gsave
40.590625 158.50375 m
40.590625 259.30375 l
stroke
grestore
gsave
375.390625 158.50375 m
375.390625 259.30375 l
stroke
grestore
gsave
40.590625 158.50375 m
375.390625 158.50375 l
stroke
grestore
gsave
40.590625 259.30375 m
375.390625 259.30375 l
stroke
grestore
1.000 setlinewidth
0 setlinecap
0.800 setgray
gsave
155.63125 163.50375 m
260.35 163.50375 l
261.683333 163.50375 262.35 164.170417 262.35 165.50375 c
262.35 193.8475 l
262.35 195.180833 261.683333 195.8475 260.35 195.8475 c
155.63125 195.8475 l
154.297917 195.8475 153.63125 195.180833 153.63125 193.8475 c
153.63125 165.50375 l
153.63125 164.170417 154.297917 163.50375 155.63125 163.50375 c
cl
gsave
1.000 setgray
fill
grestore
stroke
grestore
1.500 setlinewidth
1 setlinejoin
[5.55 2.4] 0 setdash
0.502 setgray
gsave
157.63125 187.75375 m
177.63125 187.75375 l
stroke
grestore
0.000 setgray
gsave
185.631250 184.253750 translate
0.000000 rotate
0.000000 0.000000 m /R glyphshow
6.948242 0.000000 m /e glyphshow
13.100586 0.000000 m /f glyphshow
16.621094 0.000000 m /e glyphshow
22.773438 0.000000 m /r glyphshow
26.884766 0.000000 m /e glyphshow
33.037109 0.000000 m /n glyphshow
39.375000 0.000000 m /c glyphshow
44.873047 0.000000 m /e glyphshow
grestore
2 setlinecap
[] 0 setdash
0.122 0.467 0.706 setrgbcolor
gsave
157.63125 173.081875 m
177.63125 173.081875 l
stroke
grestore
0.000 setgray
gsave
185.631250 169.581875 translate
0.000000 rotate
0.000000 0.000000 m /W glyphshow
9.887695 0.000000 m /a glyphshow
16.015625 0.000000 m /i glyphshow
18.793945 0.000000 m /t glyphshow
22.714844 0.000000 m /i glyphshow
25.493164 0.000000 m /n glyphshow
31.831055 0.000000 m /g glyphshow
38.178711 0.000000 m /space glyphshow
41.357422 0.000000 m /q glyphshow
47.705078 0.000000 m /u glyphshow
54.042969 0.000000 m /e glyphshow
60.195312 0.000000 m /u glyphshow
66.533203 0.000000 m /e glyphshow
grestore
gsave
40.590625 37.54375 m
375.390625 37.54375 l
375.390625 138.34375 l
40.590625 138.34375 l
cl
1.000 setgray
fill
grestore
0.800 setlinewidth
0 setlinecap
gsave
/o {
gsave
newpath
translate
0.8 setlinewidth
1 setlinejoin
0 setlinecap
0 0 m
0 -3.5 l

gsave
0.000 setgray
fill
grestore
stroke
grestore
} bind def
40.5906 37.5438 o
grestore
gsave
37.410938 22.950000 translate
0.000000 rotate
0.000000 0.000000 m /zero glyphshow
grestore
gsave
/o {
gsave
newpath
translate
0.8 setlinewidth
1 setlinejoin
0 setlinecap
0 0 m
0 -3.5 l

gsave
0.000 setgray
fill
grestore
stroke
grestore
} bind def
100.111 37.5438 o
grestore
gsave
90.571562 22.950000 translate
0.000000 rotate
0.000000 0.000000 m /two glyphshow
6.362305 0.000000 m /zero glyphshow
12.724609 0.000000 m /zero glyphshow
grestore
gsave
/o {
gsave
newpath
translate
0.8 setlinewidth
1 setlinejoin
0 setlinecap
0 0 m
0 -3.5 l

gsave
0.000 setgray
fill
grestore
stroke
grestore
} bind def
159.631 37.5438 o
grestore
gsave
150.091563 22.950000 translate
0.000000 rotate
0.000000 0.000000 m /four glyphshow
6.362305 0.000000 m /zero glyphshow
12.724609 0.000000 m /zero glyphshow
grestore
gsave
/o {
gsave
newpath
translate
0.8 setlinewidth
1 setlinejoin
0 setlinecap
0 0 m
0 -3.5 l

gsave
0.000 setgray
fill
grestore
stroke
grestore
} bind def
219.151 37.5438 o
grestore
gsave
209.611563 22.950000 translate
0.000000 rotate
0.000000 0.000000 m /six glyphshow
6.362305 0.000000 m /zero glyphshow
12.724609 0.000000 m /zero glyphshow
grestore
gsave
/o {
gsave
newpath
translate
0.8 setlinewidth
1 setlinejoin
0 setlinecap
0 0 m
0 -3.5 l

gsave
0.000 setgray
fill
grestore
stroke
grestore
} bind def
278.671 37.5438 o
grestore
gsave
269.131563 22.950000 translate
0.000000 rotate
0.000000 0.000000 m /eight glyphshow
6.362305 0.000000 m /zero glyphshow
12.724609 0.000000 m /zero glyphshow
grestore
gsave
/o {
gsave
newpath
translate
0.8 setlinewidth
1 setlinejoin
0 setlinecap
0 0 m
0 -3.5 l

gsave
0.000 setgray
fill
grestore
stroke
grestore
} bind def
338.191 37.5438 o
grestore
gsave
325.471875 22.950000 translate
0.000000 rotate
0.000000 0.000000 m /one glyphshow
6.362305 0.000000 m /zero glyphshow
12.724609 0.000000 m /zero glyphshow
19.086914 0.000000 m /zero glyphshow
grestore
gsave
169.639063 9.278125 translate
0.000000 rotate
0.000000 0.000000 m /T glyphshow
6.108398 0.000000 m /i glyphshow
8.886719 0.000000 m /m glyphshow
18.627930 0.000000 m /e glyphshow
24.780273 0.000000 m /space glyphshow
27.958984 0.000000 m /bracketleft glyphshow
31.860352 0.000000 m /s glyphshow
37.070312 0.000000 m /e glyphshow
43.222656 0.000000 m /c glyphshow
48.720703 0.000000 m /o glyphshow
54.838867 0.000000 m /n glyphshow
61.176758 0.000000 m /d glyphshow
67.524414 0.000000 m /s glyphshow
72.734375 0.000000 m /bracketright glyphshow
grestore
gsave
/o {
gsave
newpath
translate
0.8 setlinewidth
1 setlinejoin
0 setlinecap
0 0 m
-3.5 0 l

gsave
0.000 setgray
fill
grestore
stroke
grestore
} bind def
40.5906 47.6238 o
grestore
gsave
27.231250 43.826875 translate
0.000000 rotate
0.000000 0.000000 m /zero glyphshow
grestore
gsave
/o {
gsave
newpath
translate
0.8 setlinewidth
1 setlinejoin
0 setlinecap
0 0 m
-3.5 0 l

gsave
0.000 setgray
fill
grestore
stroke
grestore
} bind def
40.5906 67.7838 o
grestore
gsave
27.231250 63.986875 translate
0.000000 rotate
0.000000 0.000000 m /three glyphshow
grestore
gsave
/o {
gsave
newpath
translate
0.8 setlinewidth
1 setlinejoin
0 setlinecap
0 0 m
-3.5 0 l

gsave
0.000 setgray
fill
grestore
stroke
grestore
} bind def
40.5906 87.9438 o
grestore
gsave
27.231250 84.146875 translate
0.000000 rotate
0.000000 0.000000 m /six glyphshow
grestore
gsave
/o {
gsave
newpath
translate
0.8 setlinewidth
1 setlinejoin
0 setlinecap
0 0 m
-3.5 0 l

gsave
0.000 setgray
fill
grestore
stroke
grestore
} bind def
40.5906 108.104 o
grestore
gsave
27.231250 104.306875 translate
0.000000 rotate
0.000000 0.000000 m /nine glyphshow
grestore
gsave
/o {
gsave
newpath
translate
0.8 setlinewidth
1 setlinejoin
0 setlinecap
0 0 m
-3.5 0 l

gsave
0.000 setgray
fill
grestore
stroke
grestore
} bind def
40.5906 128.264 o
grestore
gsave
20.871875 124.466875 translate
0.000000 rotate
0.000000 0.000000 m /one glyphshow
6.362305 0.000000 m /two glyphshow
grestore
gsave
14.793750 62.053125 translate
90.000000 rotate
0.000000 0.000000 m /R glyphshow
6.948242 0.000000 m /e glyphshow
13.100586 0.000000 m /s glyphshow
18.310547 0.000000 m /o glyphshow
24.428711 0.000000 m /u glyphshow
30.766602 0.000000 m /r glyphshow
34.877930 0.000000 m /c glyphshow
40.375977 0.000000 m /e glyphshow
46.528320 0.000000 m /s glyphshow
grestore
1.500 setlinewidth
[5.55 2.4] 0 setdash
1.000 0.000 0.000 setrgbcolor
gsave
334.8 100.8 40.59 37.54 clipbox
40.666449 67.78375 m
40.666449 128.26375 l
67.175386 128.26375 l
67.175386 101.38375 l
99.741843 101.38375 l
99.741843 94.66375 l
122.583863 94.66375 l
122.583863 121.54375 l
166.580142 121.54375 l
166.580142 114.82375 l
215.901757 114.82375 l
215.901757 81.22375 l
269.876404 81.22375 l
269.876404 74.50375 l
299.924558 74.50375 l
299.924558 101.38375 l
346.056347 101.38375 l
346.056347 94.66375 l
387.090625 94.66375 l
387.090625 94.66375 l
stroke
grestore
2 setlinecap
[] 0 setdash
0.122 0.467 0.706 setrgbcolor
gsave
334.8 100.8 40.59 37.54 clipbox
40.590647 47.62375 m
45.258433 47.62375 l
45.258433 128.26375 l
63.795379 128.26375 l
63.795379 74.50375 l
68.820052 74.50375 l
68.820052 101.38375 l
90.25916 101.38375 l
90.25916 67.78375 l
95.720605 67.78375 l
95.720605 74.50375 l
101.35969 74.50375 l
101.35969 87.94375 l
107.155922 87.94375 l
107.155922 94.66375 l
118.340346 94.66375 l
118.340346 81.22375 l
124.386612 81.22375 l
124.386612 114.82375 l
130.678255 114.82375 l
130.678255 87.94375 l
136.812846 87.94375 l
136.812846 114.82375 l
142.988534 114.82375 l
142.988534 81.22375 l
149.002407 81.22375 l
149.002407 114.82375 l
155.524547 114.82375 l
155.524547 121.54375 l
161.632877 121.54375 l
161.632877 114.82375 l
168.22072 114.82375 l
168.22072 87.94375 l
174.18478 87.94375 l
174.18478 114.82375 l
180.708382 114.82375 l
180.708382 87.94375 l
186.645712 87.94375 l
186.645712 108.10375 l
192.955034 108.10375 l
192.955034 81.22375 l
198.93473 81.22375 l
198.93473 101.38375 l
205.220517 101.38375 l
205.220517 114.82375 l
217.543882 114.82375 l
217.543882 61.06375 l
223.641252 61.06375 l
223.641252 81.22375 l
228.832184 81.22375 l
228.832184 67.78375 l
234.289985 67.78375 l
234.289985 81.22375 l
252.542354 81.22375 l
252.542354 61.06375 l
258.760484 61.06375 l
258.760484 81.22375 l
265.242104 81.22375 l
265.242104 54.34375 l
271.507529 54.34375 l
271.507529 67.78375 l
276.65243 67.78375 l
276.65243 74.50375 l
281.371717 74.50375 l
281.371717 61.06375 l
286.05159 61.06375 l
286.05159 67.78375 l
295.805603 67.78375 l
295.805603 54.34375 l
301.485538 54.34375 l
301.485538 101.38375 l
311.358496 101.38375 l
311.358496 67.78375 l
316.332892 67.78375 l
316.332892 101.38375 l
334.310338 101.38375 l
334.310338 94.66375 l
339.187344 94.66375 l
339.187344 67.78375 l
348.405447 67.78375 l
348.405447 94.66375 l
357.34989 94.66375 l
357.34989 67.78375 l
361.90238 67.78375 l
361.90238 81.22375 l
366.241817 81.22375 l
366.241817 74.50375 l
370.773594 74.50375 l
370.773594 47.62375 l
387.090625 47.62375 l
387.090625 47.62375 l
stroke
grestore
0.800 setlinewidth
0 setlinejoin
[] 0 setdash
0.000 setgray
gsave
40.590625 37.54375 m
40.590625 138.34375 l
stroke
grestore
gsave
375.390625 37.54375 m
375.390625 138.34375 l
stroke
grestore
gsave
40.590625 37.54375 m
375.390625 37.54375 l
stroke
grestore
gsave
40.590625 138.34375 m
375.390625 138.34375 l
stroke
grestore
1.000 setlinewidth
0 setlinecap
0.800 setgray
gsave
47.590625 42.54375 m
177.575 42.54375 l
178.908333 42.54375 179.575 43.210417 179.575 44.54375 c
179.575 72.8875 l
179.575 74.220833 178.908333 74.8875 177.575 74.8875 c
47.590625 74.8875 l
46.257292 74.8875 45.590625 74.220833 45.590625 72.8875 c
45.590625 44.54375 l
45.590625 43.210417 46.257292 42.54375 47.590625 42.54375 c
cl
gsave
1.000 setgray
fill
grestore
stroke
grestore
1.500 setlinewidth
1 setlinejoin
[5.55 2.4] 0 setdash
1.000 0.000 0.000 setrgbcolor
gsave
49.590625 66.79375 m
69.590625 66.79375 l
stroke
grestore
0.000 setgray
gsave
77.590625 63.293750 translate
0.000000 rotate
0.000000 0.000000 m /A glyphshow
6.840820 0.000000 m /v glyphshow
12.758789 0.000000 m /a glyphshow
18.886719 0.000000 m /i glyphshow
21.665039 0.000000 m /l glyphshow
24.443359 0.000000 m /a glyphshow
30.571289 0.000000 m /b glyphshow
36.918945 0.000000 m /l glyphshow
39.697266 0.000000 m /e glyphshow
45.849609 0.000000 m /space glyphshow
49.028320 0.000000 m /r glyphshow
53.139648 0.000000 m /e glyphshow
59.291992 0.000000 m /s glyphshow
64.501953 0.000000 m /o glyphshow
70.620117 0.000000 m /u glyphshow
76.958008 0.000000 m /r glyphshow
81.069336 0.000000 m /c glyphshow
86.567383 0.000000 m /e glyphshow
92.719727 0.000000 m /s glyphshow
grestore
2 setlinecap
[] 0 setdash
0.122 0.467 0.706 setrgbcolor
gsave
49.590625 52.121875 m
69.590625 52.121875 l
stroke
grestore
0.000 setgray
gsave
77.590625 48.621875 translate
0.000000 rotate
0.000000 0.000000 m /U glyphshow
7.319336 0.000000 m /s glyphshow
12.529297 0.000000 m /e glyphshow
18.681641 0.000000 m /d glyphshow
25.029297 0.000000 m /space glyphshow
28.208008 0.000000 m /r glyphshow
32.319336 0.000000 m /e glyphshow
38.471680 0.000000 m /s glyphshow
43.681641 0.000000 m /o glyphshow
49.799805 0.000000 m /u glyphshow
56.137695 0.000000 m /r glyphshow
60.249023 0.000000 m /c glyphshow
65.747070 0.000000 m /e glyphshow
71.899414 0.000000 m /s glyphshow
grestore

end
showpage
