%!PS-Adobe-3.0 EPSF-3.0
%%Title: test.eps
%%Creator: matplotlib version 2.1.2, http://matplotlib.org/
%%CreationDate: Sat Mar 24 13:45:30 2018
%%Orientation: portrait
%%BoundingBox: 110 259 501 532
%%EndComments
%%BeginProlog
/mpldict 8 dict def
mpldict begin
/m { moveto } bind def
/l { lineto } bind def
/r { rlineto } bind def
/c { curveto } bind def
/cl { closepath } bind def
/box {
m
1 index 0 r
0 exch r
neg 0 r
cl
} bind def
/clipbox {
box
clip
newpath
} bind def
%!PS-Adobe-3.0 Resource-Font
%%Title: DejaVu Sans
%%Copyright: Copyright (c) 2003 by Bitstream, Inc. All Rights Reserved. Copyright (c) 2006 by Tavmjong Bah. All Rights Reserved. DejaVu changes are in public domain 
%%Creator: Converted from TrueType to type 3 by PPR
25 dict begin
/_d{bind def}bind def
/_m{moveto}_d
/_l{lineto}_d
/_cl{closepath eofill}_d
/_c{curveto}_d
/_sc{7 -1 roll{setcachedevice}{pop pop pop pop pop pop}ifelse}_d
/_e{exec}_d
/FontName /DejaVuSans def
/PaintType 0 def
/FontMatrix[.001 0 0 .001 0 0]def
/FontBBox[-1021 -463 1793 1232]def
/FontType 3 def
/Encoding [ /space /zero /one /two /three /four /six /F /T /bracketleft /bracketright /c /d /e /i /m /n /o /q /r /s /u /y ] def
/FontInfo 10 dict dup begin
/FamilyName (DejaVu Sans) def
/FullName (DejaVu Sans) def
/Notice (Copyright (c) 2003 by Bitstream, Inc. All Rights Reserved. Copyright (c) 2006 by Tavmjong Bah. All Rights Reserved. DejaVu changes are in public domain ) def
/Weight (Book) def
/Version (Version 2.35) def
/ItalicAngle 0.0 def
/isFixedPitch false def
/UnderlinePosition -130 def
/UnderlineThickness 90 def
end readonly def
/CharStrings 24 dict dup begin
/.notdef 0 def
/space{318 0 0 0 0 0 _sc
}_d
/zero{636 0 66 -13 570 742 _sc
318 664 _m
267 664 229 639 203 589 _c
177 539 165 464 165 364 _c
165 264 177 189 203 139 _c
229 89 267 64 318 64 _c
369 64 407 89 433 139 _c
458 189 471 264 471 364 _c
471 464 458 539 433 589 _c
407 639 369 664 318 664 _c
318 742 _m
399 742 461 709 505 645 _c
548 580 570 486 570 364 _c
570 241 548 147 505 83 _c
461 19 399 -13 318 -13 _c
236 -13 173 19 130 83 _c
87 147 66 241 66 364 _c
66 486 87 580 130 645 _c
173 709 236 742 318 742 _c
_cl}_d
/one{636 0 110 0 544 729 _sc
124 83 _m
285 83 _l
285 639 _l
110 604 _l
110 694 _l
284 729 _l
383 729 _l
383 83 _l
544 83 _l
544 0 _l
124 0 _l
124 83 _l
_cl}_d
/two{{636 0 73 0 536 742 _sc
192 83 _m
536 83 _l
536 0 _l
73 0 _l
73 83 _l
110 121 161 173 226 239 _c
290 304 331 346 348 365 _c
380 400 402 430 414 455 _c
426 479 433 504 433 528 _c
433 566 419 598 392 622 _c
365 646 330 659 286 659 _c
255 659 222 653 188 643 _c
154 632 117 616 78 594 _c
78 694 _l
118 710 155 722 189 730 _c
223 738 255 742 284 742 _c
}_e{359 742 419 723 464 685 _c
509 647 532 597 532 534 _c
532 504 526 475 515 449 _c
504 422 484 390 454 354 _c
446 344 420 317 376 272 _c
332 227 271 164 192 83 _c
_cl}_e}_d
/three{{636 0 76 -13 556 742 _sc
406 393 _m
453 383 490 362 516 330 _c
542 298 556 258 556 212 _c
556 140 531 84 482 45 _c
432 6 362 -13 271 -13 _c
240 -13 208 -10 176 -4 _c
144 1 110 10 76 22 _c
76 117 _l
103 101 133 89 166 81 _c
198 73 232 69 268 69 _c
330 69 377 81 409 105 _c
441 129 458 165 458 212 _c
458 254 443 288 413 312 _c
383 336 341 349 287 349 _c
}_e{202 349 _l
202 430 _l
291 430 _l
339 430 376 439 402 459 _c
428 478 441 506 441 543 _c
441 580 427 609 401 629 _c
374 649 336 659 287 659 _c
260 659 231 656 200 650 _c
169 644 135 635 98 623 _c
98 711 _l
135 721 170 729 203 734 _c
235 739 266 742 296 742 _c
370 742 429 725 473 691 _c
517 657 539 611 539 553 _c
539 513 527 479 504 451 _c
481 423 448 403 406 393 _c
_cl}_e}_d
/four{636 0 49 0 580 729 _sc
378 643 _m
129 254 _l
378 254 _l
378 643 _l
352 729 _m
476 729 _l
476 254 _l
580 254 _l
580 172 _l
476 172 _l
476 0 _l
378 0 _l
378 172 _l
49 172 _l
49 267 _l
352 729 _l
_cl}_d
/six{{636 0 70 -13 573 742 _sc
330 404 _m
286 404 251 388 225 358 _c
199 328 186 286 186 234 _c
186 181 199 139 225 109 _c
251 79 286 64 330 64 _c
374 64 409 79 435 109 _c
461 139 474 181 474 234 _c
474 286 461 328 435 358 _c
409 388 374 404 330 404 _c
526 713 _m
526 623 _l
501 635 476 644 451 650 _c
425 656 400 659 376 659 _c
310 659 260 637 226 593 _c
}_e{192 549 172 482 168 394 _c
187 422 211 444 240 459 _c
269 474 301 482 336 482 _c
409 482 467 459 509 415 _c
551 371 573 310 573 234 _c
573 159 550 99 506 54 _c
462 9 403 -13 330 -13 _c
246 -13 181 19 137 83 _c
92 147 70 241 70 364 _c
70 479 97 571 152 639 _c
206 707 280 742 372 742 _c
396 742 421 739 447 735 _c
472 730 498 723 526 713 _c
_cl}_e}_d
/F{575 0 98 0 517 729 _sc
98 729 _m
517 729 _l
517 646 _l
197 646 _l
197 431 _l
486 431 _l
486 348 _l
197 348 _l
197 0 _l
98 0 _l
98 729 _l
_cl}_d
/T{611 0 -2 0 614 729 _sc
-2 729 _m
614 729 _l
614 646 _l
355 646 _l
355 0 _l
256 0 _l
256 646 _l
-2 646 _l
-2 729 _l
_cl}_d
/bracketleft{390 0 86 -131 293 760 _sc
86 760 _m
293 760 _l
293 690 _l
176 690 _l
176 -61 _l
293 -61 _l
293 -131 _l
86 -131 _l
86 760 _l
_cl}_d
/bracketright{390 0 97 -131 304 760 _sc
304 760 _m
304 -131 _l
97 -131 _l
97 -61 _l
214 -61 _l
214 690 _l
97 690 _l
97 760 _l
304 760 _l
_cl}_d
/c{{550 0 55 -13 488 560 _sc
488 526 _m
488 442 _l
462 456 437 466 411 473 _c
385 480 360 484 334 484 _c
276 484 230 465 198 428 _c
166 391 150 339 150 273 _c
150 206 166 154 198 117 _c
230 80 276 62 334 62 _c
360 62 385 65 411 72 _c
437 79 462 90 488 104 _c
488 21 _l
462 9 436 0 410 -5 _c
383 -10 354 -13 324 -13 _c
242 -13 176 12 128 64 _c
}_e{79 115 55 185 55 273 _c
55 362 79 432 128 483 _c
177 534 244 560 330 560 _c
358 560 385 557 411 551 _c
437 545 463 537 488 526 _c
_cl}_e}_d
/d{{635 0 55 -13 544 760 _sc
454 464 _m
454 760 _l
544 760 _l
544 0 _l
454 0 _l
454 82 _l
435 49 411 25 382 10 _c
353 -5 319 -13 279 -13 _c
213 -13 159 13 117 65 _c
75 117 55 187 55 273 _c
55 359 75 428 117 481 _c
159 533 213 560 279 560 _c
319 560 353 552 382 536 _c
411 520 435 496 454 464 _c
148 273 _m
148 207 161 155 188 117 _c
215 79 253 61 301 61 _c
}_e{348 61 385 79 413 117 _c
440 155 454 207 454 273 _c
454 339 440 390 413 428 _c
385 466 348 485 301 485 _c
253 485 215 466 188 428 _c
161 390 148 339 148 273 _c
_cl}_e}_d
/e{{615 0 55 -13 562 560 _sc
562 296 _m
562 252 _l
149 252 _l
153 190 171 142 205 110 _c
238 78 284 62 344 62 _c
378 62 412 66 444 74 _c
476 82 509 95 541 113 _c
541 28 _l
509 14 476 3 442 -3 _c
408 -9 373 -13 339 -13 _c
251 -13 182 12 131 62 _c
80 112 55 181 55 268 _c
55 357 79 428 127 481 _c
175 533 241 560 323 560 _c
397 560 455 536 498 489 _c
}_e{540 441 562 377 562 296 _c
472 322 _m
471 371 457 410 431 440 _c
404 469 368 484 324 484 _c
274 484 234 469 204 441 _c
174 413 156 373 152 322 _c
472 322 _l
_cl}_e}_d
/i{278 0 94 0 184 760 _sc
94 547 _m
184 547 _l
184 0 _l
94 0 _l
94 547 _l
94 760 _m
184 760 _l
184 646 _l
94 646 _l
94 760 _l
_cl}_d
/m{{974 0 91 0 889 560 _sc
520 442 _m
542 482 569 511 600 531 _c
631 550 668 560 711 560 _c
767 560 811 540 842 500 _c
873 460 889 403 889 330 _c
889 0 _l
799 0 _l
799 327 _l
799 379 789 418 771 444 _c
752 469 724 482 686 482 _c
639 482 602 466 575 435 _c
548 404 535 362 535 309 _c
535 0 _l
445 0 _l
445 327 _l
445 379 435 418 417 444 _c
398 469 369 482 331 482 _c
}_e{285 482 248 466 221 435 _c
194 404 181 362 181 309 _c
181 0 _l
91 0 _l
91 547 _l
181 547 _l
181 462 _l
201 495 226 520 255 536 _c
283 552 317 560 357 560 _c
397 560 430 550 458 530 _c
486 510 506 480 520 442 _c
_cl}_e}_d
/n{634 0 91 0 549 560 _sc
549 330 _m
549 0 _l
459 0 _l
459 327 _l
459 379 448 417 428 443 _c
408 469 378 482 338 482 _c
289 482 251 466 223 435 _c
195 404 181 362 181 309 _c
181 0 _l
91 0 _l
91 547 _l
181 547 _l
181 462 _l
202 494 227 519 257 535 _c
286 551 320 560 358 560 _c
420 560 468 540 500 501 _c
532 462 549 405 549 330 _c
_cl}_d
/o{612 0 55 -13 557 560 _sc
306 484 _m
258 484 220 465 192 427 _c
164 389 150 338 150 273 _c
150 207 163 156 191 118 _c
219 80 257 62 306 62 _c
354 62 392 80 420 118 _c
448 156 462 207 462 273 _c
462 337 448 389 420 427 _c
392 465 354 484 306 484 _c
306 560 _m
384 560 445 534 490 484 _c
534 433 557 363 557 273 _c
557 183 534 113 490 63 _c
445 12 384 -13 306 -13 _c
227 -13 165 12 121 63 _c
77 113 55 183 55 273 _c
55 363 77 433 121 484 _c
165 534 227 560 306 560 _c
_cl}_d
/q{{635 0 55 -207 544 560 _sc
148 273 _m
148 207 161 155 188 117 _c
215 79 253 61 301 61 _c
348 61 385 79 413 117 _c
440 155 454 207 454 273 _c
454 339 440 390 413 428 _c
385 466 348 485 301 485 _c
253 485 215 466 188 428 _c
161 390 148 339 148 273 _c
454 82 _m
435 49 411 25 382 10 _c
353 -5 319 -13 279 -13 _c
213 -13 159 13 117 65 _c
75 117 55 187 55 273 _c
}_e{55 359 75 428 117 481 _c
159 533 213 560 279 560 _c
319 560 353 552 382 536 _c
411 520 435 496 454 464 _c
454 547 _l
544 547 _l
544 -207 _l
454 -207 _l
454 82 _l
_cl}_e}_d
/r{411 0 91 0 411 560 _sc
411 463 _m
401 469 390 473 378 476 _c
366 478 353 480 339 480 _c
288 480 249 463 222 430 _c
194 397 181 350 181 288 _c
181 0 _l
91 0 _l
91 547 _l
181 547 _l
181 462 _l
199 495 224 520 254 536 _c
284 552 321 560 365 560 _c
371 560 378 559 386 559 _c
393 558 401 557 411 555 _c
411 463 _l
_cl}_d
/s{{521 0 54 -13 472 560 _sc
443 531 _m
443 446 _l
417 458 391 468 364 475 _c
336 481 308 485 279 485 _c
234 485 200 478 178 464 _c
156 450 145 430 145 403 _c
145 382 153 366 169 354 _c
185 342 217 330 265 320 _c
296 313 _l
360 299 405 279 432 255 _c
458 230 472 195 472 151 _c
472 100 452 60 412 31 _c
372 1 316 -13 246 -13 _c
216 -13 186 -10 154 -5 _c
}_e{122 0 89 8 54 20 _c
54 113 _l
87 95 120 82 152 74 _c
184 65 216 61 248 61 _c
290 61 323 68 346 82 _c
368 96 380 117 380 144 _c
380 168 371 187 355 200 _c
339 213 303 226 247 238 _c
216 245 _l
160 257 119 275 95 299 _c
70 323 58 356 58 399 _c
58 450 76 490 112 518 _c
148 546 200 560 268 560 _c
301 560 332 557 362 552 _c
391 547 418 540 443 531 _c
}_e{_cl}_e}_d
/u{634 0 85 -13 543 560 _sc
85 216 _m
85 547 _l
175 547 _l
175 219 _l
175 167 185 129 205 103 _c
225 77 255 64 296 64 _c
344 64 383 79 411 110 _c
439 141 453 183 453 237 _c
453 547 _l
543 547 _l
543 0 _l
453 0 _l
453 84 _l
431 50 405 26 377 10 _c
348 -5 315 -13 277 -13 _c
214 -13 166 6 134 45 _c
101 83 85 140 85 216 _c
311 560 _m
311 560 _l
_cl}_d
/y{592 0 30 -207 562 547 _sc
322 -50 _m
296 -114 271 -157 247 -177 _c
223 -197 191 -207 151 -207 _c
79 -207 _l
79 -132 _l
132 -132 _l
156 -132 175 -126 189 -114 _c
203 -102 218 -75 235 -31 _c
251 9 _l
30 547 _l
125 547 _l
296 119 _l
467 547 _l
562 547 _l
322 -50 _l
_cl}_d
end readonly def

/BuildGlyph
 {exch begin
 CharStrings exch
 2 copy known not{pop /.notdef}if
 true 3 1 roll get exec
 end}_d

/BuildChar {
 1 index /Encoding get exch get
 1 index /BuildGlyph get exec
}_d

FontName currentdict end definefont pop
end
%%EndProlog
mpldict begin
110.139 259.291 translate
391.721 273.418 0 0 clipbox
gsave
0 0 m
391.721395 0 l
391.721395 273.418125 l
0 273.418125 l
cl
1.000 setgray
fill
grestore
gsave
43.92 161.918125 m
196.101818 161.918125 l
196.101818 262.718125 l
43.92 262.718125 l
cl
1.000 setgray
fill
grestore
gsave
152.2 100.8 43.92 161.9 clipbox
76.984959 161.918125 m
79.036185 161.918125 l
79.036185 163.77859 l
76.984959 163.77859 l
cl
0.122 0.467 0.706 setrgbcolor
fill
grestore
gsave
152.2 100.8 43.92 161.9 clipbox
79.036185 161.918125 m
81.087412 161.918125 l
81.087412 164.150683 l
79.036185 164.150683 l
cl
0.122 0.467 0.706 setrgbcolor
fill
grestore
gsave
152.2 100.8 43.92 161.9 clipbox
81.087412 161.918125 m
83.138638 161.918125 l
83.138638 164.894869 l
81.087412 164.894869 l
cl
0.122 0.467 0.706 setrgbcolor
fill
grestore
gsave
152.2 100.8 43.92 161.9 clipbox
83.138638 161.918125 m
85.189864 161.918125 l
85.189864 164.894869 l
83.138638 164.894869 l
cl
0.122 0.467 0.706 setrgbcolor
fill
grestore
gsave
152.2 100.8 43.92 161.9 clipbox
85.189864 161.918125 m
87.241091 161.918125 l
87.241091 164.894869 l
85.189864 164.894869 l
cl
0.122 0.467 0.706 setrgbcolor
fill
grestore
gsave
152.2 100.8 43.92 161.9 clipbox
87.241091 161.918125 m
89.292317 161.918125 l
89.292317 167.49952 l
87.241091 167.49952 l
cl
0.122 0.467 0.706 setrgbcolor
fill
grestore
gsave
152.2 100.8 43.92 161.9 clipbox
89.292317 161.918125 m
91.343544 161.918125 l
91.343544 167.49952 l
89.292317 167.49952 l
cl
0.122 0.467 0.706 setrgbcolor
fill
grestore
gsave
152.2 100.8 43.92 161.9 clipbox
91.343544 161.918125 m
93.39477 161.918125 l
93.39477 174.569288 l
91.343544 174.569288 l
cl
0.122 0.467 0.706 setrgbcolor
fill
grestore
gsave
152.2 100.8 43.92 161.9 clipbox
93.39477 161.918125 m
95.445997 161.918125 l
95.445997 184.615799 l
93.39477 184.615799 l
cl
0.122 0.467 0.706 setrgbcolor
fill
grestore
gsave
152.2 100.8 43.92 161.9 clipbox
95.445997 161.918125 m
97.497223 161.918125 l
97.497223 188.33673 l
95.445997 188.33673 l
cl
0.122 0.467 0.706 setrgbcolor
fill
grestore
gsave
152.2 100.8 43.92 161.9 clipbox
97.497223 161.918125 m
99.54845 161.918125 l
99.54845 208.801846 l
97.497223 208.801846 l
cl
0.122 0.467 0.706 setrgbcolor
fill
grestore
gsave
152.2 100.8 43.92 161.9 clipbox
99.54845 161.918125 m
101.599676 161.918125 l
101.599676 231.871613 l
99.54845 231.871613 l
cl
0.122 0.467 0.706 setrgbcolor
fill
grestore
gsave
152.2 100.8 43.92 161.9 clipbox
101.599676 161.918125 m
103.650902 161.918125 l
103.650902 256.801846 l
101.599676 256.801846 l
cl
0.122 0.467 0.706 setrgbcolor
fill
grestore
gsave
152.2 100.8 43.92 161.9 clipbox
103.650902 161.918125 m
105.702129 161.918125 l
105.702129 246.755334 l
103.650902 246.755334 l
cl
0.122 0.467 0.706 setrgbcolor
fill
grestore
gsave
152.2 100.8 43.92 161.9 clipbox
105.702129 161.918125 m
107.753355 161.918125 l
107.753355 257.918125 l
105.702129 257.918125 l
cl
0.122 0.467 0.706 setrgbcolor
fill
grestore
gsave
152.2 100.8 43.92 161.9 clipbox
107.753355 161.918125 m
109.804582 161.918125 l
109.804582 238.197195 l
107.753355 238.197195 l
cl
0.122 0.467 0.706 setrgbcolor
fill
grestore
gsave
152.2 100.8 43.92 161.9 clipbox
109.804582 161.918125 m
111.855808 161.918125 l
111.855808 225.918125 l
109.804582 225.918125 l
cl
0.122 0.467 0.706 setrgbcolor
fill
grestore
gsave
152.2 100.8 43.92 161.9 clipbox
111.855808 161.918125 m
113.907035 161.918125 l
113.907035 198.383241 l
111.855808 198.383241 l
cl
0.122 0.467 0.706 setrgbcolor
fill
grestore
gsave
152.2 100.8 43.92 161.9 clipbox
113.907035 161.918125 m
115.958261 161.918125 l
115.958261 183.871613 l
113.907035 183.871613 l
cl
0.122 0.467 0.706 setrgbcolor
fill
grestore
gsave
152.2 100.8 43.92 161.9 clipbox
115.958261 161.918125 m
118.009488 161.918125 l
118.009488 174.941381 l
115.958261 174.941381 l
cl
0.122 0.467 0.706 setrgbcolor
fill
grestore
gsave
152.2 100.8 43.92 161.9 clipbox
118.009488 161.918125 m
120.060714 161.918125 l
120.060714 166.011148 l
118.009488 166.011148 l
cl
0.122 0.467 0.706 setrgbcolor
fill
grestore
gsave
152.2 100.8 43.92 161.9 clipbox
120.060714 161.918125 m
122.11194 161.918125 l
122.11194 164.522776 l
120.060714 164.522776 l
cl
0.122 0.467 0.706 setrgbcolor
fill
grestore
gsave
152.2 100.8 43.92 161.9 clipbox
122.11194 161.918125 m
124.163167 161.918125 l
124.163167 162.662311 l
122.11194 162.662311 l
cl
0.122 0.467 0.706 setrgbcolor
fill
grestore
gsave
152.2 100.8 43.92 161.9 clipbox
124.163167 161.918125 m
126.214393 161.918125 l
126.214393 161.918125 l
124.163167 161.918125 l
cl
0.122 0.467 0.706 setrgbcolor
fill
grestore
gsave
152.2 100.8 43.92 161.9 clipbox
126.214393 161.918125 m
128.26562 161.918125 l
128.26562 164.150683 l
126.214393 164.150683 l
cl
0.122 0.467 0.706 setrgbcolor
fill
grestore
gsave
152.2 100.8 43.92 161.9 clipbox
128.26562 161.918125 m
130.316846 161.918125 l
130.316846 164.894869 l
128.26562 164.894869 l
cl
0.122 0.467 0.706 setrgbcolor
fill
grestore
gsave
152.2 100.8 43.92 161.9 clipbox
130.316846 161.918125 m
132.368073 161.918125 l
132.368073 162.662311 l
130.316846 162.662311 l
cl
0.122 0.467 0.706 setrgbcolor
fill
grestore
gsave
152.2 100.8 43.92 161.9 clipbox
132.368073 161.918125 m
134.419299 161.918125 l
134.419299 163.406497 l
132.368073 163.406497 l
cl
0.122 0.467 0.706 setrgbcolor
fill
grestore
gsave
152.2 100.8 43.92 161.9 clipbox
134.419299 161.918125 m
136.470526 161.918125 l
136.470526 163.77859 l
134.419299 163.77859 l
cl
0.122 0.467 0.706 setrgbcolor
fill
grestore
gsave
152.2 100.8 43.92 161.9 clipbox
136.470526 161.918125 m
138.521752 161.918125 l
138.521752 163.77859 l
136.470526 163.77859 l
cl
0.122 0.467 0.706 setrgbcolor
fill
grestore
gsave
152.2 100.8 43.92 161.9 clipbox
138.521752 161.918125 m
140.572979 161.918125 l
140.572979 163.406497 l
138.521752 163.406497 l
cl
0.122 0.467 0.706 setrgbcolor
fill
grestore
gsave
152.2 100.8 43.92 161.9 clipbox
140.572979 161.918125 m
142.624205 161.918125 l
142.624205 164.150683 l
140.572979 164.150683 l
cl
0.122 0.467 0.706 setrgbcolor
fill
grestore
gsave
152.2 100.8 43.92 161.9 clipbox
142.624205 161.918125 m
144.675431 161.918125 l
144.675431 162.662311 l
142.624205 162.662311 l
cl
0.122 0.467 0.706 setrgbcolor
fill
grestore
gsave
152.2 100.8 43.92 161.9 clipbox
144.675431 161.918125 m
146.726658 161.918125 l
146.726658 163.034404 l
144.675431 163.034404 l
cl
0.122 0.467 0.706 setrgbcolor
fill
grestore
gsave
152.2 100.8 43.92 161.9 clipbox
146.726658 161.918125 m
148.777884 161.918125 l
148.777884 161.918125 l
146.726658 161.918125 l
cl
0.122 0.467 0.706 setrgbcolor
fill
grestore
gsave
152.2 100.8 43.92 161.9 clipbox
148.777884 161.918125 m
150.829111 161.918125 l
150.829111 162.662311 l
148.777884 162.662311 l
cl
0.122 0.467 0.706 setrgbcolor
fill
grestore
gsave
152.2 100.8 43.92 161.9 clipbox
150.829111 161.918125 m
152.880337 161.918125 l
152.880337 161.918125 l
150.829111 161.918125 l
cl
0.122 0.467 0.706 setrgbcolor
fill
grestore
gsave
152.2 100.8 43.92 161.9 clipbox
152.880337 161.918125 m
154.931564 161.918125 l
154.931564 163.034404 l
152.880337 163.034404 l
cl
0.122 0.467 0.706 setrgbcolor
fill
grestore
gsave
152.2 100.8 43.92 161.9 clipbox
154.931564 161.918125 m
156.98279 161.918125 l
156.98279 161.918125 l
154.931564 161.918125 l
cl
0.122 0.467 0.706 setrgbcolor
fill
grestore
gsave
152.2 100.8 43.92 161.9 clipbox
156.98279 161.918125 m
159.034017 161.918125 l
159.034017 162.662311 l
156.98279 162.662311 l
cl
0.122 0.467 0.706 setrgbcolor
fill
grestore
gsave
152.2 100.8 43.92 161.9 clipbox
159.034017 161.918125 m
161.085243 161.918125 l
161.085243 161.918125 l
159.034017 161.918125 l
cl
0.122 0.467 0.706 setrgbcolor
fill
grestore
gsave
152.2 100.8 43.92 161.9 clipbox
161.085243 161.918125 m
163.136469 161.918125 l
163.136469 161.918125 l
161.085243 161.918125 l
cl
0.122 0.467 0.706 setrgbcolor
fill
grestore
gsave
152.2 100.8 43.92 161.9 clipbox
163.136469 161.918125 m
165.187696 161.918125 l
165.187696 161.918125 l
163.136469 161.918125 l
cl
0.122 0.467 0.706 setrgbcolor
fill
grestore
gsave
152.2 100.8 43.92 161.9 clipbox
165.187696 161.918125 m
167.238922 161.918125 l
167.238922 162.290218 l
165.187696 162.290218 l
cl
0.122 0.467 0.706 setrgbcolor
fill
grestore
gsave
152.2 100.8 43.92 161.9 clipbox
167.238922 161.918125 m
169.290149 161.918125 l
169.290149 161.918125 l
167.238922 161.918125 l
cl
0.122 0.467 0.706 setrgbcolor
fill
grestore
gsave
152.2 100.8 43.92 161.9 clipbox
169.290149 161.918125 m
171.341375 161.918125 l
171.341375 161.918125 l
169.290149 161.918125 l
cl
0.122 0.467 0.706 setrgbcolor
fill
grestore
gsave
152.2 100.8 43.92 161.9 clipbox
171.341375 161.918125 m
173.392602 161.918125 l
173.392602 161.918125 l
171.341375 161.918125 l
cl
0.122 0.467 0.706 setrgbcolor
fill
grestore
gsave
152.2 100.8 43.92 161.9 clipbox
173.392602 161.918125 m
175.443828 161.918125 l
175.443828 161.918125 l
173.392602 161.918125 l
cl
0.122 0.467 0.706 setrgbcolor
fill
grestore
gsave
152.2 100.8 43.92 161.9 clipbox
175.443828 161.918125 m
177.495055 161.918125 l
177.495055 161.918125 l
175.443828 161.918125 l
cl
0.122 0.467 0.706 setrgbcolor
fill
grestore
gsave
152.2 100.8 43.92 161.9 clipbox
177.495055 161.918125 m
179.546281 161.918125 l
179.546281 162.290218 l
177.495055 162.290218 l
cl
0.122 0.467 0.706 setrgbcolor
fill
grestore
0.800 setlinewidth
1 setlinejoin
0 setlinecap
[] 0 setdash
0.000 setgray
gsave
/o {
gsave
newpath
translate
0.8 setlinewidth
1 setlinejoin
0 setlinecap
0 0 m
0 -3.5 l

gsave
0.000 setgray
fill
grestore
stroke
grestore
} bind def
73.8952 161.918 o
grestore
/DejaVuSans findfont
10.000 scalefont
setfont
gsave
70.715519 147.324375 translate
0.000000 rotate
0.000000 0.000000 m /zero glyphshow
grestore
gsave
/o {
gsave
newpath
translate
0.8 setlinewidth
1 setlinejoin
0 setlinecap
0 0 m
0 -3.5 l

gsave
0.000 setgray
fill
grestore
stroke
grestore
} bind def
120.011 161.918 o
grestore
gsave
107.292159 147.324375 translate
0.000000 rotate
0.000000 0.000000 m /one glyphshow
6.362305 0.000000 m /zero glyphshow
12.724609 0.000000 m /zero glyphshow
19.086914 0.000000 m /zero glyphshow
grestore
gsave
/o {
gsave
newpath
translate
0.8 setlinewidth
1 setlinejoin
0 setlinecap
0 0 m
0 -3.5 l

gsave
0.000 setgray
fill
grestore
stroke
grestore
} bind def
166.127 161.918 o
grestore
gsave
153.407862 147.324375 translate
0.000000 rotate
0.000000 0.000000 m /two glyphshow
6.362305 0.000000 m /zero glyphshow
12.724609 0.000000 m /zero glyphshow
19.086914 0.000000 m /zero glyphshow
grestore
gsave
/o {
gsave
newpath
translate
0.8 setlinewidth
1 setlinejoin
0 setlinecap
0 0 m
-3.5 0 l

gsave
0.000 setgray
fill
grestore
stroke
grestore
} bind def
43.92 161.918 o
grestore
gsave
30.560625 158.121250 translate
0.000000 rotate
0.000000 0.000000 m /zero glyphshow
grestore
gsave
/o {
gsave
newpath
translate
0.8 setlinewidth
1 setlinejoin
0 setlinecap
0 0 m
-3.5 0 l

gsave
0.000 setgray
fill
grestore
stroke
grestore
} bind def
43.92 199.127 o
grestore
gsave
17.841875 195.330552 translate
0.000000 rotate
0.000000 0.000000 m /one glyphshow
6.362305 0.000000 m /zero glyphshow
12.724609 0.000000 m /zero glyphshow
grestore
gsave
/o {
gsave
newpath
translate
0.8 setlinewidth
1 setlinejoin
0 setlinecap
0 0 m
-3.5 0 l

gsave
0.000 setgray
fill
grestore
stroke
grestore
} bind def
43.92 236.337 o
grestore
gsave
17.841875 232.539855 translate
0.000000 rotate
0.000000 0.000000 m /two glyphshow
6.362305 0.000000 m /zero glyphshow
12.724609 0.000000 m /zero glyphshow
grestore
1.500 setlinewidth
[5.55 2.4] 0 setdash
1.000 0.498 0.055 setrgbcolor
gsave
152.2 100.8 43.92 161.9 clipbox
50.837355 161.918126 m
72.938449 162.026411 l
75.952235 162.270254 l
77.961425 162.643344 l
79.540075 163.152599 l
80.903454 163.823598 l
82.12332 164.67264 l
83.271428 165.748349 l
84.34778 167.05731 l
85.424132 168.713535 l
86.500484 170.773122 l
87.648593 173.474681 l
88.796702 176.751674 l
90.016567 180.908045 l
91.379947 186.395914 l
92.886839 193.451875 l
94.680759 202.986523 l
100.636574 235.700644 l
101.856439 240.638128 l
102.789277 243.594294 l
103.578602 245.462644 l
104.29617 246.618416 l
104.870225 247.154877 l
105.372522 247.335216 l
105.803063 247.273545 l
106.305361 246.949914 l
106.879415 246.252159 l
107.525226 245.059765 l
108.242794 243.251093 l
109.103876 240.456104 l
110.180228 236.114437 l
111.47185 229.89563 l
113.26577 220.047746 l
117.929962 193.918055 l
119.580368 186.176414 l
121.015504 180.458913 l
122.307127 176.155157 l
123.526992 172.799634 l
124.746858 170.080271 l
125.894967 168.039044 l
127.043075 166.432582 l
128.191184 165.192822 l
129.41105 164.204289 l
130.702672 163.449126 l
132.137808 162.874819 l
133.788214 162.45762 l
135.869162 162.1676 l
138.882947 161.992229 l
144.695248 161.923284 l
189.184463 161.918125 l
189.184463 161.918125 l
stroke
grestore
0.800 setlinewidth
0 setlinejoin
2 setlinecap
[] 0 setdash
0.000 setgray
gsave
43.92 161.918125 m
43.92 262.718125 l
stroke
grestore
gsave
196.101818 161.918125 m
196.101818 262.718125 l
stroke
grestore
gsave
43.92 161.918125 m
196.101818 161.918125 l
stroke
grestore
gsave
43.92 262.718125 m
196.101818 262.718125 l
stroke
grestore
gsave
226.538182 161.918125 m
378.72 161.918125 l
378.72 262.718125 l
226.538182 262.718125 l
cl
1.000 setgray
fill
grestore
gsave
152.2 100.8 226.5 161.9 clipbox
261.290975 161.918125 m
262.986557 161.918125 l
262.986557 163.830476 l
261.290975 163.830476 l
cl
0.122 0.467 0.706 setrgbcolor
fill
grestore
gsave
152.2 100.8 226.5 161.9 clipbox
262.986557 161.918125 m
264.68214 161.918125 l
264.68214 202.842428 l
262.986557 202.842428 l
cl
0.122 0.467 0.706 setrgbcolor
fill
grestore
gsave
152.2 100.8 226.5 161.9 clipbox
264.68214 161.918125 m
266.377722 161.918125 l
266.377722 176.45199 l
264.68214 176.45199 l
cl
0.122 0.467 0.706 setrgbcolor
fill
grestore
gsave
152.2 100.8 226.5 161.9 clipbox
266.377722 161.918125 m
268.073304 161.918125 l
268.073304 162.683065 l
266.377722 162.683065 l
cl
0.122 0.467 0.706 setrgbcolor
fill
grestore
gsave
152.2 100.8 226.5 161.9 clipbox
268.073304 161.918125 m
269.768886 161.918125 l
269.768886 161.918125 l
268.073304 161.918125 l
cl
0.122 0.467 0.706 setrgbcolor
fill
grestore
gsave
152.2 100.8 226.5 161.9 clipbox
269.768886 161.918125 m
271.464468 161.918125 l
271.464468 161.918125 l
269.768886 161.918125 l
cl
0.122 0.467 0.706 setrgbcolor
fill
grestore
gsave
152.2 100.8 226.5 161.9 clipbox
271.464468 161.918125 m
273.16005 161.918125 l
273.16005 162.300595 l
271.464468 162.300595 l
cl
0.122 0.467 0.706 setrgbcolor
fill
grestore
gsave
152.2 100.8 226.5 161.9 clipbox
273.16005 161.918125 m
274.855632 161.918125 l
274.855632 161.918125 l
273.16005 161.918125 l
cl
0.122 0.467 0.706 setrgbcolor
fill
grestore
gsave
152.2 100.8 226.5 161.9 clipbox
274.855632 161.918125 m
276.551215 161.918125 l
276.551215 162.683065 l
274.855632 162.683065 l
cl
0.122 0.467 0.706 setrgbcolor
fill
grestore
gsave
152.2 100.8 226.5 161.9 clipbox
276.551215 161.918125 m
278.246797 161.918125 l
278.246797 167.655177 l
276.551215 167.655177 l
cl
0.122 0.467 0.706 setrgbcolor
fill
grestore
gsave
152.2 100.8 226.5 161.9 clipbox
278.246797 161.918125 m
279.942379 161.918125 l
279.942379 181.424101 l
278.246797 181.424101 l
cl
0.122 0.467 0.706 setrgbcolor
fill
grestore
gsave
152.2 100.8 226.5 161.9 clipbox
279.942379 161.918125 m
281.637961 161.918125 l
281.637961 210.49183 l
279.942379 210.49183 l
cl
0.122 0.467 0.706 setrgbcolor
fill
grestore
gsave
152.2 100.8 226.5 161.9 clipbox
281.637961 161.918125 m
283.333543 161.918125 l
283.333543 220.053583 l
281.637961 220.053583 l
cl
0.122 0.467 0.706 setrgbcolor
fill
grestore
gsave
152.2 100.8 226.5 161.9 clipbox
283.333543 161.918125 m
285.029125 161.918125 l
285.029125 247.591432 l
283.333543 247.591432 l
cl
0.122 0.467 0.706 setrgbcolor
fill
grestore
gsave
152.2 100.8 226.5 161.9 clipbox
285.029125 161.918125 m
286.724707 161.918125 l
286.724707 257.918125 l
285.029125 257.918125 l
cl
0.122 0.467 0.706 setrgbcolor
fill
grestore
gsave
152.2 100.8 226.5 161.9 clipbox
286.724707 161.918125 m
288.42029 161.918125 l
288.42029 242.23685 l
286.724707 242.23685 l
cl
0.122 0.467 0.706 setrgbcolor
fill
grestore
gsave
152.2 100.8 226.5 161.9 clipbox
288.42029 161.918125 m
290.115872 161.918125 l
290.115872 222.730874 l
288.42029 222.730874 l
cl
0.122 0.467 0.706 setrgbcolor
fill
grestore
gsave
152.2 100.8 226.5 161.9 clipbox
290.115872 161.918125 m
291.811454 161.918125 l
291.811454 207.814539 l
290.115872 207.814539 l
cl
0.122 0.467 0.706 setrgbcolor
fill
grestore
gsave
152.2 100.8 226.5 161.9 clipbox
291.811454 161.918125 m
293.507036 161.918125 l
293.507036 194.428085 l
291.811454 194.428085 l
cl
0.122 0.467 0.706 setrgbcolor
fill
grestore
gsave
152.2 100.8 226.5 161.9 clipbox
293.507036 161.918125 m
295.202618 161.918125 l
295.202618 192.898205 l
293.507036 192.898205 l
cl
0.122 0.467 0.706 setrgbcolor
fill
grestore
gsave
152.2 100.8 226.5 161.9 clipbox
295.202618 161.918125 m
296.8982 161.918125 l
296.8982 189.073503 l
295.202618 189.073503 l
cl
0.122 0.467 0.706 setrgbcolor
fill
grestore
gsave
152.2 100.8 226.5 161.9 clipbox
296.8982 161.918125 m
298.593782 161.918125 l
298.593782 182.189041 l
296.8982 182.189041 l
cl
0.122 0.467 0.706 setrgbcolor
fill
grestore
gsave
152.2 100.8 226.5 161.9 clipbox
298.593782 161.918125 m
300.289365 161.918125 l
300.289365 175.304579 l
298.593782 175.304579 l
cl
0.122 0.467 0.706 setrgbcolor
fill
grestore
gsave
152.2 100.8 226.5 161.9 clipbox
300.289365 161.918125 m
301.984947 161.918125 l
301.984947 167.655177 l
300.289365 167.655177 l
cl
0.122 0.467 0.706 setrgbcolor
fill
grestore
gsave
152.2 100.8 226.5 161.9 clipbox
301.984947 161.918125 m
303.680529 161.918125 l
303.680529 171.097408 l
301.984947 171.097408 l
cl
0.122 0.467 0.706 setrgbcolor
fill
grestore
gsave
152.2 100.8 226.5 161.9 clipbox
303.680529 161.918125 m
305.376111 161.918125 l
305.376111 168.037647 l
303.680529 168.037647 l
cl
0.122 0.467 0.706 setrgbcolor
fill
grestore
gsave
152.2 100.8 226.5 161.9 clipbox
305.376111 161.918125 m
307.071693 161.918125 l
307.071693 165.360356 l
305.376111 165.360356 l
cl
0.122 0.467 0.706 setrgbcolor
fill
grestore
gsave
152.2 100.8 226.5 161.9 clipbox
307.071693 161.918125 m
308.767275 161.918125 l
308.767275 166.890237 l
307.071693 166.890237 l
cl
0.122 0.467 0.706 setrgbcolor
fill
grestore
gsave
152.2 100.8 226.5 161.9 clipbox
308.767275 161.918125 m
310.462858 161.918125 l
310.462858 164.977886 l
308.767275 164.977886 l
cl
0.122 0.467 0.706 setrgbcolor
fill
grestore
gsave
152.2 100.8 226.5 161.9 clipbox
310.462858 161.918125 m
312.15844 161.918125 l
312.15844 164.595416 l
310.462858 164.595416 l
cl
0.122 0.467 0.706 setrgbcolor
fill
grestore
gsave
152.2 100.8 226.5 161.9 clipbox
312.15844 161.918125 m
313.854022 161.918125 l
313.854022 164.595416 l
312.15844 164.595416 l
cl
0.122 0.467 0.706 setrgbcolor
fill
grestore
gsave
152.2 100.8 226.5 161.9 clipbox
313.854022 161.918125 m
315.549604 161.918125 l
315.549604 163.448005 l
313.854022 163.448005 l
cl
0.122 0.467 0.706 setrgbcolor
fill
grestore
gsave
152.2 100.8 226.5 161.9 clipbox
315.549604 161.918125 m
317.245186 161.918125 l
317.245186 162.300595 l
315.549604 162.300595 l
cl
0.122 0.467 0.706 setrgbcolor
fill
grestore
gsave
152.2 100.8 226.5 161.9 clipbox
317.245186 161.918125 m
318.940768 161.918125 l
318.940768 162.300595 l
317.245186 162.300595 l
cl
0.122 0.467 0.706 setrgbcolor
fill
grestore
gsave
152.2 100.8 226.5 161.9 clipbox
318.940768 161.918125 m
320.63635 161.918125 l
320.63635 162.300595 l
318.940768 162.300595 l
cl
0.122 0.467 0.706 setrgbcolor
fill
grestore
gsave
152.2 100.8 226.5 161.9 clipbox
320.63635 161.918125 m
322.331933 161.918125 l
322.331933 162.300595 l
320.63635 162.300595 l
cl
0.122 0.467 0.706 setrgbcolor
fill
grestore
gsave
152.2 100.8 226.5 161.9 clipbox
322.331933 161.918125 m
324.027515 161.918125 l
324.027515 162.300595 l
322.331933 162.300595 l
cl
0.122 0.467 0.706 setrgbcolor
fill
grestore
gsave
152.2 100.8 226.5 161.9 clipbox
324.027515 161.918125 m
325.723097 161.918125 l
325.723097 162.300595 l
324.027515 162.300595 l
cl
0.122 0.467 0.706 setrgbcolor
fill
grestore
gsave
152.2 100.8 226.5 161.9 clipbox
325.723097 161.918125 m
327.418679 161.918125 l
327.418679 162.300595 l
325.723097 162.300595 l
cl
0.122 0.467 0.706 setrgbcolor
fill
grestore
gsave
152.2 100.8 226.5 161.9 clipbox
327.418679 161.918125 m
329.114261 161.918125 l
329.114261 161.918125 l
327.418679 161.918125 l
cl
0.122 0.467 0.706 setrgbcolor
fill
grestore
gsave
152.2 100.8 226.5 161.9 clipbox
329.114261 161.918125 m
330.809843 161.918125 l
330.809843 161.918125 l
329.114261 161.918125 l
cl
0.122 0.467 0.706 setrgbcolor
fill
grestore
gsave
152.2 100.8 226.5 161.9 clipbox
330.809843 161.918125 m
332.505425 161.918125 l
332.505425 161.918125 l
330.809843 161.918125 l
cl
0.122 0.467 0.706 setrgbcolor
fill
grestore
gsave
152.2 100.8 226.5 161.9 clipbox
332.505425 161.918125 m
334.201008 161.918125 l
334.201008 161.918125 l
332.505425 161.918125 l
cl
0.122 0.467 0.706 setrgbcolor
fill
grestore
gsave
152.2 100.8 226.5 161.9 clipbox
334.201008 161.918125 m
335.89659 161.918125 l
335.89659 162.300595 l
334.201008 162.300595 l
cl
0.122 0.467 0.706 setrgbcolor
fill
grestore
gsave
152.2 100.8 226.5 161.9 clipbox
335.89659 161.918125 m
337.592172 161.918125 l
337.592172 161.918125 l
335.89659 161.918125 l
cl
0.122 0.467 0.706 setrgbcolor
fill
grestore
gsave
152.2 100.8 226.5 161.9 clipbox
337.592172 161.918125 m
339.287754 161.918125 l
339.287754 161.918125 l
337.592172 161.918125 l
cl
0.122 0.467 0.706 setrgbcolor
fill
grestore
gsave
152.2 100.8 226.5 161.9 clipbox
339.287754 161.918125 m
340.983336 161.918125 l
340.983336 161.918125 l
339.287754 161.918125 l
cl
0.122 0.467 0.706 setrgbcolor
fill
grestore
gsave
152.2 100.8 226.5 161.9 clipbox
340.983336 161.918125 m
342.678918 161.918125 l
342.678918 161.918125 l
340.983336 161.918125 l
cl
0.122 0.467 0.706 setrgbcolor
fill
grestore
gsave
152.2 100.8 226.5 161.9 clipbox
342.678918 161.918125 m
344.3745 161.918125 l
344.3745 161.918125 l
342.678918 161.918125 l
cl
0.122 0.467 0.706 setrgbcolor
fill
grestore
gsave
152.2 100.8 226.5 161.9 clipbox
344.3745 161.918125 m
346.070083 161.918125 l
346.070083 162.683065 l
344.3745 162.683065 l
cl
0.122 0.467 0.706 setrgbcolor
fill
grestore
1 setlinejoin
0 setlinecap
[] 0 setdash
gsave
/o {
gsave
newpath
translate
0.8 setlinewidth
1 setlinejoin
0 setlinecap
0 0 m
0 -3.5 l

gsave
0.000 setgray
fill
grestore
stroke
grestore
} bind def
261.125 161.918 o
grestore
gsave
257.945271 147.324375 translate
0.000000 rotate
0.000000 0.000000 m /zero glyphshow
grestore
gsave
/o {
gsave
newpath
translate
0.8 setlinewidth
1 setlinejoin
0 setlinecap
0 0 m
0 -3.5 l

gsave
0.000 setgray
fill
grestore
stroke
grestore
} bind def
316.464 161.918 o
grestore
gsave
303.745052 147.324375 translate
0.000000 rotate
0.000000 0.000000 m /two glyphshow
6.362305 0.000000 m /zero glyphshow
12.724609 0.000000 m /zero glyphshow
19.086914 0.000000 m /zero glyphshow
grestore
gsave
/o {
gsave
newpath
translate
0.8 setlinewidth
1 setlinejoin
0 setlinecap
0 0 m
0 -3.5 l

gsave
0.000 setgray
fill
grestore
stroke
grestore
} bind def
371.803 161.918 o
grestore
gsave
359.083895 147.324375 translate
0.000000 rotate
0.000000 0.000000 m /four glyphshow
6.362305 0.000000 m /zero glyphshow
12.724609 0.000000 m /zero glyphshow
19.086914 0.000000 m /zero glyphshow
grestore
gsave
/o {
gsave
newpath
translate
0.8 setlinewidth
1 setlinejoin
0 setlinecap
0 0 m
-3.5 0 l

gsave
0.000 setgray
fill
grestore
stroke
grestore
} bind def
226.538 161.918 o
grestore
gsave
213.178807 158.121250 translate
0.000000 rotate
0.000000 0.000000 m /zero glyphshow
grestore
gsave
/o {
gsave
newpath
translate
0.8 setlinewidth
1 setlinejoin
0 setlinecap
0 0 m
-3.5 0 l

gsave
0.000 setgray
fill
grestore
stroke
grestore
} bind def
226.538 200.165 o
grestore
gsave
200.460057 196.368262 translate
0.000000 rotate
0.000000 0.000000 m /one glyphshow
6.362305 0.000000 m /zero glyphshow
12.724609 0.000000 m /zero glyphshow
grestore
gsave
/o {
gsave
newpath
translate
0.8 setlinewidth
1 setlinejoin
0 setlinecap
0 0 m
-3.5 0 l

gsave
0.000 setgray
fill
grestore
stroke
grestore
} bind def
226.538 238.412 o
grestore
gsave
200.460057 234.615274 translate
0.000000 rotate
0.000000 0.000000 m /two glyphshow
6.362305 0.000000 m /zero glyphshow
12.724609 0.000000 m /zero glyphshow
grestore
1.500 setlinewidth
[5.55 2.4] 0 setdash
1.000 0.498 0.055 setrgbcolor
gsave
152.2 100.8 226.5 161.9 clipbox
233.455537 161.918139 m
252.377288 162.026914 l
255.724982 162.274549 l
257.981037 162.658707 l
259.72766 163.174242 l
261.255955 163.859192 l
262.638699 164.733842 l
263.87589 165.777471 l
265.113082 167.120996 l
266.350273 168.816981 l
267.587464 170.915498 l
268.824656 173.459538 l
270.134623 176.672504 l
271.517366 180.657585 l
273.045662 185.744962 l
274.865061 192.603266 l
277.776099 204.609501 l
280.323258 214.780632 l
281.851553 220.020329 l
283.088745 223.489309 l
284.107608 225.70264 l
284.98092 227.077648 l
285.708679 227.829146 l
286.363663 228.18728 l
286.945871 228.248174 l
287.528078 228.065979 l
288.110286 227.642696 l
288.76527 226.884197 l
289.493029 225.703346 l
290.366341 223.844228 l
291.385204 221.12267 l
292.622396 217.137727 l
294.223467 211.150407 l
296.988954 199.742683 l
299.75444 188.669482 l
301.573839 182.277912 l
303.102135 177.663274 l
304.557654 173.958165 l
305.867621 171.191675 l
307.177589 168.929405 l
308.41478 167.210965 l
309.651971 165.848055 l
310.961939 164.734122 l
312.344682 163.859396 l
313.800201 163.201423 l
315.474049 162.693111 l
317.511776 162.320719 l
320.204486 162.076278 l
324.352716 161.95028 l
335.414663 161.91831 l
371.802645 161.918125 l
371.802645 161.918125 l
stroke
grestore
0.800 setlinewidth
0 setlinejoin
2 setlinecap
[] 0 setdash
0.000 setgray
gsave
226.538182 161.918125 m
226.538182 262.718125 l
stroke
grestore
gsave
378.72 161.918125 m
378.72 262.718125 l
stroke
grestore
gsave
226.538182 161.918125 m
378.72 161.918125 l
stroke
grestore
gsave
226.538182 262.718125 m
378.72 262.718125 l
stroke
grestore
gsave
43.92 40.958125 m
196.101818 40.958125 l
196.101818 141.758125 l
43.92 141.758125 l
cl
1.000 setgray
fill
grestore
gsave
152.2 100.8 43.92 40.96 clipbox
74.863636 40.958125 m
76.91394 40.958125 l
76.91394 43.867216 l
74.863636 43.867216 l
cl
0.122 0.467 0.706 setrgbcolor
fill
grestore
gsave
152.2 100.8 43.92 40.96 clipbox
76.91394 40.958125 m
78.964245 40.958125 l
78.964245 40.958125 l
76.91394 40.958125 l
cl
0.122 0.467 0.706 setrgbcolor
fill
grestore
gsave
152.2 100.8 43.92 40.96 clipbox
78.964245 40.958125 m
81.014549 40.958125 l
81.014549 40.958125 l
78.964245 40.958125 l
cl
0.122 0.467 0.706 setrgbcolor
fill
grestore
gsave
152.2 100.8 43.92 40.96 clipbox
81.014549 40.958125 m
83.064853 40.958125 l
83.064853 40.958125 l
81.014549 40.958125 l
cl
0.122 0.467 0.706 setrgbcolor
fill
grestore
gsave
152.2 100.8 43.92 40.96 clipbox
83.064853 40.958125 m
85.115157 40.958125 l
85.115157 40.958125 l
83.064853 40.958125 l
cl
0.122 0.467 0.706 setrgbcolor
fill
grestore
gsave
152.2 100.8 43.92 40.96 clipbox
85.115157 40.958125 m
87.165461 40.958125 l
87.165461 40.958125 l
85.115157 40.958125 l
cl
0.122 0.467 0.706 setrgbcolor
fill
grestore
gsave
152.2 100.8 43.92 40.96 clipbox
87.165461 40.958125 m
89.215765 40.958125 l
89.215765 40.958125 l
87.165461 40.958125 l
cl
0.122 0.467 0.706 setrgbcolor
fill
grestore
gsave
152.2 100.8 43.92 40.96 clipbox
89.215765 40.958125 m
91.266069 40.958125 l
91.266069 40.958125 l
89.215765 40.958125 l
cl
0.122 0.467 0.706 setrgbcolor
fill
grestore
gsave
152.2 100.8 43.92 40.96 clipbox
91.266069 40.958125 m
93.316374 40.958125 l
93.316374 40.958125 l
91.266069 40.958125 l
cl
0.122 0.467 0.706 setrgbcolor
fill
grestore
gsave
152.2 100.8 43.92 40.96 clipbox
93.316374 40.958125 m
95.366678 40.958125 l
95.366678 40.958125 l
93.316374 40.958125 l
cl
0.122 0.467 0.706 setrgbcolor
fill
grestore
gsave
152.2 100.8 43.92 40.96 clipbox
95.366678 40.958125 m
97.416982 40.958125 l
97.416982 40.958125 l
95.366678 40.958125 l
cl
0.122 0.467 0.706 setrgbcolor
fill
grestore
gsave
152.2 100.8 43.92 40.96 clipbox
97.416982 40.958125 m
99.467286 40.958125 l
99.467286 43.867216 l
97.416982 43.867216 l
cl
0.122 0.467 0.706 setrgbcolor
fill
grestore
gsave
152.2 100.8 43.92 40.96 clipbox
99.467286 40.958125 m
101.51759 40.958125 l
101.51759 43.867216 l
99.467286 43.867216 l
cl
0.122 0.467 0.706 setrgbcolor
fill
grestore
gsave
152.2 100.8 43.92 40.96 clipbox
101.51759 40.958125 m
103.567894 40.958125 l
103.567894 43.867216 l
101.51759 43.867216 l
cl
0.122 0.467 0.706 setrgbcolor
fill
grestore
gsave
152.2 100.8 43.92 40.96 clipbox
103.567894 40.958125 m
105.618198 40.958125 l
105.618198 40.958125 l
103.567894 40.958125 l
cl
0.122 0.467 0.706 setrgbcolor
fill
grestore
gsave
152.2 100.8 43.92 40.96 clipbox
105.618198 40.958125 m
107.668502 40.958125 l
107.668502 40.958125 l
105.618198 40.958125 l
cl
0.122 0.467 0.706 setrgbcolor
fill
grestore
gsave
152.2 100.8 43.92 40.96 clipbox
107.668502 40.958125 m
109.718807 40.958125 l
109.718807 40.958125 l
107.668502 40.958125 l
cl
0.122 0.467 0.706 setrgbcolor
fill
grestore
gsave
152.2 100.8 43.92 40.96 clipbox
109.718807 40.958125 m
111.769111 40.958125 l
111.769111 40.958125 l
109.718807 40.958125 l
cl
0.122 0.467 0.706 setrgbcolor
fill
grestore
gsave
152.2 100.8 43.92 40.96 clipbox
111.769111 40.958125 m
113.819415 40.958125 l
113.819415 46.776307 l
111.769111 46.776307 l
cl
0.122 0.467 0.706 setrgbcolor
fill
grestore
gsave
152.2 100.8 43.92 40.96 clipbox
113.819415 40.958125 m
115.869719 40.958125 l
115.869719 43.867216 l
113.819415 43.867216 l
cl
0.122 0.467 0.706 setrgbcolor
fill
grestore
gsave
152.2 100.8 43.92 40.96 clipbox
115.869719 40.958125 m
117.920023 40.958125 l
117.920023 46.776307 l
115.869719 46.776307 l
cl
0.122 0.467 0.706 setrgbcolor
fill
grestore
gsave
152.2 100.8 43.92 40.96 clipbox
117.920023 40.958125 m
119.970327 40.958125 l
119.970327 52.594489 l
117.920023 52.594489 l
cl
0.122 0.467 0.706 setrgbcolor
fill
grestore
gsave
152.2 100.8 43.92 40.96 clipbox
119.970327 40.958125 m
122.020631 40.958125 l
122.020631 78.776307 l
119.970327 78.776307 l
cl
0.122 0.467 0.706 setrgbcolor
fill
grestore
gsave
152.2 100.8 43.92 40.96 clipbox
122.020631 40.958125 m
124.070936 40.958125 l
124.070936 99.139943 l
122.020631 99.139943 l
cl
0.122 0.467 0.706 setrgbcolor
fill
grestore
gsave
152.2 100.8 43.92 40.96 clipbox
124.070936 40.958125 m
126.12124 40.958125 l
126.12124 113.685398 l
124.070936 113.685398 l
cl
0.122 0.467 0.706 setrgbcolor
fill
grestore
gsave
152.2 100.8 43.92 40.96 clipbox
126.12124 40.958125 m
128.171544 40.958125 l
128.171544 75.867216 l
126.12124 75.867216 l
cl
0.122 0.467 0.706 setrgbcolor
fill
grestore
gsave
152.2 100.8 43.92 40.96 clipbox
128.171544 40.958125 m
130.221848 40.958125 l
130.221848 102.049034 l
128.171544 102.049034 l
cl
0.122 0.467 0.706 setrgbcolor
fill
grestore
gsave
152.2 100.8 43.92 40.96 clipbox
130.221848 40.958125 m
132.272152 40.958125 l
132.272152 110.776307 l
130.221848 110.776307 l
cl
0.122 0.467 0.706 setrgbcolor
fill
grestore
gsave
152.2 100.8 43.92 40.96 clipbox
132.272152 40.958125 m
134.322456 40.958125 l
134.322456 110.776307 l
132.272152 110.776307 l
cl
0.122 0.467 0.706 setrgbcolor
fill
grestore
gsave
152.2 100.8 43.92 40.96 clipbox
134.322456 40.958125 m
136.37276 40.958125 l
136.37276 136.958125 l
134.322456 136.958125 l
cl
0.122 0.467 0.706 setrgbcolor
fill
grestore
gsave
152.2 100.8 43.92 40.96 clipbox
136.37276 40.958125 m
138.423064 40.958125 l
138.423064 136.958125 l
136.37276 136.958125 l
cl
0.122 0.467 0.706 setrgbcolor
fill
grestore
gsave
152.2 100.8 43.92 40.96 clipbox
138.423064 40.958125 m
140.473369 40.958125 l
140.473369 119.50358 l
138.423064 119.50358 l
cl
0.122 0.467 0.706 setrgbcolor
fill
grestore
gsave
152.2 100.8 43.92 40.96 clipbox
140.473369 40.958125 m
142.523673 40.958125 l
142.523673 84.594489 l
140.473369 84.594489 l
cl
0.122 0.467 0.706 setrgbcolor
fill
grestore
gsave
152.2 100.8 43.92 40.96 clipbox
142.523673 40.958125 m
144.573977 40.958125 l
144.573977 84.594489 l
142.523673 84.594489 l
cl
0.122 0.467 0.706 setrgbcolor
fill
grestore
gsave
152.2 100.8 43.92 40.96 clipbox
144.573977 40.958125 m
146.624281 40.958125 l
146.624281 84.594489 l
144.573977 84.594489 l
cl
0.122 0.467 0.706 setrgbcolor
fill
grestore
gsave
152.2 100.8 43.92 40.96 clipbox
146.624281 40.958125 m
148.674585 40.958125 l
148.674585 61.321761 l
146.624281 61.321761 l
cl
0.122 0.467 0.706 setrgbcolor
fill
grestore
gsave
152.2 100.8 43.92 40.96 clipbox
148.674585 40.958125 m
150.724889 40.958125 l
150.724889 64.230852 l
148.674585 64.230852 l
cl
0.122 0.467 0.706 setrgbcolor
fill
grestore
gsave
152.2 100.8 43.92 40.96 clipbox
150.724889 40.958125 m
152.775193 40.958125 l
152.775193 55.50358 l
150.724889 55.50358 l
cl
0.122 0.467 0.706 setrgbcolor
fill
grestore
gsave
152.2 100.8 43.92 40.96 clipbox
152.775193 40.958125 m
154.825498 40.958125 l
154.825498 46.776307 l
152.775193 46.776307 l
cl
0.122 0.467 0.706 setrgbcolor
fill
grestore
gsave
152.2 100.8 43.92 40.96 clipbox
154.825498 40.958125 m
156.875802 40.958125 l
156.875802 40.958125 l
154.825498 40.958125 l
cl
0.122 0.467 0.706 setrgbcolor
fill
grestore
gsave
152.2 100.8 43.92 40.96 clipbox
156.875802 40.958125 m
158.926106 40.958125 l
158.926106 46.776307 l
156.875802 46.776307 l
cl
0.122 0.467 0.706 setrgbcolor
fill
grestore
gsave
152.2 100.8 43.92 40.96 clipbox
158.926106 40.958125 m
160.97641 40.958125 l
160.97641 43.867216 l
158.926106 43.867216 l
cl
0.122 0.467 0.706 setrgbcolor
fill
grestore
gsave
152.2 100.8 43.92 40.96 clipbox
160.97641 40.958125 m
163.026714 40.958125 l
163.026714 43.867216 l
160.97641 43.867216 l
cl
0.122 0.467 0.706 setrgbcolor
fill
grestore
gsave
152.2 100.8 43.92 40.96 clipbox
163.026714 40.958125 m
165.077018 40.958125 l
165.077018 43.867216 l
163.026714 43.867216 l
cl
0.122 0.467 0.706 setrgbcolor
fill
grestore
gsave
152.2 100.8 43.92 40.96 clipbox
165.077018 40.958125 m
167.127322 40.958125 l
167.127322 43.867216 l
165.077018 43.867216 l
cl
0.122 0.467 0.706 setrgbcolor
fill
grestore
gsave
152.2 100.8 43.92 40.96 clipbox
167.127322 40.958125 m
169.177626 40.958125 l
169.177626 40.958125 l
167.127322 40.958125 l
cl
0.122 0.467 0.706 setrgbcolor
fill
grestore
gsave
152.2 100.8 43.92 40.96 clipbox
169.177626 40.958125 m
171.227931 40.958125 l
171.227931 40.958125 l
169.177626 40.958125 l
cl
0.122 0.467 0.706 setrgbcolor
fill
grestore
gsave
152.2 100.8 43.92 40.96 clipbox
171.227931 40.958125 m
173.278235 40.958125 l
173.278235 40.958125 l
171.227931 40.958125 l
cl
0.122 0.467 0.706 setrgbcolor
fill
grestore
gsave
152.2 100.8 43.92 40.96 clipbox
173.278235 40.958125 m
175.328539 40.958125 l
175.328539 43.867216 l
173.278235 43.867216 l
cl
0.122 0.467 0.706 setrgbcolor
fill
grestore
gsave
152.2 100.8 43.92 40.96 clipbox
175.328539 40.958125 m
177.378843 40.958125 l
177.378843 43.867216 l
175.328539 43.867216 l
cl
0.122 0.467 0.706 setrgbcolor
fill
grestore
1 setlinejoin
0 setlinecap
[] 0 setdash
gsave
/o {
gsave
newpath
translate
0.8 setlinewidth
1 setlinejoin
0 setlinecap
0 0 m
0 -3.5 l

gsave
0.000 setgray
fill
grestore
stroke
grestore
} bind def
73.8952 40.9581 o
grestore
gsave
70.715519 26.364375 translate
0.000000 rotate
0.000000 0.000000 m /zero glyphshow
grestore
gsave
/o {
gsave
newpath
translate
0.8 setlinewidth
1 setlinejoin
0 setlinecap
0 0 m
0 -3.5 l

gsave
0.000 setgray
fill
grestore
stroke
grestore
} bind def
120.011 40.9581 o
grestore
gsave
107.292159 26.364375 translate
0.000000 rotate
0.000000 0.000000 m /one glyphshow
6.362305 0.000000 m /zero glyphshow
12.724609 0.000000 m /zero glyphshow
19.086914 0.000000 m /zero glyphshow
grestore
gsave
/o {
gsave
newpath
translate
0.8 setlinewidth
1 setlinejoin
0 setlinecap
0 0 m
0 -3.5 l

gsave
0.000 setgray
fill
grestore
stroke
grestore
} bind def
166.127 40.9581 o
grestore
gsave
153.407862 26.364375 translate
0.000000 rotate
0.000000 0.000000 m /two glyphshow
6.362305 0.000000 m /zero glyphshow
12.724609 0.000000 m /zero glyphshow
19.086914 0.000000 m /zero glyphshow
grestore
gsave
/o {
gsave
newpath
translate
0.8 setlinewidth
1 setlinejoin
0 setlinecap
0 0 m
-3.5 0 l

gsave
0.000 setgray
fill
grestore
stroke
grestore
} bind def
43.92 40.9581 o
grestore
gsave
30.560625 37.161250 translate
0.000000 rotate
0.000000 0.000000 m /zero glyphshow
grestore
gsave
/o {
gsave
newpath
translate
0.8 setlinewidth
1 setlinejoin
0 setlinecap
0 0 m
-3.5 0 l

gsave
0.000 setgray
fill
grestore
stroke
grestore
} bind def
43.92 70.049 o
grestore
gsave
24.201250 66.252159 translate
0.000000 rotate
0.000000 0.000000 m /one glyphshow
6.362305 0.000000 m /zero glyphshow
grestore
gsave
/o {
gsave
newpath
translate
0.8 setlinewidth
1 setlinejoin
0 setlinecap
0 0 m
-3.5 0 l

gsave
0.000 setgray
fill
grestore
stroke
grestore
} bind def
43.92 99.1399 o
grestore
gsave
24.201250 95.343068 translate
0.000000 rotate
0.000000 0.000000 m /two glyphshow
6.362305 0.000000 m /zero glyphshow
grestore
gsave
/o {
gsave
newpath
translate
0.8 setlinewidth
1 setlinejoin
0 setlinecap
0 0 m
-3.5 0 l

gsave
0.000 setgray
fill
grestore
stroke
grestore
} bind def
43.92 128.231 o
grestore
gsave
24.201250 124.433977 translate
0.000000 rotate
0.000000 0.000000 m /three glyphshow
6.362305 0.000000 m /zero glyphshow
grestore
1.500 setlinewidth
[5.55 2.4] 0 setdash
1.000 0.498 0.055 setrgbcolor
gsave
152.2 100.8 43.92 40.96 clipbox
50.837355 40.958125 m
95.073735 41.062359 l
98.543254 41.28465 l
101.145394 41.675733 l
102.880154 42.131946 l
104.614914 42.828392 l
105.915984 43.565119 l
107.217054 44.538734 l
108.518124 45.803796 l
109.819194 47.419595 l
111.120264 49.44776 l
112.421334 51.948867 l
113.722404 54.978036 l
115.023474 58.579663 l
116.324544 62.781537 l
118.059304 69.322609 l
119.794064 76.868034 l
121.962514 87.43258 l
127.600484 115.940307 l
128.901554 121.455129 l
130.202624 126.107537 l
131.070004 128.634604 l
131.937384 130.645507 l
132.804764 132.101769 l
133.672144 132.975158 l
134.105834 133.187484 l
134.539524 133.248595 l
134.973214 133.158189 l
135.406904 132.916711 l
136.274284 131.986022 l
137.141664 130.474714 l
138.009044 128.412057 l
138.876424 125.837456 l
140.177494 121.123367 l
141.478564 115.560139 l
143.213324 107.197608 l
149.718674 74.51994 l
151.453434 67.260862 l
153.188193 61.037196 l
154.489263 57.076118 l
155.790333 53.70661 l
157.091403 50.893552 l
158.392473 48.587601 l
159.693543 46.730882 l
160.994613 45.261925 l
162.295683 44.119683 l
163.596753 43.246517 l
165.331513 42.411519 l
167.066273 41.857257 l
169.234723 41.433542 l
171.836863 41.167747 l
175.740073 41.013058 l
184.413873 40.959865 l
189.184463 40.958322 l
189.184463 40.958322 l
stroke
grestore
0.800 setlinewidth
0 setlinejoin
2 setlinecap
[] 0 setdash
0.000 setgray
gsave
43.92 40.958125 m
43.92 141.758125 l
stroke
grestore
gsave
196.101818 40.958125 m
196.101818 141.758125 l
stroke
grestore
gsave
43.92 40.958125 m
196.101818 40.958125 l
stroke
grestore
gsave
43.92 141.758125 m
196.101818 141.758125 l
stroke
grestore
gsave
226.538182 40.958125 m
378.72 40.958125 l
378.72 141.758125 l
226.538182 141.758125 l
cl
1.000 setgray
fill
grestore
gsave
152.2 100.8 226.5 40.96 clipbox
256.674793 40.958125 m
258.485296 40.958125 l
258.485296 57.41118 l
256.674793 57.41118 l
cl
0.122 0.467 0.706 setrgbcolor
fill
grestore
gsave
152.2 100.8 226.5 40.96 clipbox
258.485296 40.958125 m
260.295798 40.958125 l
260.295798 41.387335 l
258.485296 41.387335 l
cl
0.122 0.467 0.706 setrgbcolor
fill
grestore
gsave
152.2 100.8 226.5 40.96 clipbox
260.295798 40.958125 m
262.106301 40.958125 l
262.106301 41.101195 l
260.295798 41.101195 l
cl
0.122 0.467 0.706 setrgbcolor
fill
grestore
gsave
152.2 100.8 226.5 40.96 clipbox
262.106301 40.958125 m
263.916803 40.958125 l
263.916803 43.819526 l
262.106301 43.819526 l
cl
0.122 0.467 0.706 setrgbcolor
fill
grestore
gsave
152.2 100.8 226.5 40.96 clipbox
263.916803 40.958125 m
265.727306 40.958125 l
265.727306 50.543818 l
263.916803 50.543818 l
cl
0.122 0.467 0.706 setrgbcolor
fill
grestore
gsave
152.2 100.8 226.5 40.96 clipbox
265.727306 40.958125 m
267.537808 40.958125 l
267.537808 45.107156 l
265.727306 45.107156 l
cl
0.122 0.467 0.706 setrgbcolor
fill
grestore
gsave
152.2 100.8 226.5 40.96 clipbox
267.537808 40.958125 m
269.348311 40.958125 l
269.348311 48.397767 l
267.537808 48.397767 l
cl
0.122 0.467 0.706 setrgbcolor
fill
grestore
gsave
152.2 100.8 226.5 40.96 clipbox
269.348311 40.958125 m
271.158813 40.958125 l
271.158813 46.967067 l
269.348311 46.967067 l
cl
0.122 0.467 0.706 setrgbcolor
fill
grestore
gsave
152.2 100.8 226.5 40.96 clipbox
271.158813 40.958125 m
272.969316 40.958125 l
272.969316 42.674966 l
271.158813 42.674966 l
cl
0.122 0.467 0.706 setrgbcolor
fill
grestore
gsave
152.2 100.8 226.5 40.96 clipbox
272.969316 40.958125 m
274.779818 40.958125 l
274.779818 41.816545 l
272.969316 41.816545 l
cl
0.122 0.467 0.706 setrgbcolor
fill
grestore
gsave
152.2 100.8 226.5 40.96 clipbox
274.779818 40.958125 m
276.590321 40.958125 l
276.590321 42.674966 l
274.779818 42.674966 l
cl
0.122 0.467 0.706 setrgbcolor
fill
grestore
gsave
152.2 100.8 226.5 40.96 clipbox
276.590321 40.958125 m
278.400823 40.958125 l
278.400823 51.116098 l
276.590321 51.116098 l
cl
0.122 0.467 0.706 setrgbcolor
fill
grestore
gsave
152.2 100.8 226.5 40.96 clipbox
278.400823 40.958125 m
280.211326 40.958125 l
280.211326 73.005815 l
278.400823 73.005815 l
cl
0.122 0.467 0.706 setrgbcolor
fill
grestore
gsave
152.2 100.8 226.5 40.96 clipbox
280.211326 40.958125 m
282.021828 40.958125 l
282.021828 96.040092 l
280.211326 96.040092 l
cl
0.122 0.467 0.706 setrgbcolor
fill
grestore
gsave
152.2 100.8 226.5 40.96 clipbox
282.021828 40.958125 m
283.832331 40.958125 l
283.832331 109.774817 l
282.021828 109.774817 l
cl
0.122 0.467 0.706 setrgbcolor
fill
grestore
gsave
152.2 100.8 226.5 40.96 clipbox
283.832331 40.958125 m
285.642833 40.958125 l
285.642833 134.812074 l
283.832331 134.812074 l
cl
0.122 0.467 0.706 setrgbcolor
fill
grestore
gsave
152.2 100.8 226.5 40.96 clipbox
285.642833 40.958125 m
287.453336 40.958125 l
287.453336 136.958125 l
285.642833 136.958125 l
cl
0.122 0.467 0.706 setrgbcolor
fill
grestore
gsave
152.2 100.8 226.5 40.96 clipbox
287.453336 40.958125 m
289.263838 40.958125 l
289.263838 127.515502 l
287.453336 127.515502 l
cl
0.122 0.467 0.706 setrgbcolor
fill
grestore
gsave
152.2 100.8 226.5 40.96 clipbox
289.263838 40.958125 m
291.07434 40.958125 l
291.07434 94.895532 l
289.263838 94.895532 l
cl
0.122 0.467 0.706 setrgbcolor
fill
grestore
gsave
152.2 100.8 226.5 40.96 clipbox
291.07434 40.958125 m
292.884843 40.958125 l
292.884843 69.142924 l
291.07434 69.142924 l
cl
0.122 0.467 0.706 setrgbcolor
fill
grestore
gsave
152.2 100.8 226.5 40.96 clipbox
292.884843 40.958125 m
294.695345 40.958125 l
294.695345 56.26662 l
292.884843 56.26662 l
cl
0.122 0.467 0.706 setrgbcolor
fill
grestore
gsave
152.2 100.8 226.5 40.96 clipbox
294.695345 40.958125 m
296.505848 40.958125 l
296.505848 50.829958 l
294.695345 50.829958 l
cl
0.122 0.467 0.706 setrgbcolor
fill
grestore
gsave
152.2 100.8 226.5 40.96 clipbox
296.505848 40.958125 m
298.31635 40.958125 l
298.31635 45.536366 l
296.505848 45.536366 l
cl
0.122 0.467 0.706 setrgbcolor
fill
grestore
gsave
152.2 100.8 226.5 40.96 clipbox
298.31635 40.958125 m
300.126853 40.958125 l
300.126853 44.391806 l
298.31635 44.391806 l
cl
0.122 0.467 0.706 setrgbcolor
fill
grestore
gsave
152.2 100.8 226.5 40.96 clipbox
300.126853 40.958125 m
301.937355 40.958125 l
301.937355 45.250226 l
300.126853 45.250226 l
cl
0.122 0.467 0.706 setrgbcolor
fill
grestore
gsave
152.2 100.8 226.5 40.96 clipbox
301.937355 40.958125 m
303.747858 40.958125 l
303.747858 44.391806 l
301.937355 44.391806 l
cl
0.122 0.467 0.706 setrgbcolor
fill
grestore
gsave
152.2 100.8 226.5 40.96 clipbox
303.747858 40.958125 m
305.55836 40.958125 l
305.55836 45.107156 l
303.747858 45.107156 l
cl
0.122 0.467 0.706 setrgbcolor
fill
grestore
gsave
152.2 100.8 226.5 40.96 clipbox
305.55836 40.958125 m
307.368863 40.958125 l
307.368863 43.962596 l
305.55836 43.962596 l
cl
0.122 0.467 0.706 setrgbcolor
fill
grestore
gsave
152.2 100.8 226.5 40.96 clipbox
307.368863 40.958125 m
309.179365 40.958125 l
309.179365 42.818036 l
307.368863 42.818036 l
cl
0.122 0.467 0.706 setrgbcolor
fill
grestore
gsave
152.2 100.8 226.5 40.96 clipbox
309.179365 40.958125 m
310.989868 40.958125 l
310.989868 42.388825 l
309.179365 42.388825 l
cl
0.122 0.467 0.706 setrgbcolor
fill
grestore
gsave
152.2 100.8 226.5 40.96 clipbox
310.989868 40.958125 m
312.80037 40.958125 l
312.80037 42.388825 l
310.989868 42.388825 l
cl
0.122 0.467 0.706 setrgbcolor
fill
grestore
gsave
152.2 100.8 226.5 40.96 clipbox
312.80037 40.958125 m
314.610873 40.958125 l
314.610873 41.244265 l
312.80037 41.244265 l
cl
0.122 0.467 0.706 setrgbcolor
fill
grestore
gsave
152.2 100.8 226.5 40.96 clipbox
314.610873 40.958125 m
316.421375 40.958125 l
316.421375 41.101195 l
314.610873 41.101195 l
cl
0.122 0.467 0.706 setrgbcolor
fill
grestore
gsave
152.2 100.8 226.5 40.96 clipbox
316.421375 40.958125 m
318.231878 40.958125 l
318.231878 40.958125 l
316.421375 40.958125 l
cl
0.122 0.467 0.706 setrgbcolor
fill
grestore
gsave
152.2 100.8 226.5 40.96 clipbox
318.231878 40.958125 m
320.04238 40.958125 l
320.04238 41.101195 l
318.231878 41.101195 l
cl
0.122 0.467 0.706 setrgbcolor
fill
grestore
gsave
152.2 100.8 226.5 40.96 clipbox
320.04238 40.958125 m
321.852883 40.958125 l
321.852883 41.530405 l
320.04238 41.530405 l
cl
0.122 0.467 0.706 setrgbcolor
fill
grestore
gsave
152.2 100.8 226.5 40.96 clipbox
321.852883 40.958125 m
323.663385 40.958125 l
323.663385 41.530405 l
321.852883 41.530405 l
cl
0.122 0.467 0.706 setrgbcolor
fill
grestore
gsave
152.2 100.8 226.5 40.96 clipbox
323.663385 40.958125 m
325.473888 40.958125 l
325.473888 40.958125 l
323.663385 40.958125 l
cl
0.122 0.467 0.706 setrgbcolor
fill
grestore
gsave
152.2 100.8 226.5 40.96 clipbox
325.473888 40.958125 m
327.28439 40.958125 l
327.28439 40.958125 l
325.473888 40.958125 l
cl
0.122 0.467 0.706 setrgbcolor
fill
grestore
gsave
152.2 100.8 226.5 40.96 clipbox
327.28439 40.958125 m
329.094893 40.958125 l
329.094893 41.101195 l
327.28439 41.101195 l
cl
0.122 0.467 0.706 setrgbcolor
fill
grestore
gsave
152.2 100.8 226.5 40.96 clipbox
329.094893 40.958125 m
330.905395 40.958125 l
330.905395 40.958125 l
329.094893 40.958125 l
cl
0.122 0.467 0.706 setrgbcolor
fill
grestore
gsave
152.2 100.8 226.5 40.96 clipbox
330.905395 40.958125 m
332.715898 40.958125 l
332.715898 41.101195 l
330.905395 41.101195 l
cl
0.122 0.467 0.706 setrgbcolor
fill
grestore
gsave
152.2 100.8 226.5 40.96 clipbox
332.715898 40.958125 m
334.5264 40.958125 l
334.5264 40.958125 l
332.715898 40.958125 l
cl
0.122 0.467 0.706 setrgbcolor
fill
grestore
gsave
152.2 100.8 226.5 40.96 clipbox
334.5264 40.958125 m
336.336902 40.958125 l
336.336902 40.958125 l
334.5264 40.958125 l
cl
0.122 0.467 0.706 setrgbcolor
fill
grestore
gsave
152.2 100.8 226.5 40.96 clipbox
336.336902 40.958125 m
338.147405 40.958125 l
338.147405 40.958125 l
336.336902 40.958125 l
cl
0.122 0.467 0.706 setrgbcolor
fill
grestore
gsave
152.2 100.8 226.5 40.96 clipbox
338.147405 40.958125 m
339.957907 40.958125 l
339.957907 40.958125 l
338.147405 40.958125 l
cl
0.122 0.467 0.706 setrgbcolor
fill
grestore
gsave
152.2 100.8 226.5 40.96 clipbox
339.957907 40.958125 m
341.76841 40.958125 l
341.76841 40.958125 l
339.957907 40.958125 l
cl
0.122 0.467 0.706 setrgbcolor
fill
grestore
gsave
152.2 100.8 226.5 40.96 clipbox
341.76841 40.958125 m
343.578912 40.958125 l
343.578912 40.958125 l
341.76841 40.958125 l
cl
0.122 0.467 0.706 setrgbcolor
fill
grestore
gsave
152.2 100.8 226.5 40.96 clipbox
343.578912 40.958125 m
345.389415 40.958125 l
345.389415 41.387335 l
343.578912 41.387335 l
cl
0.122 0.467 0.706 setrgbcolor
fill
grestore
gsave
152.2 100.8 226.5 40.96 clipbox
345.389415 40.958125 m
347.199917 40.958125 l
347.199917 41.101195 l
345.389415 41.101195 l
cl
0.122 0.467 0.706 setrgbcolor
fill
grestore
1 setlinejoin
0 setlinecap
[] 0 setdash
gsave
/o {
gsave
newpath
translate
0.8 setlinewidth
1 setlinejoin
0 setlinecap
0 0 m
0 -3.5 l

gsave
0.000 setgray
fill
grestore
stroke
grestore
} bind def
256.513 40.9581 o
grestore
gsave
253.333701 26.364375 translate
0.000000 rotate
0.000000 0.000000 m /zero glyphshow
grestore
gsave
/o {
gsave
newpath
translate
0.8 setlinewidth
1 setlinejoin
0 setlinecap
0 0 m
0 -3.5 l

gsave
0.000 setgray
fill
grestore
stroke
grestore
} bind def
302.629 40.9581 o
grestore
gsave
289.910341 26.364375 translate
0.000000 rotate
0.000000 0.000000 m /two glyphshow
6.362305 0.000000 m /zero glyphshow
12.724609 0.000000 m /zero glyphshow
19.086914 0.000000 m /zero glyphshow
grestore
gsave
/o {
gsave
newpath
translate
0.8 setlinewidth
1 setlinejoin
0 setlinecap
0 0 m
0 -3.5 l

gsave
0.000 setgray
fill
grestore
stroke
grestore
} bind def
348.745 40.9581 o
grestore
gsave
336.026043 26.364375 translate
0.000000 rotate
0.000000 0.000000 m /four glyphshow
6.362305 0.000000 m /zero glyphshow
12.724609 0.000000 m /zero glyphshow
19.086914 0.000000 m /zero glyphshow
grestore
gsave
/o {
gsave
newpath
translate
0.8 setlinewidth
1 setlinejoin
0 setlinecap
0 0 m
-3.5 0 l

gsave
0.000 setgray
fill
grestore
stroke
grestore
} bind def
226.538 40.9581 o
grestore
gsave
213.178807 37.161250 translate
0.000000 rotate
0.000000 0.000000 m /zero glyphshow
grestore
gsave
/o {
gsave
newpath
translate
0.8 setlinewidth
1 setlinejoin
0 setlinecap
0 0 m
-3.5 0 l

gsave
0.000 setgray
fill
grestore
stroke
grestore
} bind def
226.538 69.5721 o
grestore
gsave
200.460057 65.775259 translate
0.000000 rotate
0.000000 0.000000 m /two glyphshow
6.362305 0.000000 m /zero glyphshow
12.724609 0.000000 m /zero glyphshow
grestore
gsave
/o {
gsave
newpath
translate
0.8 setlinewidth
1 setlinejoin
0 setlinecap
0 0 m
-3.5 0 l

gsave
0.000 setgray
fill
grestore
stroke
grestore
} bind def
226.538 98.1861 o
grestore
gsave
200.460057 94.389268 translate
0.000000 rotate
0.000000 0.000000 m /four glyphshow
6.362305 0.000000 m /zero glyphshow
12.724609 0.000000 m /zero glyphshow
grestore
gsave
/o {
gsave
newpath
translate
0.8 setlinewidth
1 setlinejoin
0 setlinecap
0 0 m
-3.5 0 l

gsave
0.000 setgray
fill
grestore
stroke
grestore
} bind def
226.538 126.8 o
grestore
gsave
200.460057 123.003277 translate
0.000000 rotate
0.000000 0.000000 m /six glyphshow
6.362305 0.000000 m /zero glyphshow
12.724609 0.000000 m /zero glyphshow
grestore
1.500 setlinewidth
[5.55 2.4] 0 setdash
1.000 0.498 0.055 setrgbcolor
gsave
152.2 100.8 226.5 40.96 clipbox
233.455537 40.958126 m
254.119804 41.068534 l
257.098719 41.315326 l
259.105568 41.694951 l
260.704775 42.22051 l
262.053126 42.89363 l
263.276049 43.750649 l
264.436258 44.839657 l
265.565111 46.213915 l
266.693963 47.954436 l
267.822815 50.113932 l
269.014381 52.897524 l
270.268661 56.425769 l
271.617013 60.915559 l
273.122149 66.731931 l
275.003569 74.960693 l
280.02069 97.433186 l
281.27497 101.784533 l
282.278394 104.53505 l
283.125034 106.264496 l
283.846245 107.271323 l
284.442028 107.763202 l
284.975097 107.936259 l
285.476809 107.866791 l
285.978521 107.572698 l
286.542947 106.977119 l
287.201444 105.938042 l
287.985369 104.241883 l
288.894723 101.700873 l
289.992218 97.924171 l
291.371926 92.319936 l
293.504202 82.585441 l
296.765331 67.79346 l
298.458609 61.157326 l
299.932388 56.247688 l
301.28074 52.51112 l
302.53502 49.667795 l
303.726586 47.489089 l
304.918152 45.76324 l
306.109718 44.426939 l
307.332642 43.392326 l
308.618279 42.599753 l
310.029344 41.996724 l
311.659908 41.550075 l
313.666757 41.240334 l
316.488887 41.049027 l
321.568722 40.967169 l
348.974745 40.958125 l
371.802645 40.958125 l
371.802645 40.958125 l
stroke
grestore
0.800 setlinewidth
0 setlinejoin
2 setlinecap
[] 0 setdash
0.000 setgray
gsave
226.538182 40.958125 m
226.538182 141.758125 l
stroke
grestore
gsave
378.72 40.958125 m
378.72 141.758125 l
stroke
grestore
gsave
226.538182 40.958125 m
378.72 40.958125 l
stroke
grestore
gsave
226.538182 141.758125 m
378.72 141.758125 l
stroke
grestore
gsave
167.568438 9.278125 translate
0.000000 rotate
0.000000 0.000000 m /T glyphshow
6.108398 0.000000 m /i glyphshow
8.886719 0.000000 m /m glyphshow
18.627930 0.000000 m /e glyphshow
24.780273 0.000000 m /space glyphshow
27.958984 0.000000 m /bracketleft glyphshow
31.860352 0.000000 m /s glyphshow
37.070312 0.000000 m /e glyphshow
43.222656 0.000000 m /c glyphshow
48.720703 0.000000 m /o glyphshow
54.838867 0.000000 m /n glyphshow
61.176758 0.000000 m /d glyphshow
67.524414 0.000000 m /s glyphshow
72.734375 0.000000 m /bracketright glyphshow
grestore
gsave
14.793750 126.965625 translate
90.000000 rotate
0.000000 0.000000 m /F glyphshow
5.751953 0.000000 m /r glyphshow
9.863281 0.000000 m /e glyphshow
16.015625 0.000000 m /q glyphshow
22.363281 0.000000 m /u glyphshow
28.701172 0.000000 m /e glyphshow
34.853516 0.000000 m /n glyphshow
41.191406 0.000000 m /c glyphshow
46.689453 0.000000 m /y glyphshow
grestore

end
showpage
