%!PS-Adobe-3.0 EPSF-3.0
%%Title: test.eps
%%Creator: matplotlib version 2.1.2, http://matplotlib.org/
%%CreationDate: Sat Mar 24 12:56:55 2018
%%Orientation: portrait
%%BoundingBox: 115 267 496 524
%%EndComments
%%BeginProlog
/mpldict 8 dict def
mpldict begin
/m { moveto } bind def
/l { lineto } bind def
/r { rlineto } bind def
/c { curveto } bind def
/cl { closepath } bind def
/box {
m
1 index 0 r
0 exch r
neg 0 r
cl
} bind def
/clipbox {
box
clip
newpath
} bind def
%!PS-Adobe-3.0 Resource-Font
%%Title: DejaVu Sans
%%Copyright: Copyright (c) 2003 by Bitstream, Inc. All Rights Reserved. Copyright (c) 2006 by Tavmjong Bah. All Rights Reserved. DejaVu changes are in public domain 
%%Creator: Converted from TrueType to type 3 by PPR
25 dict begin
/_d{bind def}bind def
/_m{moveto}_d
/_l{lineto}_d
/_cl{closepath eofill}_d
/_c{curveto}_d
/_sc{7 -1 roll{setcachedevice}{pop pop pop pop pop pop}ifelse}_d
/_e{exec}_d
/FontName /DejaVuSans def
/PaintType 0 def
/FontMatrix[.001 0 0 .001 0 0]def
/FontBBox[-1021 -463 1793 1232]def
/FontType 3 def
/Encoding [ /zero /one /two /three /four /six ] def
/FontInfo 10 dict dup begin
/FamilyName (DejaVu Sans) def
/FullName (DejaVu Sans) def
/Notice (Copyright (c) 2003 by Bitstream, Inc. All Rights Reserved. Copyright (c) 2006 by Tavmjong Bah. All Rights Reserved. DejaVu changes are in public domain ) def
/Weight (Book) def
/Version (Version 2.35) def
/ItalicAngle 0.0 def
/isFixedPitch false def
/UnderlinePosition -130 def
/UnderlineThickness 90 def
end readonly def
/CharStrings 7 dict dup begin
/.notdef 0 def
/zero{636 0 66 -13 570 742 _sc
318 664 _m
267 664 229 639 203 589 _c
177 539 165 464 165 364 _c
165 264 177 189 203 139 _c
229 89 267 64 318 64 _c
369 64 407 89 433 139 _c
458 189 471 264 471 364 _c
471 464 458 539 433 589 _c
407 639 369 664 318 664 _c
318 742 _m
399 742 461 709 505 645 _c
548 580 570 486 570 364 _c
570 241 548 147 505 83 _c
461 19 399 -13 318 -13 _c
236 -13 173 19 130 83 _c
87 147 66 241 66 364 _c
66 486 87 580 130 645 _c
173 709 236 742 318 742 _c
_cl}_d
/one{636 0 110 0 544 729 _sc
124 83 _m
285 83 _l
285 639 _l
110 604 _l
110 694 _l
284 729 _l
383 729 _l
383 83 _l
544 83 _l
544 0 _l
124 0 _l
124 83 _l
_cl}_d
/two{{636 0 73 0 536 742 _sc
192 83 _m
536 83 _l
536 0 _l
73 0 _l
73 83 _l
110 121 161 173 226 239 _c
290 304 331 346 348 365 _c
380 400 402 430 414 455 _c
426 479 433 504 433 528 _c
433 566 419 598 392 622 _c
365 646 330 659 286 659 _c
255 659 222 653 188 643 _c
154 632 117 616 78 594 _c
78 694 _l
118 710 155 722 189 730 _c
223 738 255 742 284 742 _c
}_e{359 742 419 723 464 685 _c
509 647 532 597 532 534 _c
532 504 526 475 515 449 _c
504 422 484 390 454 354 _c
446 344 420 317 376 272 _c
332 227 271 164 192 83 _c
_cl}_e}_d
/three{{636 0 76 -13 556 742 _sc
406 393 _m
453 383 490 362 516 330 _c
542 298 556 258 556 212 _c
556 140 531 84 482 45 _c
432 6 362 -13 271 -13 _c
240 -13 208 -10 176 -4 _c
144 1 110 10 76 22 _c
76 117 _l
103 101 133 89 166 81 _c
198 73 232 69 268 69 _c
330 69 377 81 409 105 _c
441 129 458 165 458 212 _c
458 254 443 288 413 312 _c
383 336 341 349 287 349 _c
}_e{202 349 _l
202 430 _l
291 430 _l
339 430 376 439 402 459 _c
428 478 441 506 441 543 _c
441 580 427 609 401 629 _c
374 649 336 659 287 659 _c
260 659 231 656 200 650 _c
169 644 135 635 98 623 _c
98 711 _l
135 721 170 729 203 734 _c
235 739 266 742 296 742 _c
370 742 429 725 473 691 _c
517 657 539 611 539 553 _c
539 513 527 479 504 451 _c
481 423 448 403 406 393 _c
_cl}_e}_d
/four{636 0 49 0 580 729 _sc
378 643 _m
129 254 _l
378 254 _l
378 643 _l
352 729 _m
476 729 _l
476 254 _l
580 254 _l
580 172 _l
476 172 _l
476 0 _l
378 0 _l
378 172 _l
49 172 _l
49 267 _l
352 729 _l
_cl}_d
/six{{636 0 70 -13 573 742 _sc
330 404 _m
286 404 251 388 225 358 _c
199 328 186 286 186 234 _c
186 181 199 139 225 109 _c
251 79 286 64 330 64 _c
374 64 409 79 435 109 _c
461 139 474 181 474 234 _c
474 286 461 328 435 358 _c
409 388 374 404 330 404 _c
526 713 _m
526 623 _l
501 635 476 644 451 650 _c
425 656 400 659 376 659 _c
310 659 260 637 226 593 _c
}_e{192 549 172 482 168 394 _c
187 422 211 444 240 459 _c
269 474 301 482 336 482 _c
409 482 467 459 509 415 _c
551 371 573 310 573 234 _c
573 159 550 99 506 54 _c
462 9 403 -13 330 -13 _c
246 -13 181 19 137 83 _c
92 147 70 241 70 364 _c
70 479 97 571 152 639 _c
206 707 280 742 372 742 _c
396 742 421 739 447 735 _c
472 730 498 723 526 713 _c
_cl}_e}_d
end readonly def

/BuildGlyph
 {exch begin
 CharStrings exch
 2 copy known not{pop /.notdef}if
 true 3 1 roll get exec
 end}_d

/BuildChar {
 1 index /Encoding get exch get
 1 index /BuildGlyph get exec
}_d

FontName currentdict end definefont pop
end
%%EndProlog
mpldict begin
115.46 267.834 translate
381.08 256.332 0 0 clipbox
gsave
0 0 m
381.07952 0 l
381.07952 256.331875 l
0 256.331875 l
cl
1.000 setgray
fill
grestore
gsave
33.278125 144.831875 m
185.459943 144.831875 l
185.459943 245.631875 l
33.278125 245.631875 l
cl
1.000 setgray
fill
grestore
gsave
152.2 100.8 33.28 144.8 clipbox
66.343084 144.831875 m
68.39431 144.831875 l
68.39431 146.69234 l
66.343084 146.69234 l
cl
0.122 0.467 0.706 setrgbcolor
fill
grestore
gsave
152.2 100.8 33.28 144.8 clipbox
68.39431 144.831875 m
70.445537 144.831875 l
70.445537 147.064433 l
68.39431 147.064433 l
cl
0.122 0.467 0.706 setrgbcolor
fill
grestore
gsave
152.2 100.8 33.28 144.8 clipbox
70.445537 144.831875 m
72.496763 144.831875 l
72.496763 147.808619 l
70.445537 147.808619 l
cl
0.122 0.467 0.706 setrgbcolor
fill
grestore
gsave
152.2 100.8 33.28 144.8 clipbox
72.496763 144.831875 m
74.547989 144.831875 l
74.547989 147.808619 l
72.496763 147.808619 l
cl
0.122 0.467 0.706 setrgbcolor
fill
grestore
gsave
152.2 100.8 33.28 144.8 clipbox
74.547989 144.831875 m
76.599216 144.831875 l
76.599216 147.808619 l
74.547989 147.808619 l
cl
0.122 0.467 0.706 setrgbcolor
fill
grestore
gsave
152.2 100.8 33.28 144.8 clipbox
76.599216 144.831875 m
78.650442 144.831875 l
78.650442 150.41327 l
76.599216 150.41327 l
cl
0.122 0.467 0.706 setrgbcolor
fill
grestore
gsave
152.2 100.8 33.28 144.8 clipbox
78.650442 144.831875 m
80.701669 144.831875 l
80.701669 150.41327 l
78.650442 150.41327 l
cl
0.122 0.467 0.706 setrgbcolor
fill
grestore
gsave
152.2 100.8 33.28 144.8 clipbox
80.701669 144.831875 m
82.752895 144.831875 l
82.752895 157.483038 l
80.701669 157.483038 l
cl
0.122 0.467 0.706 setrgbcolor
fill
grestore
gsave
152.2 100.8 33.28 144.8 clipbox
82.752895 144.831875 m
84.804122 144.831875 l
84.804122 167.529549 l
82.752895 167.529549 l
cl
0.122 0.467 0.706 setrgbcolor
fill
grestore
gsave
152.2 100.8 33.28 144.8 clipbox
84.804122 144.831875 m
86.855348 144.831875 l
86.855348 171.25048 l
84.804122 171.25048 l
cl
0.122 0.467 0.706 setrgbcolor
fill
grestore
gsave
152.2 100.8 33.28 144.8 clipbox
86.855348 144.831875 m
88.906575 144.831875 l
88.906575 191.715596 l
86.855348 191.715596 l
cl
0.122 0.467 0.706 setrgbcolor
fill
grestore
gsave
152.2 100.8 33.28 144.8 clipbox
88.906575 144.831875 m
90.957801 144.831875 l
90.957801 214.785363 l
88.906575 214.785363 l
cl
0.122 0.467 0.706 setrgbcolor
fill
grestore
gsave
152.2 100.8 33.28 144.8 clipbox
90.957801 144.831875 m
93.009027 144.831875 l
93.009027 239.715596 l
90.957801 239.715596 l
cl
0.122 0.467 0.706 setrgbcolor
fill
grestore
gsave
152.2 100.8 33.28 144.8 clipbox
93.009027 144.831875 m
95.060254 144.831875 l
95.060254 229.669084 l
93.009027 229.669084 l
cl
0.122 0.467 0.706 setrgbcolor
fill
grestore
gsave
152.2 100.8 33.28 144.8 clipbox
95.060254 144.831875 m
97.11148 144.831875 l
97.11148 240.831875 l
95.060254 240.831875 l
cl
0.122 0.467 0.706 setrgbcolor
fill
grestore
gsave
152.2 100.8 33.28 144.8 clipbox
97.11148 144.831875 m
99.162707 144.831875 l
99.162707 221.110945 l
97.11148 221.110945 l
cl
0.122 0.467 0.706 setrgbcolor
fill
grestore
gsave
152.2 100.8 33.28 144.8 clipbox
99.162707 144.831875 m
101.213933 144.831875 l
101.213933 208.831875 l
99.162707 208.831875 l
cl
0.122 0.467 0.706 setrgbcolor
fill
grestore
gsave
152.2 100.8 33.28 144.8 clipbox
101.213933 144.831875 m
103.26516 144.831875 l
103.26516 181.296991 l
101.213933 181.296991 l
cl
0.122 0.467 0.706 setrgbcolor
fill
grestore
gsave
152.2 100.8 33.28 144.8 clipbox
103.26516 144.831875 m
105.316386 144.831875 l
105.316386 166.785363 l
103.26516 166.785363 l
cl
0.122 0.467 0.706 setrgbcolor
fill
grestore
gsave
152.2 100.8 33.28 144.8 clipbox
105.316386 144.831875 m
107.367613 144.831875 l
107.367613 157.855131 l
105.316386 157.855131 l
cl
0.122 0.467 0.706 setrgbcolor
fill
grestore
gsave
152.2 100.8 33.28 144.8 clipbox
107.367613 144.831875 m
109.418839 144.831875 l
109.418839 148.924898 l
107.367613 148.924898 l
cl
0.122 0.467 0.706 setrgbcolor
fill
grestore
gsave
152.2 100.8 33.28 144.8 clipbox
109.418839 144.831875 m
111.470065 144.831875 l
111.470065 147.436526 l
109.418839 147.436526 l
cl
0.122 0.467 0.706 setrgbcolor
fill
grestore
gsave
152.2 100.8 33.28 144.8 clipbox
111.470065 144.831875 m
113.521292 144.831875 l
113.521292 145.576061 l
111.470065 145.576061 l
cl
0.122 0.467 0.706 setrgbcolor
fill
grestore
gsave
152.2 100.8 33.28 144.8 clipbox
113.521292 144.831875 m
115.572518 144.831875 l
115.572518 144.831875 l
113.521292 144.831875 l
cl
0.122 0.467 0.706 setrgbcolor
fill
grestore
gsave
152.2 100.8 33.28 144.8 clipbox
115.572518 144.831875 m
117.623745 144.831875 l
117.623745 147.064433 l
115.572518 147.064433 l
cl
0.122 0.467 0.706 setrgbcolor
fill
grestore
gsave
152.2 100.8 33.28 144.8 clipbox
117.623745 144.831875 m
119.674971 144.831875 l
119.674971 147.808619 l
117.623745 147.808619 l
cl
0.122 0.467 0.706 setrgbcolor
fill
grestore
gsave
152.2 100.8 33.28 144.8 clipbox
119.674971 144.831875 m
121.726198 144.831875 l
121.726198 145.576061 l
119.674971 145.576061 l
cl
0.122 0.467 0.706 setrgbcolor
fill
grestore
gsave
152.2 100.8 33.28 144.8 clipbox
121.726198 144.831875 m
123.777424 144.831875 l
123.777424 146.320247 l
121.726198 146.320247 l
cl
0.122 0.467 0.706 setrgbcolor
fill
grestore
gsave
152.2 100.8 33.28 144.8 clipbox
123.777424 144.831875 m
125.828651 144.831875 l
125.828651 146.69234 l
123.777424 146.69234 l
cl
0.122 0.467 0.706 setrgbcolor
fill
grestore
gsave
152.2 100.8 33.28 144.8 clipbox
125.828651 144.831875 m
127.879877 144.831875 l
127.879877 146.69234 l
125.828651 146.69234 l
cl
0.122 0.467 0.706 setrgbcolor
fill
grestore
gsave
152.2 100.8 33.28 144.8 clipbox
127.879877 144.831875 m
129.931104 144.831875 l
129.931104 146.320247 l
127.879877 146.320247 l
cl
0.122 0.467 0.706 setrgbcolor
fill
grestore
gsave
152.2 100.8 33.28 144.8 clipbox
129.931104 144.831875 m
131.98233 144.831875 l
131.98233 147.064433 l
129.931104 147.064433 l
cl
0.122 0.467 0.706 setrgbcolor
fill
grestore
gsave
152.2 100.8 33.28 144.8 clipbox
131.98233 144.831875 m
134.033556 144.831875 l
134.033556 145.576061 l
131.98233 145.576061 l
cl
0.122 0.467 0.706 setrgbcolor
fill
grestore
gsave
152.2 100.8 33.28 144.8 clipbox
134.033556 144.831875 m
136.084783 144.831875 l
136.084783 145.948154 l
134.033556 145.948154 l
cl
0.122 0.467 0.706 setrgbcolor
fill
grestore
gsave
152.2 100.8 33.28 144.8 clipbox
136.084783 144.831875 m
138.136009 144.831875 l
138.136009 144.831875 l
136.084783 144.831875 l
cl
0.122 0.467 0.706 setrgbcolor
fill
grestore
gsave
152.2 100.8 33.28 144.8 clipbox
138.136009 144.831875 m
140.187236 144.831875 l
140.187236 145.576061 l
138.136009 145.576061 l
cl
0.122 0.467 0.706 setrgbcolor
fill
grestore
gsave
152.2 100.8 33.28 144.8 clipbox
140.187236 144.831875 m
142.238462 144.831875 l
142.238462 144.831875 l
140.187236 144.831875 l
cl
0.122 0.467 0.706 setrgbcolor
fill
grestore
gsave
152.2 100.8 33.28 144.8 clipbox
142.238462 144.831875 m
144.289689 144.831875 l
144.289689 145.948154 l
142.238462 145.948154 l
cl
0.122 0.467 0.706 setrgbcolor
fill
grestore
gsave
152.2 100.8 33.28 144.8 clipbox
144.289689 144.831875 m
146.340915 144.831875 l
146.340915 144.831875 l
144.289689 144.831875 l
cl
0.122 0.467 0.706 setrgbcolor
fill
grestore
gsave
152.2 100.8 33.28 144.8 clipbox
146.340915 144.831875 m
148.392142 144.831875 l
148.392142 145.576061 l
146.340915 145.576061 l
cl
0.122 0.467 0.706 setrgbcolor
fill
grestore
gsave
152.2 100.8 33.28 144.8 clipbox
148.392142 144.831875 m
150.443368 144.831875 l
150.443368 144.831875 l
148.392142 144.831875 l
cl
0.122 0.467 0.706 setrgbcolor
fill
grestore
gsave
152.2 100.8 33.28 144.8 clipbox
150.443368 144.831875 m
152.494594 144.831875 l
152.494594 144.831875 l
150.443368 144.831875 l
cl
0.122 0.467 0.706 setrgbcolor
fill
grestore
gsave
152.2 100.8 33.28 144.8 clipbox
152.494594 144.831875 m
154.545821 144.831875 l
154.545821 144.831875 l
152.494594 144.831875 l
cl
0.122 0.467 0.706 setrgbcolor
fill
grestore
gsave
152.2 100.8 33.28 144.8 clipbox
154.545821 144.831875 m
156.597047 144.831875 l
156.597047 145.203968 l
154.545821 145.203968 l
cl
0.122 0.467 0.706 setrgbcolor
fill
grestore
gsave
152.2 100.8 33.28 144.8 clipbox
156.597047 144.831875 m
158.648274 144.831875 l
158.648274 144.831875 l
156.597047 144.831875 l
cl
0.122 0.467 0.706 setrgbcolor
fill
grestore
gsave
152.2 100.8 33.28 144.8 clipbox
158.648274 144.831875 m
160.6995 144.831875 l
160.6995 144.831875 l
158.648274 144.831875 l
cl
0.122 0.467 0.706 setrgbcolor
fill
grestore
gsave
152.2 100.8 33.28 144.8 clipbox
160.6995 144.831875 m
162.750727 144.831875 l
162.750727 144.831875 l
160.6995 144.831875 l
cl
0.122 0.467 0.706 setrgbcolor
fill
grestore
gsave
152.2 100.8 33.28 144.8 clipbox
162.750727 144.831875 m
164.801953 144.831875 l
164.801953 144.831875 l
162.750727 144.831875 l
cl
0.122 0.467 0.706 setrgbcolor
fill
grestore
gsave
152.2 100.8 33.28 144.8 clipbox
164.801953 144.831875 m
166.85318 144.831875 l
166.85318 144.831875 l
164.801953 144.831875 l
cl
0.122 0.467 0.706 setrgbcolor
fill
grestore
gsave
152.2 100.8 33.28 144.8 clipbox
166.85318 144.831875 m
168.904406 144.831875 l
168.904406 145.203968 l
166.85318 145.203968 l
cl
0.122 0.467 0.706 setrgbcolor
fill
grestore
0.800 setlinewidth
1 setlinejoin
0 setlinecap
[] 0 setdash
0.000 setgray
gsave
/o {
gsave
newpath
translate
0.8 setlinewidth
1 setlinejoin
0 setlinecap
0 0 m
0 -3.5 l

gsave
0.000 setgray
fill
grestore
stroke
grestore
} bind def
63.2533 144.832 o
grestore
/DejaVuSans findfont
10.000 scalefont
setfont
gsave
60.073644 130.238125 translate
0.000000 rotate
0.000000 0.000000 m /zero glyphshow
grestore
gsave
/o {
gsave
newpath
translate
0.8 setlinewidth
1 setlinejoin
0 setlinecap
0 0 m
0 -3.5 l

gsave
0.000 setgray
fill
grestore
stroke
grestore
} bind def
109.369 144.832 o
grestore
gsave
96.650284 130.238125 translate
0.000000 rotate
0.000000 0.000000 m /one glyphshow
6.362305 0.000000 m /zero glyphshow
12.724609 0.000000 m /zero glyphshow
19.086914 0.000000 m /zero glyphshow
grestore
gsave
/o {
gsave
newpath
translate
0.8 setlinewidth
1 setlinejoin
0 setlinecap
0 0 m
0 -3.5 l

gsave
0.000 setgray
fill
grestore
stroke
grestore
} bind def
155.485 144.832 o
grestore
gsave
142.765987 130.238125 translate
0.000000 rotate
0.000000 0.000000 m /two glyphshow
6.362305 0.000000 m /zero glyphshow
12.724609 0.000000 m /zero glyphshow
19.086914 0.000000 m /zero glyphshow
grestore
gsave
/o {
gsave
newpath
translate
0.8 setlinewidth
1 setlinejoin
0 setlinecap
0 0 m
-3.5 0 l

gsave
0.000 setgray
fill
grestore
stroke
grestore
} bind def
33.2781 144.832 o
grestore
gsave
19.918750 141.035000 translate
0.000000 rotate
0.000000 0.000000 m /zero glyphshow
grestore
gsave
/o {
gsave
newpath
translate
0.8 setlinewidth
1 setlinejoin
0 setlinecap
0 0 m
-3.5 0 l

gsave
0.000 setgray
fill
grestore
stroke
grestore
} bind def
33.2781 182.041 o
grestore
gsave
7.200000 178.244302 translate
0.000000 rotate
0.000000 0.000000 m /one glyphshow
6.362305 0.000000 m /zero glyphshow
12.724609 0.000000 m /zero glyphshow
grestore
gsave
/o {
gsave
newpath
translate
0.8 setlinewidth
1 setlinejoin
0 setlinecap
0 0 m
-3.5 0 l

gsave
0.000 setgray
fill
grestore
stroke
grestore
} bind def
33.2781 219.25 o
grestore
gsave
7.200000 215.453605 translate
0.000000 rotate
0.000000 0.000000 m /two glyphshow
6.362305 0.000000 m /zero glyphshow
12.724609 0.000000 m /zero glyphshow
grestore
1.500 setlinewidth
[5.55 2.4] 0 setdash
1.000 0.498 0.055 setrgbcolor
gsave
152.2 100.8 33.28 144.8 clipbox
40.19548 144.831876 m
62.511845 144.941366 l
65.52563 145.185021 l
67.534821 145.55523 l
69.11347 146.057907 l
70.476849 146.717322 l
71.696715 147.548425 l
72.844824 148.597546 l
73.992932 149.96573 l
75.069284 151.593827 l
76.217393 153.758311 l
77.365502 156.421272 l
78.585368 159.849986 l
79.87699 164.191749 l
81.240369 169.571826 l
82.819019 176.74614 l
84.828209 186.999519 l
89.205374 209.692573 l
90.568753 215.428497 l
91.645105 219.072777 l
92.577943 221.47137 l
93.295511 222.784435 l
93.941322 223.546942 l
94.515377 223.880977 l
95.017674 223.904248 l
95.519972 223.676122 l
96.02227 223.198773 l
96.596324 222.353982 l
97.313892 220.864896 l
98.174974 218.481362 l
99.179569 214.960679 l
100.399434 209.789422 l
101.978084 202.042104 l
108.220925 170.274972 l
109.727818 164.268933 l
111.091197 159.694859 l
112.38282 156.112116 l
113.602685 153.358778 l
114.822551 151.157592 l
115.97066 149.526571 l
117.118768 148.25862 l
118.338634 147.240095 l
119.630256 146.45597 l
121.065392 145.854686 l
122.715799 145.413849 l
124.796746 145.104053 l
127.667018 144.919106 l
132.977021 144.839955 l
164.047715 144.831875 l
178.542588 144.831875 l
178.542588 144.831875 l
stroke
grestore
0.800 setlinewidth
0 setlinejoin
2 setlinecap
[] 0 setdash
0.000 setgray
gsave
33.278125 144.831875 m
33.278125 245.631875 l
stroke
grestore
gsave
185.459943 144.831875 m
185.459943 245.631875 l
stroke
grestore
gsave
33.278125 144.831875 m
185.459943 144.831875 l
stroke
grestore
gsave
33.278125 245.631875 m
185.459943 245.631875 l
stroke
grestore
gsave
215.896307 144.831875 m
368.078125 144.831875 l
368.078125 245.631875 l
215.896307 245.631875 l
cl
1.000 setgray
fill
grestore
gsave
152.2 100.8 215.9 144.8 clipbox
250.6491 144.831875 m
252.344682 144.831875 l
252.344682 146.744226 l
250.6491 146.744226 l
cl
0.122 0.467 0.706 setrgbcolor
fill
grestore
gsave
152.2 100.8 215.9 144.8 clipbox
252.344682 144.831875 m
254.040265 144.831875 l
254.040265 185.756178 l
252.344682 185.756178 l
cl
0.122 0.467 0.706 setrgbcolor
fill
grestore
gsave
152.2 100.8 215.9 144.8 clipbox
254.040265 144.831875 m
255.735847 144.831875 l
255.735847 159.36574 l
254.040265 159.36574 l
cl
0.122 0.467 0.706 setrgbcolor
fill
grestore
gsave
152.2 100.8 215.9 144.8 clipbox
255.735847 144.831875 m
257.431429 144.831875 l
257.431429 145.596815 l
255.735847 145.596815 l
cl
0.122 0.467 0.706 setrgbcolor
fill
grestore
gsave
152.2 100.8 215.9 144.8 clipbox
257.431429 144.831875 m
259.127011 144.831875 l
259.127011 144.831875 l
257.431429 144.831875 l
cl
0.122 0.467 0.706 setrgbcolor
fill
grestore
gsave
152.2 100.8 215.9 144.8 clipbox
259.127011 144.831875 m
260.822593 144.831875 l
260.822593 144.831875 l
259.127011 144.831875 l
cl
0.122 0.467 0.706 setrgbcolor
fill
grestore
gsave
152.2 100.8 215.9 144.8 clipbox
260.822593 144.831875 m
262.518175 144.831875 l
262.518175 145.214345 l
260.822593 145.214345 l
cl
0.122 0.467 0.706 setrgbcolor
fill
grestore
gsave
152.2 100.8 215.9 144.8 clipbox
262.518175 144.831875 m
264.213757 144.831875 l
264.213757 144.831875 l
262.518175 144.831875 l
cl
0.122 0.467 0.706 setrgbcolor
fill
grestore
gsave
152.2 100.8 215.9 144.8 clipbox
264.213757 144.831875 m
265.90934 144.831875 l
265.90934 145.596815 l
264.213757 145.596815 l
cl
0.122 0.467 0.706 setrgbcolor
fill
grestore
gsave
152.2 100.8 215.9 144.8 clipbox
265.90934 144.831875 m
267.604922 144.831875 l
267.604922 150.568927 l
265.90934 150.568927 l
cl
0.122 0.467 0.706 setrgbcolor
fill
grestore
gsave
152.2 100.8 215.9 144.8 clipbox
267.604922 144.831875 m
269.300504 144.831875 l
269.300504 164.337851 l
267.604922 164.337851 l
cl
0.122 0.467 0.706 setrgbcolor
fill
grestore
gsave
152.2 100.8 215.9 144.8 clipbox
269.300504 144.831875 m
270.996086 144.831875 l
270.996086 193.40558 l
269.300504 193.40558 l
cl
0.122 0.467 0.706 setrgbcolor
fill
grestore
gsave
152.2 100.8 215.9 144.8 clipbox
270.996086 144.831875 m
272.691668 144.831875 l
272.691668 202.967333 l
270.996086 202.967333 l
cl
0.122 0.467 0.706 setrgbcolor
fill
grestore
gsave
152.2 100.8 215.9 144.8 clipbox
272.691668 144.831875 m
274.38725 144.831875 l
274.38725 230.505182 l
272.691668 230.505182 l
cl
0.122 0.467 0.706 setrgbcolor
fill
grestore
gsave
152.2 100.8 215.9 144.8 clipbox
274.38725 144.831875 m
276.082832 144.831875 l
276.082832 240.831875 l
274.38725 240.831875 l
cl
0.122 0.467 0.706 setrgbcolor
fill
grestore
gsave
152.2 100.8 215.9 144.8 clipbox
276.082832 144.831875 m
277.778415 144.831875 l
277.778415 225.1506 l
276.082832 225.1506 l
cl
0.122 0.467 0.706 setrgbcolor
fill
grestore
gsave
152.2 100.8 215.9 144.8 clipbox
277.778415 144.831875 m
279.473997 144.831875 l
279.473997 205.644624 l
277.778415 205.644624 l
cl
0.122 0.467 0.706 setrgbcolor
fill
grestore
gsave
152.2 100.8 215.9 144.8 clipbox
279.473997 144.831875 m
281.169579 144.831875 l
281.169579 190.728289 l
279.473997 190.728289 l
cl
0.122 0.467 0.706 setrgbcolor
fill
grestore
gsave
152.2 100.8 215.9 144.8 clipbox
281.169579 144.831875 m
282.865161 144.831875 l
282.865161 177.341835 l
281.169579 177.341835 l
cl
0.122 0.467 0.706 setrgbcolor
fill
grestore
gsave
152.2 100.8 215.9 144.8 clipbox
282.865161 144.831875 m
284.560743 144.831875 l
284.560743 175.811955 l
282.865161 175.811955 l
cl
0.122 0.467 0.706 setrgbcolor
fill
grestore
gsave
152.2 100.8 215.9 144.8 clipbox
284.560743 144.831875 m
286.256325 144.831875 l
286.256325 171.987253 l
284.560743 171.987253 l
cl
0.122 0.467 0.706 setrgbcolor
fill
grestore
gsave
152.2 100.8 215.9 144.8 clipbox
286.256325 144.831875 m
287.951907 144.831875 l
287.951907 165.102791 l
286.256325 165.102791 l
cl
0.122 0.467 0.706 setrgbcolor
fill
grestore
gsave
152.2 100.8 215.9 144.8 clipbox
287.951907 144.831875 m
289.64749 144.831875 l
289.64749 158.218329 l
287.951907 158.218329 l
cl
0.122 0.467 0.706 setrgbcolor
fill
grestore
gsave
152.2 100.8 215.9 144.8 clipbox
289.64749 144.831875 m
291.343072 144.831875 l
291.343072 150.568927 l
289.64749 150.568927 l
cl
0.122 0.467 0.706 setrgbcolor
fill
grestore
gsave
152.2 100.8 215.9 144.8 clipbox
291.343072 144.831875 m
293.038654 144.831875 l
293.038654 154.011158 l
291.343072 154.011158 l
cl
0.122 0.467 0.706 setrgbcolor
fill
grestore
gsave
152.2 100.8 215.9 144.8 clipbox
293.038654 144.831875 m
294.734236 144.831875 l
294.734236 150.951397 l
293.038654 150.951397 l
cl
0.122 0.467 0.706 setrgbcolor
fill
grestore
gsave
152.2 100.8 215.9 144.8 clipbox
294.734236 144.831875 m
296.429818 144.831875 l
296.429818 148.274106 l
294.734236 148.274106 l
cl
0.122 0.467 0.706 setrgbcolor
fill
grestore
gsave
152.2 100.8 215.9 144.8 clipbox
296.429818 144.831875 m
298.1254 144.831875 l
298.1254 149.803987 l
296.429818 149.803987 l
cl
0.122 0.467 0.706 setrgbcolor
fill
grestore
gsave
152.2 100.8 215.9 144.8 clipbox
298.1254 144.831875 m
299.820983 144.831875 l
299.820983 147.891636 l
298.1254 147.891636 l
cl
0.122 0.467 0.706 setrgbcolor
fill
grestore
gsave
152.2 100.8 215.9 144.8 clipbox
299.820983 144.831875 m
301.516565 144.831875 l
301.516565 147.509166 l
299.820983 147.509166 l
cl
0.122 0.467 0.706 setrgbcolor
fill
grestore
gsave
152.2 100.8 215.9 144.8 clipbox
301.516565 144.831875 m
303.212147 144.831875 l
303.212147 147.509166 l
301.516565 147.509166 l
cl
0.122 0.467 0.706 setrgbcolor
fill
grestore
gsave
152.2 100.8 215.9 144.8 clipbox
303.212147 144.831875 m
304.907729 144.831875 l
304.907729 146.361755 l
303.212147 146.361755 l
cl
0.122 0.467 0.706 setrgbcolor
fill
grestore
gsave
152.2 100.8 215.9 144.8 clipbox
304.907729 144.831875 m
306.603311 144.831875 l
306.603311 145.214345 l
304.907729 145.214345 l
cl
0.122 0.467 0.706 setrgbcolor
fill
grestore
gsave
152.2 100.8 215.9 144.8 clipbox
306.603311 144.831875 m
308.298893 144.831875 l
308.298893 145.214345 l
306.603311 145.214345 l
cl
0.122 0.467 0.706 setrgbcolor
fill
grestore
gsave
152.2 100.8 215.9 144.8 clipbox
308.298893 144.831875 m
309.994475 144.831875 l
309.994475 145.214345 l
308.298893 145.214345 l
cl
0.122 0.467 0.706 setrgbcolor
fill
grestore
gsave
152.2 100.8 215.9 144.8 clipbox
309.994475 144.831875 m
311.690058 144.831875 l
311.690058 145.214345 l
309.994475 145.214345 l
cl
0.122 0.467 0.706 setrgbcolor
fill
grestore
gsave
152.2 100.8 215.9 144.8 clipbox
311.690058 144.831875 m
313.38564 144.831875 l
313.38564 145.214345 l
311.690058 145.214345 l
cl
0.122 0.467 0.706 setrgbcolor
fill
grestore
gsave
152.2 100.8 215.9 144.8 clipbox
313.38564 144.831875 m
315.081222 144.831875 l
315.081222 145.214345 l
313.38564 145.214345 l
cl
0.122 0.467 0.706 setrgbcolor
fill
grestore
gsave
152.2 100.8 215.9 144.8 clipbox
315.081222 144.831875 m
316.776804 144.831875 l
316.776804 145.214345 l
315.081222 145.214345 l
cl
0.122 0.467 0.706 setrgbcolor
fill
grestore
gsave
152.2 100.8 215.9 144.8 clipbox
316.776804 144.831875 m
318.472386 144.831875 l
318.472386 144.831875 l
316.776804 144.831875 l
cl
0.122 0.467 0.706 setrgbcolor
fill
grestore
gsave
152.2 100.8 215.9 144.8 clipbox
318.472386 144.831875 m
320.167968 144.831875 l
320.167968 144.831875 l
318.472386 144.831875 l
cl
0.122 0.467 0.706 setrgbcolor
fill
grestore
gsave
152.2 100.8 215.9 144.8 clipbox
320.167968 144.831875 m
321.86355 144.831875 l
321.86355 144.831875 l
320.167968 144.831875 l
cl
0.122 0.467 0.706 setrgbcolor
fill
grestore
gsave
152.2 100.8 215.9 144.8 clipbox
321.86355 144.831875 m
323.559133 144.831875 l
323.559133 144.831875 l
321.86355 144.831875 l
cl
0.122 0.467 0.706 setrgbcolor
fill
grestore
gsave
152.2 100.8 215.9 144.8 clipbox
323.559133 144.831875 m
325.254715 144.831875 l
325.254715 145.214345 l
323.559133 145.214345 l
cl
0.122 0.467 0.706 setrgbcolor
fill
grestore
gsave
152.2 100.8 215.9 144.8 clipbox
325.254715 144.831875 m
326.950297 144.831875 l
326.950297 144.831875 l
325.254715 144.831875 l
cl
0.122 0.467 0.706 setrgbcolor
fill
grestore
gsave
152.2 100.8 215.9 144.8 clipbox
326.950297 144.831875 m
328.645879 144.831875 l
328.645879 144.831875 l
326.950297 144.831875 l
cl
0.122 0.467 0.706 setrgbcolor
fill
grestore
gsave
152.2 100.8 215.9 144.8 clipbox
328.645879 144.831875 m
330.341461 144.831875 l
330.341461 144.831875 l
328.645879 144.831875 l
cl
0.122 0.467 0.706 setrgbcolor
fill
grestore
gsave
152.2 100.8 215.9 144.8 clipbox
330.341461 144.831875 m
332.037043 144.831875 l
332.037043 144.831875 l
330.341461 144.831875 l
cl
0.122 0.467 0.706 setrgbcolor
fill
grestore
gsave
152.2 100.8 215.9 144.8 clipbox
332.037043 144.831875 m
333.732625 144.831875 l
333.732625 144.831875 l
332.037043 144.831875 l
cl
0.122 0.467 0.706 setrgbcolor
fill
grestore
gsave
152.2 100.8 215.9 144.8 clipbox
333.732625 144.831875 m
335.428208 144.831875 l
335.428208 145.596815 l
333.732625 145.596815 l
cl
0.122 0.467 0.706 setrgbcolor
fill
grestore
1 setlinejoin
0 setlinecap
[] 0 setdash
gsave
/o {
gsave
newpath
translate
0.8 setlinewidth
1 setlinejoin
0 setlinecap
0 0 m
0 -3.5 l

gsave
0.000 setgray
fill
grestore
stroke
grestore
} bind def
250.483 144.832 o
grestore
gsave
247.303396 130.238125 translate
0.000000 rotate
0.000000 0.000000 m /zero glyphshow
grestore
gsave
/o {
gsave
newpath
translate
0.8 setlinewidth
1 setlinejoin
0 setlinecap
0 0 m
0 -3.5 l

gsave
0.000 setgray
fill
grestore
stroke
grestore
} bind def
305.822 144.832 o
grestore
gsave
293.103177 130.238125 translate
0.000000 rotate
0.000000 0.000000 m /two glyphshow
6.362305 0.000000 m /zero glyphshow
12.724609 0.000000 m /zero glyphshow
19.086914 0.000000 m /zero glyphshow
grestore
gsave
/o {
gsave
newpath
translate
0.8 setlinewidth
1 setlinejoin
0 setlinecap
0 0 m
0 -3.5 l

gsave
0.000 setgray
fill
grestore
stroke
grestore
} bind def
361.161 144.832 o
grestore
gsave
348.442020 130.238125 translate
0.000000 rotate
0.000000 0.000000 m /four glyphshow
6.362305 0.000000 m /zero glyphshow
12.724609 0.000000 m /zero glyphshow
19.086914 0.000000 m /zero glyphshow
grestore
gsave
/o {
gsave
newpath
translate
0.8 setlinewidth
1 setlinejoin
0 setlinecap
0 0 m
-3.5 0 l

gsave
0.000 setgray
fill
grestore
stroke
grestore
} bind def
215.896 144.832 o
grestore
gsave
202.536932 141.035000 translate
0.000000 rotate
0.000000 0.000000 m /zero glyphshow
grestore
gsave
/o {
gsave
newpath
translate
0.8 setlinewidth
1 setlinejoin
0 setlinecap
0 0 m
-3.5 0 l

gsave
0.000 setgray
fill
grestore
stroke
grestore
} bind def
215.896 183.079 o
grestore
gsave
189.818182 179.282012 translate
0.000000 rotate
0.000000 0.000000 m /one glyphshow
6.362305 0.000000 m /zero glyphshow
12.724609 0.000000 m /zero glyphshow
grestore
gsave
/o {
gsave
newpath
translate
0.8 setlinewidth
1 setlinejoin
0 setlinecap
0 0 m
-3.5 0 l

gsave
0.000 setgray
fill
grestore
stroke
grestore
} bind def
215.896 221.326 o
grestore
gsave
189.818182 217.529024 translate
0.000000 rotate
0.000000 0.000000 m /two glyphshow
6.362305 0.000000 m /zero glyphshow
12.724609 0.000000 m /zero glyphshow
grestore
1.500 setlinewidth
[5.55 2.4] 0 setdash
1.000 0.498 0.055 setrgbcolor
gsave
152.2 100.8 215.9 144.8 clipbox
222.813662 144.831888 m
241.953741 144.941115 l
245.301435 145.186954 l
247.55749 145.565739 l
249.304113 146.07147 l
250.832408 146.740506 l
252.215152 147.591507 l
253.525119 148.671261 l
254.76231 149.9877 l
255.999502 151.64175 l
257.236693 153.678646 l
258.54666 156.2942 l
259.929404 159.597728 l
261.384923 163.682384 l
263.05877 169.097165 l
265.096497 176.506446 l
270.263591 195.724494 l
271.646334 199.846639 l
272.810749 202.640376 l
273.756837 204.367567 l
274.557373 205.409132 l
275.285132 206.002487 l
275.940116 206.239739 l
276.522324 206.211656 l
277.104531 205.958896 l
277.759515 205.409531 l
278.487275 204.479176 l
279.28781 203.085279 l
280.233898 200.975523 l
281.398313 197.774645 l
282.781056 193.277455 l
284.746007 186.042358 l
289.403669 168.600066 l
291.150292 163.032029 l
292.678588 158.856139 l
294.134107 155.519159 l
295.444074 153.038054 l
296.754042 151.016991 l
298.064009 149.407895 l
299.373976 148.155111 l
300.683944 147.200889 l
302.139463 146.423279 l
303.740534 145.832363 l
305.559933 145.402735 l
307.888764 145.096061 l
311.163682 144.912825 l
317.276863 144.838398 l
358.395283 144.831875 l
361.16077 144.831875 l
361.16077 144.831875 l
stroke
grestore
0.800 setlinewidth
0 setlinejoin
2 setlinecap
[] 0 setdash
0.000 setgray
gsave
215.896307 144.831875 m
215.896307 245.631875 l
stroke
grestore
gsave
368.078125 144.831875 m
368.078125 245.631875 l
stroke
grestore
gsave
215.896307 144.831875 m
368.078125 144.831875 l
stroke
grestore
gsave
215.896307 245.631875 m
368.078125 245.631875 l
stroke
grestore
gsave
33.278125 23.871875 m
185.459943 23.871875 l
185.459943 124.671875 l
33.278125 124.671875 l
cl
1.000 setgray
fill
grestore
gsave
152.2 100.8 33.28 23.87 clipbox
64.221761 23.871875 m
66.272065 23.871875 l
66.272065 26.780966 l
64.221761 26.780966 l
cl
0.122 0.467 0.706 setrgbcolor
fill
grestore
gsave
152.2 100.8 33.28 23.87 clipbox
66.272065 23.871875 m
68.32237 23.871875 l
68.32237 23.871875 l
66.272065 23.871875 l
cl
0.122 0.467 0.706 setrgbcolor
fill
grestore
gsave
152.2 100.8 33.28 23.87 clipbox
68.32237 23.871875 m
70.372674 23.871875 l
70.372674 23.871875 l
68.32237 23.871875 l
cl
0.122 0.467 0.706 setrgbcolor
fill
grestore
gsave
152.2 100.8 33.28 23.87 clipbox
70.372674 23.871875 m
72.422978 23.871875 l
72.422978 23.871875 l
70.372674 23.871875 l
cl
0.122 0.467 0.706 setrgbcolor
fill
grestore
gsave
152.2 100.8 33.28 23.87 clipbox
72.422978 23.871875 m
74.473282 23.871875 l
74.473282 23.871875 l
72.422978 23.871875 l
cl
0.122 0.467 0.706 setrgbcolor
fill
grestore
gsave
152.2 100.8 33.28 23.87 clipbox
74.473282 23.871875 m
76.523586 23.871875 l
76.523586 23.871875 l
74.473282 23.871875 l
cl
0.122 0.467 0.706 setrgbcolor
fill
grestore
gsave
152.2 100.8 33.28 23.87 clipbox
76.523586 23.871875 m
78.57389 23.871875 l
78.57389 23.871875 l
76.523586 23.871875 l
cl
0.122 0.467 0.706 setrgbcolor
fill
grestore
gsave
152.2 100.8 33.28 23.87 clipbox
78.57389 23.871875 m
80.624194 23.871875 l
80.624194 23.871875 l
78.57389 23.871875 l
cl
0.122 0.467 0.706 setrgbcolor
fill
grestore
gsave
152.2 100.8 33.28 23.87 clipbox
80.624194 23.871875 m
82.674499 23.871875 l
82.674499 23.871875 l
80.624194 23.871875 l
cl
0.122 0.467 0.706 setrgbcolor
fill
grestore
gsave
152.2 100.8 33.28 23.87 clipbox
82.674499 23.871875 m
84.724803 23.871875 l
84.724803 23.871875 l
82.674499 23.871875 l
cl
0.122 0.467 0.706 setrgbcolor
fill
grestore
gsave
152.2 100.8 33.28 23.87 clipbox
84.724803 23.871875 m
86.775107 23.871875 l
86.775107 23.871875 l
84.724803 23.871875 l
cl
0.122 0.467 0.706 setrgbcolor
fill
grestore
gsave
152.2 100.8 33.28 23.87 clipbox
86.775107 23.871875 m
88.825411 23.871875 l
88.825411 26.780966 l
86.775107 26.780966 l
cl
0.122 0.467 0.706 setrgbcolor
fill
grestore
gsave
152.2 100.8 33.28 23.87 clipbox
88.825411 23.871875 m
90.875715 23.871875 l
90.875715 26.780966 l
88.825411 26.780966 l
cl
0.122 0.467 0.706 setrgbcolor
fill
grestore
gsave
152.2 100.8 33.28 23.87 clipbox
90.875715 23.871875 m
92.926019 23.871875 l
92.926019 26.780966 l
90.875715 26.780966 l
cl
0.122 0.467 0.706 setrgbcolor
fill
grestore
gsave
152.2 100.8 33.28 23.87 clipbox
92.926019 23.871875 m
94.976323 23.871875 l
94.976323 23.871875 l
92.926019 23.871875 l
cl
0.122 0.467 0.706 setrgbcolor
fill
grestore
gsave
152.2 100.8 33.28 23.87 clipbox
94.976323 23.871875 m
97.026627 23.871875 l
97.026627 23.871875 l
94.976323 23.871875 l
cl
0.122 0.467 0.706 setrgbcolor
fill
grestore
gsave
152.2 100.8 33.28 23.87 clipbox
97.026627 23.871875 m
99.076932 23.871875 l
99.076932 23.871875 l
97.026627 23.871875 l
cl
0.122 0.467 0.706 setrgbcolor
fill
grestore
gsave
152.2 100.8 33.28 23.87 clipbox
99.076932 23.871875 m
101.127236 23.871875 l
101.127236 23.871875 l
99.076932 23.871875 l
cl
0.122 0.467 0.706 setrgbcolor
fill
grestore
gsave
152.2 100.8 33.28 23.87 clipbox
101.127236 23.871875 m
103.17754 23.871875 l
103.17754 29.690057 l
101.127236 29.690057 l
cl
0.122 0.467 0.706 setrgbcolor
fill
grestore
gsave
152.2 100.8 33.28 23.87 clipbox
103.17754 23.871875 m
105.227844 23.871875 l
105.227844 26.780966 l
103.17754 26.780966 l
cl
0.122 0.467 0.706 setrgbcolor
fill
grestore
gsave
152.2 100.8 33.28 23.87 clipbox
105.227844 23.871875 m
107.278148 23.871875 l
107.278148 29.690057 l
105.227844 29.690057 l
cl
0.122 0.467 0.706 setrgbcolor
fill
grestore
gsave
152.2 100.8 33.28 23.87 clipbox
107.278148 23.871875 m
109.328452 23.871875 l
109.328452 35.508239 l
107.278148 35.508239 l
cl
0.122 0.467 0.706 setrgbcolor
fill
grestore
gsave
152.2 100.8 33.28 23.87 clipbox
109.328452 23.871875 m
111.378756 23.871875 l
111.378756 61.690057 l
109.328452 61.690057 l
cl
0.122 0.467 0.706 setrgbcolor
fill
grestore
gsave
152.2 100.8 33.28 23.87 clipbox
111.378756 23.871875 m
113.429061 23.871875 l
113.429061 82.053693 l
111.378756 82.053693 l
cl
0.122 0.467 0.706 setrgbcolor
fill
grestore
gsave
152.2 100.8 33.28 23.87 clipbox
113.429061 23.871875 m
115.479365 23.871875 l
115.479365 96.599148 l
113.429061 96.599148 l
cl
0.122 0.467 0.706 setrgbcolor
fill
grestore
gsave
152.2 100.8 33.28 23.87 clipbox
115.479365 23.871875 m
117.529669 23.871875 l
117.529669 58.780966 l
115.479365 58.780966 l
cl
0.122 0.467 0.706 setrgbcolor
fill
grestore
gsave
152.2 100.8 33.28 23.87 clipbox
117.529669 23.871875 m
119.579973 23.871875 l
119.579973 84.962784 l
117.529669 84.962784 l
cl
0.122 0.467 0.706 setrgbcolor
fill
grestore
gsave
152.2 100.8 33.28 23.87 clipbox
119.579973 23.871875 m
121.630277 23.871875 l
121.630277 93.690057 l
119.579973 93.690057 l
cl
0.122 0.467 0.706 setrgbcolor
fill
grestore
gsave
152.2 100.8 33.28 23.87 clipbox
121.630277 23.871875 m
123.680581 23.871875 l
123.680581 93.690057 l
121.630277 93.690057 l
cl
0.122 0.467 0.706 setrgbcolor
fill
grestore
gsave
152.2 100.8 33.28 23.87 clipbox
123.680581 23.871875 m
125.730885 23.871875 l
125.730885 119.871875 l
123.680581 119.871875 l
cl
0.122 0.467 0.706 setrgbcolor
fill
grestore
gsave
152.2 100.8 33.28 23.87 clipbox
125.730885 23.871875 m
127.781189 23.871875 l
127.781189 119.871875 l
125.730885 119.871875 l
cl
0.122 0.467 0.706 setrgbcolor
fill
grestore
gsave
152.2 100.8 33.28 23.87 clipbox
127.781189 23.871875 m
129.831494 23.871875 l
129.831494 102.41733 l
127.781189 102.41733 l
cl
0.122 0.467 0.706 setrgbcolor
fill
grestore
gsave
152.2 100.8 33.28 23.87 clipbox
129.831494 23.871875 m
131.881798 23.871875 l
131.881798 67.508239 l
129.831494 67.508239 l
cl
0.122 0.467 0.706 setrgbcolor
fill
grestore
gsave
152.2 100.8 33.28 23.87 clipbox
131.881798 23.871875 m
133.932102 23.871875 l
133.932102 67.508239 l
131.881798 67.508239 l
cl
0.122 0.467 0.706 setrgbcolor
fill
grestore
gsave
152.2 100.8 33.28 23.87 clipbox
133.932102 23.871875 m
135.982406 23.871875 l
135.982406 67.508239 l
133.932102 67.508239 l
cl
0.122 0.467 0.706 setrgbcolor
fill
grestore
gsave
152.2 100.8 33.28 23.87 clipbox
135.982406 23.871875 m
138.03271 23.871875 l
138.03271 44.235511 l
135.982406 44.235511 l
cl
0.122 0.467 0.706 setrgbcolor
fill
grestore
gsave
152.2 100.8 33.28 23.87 clipbox
138.03271 23.871875 m
140.083014 23.871875 l
140.083014 47.144602 l
138.03271 47.144602 l
cl
0.122 0.467 0.706 setrgbcolor
fill
grestore
gsave
152.2 100.8 33.28 23.87 clipbox
140.083014 23.871875 m
142.133318 23.871875 l
142.133318 38.41733 l
140.083014 38.41733 l
cl
0.122 0.467 0.706 setrgbcolor
fill
grestore
gsave
152.2 100.8 33.28 23.87 clipbox
142.133318 23.871875 m
144.183623 23.871875 l
144.183623 29.690057 l
142.133318 29.690057 l
cl
0.122 0.467 0.706 setrgbcolor
fill
grestore
gsave
152.2 100.8 33.28 23.87 clipbox
144.183623 23.871875 m
146.233927 23.871875 l
146.233927 23.871875 l
144.183623 23.871875 l
cl
0.122 0.467 0.706 setrgbcolor
fill
grestore
gsave
152.2 100.8 33.28 23.87 clipbox
146.233927 23.871875 m
148.284231 23.871875 l
148.284231 29.690057 l
146.233927 29.690057 l
cl
0.122 0.467 0.706 setrgbcolor
fill
grestore
gsave
152.2 100.8 33.28 23.87 clipbox
148.284231 23.871875 m
150.334535 23.871875 l
150.334535 26.780966 l
148.284231 26.780966 l
cl
0.122 0.467 0.706 setrgbcolor
fill
grestore
gsave
152.2 100.8 33.28 23.87 clipbox
150.334535 23.871875 m
152.384839 23.871875 l
152.384839 26.780966 l
150.334535 26.780966 l
cl
0.122 0.467 0.706 setrgbcolor
fill
grestore
gsave
152.2 100.8 33.28 23.87 clipbox
152.384839 23.871875 m
154.435143 23.871875 l
154.435143 26.780966 l
152.384839 26.780966 l
cl
0.122 0.467 0.706 setrgbcolor
fill
grestore
gsave
152.2 100.8 33.28 23.87 clipbox
154.435143 23.871875 m
156.485447 23.871875 l
156.485447 26.780966 l
154.435143 26.780966 l
cl
0.122 0.467 0.706 setrgbcolor
fill
grestore
gsave
152.2 100.8 33.28 23.87 clipbox
156.485447 23.871875 m
158.535751 23.871875 l
158.535751 23.871875 l
156.485447 23.871875 l
cl
0.122 0.467 0.706 setrgbcolor
fill
grestore
gsave
152.2 100.8 33.28 23.87 clipbox
158.535751 23.871875 m
160.586056 23.871875 l
160.586056 23.871875 l
158.535751 23.871875 l
cl
0.122 0.467 0.706 setrgbcolor
fill
grestore
gsave
152.2 100.8 33.28 23.87 clipbox
160.586056 23.871875 m
162.63636 23.871875 l
162.63636 23.871875 l
160.586056 23.871875 l
cl
0.122 0.467 0.706 setrgbcolor
fill
grestore
gsave
152.2 100.8 33.28 23.87 clipbox
162.63636 23.871875 m
164.686664 23.871875 l
164.686664 26.780966 l
162.63636 26.780966 l
cl
0.122 0.467 0.706 setrgbcolor
fill
grestore
gsave
152.2 100.8 33.28 23.87 clipbox
164.686664 23.871875 m
166.736968 23.871875 l
166.736968 26.780966 l
164.686664 26.780966 l
cl
0.122 0.467 0.706 setrgbcolor
fill
grestore
1 setlinejoin
0 setlinecap
[] 0 setdash
gsave
/o {
gsave
newpath
translate
0.8 setlinewidth
1 setlinejoin
0 setlinecap
0 0 m
0 -3.5 l

gsave
0.000 setgray
fill
grestore
stroke
grestore
} bind def
63.2533 23.8719 o
grestore
gsave
60.073644 9.278125 translate
0.000000 rotate
0.000000 0.000000 m /zero glyphshow
grestore
gsave
/o {
gsave
newpath
translate
0.8 setlinewidth
1 setlinejoin
0 setlinecap
0 0 m
0 -3.5 l

gsave
0.000 setgray
fill
grestore
stroke
grestore
} bind def
109.369 23.8719 o
grestore
gsave
96.650284 9.278125 translate
0.000000 rotate
0.000000 0.000000 m /one glyphshow
6.362305 0.000000 m /zero glyphshow
12.724609 0.000000 m /zero glyphshow
19.086914 0.000000 m /zero glyphshow
grestore
gsave
/o {
gsave
newpath
translate
0.8 setlinewidth
1 setlinejoin
0 setlinecap
0 0 m
0 -3.5 l

gsave
0.000 setgray
fill
grestore
stroke
grestore
} bind def
155.485 23.8719 o
grestore
gsave
142.765987 9.278125 translate
0.000000 rotate
0.000000 0.000000 m /two glyphshow
6.362305 0.000000 m /zero glyphshow
12.724609 0.000000 m /zero glyphshow
19.086914 0.000000 m /zero glyphshow
grestore
gsave
/o {
gsave
newpath
translate
0.8 setlinewidth
1 setlinejoin
0 setlinecap
0 0 m
-3.5 0 l

gsave
0.000 setgray
fill
grestore
stroke
grestore
} bind def
33.2781 23.8719 o
grestore
gsave
19.918750 20.075000 translate
0.000000 rotate
0.000000 0.000000 m /zero glyphshow
grestore
gsave
/o {
gsave
newpath
translate
0.8 setlinewidth
1 setlinejoin
0 setlinecap
0 0 m
-3.5 0 l

gsave
0.000 setgray
fill
grestore
stroke
grestore
} bind def
33.2781 52.9628 o
grestore
gsave
13.559375 49.165909 translate
0.000000 rotate
0.000000 0.000000 m /one glyphshow
6.362305 0.000000 m /zero glyphshow
grestore
gsave
/o {
gsave
newpath
translate
0.8 setlinewidth
1 setlinejoin
0 setlinecap
0 0 m
-3.5 0 l

gsave
0.000 setgray
fill
grestore
stroke
grestore
} bind def
33.2781 82.0537 o
grestore
gsave
13.559375 78.256818 translate
0.000000 rotate
0.000000 0.000000 m /two glyphshow
6.362305 0.000000 m /zero glyphshow
grestore
gsave
/o {
gsave
newpath
translate
0.8 setlinewidth
1 setlinejoin
0 setlinecap
0 0 m
-3.5 0 l

gsave
0.000 setgray
fill
grestore
stroke
grestore
} bind def
33.2781 111.145 o
grestore
gsave
13.559375 107.347727 translate
0.000000 rotate
0.000000 0.000000 m /three glyphshow
6.362305 0.000000 m /zero glyphshow
grestore
1.500 setlinewidth
[5.55 2.4] 0 setdash
1.000 0.498 0.055 setrgbcolor
gsave
152.2 100.8 33.28 23.87 clipbox
40.19548 23.871875 m
84.43186 23.968388 l
88.335069 24.218031 l
90.937209 24.625165 l
92.671969 25.095994 l
94.406729 25.80951 l
95.707799 26.559499 l
97.008869 27.545082 l
98.309939 28.818428 l
99.611009 30.435445 l
100.912079 32.45327 l
102.213149 34.926804 l
103.514219 37.904351 l
104.815289 41.422515 l
106.116359 45.500649 l
107.851119 51.799303 l
109.585879 58.996941 l
111.754329 68.958803 l
116.524919 91.45431 l
118.259679 98.406138 l
119.560749 102.713923 l
120.428129 105.0538 l
121.295509 106.915747 l
122.162889 108.264138 l
123.030269 109.072831 l
123.463959 109.26943 l
123.897649 109.326014 l
124.331339 109.242304 l
124.765029 109.018714 l
125.632409 108.156964 l
126.499789 106.757606 l
127.367169 104.847738 l
128.234549 102.463849 l
129.535619 98.098951 l
130.836689 92.947814 l
132.571449 85.204729 l
139.076799 54.94763 l
140.811559 48.226261 l
142.546318 42.463607 l
143.847388 38.795942 l
145.148458 35.676028 l
146.449528 33.071344 l
147.750598 30.936205 l
149.051668 29.21702 l
150.352738 27.856875 l
151.653808 26.799243 l
152.954878 25.990757 l
154.689638 25.21761 l
156.424398 24.704405 l
158.592848 24.312076 l
161.628678 24.040237 l
165.965578 23.90897 l
177.241518 23.872212 l
178.542588 23.872057 l
178.542588 23.872057 l
stroke
grestore
0.800 setlinewidth
0 setlinejoin
2 setlinecap
[] 0 setdash
0.000 setgray
gsave
33.278125 23.871875 m
33.278125 124.671875 l
stroke
grestore
gsave
185.459943 23.871875 m
185.459943 124.671875 l
stroke
grestore
gsave
33.278125 23.871875 m
185.459943 23.871875 l
stroke
grestore
gsave
33.278125 124.671875 m
185.459943 124.671875 l
stroke
grestore
gsave
215.896307 23.871875 m
368.078125 23.871875 l
368.078125 124.671875 l
215.896307 124.671875 l
cl
1.000 setgray
fill
grestore
gsave
152.2 100.8 215.9 23.87 clipbox
246.032918 23.871875 m
247.843421 23.871875 l
247.843421 40.32493 l
246.032918 40.32493 l
cl
0.122 0.467 0.706 setrgbcolor
fill
grestore
gsave
152.2 100.8 215.9 23.87 clipbox
247.843421 23.871875 m
249.653923 23.871875 l
249.653923 24.301085 l
247.843421 24.301085 l
cl
0.122 0.467 0.706 setrgbcolor
fill
grestore
gsave
152.2 100.8 215.9 23.87 clipbox
249.653923 23.871875 m
251.464426 23.871875 l
251.464426 24.014945 l
249.653923 24.014945 l
cl
0.122 0.467 0.706 setrgbcolor
fill
grestore
gsave
152.2 100.8 215.9 23.87 clipbox
251.464426 23.871875 m
253.274928 23.871875 l
253.274928 26.733276 l
251.464426 26.733276 l
cl
0.122 0.467 0.706 setrgbcolor
fill
grestore
gsave
152.2 100.8 215.9 23.87 clipbox
253.274928 23.871875 m
255.085431 23.871875 l
255.085431 33.457568 l
253.274928 33.457568 l
cl
0.122 0.467 0.706 setrgbcolor
fill
grestore
gsave
152.2 100.8 215.9 23.87 clipbox
255.085431 23.871875 m
256.895933 23.871875 l
256.895933 28.020906 l
255.085431 28.020906 l
cl
0.122 0.467 0.706 setrgbcolor
fill
grestore
gsave
152.2 100.8 215.9 23.87 clipbox
256.895933 23.871875 m
258.706436 23.871875 l
258.706436 31.311517 l
256.895933 31.311517 l
cl
0.122 0.467 0.706 setrgbcolor
fill
grestore
gsave
152.2 100.8 215.9 23.87 clipbox
258.706436 23.871875 m
260.516938 23.871875 l
260.516938 29.880817 l
258.706436 29.880817 l
cl
0.122 0.467 0.706 setrgbcolor
fill
grestore
gsave
152.2 100.8 215.9 23.87 clipbox
260.516938 23.871875 m
262.327441 23.871875 l
262.327441 25.588716 l
260.516938 25.588716 l
cl
0.122 0.467 0.706 setrgbcolor
fill
grestore
gsave
152.2 100.8 215.9 23.87 clipbox
262.327441 23.871875 m
264.137943 23.871875 l
264.137943 24.730295 l
262.327441 24.730295 l
cl
0.122 0.467 0.706 setrgbcolor
fill
grestore
gsave
152.2 100.8 215.9 23.87 clipbox
264.137943 23.871875 m
265.948446 23.871875 l
265.948446 25.588716 l
264.137943 25.588716 l
cl
0.122 0.467 0.706 setrgbcolor
fill
grestore
gsave
152.2 100.8 215.9 23.87 clipbox
265.948446 23.871875 m
267.758948 23.871875 l
267.758948 34.029848 l
265.948446 34.029848 l
cl
0.122 0.467 0.706 setrgbcolor
fill
grestore
gsave
152.2 100.8 215.9 23.87 clipbox
267.758948 23.871875 m
269.569451 23.871875 l
269.569451 55.919565 l
267.758948 55.919565 l
cl
0.122 0.467 0.706 setrgbcolor
fill
grestore
gsave
152.2 100.8 215.9 23.87 clipbox
269.569451 23.871875 m
271.379953 23.871875 l
271.379953 78.953842 l
269.569451 78.953842 l
cl
0.122 0.467 0.706 setrgbcolor
fill
grestore
gsave
152.2 100.8 215.9 23.87 clipbox
271.379953 23.871875 m
273.190456 23.871875 l
273.190456 92.688567 l
271.379953 92.688567 l
cl
0.122 0.467 0.706 setrgbcolor
fill
grestore
gsave
152.2 100.8 215.9 23.87 clipbox
273.190456 23.871875 m
275.000958 23.871875 l
275.000958 117.725824 l
273.190456 117.725824 l
cl
0.122 0.467 0.706 setrgbcolor
fill
grestore
gsave
152.2 100.8 215.9 23.87 clipbox
275.000958 23.871875 m
276.811461 23.871875 l
276.811461 119.871875 l
275.000958 119.871875 l
cl
0.122 0.467 0.706 setrgbcolor
fill
grestore
gsave
152.2 100.8 215.9 23.87 clipbox
276.811461 23.871875 m
278.621963 23.871875 l
278.621963 110.429252 l
276.811461 110.429252 l
cl
0.122 0.467 0.706 setrgbcolor
fill
grestore
gsave
152.2 100.8 215.9 23.87 clipbox
278.621963 23.871875 m
280.432465 23.871875 l
280.432465 77.809282 l
278.621963 77.809282 l
cl
0.122 0.467 0.706 setrgbcolor
fill
grestore
gsave
152.2 100.8 215.9 23.87 clipbox
280.432465 23.871875 m
282.242968 23.871875 l
282.242968 52.056674 l
280.432465 52.056674 l
cl
0.122 0.467 0.706 setrgbcolor
fill
grestore
gsave
152.2 100.8 215.9 23.87 clipbox
282.242968 23.871875 m
284.05347 23.871875 l
284.05347 39.18037 l
282.242968 39.18037 l
cl
0.122 0.467 0.706 setrgbcolor
fill
grestore
gsave
152.2 100.8 215.9 23.87 clipbox
284.05347 23.871875 m
285.863973 23.871875 l
285.863973 33.743708 l
284.05347 33.743708 l
cl
0.122 0.467 0.706 setrgbcolor
fill
grestore
gsave
152.2 100.8 215.9 23.87 clipbox
285.863973 23.871875 m
287.674475 23.871875 l
287.674475 28.450116 l
285.863973 28.450116 l
cl
0.122 0.467 0.706 setrgbcolor
fill
grestore
gsave
152.2 100.8 215.9 23.87 clipbox
287.674475 23.871875 m
289.484978 23.871875 l
289.484978 27.305556 l
287.674475 27.305556 l
cl
0.122 0.467 0.706 setrgbcolor
fill
grestore
gsave
152.2 100.8 215.9 23.87 clipbox
289.484978 23.871875 m
291.29548 23.871875 l
291.29548 28.163976 l
289.484978 28.163976 l
cl
0.122 0.467 0.706 setrgbcolor
fill
grestore
gsave
152.2 100.8 215.9 23.87 clipbox
291.29548 23.871875 m
293.105983 23.871875 l
293.105983 27.305556 l
291.29548 27.305556 l
cl
0.122 0.467 0.706 setrgbcolor
fill
grestore
gsave
152.2 100.8 215.9 23.87 clipbox
293.105983 23.871875 m
294.916485 23.871875 l
294.916485 28.020906 l
293.105983 28.020906 l
cl
0.122 0.467 0.706 setrgbcolor
fill
grestore
gsave
152.2 100.8 215.9 23.87 clipbox
294.916485 23.871875 m
296.726988 23.871875 l
296.726988 26.876346 l
294.916485 26.876346 l
cl
0.122 0.467 0.706 setrgbcolor
fill
grestore
gsave
152.2 100.8 215.9 23.87 clipbox
296.726988 23.871875 m
298.53749 23.871875 l
298.53749 25.731786 l
296.726988 25.731786 l
cl
0.122 0.467 0.706 setrgbcolor
fill
grestore
gsave
152.2 100.8 215.9 23.87 clipbox
298.53749 23.871875 m
300.347993 23.871875 l
300.347993 25.302575 l
298.53749 25.302575 l
cl
0.122 0.467 0.706 setrgbcolor
fill
grestore
gsave
152.2 100.8 215.9 23.87 clipbox
300.347993 23.871875 m
302.158495 23.871875 l
302.158495 25.302575 l
300.347993 25.302575 l
cl
0.122 0.467 0.706 setrgbcolor
fill
grestore
gsave
152.2 100.8 215.9 23.87 clipbox
302.158495 23.871875 m
303.968998 23.871875 l
303.968998 24.158015 l
302.158495 24.158015 l
cl
0.122 0.467 0.706 setrgbcolor
fill
grestore
gsave
152.2 100.8 215.9 23.87 clipbox
303.968998 23.871875 m
305.7795 23.871875 l
305.7795 24.014945 l
303.968998 24.014945 l
cl
0.122 0.467 0.706 setrgbcolor
fill
grestore
gsave
152.2 100.8 215.9 23.87 clipbox
305.7795 23.871875 m
307.590003 23.871875 l
307.590003 23.871875 l
305.7795 23.871875 l
cl
0.122 0.467 0.706 setrgbcolor
fill
grestore
gsave
152.2 100.8 215.9 23.87 clipbox
307.590003 23.871875 m
309.400505 23.871875 l
309.400505 24.014945 l
307.590003 24.014945 l
cl
0.122 0.467 0.706 setrgbcolor
fill
grestore
gsave
152.2 100.8 215.9 23.87 clipbox
309.400505 23.871875 m
311.211008 23.871875 l
311.211008 24.444155 l
309.400505 24.444155 l
cl
0.122 0.467 0.706 setrgbcolor
fill
grestore
gsave
152.2 100.8 215.9 23.87 clipbox
311.211008 23.871875 m
313.02151 23.871875 l
313.02151 24.444155 l
311.211008 24.444155 l
cl
0.122 0.467 0.706 setrgbcolor
fill
grestore
gsave
152.2 100.8 215.9 23.87 clipbox
313.02151 23.871875 m
314.832013 23.871875 l
314.832013 23.871875 l
313.02151 23.871875 l
cl
0.122 0.467 0.706 setrgbcolor
fill
grestore
gsave
152.2 100.8 215.9 23.87 clipbox
314.832013 23.871875 m
316.642515 23.871875 l
316.642515 23.871875 l
314.832013 23.871875 l
cl
0.122 0.467 0.706 setrgbcolor
fill
grestore
gsave
152.2 100.8 215.9 23.87 clipbox
316.642515 23.871875 m
318.453018 23.871875 l
318.453018 24.014945 l
316.642515 24.014945 l
cl
0.122 0.467 0.706 setrgbcolor
fill
grestore
gsave
152.2 100.8 215.9 23.87 clipbox
318.453018 23.871875 m
320.26352 23.871875 l
320.26352 23.871875 l
318.453018 23.871875 l
cl
0.122 0.467 0.706 setrgbcolor
fill
grestore
gsave
152.2 100.8 215.9 23.87 clipbox
320.26352 23.871875 m
322.074023 23.871875 l
322.074023 24.014945 l
320.26352 24.014945 l
cl
0.122 0.467 0.706 setrgbcolor
fill
grestore
gsave
152.2 100.8 215.9 23.87 clipbox
322.074023 23.871875 m
323.884525 23.871875 l
323.884525 23.871875 l
322.074023 23.871875 l
cl
0.122 0.467 0.706 setrgbcolor
fill
grestore
gsave
152.2 100.8 215.9 23.87 clipbox
323.884525 23.871875 m
325.695027 23.871875 l
325.695027 23.871875 l
323.884525 23.871875 l
cl
0.122 0.467 0.706 setrgbcolor
fill
grestore
gsave
152.2 100.8 215.9 23.87 clipbox
325.695027 23.871875 m
327.50553 23.871875 l
327.50553 23.871875 l
325.695027 23.871875 l
cl
0.122 0.467 0.706 setrgbcolor
fill
grestore
gsave
152.2 100.8 215.9 23.87 clipbox
327.50553 23.871875 m
329.316032 23.871875 l
329.316032 23.871875 l
327.50553 23.871875 l
cl
0.122 0.467 0.706 setrgbcolor
fill
grestore
gsave
152.2 100.8 215.9 23.87 clipbox
329.316032 23.871875 m
331.126535 23.871875 l
331.126535 23.871875 l
329.316032 23.871875 l
cl
0.122 0.467 0.706 setrgbcolor
fill
grestore
gsave
152.2 100.8 215.9 23.87 clipbox
331.126535 23.871875 m
332.937037 23.871875 l
332.937037 23.871875 l
331.126535 23.871875 l
cl
0.122 0.467 0.706 setrgbcolor
fill
grestore
gsave
152.2 100.8 215.9 23.87 clipbox
332.937037 23.871875 m
334.74754 23.871875 l
334.74754 24.301085 l
332.937037 24.301085 l
cl
0.122 0.467 0.706 setrgbcolor
fill
grestore
gsave
152.2 100.8 215.9 23.87 clipbox
334.74754 23.871875 m
336.558042 23.871875 l
336.558042 24.014945 l
334.74754 24.014945 l
cl
0.122 0.467 0.706 setrgbcolor
fill
grestore
1 setlinejoin
0 setlinecap
[] 0 setdash
gsave
/o {
gsave
newpath
translate
0.8 setlinewidth
1 setlinejoin
0 setlinecap
0 0 m
0 -3.5 l

gsave
0.000 setgray
fill
grestore
stroke
grestore
} bind def
245.872 23.8719 o
grestore
gsave
242.691826 9.278125 translate
0.000000 rotate
0.000000 0.000000 m /zero glyphshow
grestore
gsave
/o {
gsave
newpath
translate
0.8 setlinewidth
1 setlinejoin
0 setlinecap
0 0 m
0 -3.5 l

gsave
0.000 setgray
fill
grestore
stroke
grestore
} bind def
291.987 23.8719 o
grestore
gsave
279.268466 9.278125 translate
0.000000 rotate
0.000000 0.000000 m /two glyphshow
6.362305 0.000000 m /zero glyphshow
12.724609 0.000000 m /zero glyphshow
19.086914 0.000000 m /zero glyphshow
grestore
gsave
/o {
gsave
newpath
translate
0.8 setlinewidth
1 setlinejoin
0 setlinecap
0 0 m
0 -3.5 l

gsave
0.000 setgray
fill
grestore
stroke
grestore
} bind def
338.103 23.8719 o
grestore
gsave
325.384168 9.278125 translate
0.000000 rotate
0.000000 0.000000 m /four glyphshow
6.362305 0.000000 m /zero glyphshow
12.724609 0.000000 m /zero glyphshow
19.086914 0.000000 m /zero glyphshow
grestore
gsave
/o {
gsave
newpath
translate
0.8 setlinewidth
1 setlinejoin
0 setlinecap
0 0 m
-3.5 0 l

gsave
0.000 setgray
fill
grestore
stroke
grestore
} bind def
215.896 23.8719 o
grestore
gsave
202.536932 20.075000 translate
0.000000 rotate
0.000000 0.000000 m /zero glyphshow
grestore
gsave
/o {
gsave
newpath
translate
0.8 setlinewidth
1 setlinejoin
0 setlinecap
0 0 m
-3.5 0 l

gsave
0.000 setgray
fill
grestore
stroke
grestore
} bind def
215.896 52.4859 o
grestore
gsave
189.818182 48.689009 translate
0.000000 rotate
0.000000 0.000000 m /two glyphshow
6.362305 0.000000 m /zero glyphshow
12.724609 0.000000 m /zero glyphshow
grestore
gsave
/o {
gsave
newpath
translate
0.8 setlinewidth
1 setlinejoin
0 setlinecap
0 0 m
-3.5 0 l

gsave
0.000 setgray
fill
grestore
stroke
grestore
} bind def
215.896 81.0999 o
grestore
gsave
189.818182 77.303018 translate
0.000000 rotate
0.000000 0.000000 m /four glyphshow
6.362305 0.000000 m /zero glyphshow
12.724609 0.000000 m /zero glyphshow
grestore
gsave
/o {
gsave
newpath
translate
0.8 setlinewidth
1 setlinejoin
0 setlinecap
0 0 m
-3.5 0 l

gsave
0.000 setgray
fill
grestore
stroke
grestore
} bind def
215.896 109.714 o
grestore
gsave
189.818182 105.917027 translate
0.000000 rotate
0.000000 0.000000 m /six glyphshow
6.362305 0.000000 m /zero glyphshow
12.724609 0.000000 m /zero glyphshow
grestore
1.500 setlinewidth
[5.55 2.4] 0 setdash
1.000 0.498 0.055 setrgbcolor
gsave
152.2 100.8 215.9 23.87 clipbox
222.813662 23.871876 m
243.666071 23.982362 l
246.676343 24.230815 l
248.714549 24.615926 l
250.313756 25.139814 l
251.693464 25.825678 l
252.947744 26.703233 l
254.107953 27.788278 l
255.236806 29.149828 l
256.365658 30.864498 l
257.525867 33.044495 l
258.717433 35.767612 l
260.00307 39.287125 l
261.382779 43.73571 l
262.981986 49.685827 l
265.082905 58.446932 l
268.814389 74.099768 l
270.194097 78.879857 l
271.291592 81.939365 l
272.200946 83.866063 l
272.984871 85.032781 l
273.643368 85.636677 l
274.207794 85.872126 l
274.740863 85.852295 l
275.273932 85.597375 l
275.838358 85.074482 l
276.496855 84.1445 l
277.249423 82.679746 l
278.158777 80.383088 l
279.224915 77.049949 l
280.573266 72.053833 l
282.548757 63.777325 l
286.217527 48.354965 l
287.910805 42.261292 l
289.384584 37.765749 l
290.732936 34.352469 l
291.987216 31.760613 l
293.210139 29.732086 l
294.401705 28.174875 l
295.593272 26.972008 l
296.847552 26.022592 l
298.164546 25.304093 l
299.638325 24.755903 l
301.36296 24.356306 l
303.589308 24.081986 l
306.850436 23.926711 l
313.780335 23.873844 l
361.16077 23.871875 l
361.16077 23.871875 l
stroke
grestore
0.800 setlinewidth
0 setlinejoin
2 setlinecap
[] 0 setdash
0.000 setgray
gsave
215.896307 23.871875 m
215.896307 124.671875 l
stroke
grestore
gsave
368.078125 23.871875 m
368.078125 124.671875 l
stroke
grestore
gsave
215.896307 23.871875 m
368.078125 23.871875 l
stroke
grestore
gsave
215.896307 124.671875 m
368.078125 124.671875 l
stroke
grestore

end
showpage
