Waiting;0;1525953116.87011;cluster_0
Running;0;1525953116.87011;cluster_0
Stress;0.0;1525953116.87011;cluster_0
Waiting;0;1525953121.0933416;cluster_0
Running;0;1525953121.0933416;cluster_0
Stress;0.0;1525953121.0933416;cluster_0
Waiting;0;1525953121.8375413;cluster_1
Running;0;1525953121.8375413;cluster_1
Stress;0.03;1525953121.8375413;cluster_1
Waiting;0;1525953126.163072;cluster_0
Running;0;1525953126.163072;cluster_0
Stress;0.0;1525953126.163072;cluster_0
Waiting;0;1525953126.3463175;cluster_1
Running;0;1525953126.3463175;cluster_1
Stress;0.03;1525953126.3463175;cluster_1
Waiting;0;1525953131.409053;cluster_0
Running;0;1525953131.409053;cluster_0
Stress;0.0;1525953131.409053;cluster_0
Waiting;0;1525953131.8441794;cluster_1
Running;0;1525953131.8441794;cluster_1
Stress;0.03;1525953131.8441794;cluster_1
Waiting;0;1525953136.343588;cluster_1
Running;0;1525953136.343588;cluster_1
Stress;0.03;1525953136.343588;cluster_1
Waiting;0;1525953136.5903847;cluster_0
Running;0;1525953136.5903847;cluster_0
Stress;0.0;1525953136.5903847;cluster_0
Action;20;1525953136.5903847;cluster_0
Waiting;0;1525953141.8491783;cluster_1
Running;0;1525953141.8491783;cluster_1
Stress;0.26;1525953141.8491783;cluster_1
Waiting;20;1525953141.9200242;cluster_0
Running;0;1525953141.9200242;cluster_0
Stress;0.0;1525953141.9200242;cluster_0
Waiting;0;1525953146.3530319;cluster_1
Running;0;1525953146.3530319;cluster_1
Stress;0.24;1525953146.3530319;cluster_1
Waiting;15;1525953146.8977425;cluster_0
Running;3;1525953146.8977425;cluster_0
Stress;0.0;1525953146.8977425;cluster_0
Waiting;0;1525953151.8690503;cluster_1
Running;0;1525953151.8690503;cluster_1
Stress;0.3;1525953151.8690503;cluster_1
Waiting;0;1525953151.9614599;cluster_0
Running;20;1525953151.9614599;cluster_0
Stress;0.0;1525953151.9614599;cluster_0
Waiting;0;1525953156.3737469;cluster_1
Running;0;1525953156.3737469;cluster_1
Stress;1.72;1525953156.3737469;cluster_1
Waiting;0;1525953156.1831808;cluster_0
Running;20;1525953156.1831808;cluster_0
Stress;0.0;1525953156.1831808;cluster_0
Waiting;0;1525953161.8895779;cluster_1
Running;0;1525953161.8895779;cluster_1
Stress;2.7;1525953161.8895779;cluster_1
Waiting;0;1525953161.6615474;cluster_0
Running;20;1525953161.6615474;cluster_0
Stress;0.0;1525953161.6615474;cluster_0
Waiting;0;1525953166.4013662;cluster_1
Running;0;1525953166.4013662;cluster_1
Stress;2.49;1525953166.4013662;cluster_1
Waiting;0;1525953166.8479187;cluster_0
Running;20;1525953166.8479187;cluster_0
Stress;0.0;1525953166.8479187;cluster_0
Waiting;0;1525953171.9145958;cluster_1
Running;0;1525953171.9145958;cluster_1
Waiting;0;1525953171.0692732;cluster_0
Running;20;1525953171.0692732;cluster_0
Stress;0.0;1525953171.0692732;cluster_0
Stress;2.37;1525953171.9145958;cluster_1
Waiting;0;1525953176.4170144;cluster_1
Running;0;1525953176.4170144;cluster_1
Stress;2.18;1525953176.4170144;cluster_1
Waiting;0;1525953176.2391574;cluster_0
Running;20;1525953176.2391574;cluster_0
Stress;0.0;1525953176.2391574;cluster_0
Waiting;0;1525953181.936166;cluster_1
Running;0;1525953181.936166;cluster_1
Stress;2.16;1525953181.936166;cluster_1
Waiting;0;1525953181.4907398;cluster_0
Running;18;1525953181.4907398;cluster_0
Stress;0.0;1525953181.4907398;cluster_0
Waiting;0;1525953186.444502;cluster_1
Running;0;1525953186.444502;cluster_1
Stress;1.99;1525953186.444502;cluster_1
Waiting;0;1525953186.7532246;cluster_0
Running;14;1525953186.7532246;cluster_0
Stress;0.0;1525953186.7532246;cluster_0
Waiting;0;1525953191.9440293;cluster_1
Running;0;1525953191.9440293;cluster_1
Stress;1.83;1525953191.9440293;cluster_1
Waiting;0;1525953191.947547;cluster_0
Running;0;1525953191.947547;cluster_0
Stress;0.0;1525953191.947547;cluster_0
Waiting;0;1525953196.1818116;cluster_0
Running;0;1525953196.1818116;cluster_0
Stress;0.0;1525953196.1818116;cluster_0
Waiting;0;1525953196.4714088;cluster_1
Running;0;1525953196.4714088;cluster_1
Stress;1.68;1525953196.4714088;cluster_1
Waiting;0;1525953201.3769445;cluster_0
Running;0;1525953201.3769445;cluster_0
Stress;0.0;1525953201.3769445;cluster_0
Waiting;0;1525953201.9801714;cluster_1
Running;0;1525953201.9801714;cluster_1
Stress;1.55;1525953201.9801714;cluster_1
Waiting;0;1525953206.5693963;cluster_0
Running;0;1525953206.5693963;cluster_0
Stress;0.0;1525953206.5693963;cluster_0
Waiting;0;1525953207.495557;cluster_1
Running;0;1525953207.495557;cluster_1
Stress;1.42;1525953207.495557;cluster_1
Waiting;0;1525953211.7701702;cluster_0
Running;0;1525953211.7701702;cluster_0
Stress;0.0;1525953211.7701702;cluster_0
Waiting;0;1525953212.0217097;cluster_1
Running;0;1525953212.0217097;cluster_1
Stress;1.55;1525953212.0217097;cluster_1
Waiting;0;1525953216.9643686;cluster_0
Running;0;1525953216.9643686;cluster_0
Stress;0.0;1525953216.9643686;cluster_0
Waiting;0;1525953217.5350916;cluster_1
Running;0;1525953217.5350916;cluster_1
Stress;1.43;1525953217.5350916;cluster_1
Waiting;0;1525953222.0444722;cluster_1
Running;0;1525953222.0444722;cluster_1
Waiting;0;1525953222.1678061;cluster_0
Running;0;1525953222.1678061;cluster_0
Stress;0.0;1525953222.1678061;cluster_0
Stress;1.31;1525953222.0444722;cluster_1
Waiting;0;1525953227.3651164;cluster_0
Running;0;1525953227.3651164;cluster_0
Stress;0.0;1525953227.3651164;cluster_0
Waiting;0;1525953227.5536144;cluster_1
Running;0;1525953227.5536144;cluster_1
Stress;1.21;1525953227.5536144;cluster_1
Waiting;0;1525953232.0556328;cluster_1
Running;0;1525953232.0556328;cluster_1
Stress;1.11;1525953232.0556328;cluster_1
Waiting;0;1525953232.5565593;cluster_0
Running;0;1525953232.5565593;cluster_0
Stress;0.0;1525953232.5565593;cluster_0
Waiting;0;1525953237.572048;cluster_1
Running;0;1525953237.572048;cluster_1
Stress;1.1;1525953237.572048;cluster_1
Waiting;0;1525953237.7521079;cluster_0
Running;0;1525953237.7521079;cluster_0
Stress;0.0;1525953237.7521079;cluster_0
Waiting;0;1525953242.0756536;cluster_1
Running;0;1525953242.0756536;cluster_1
Stress;1.01;1525953242.0756536;cluster_1
Waiting;0;1525953242.9434023;cluster_0
Running;0;1525953242.9434023;cluster_0
Stress;0.0;1525953242.9434023;cluster_0
Waiting;0;1525953247.4496458;cluster_0
Running;0;1525953247.4496458;cluster_0
Stress;0.0;1525953247.4496458;cluster_0
Waiting;0;1525953247.5979123;cluster_1
Running;0;1525953247.5979123;cluster_1
Stress;0.86;1525953247.5979123;cluster_1
Waiting;0;1525953252.107982;cluster_1
Running;0;1525953252.107982;cluster_1
Stress;0.86;1525953252.107982;cluster_1
Waiting;0;1525953252.6567307;cluster_0
Running;0;1525953252.6567307;cluster_0
Stress;0.0;1525953252.6567307;cluster_0
Waiting;0;1525953257.617596;cluster_1
Running;0;1525953257.617596;cluster_1
Stress;0.72;1525953257.617596;cluster_1
Waiting;0;1525953257.8513668;cluster_0
Running;0;1525953257.8513668;cluster_0
Stress;0.0;1525953257.8513668;cluster_0
Waiting;0;1525953262.0428503;cluster_0
Running;0;1525953262.0428503;cluster_0
Stress;0.0;1525953262.0428503;cluster_0
Waiting;0;1525953262.133385;cluster_1
Running;0;1525953262.133385;cluster_1
Stress;0.72;1525953262.133385;cluster_1
Waiting;0;1525953267.246664;cluster_0
Running;0;1525953267.246664;cluster_0
Stress;0.0;1525953267.246664;cluster_0
Waiting;0;1525953267.6442602;cluster_1
Running;0;1525953267.6442602;cluster_1
Stress;0.61;1525953267.6442602;cluster_1
Waiting;0;1525953272.144095;cluster_1
Running;0;1525953272.144095;cluster_1
Stress;0.61;1525953272.144095;cluster_1
Waiting;0;1525953272.442;cluster_0
Running;0;1525953272.442;cluster_0
Stress;0.0;1525953272.442;cluster_0
Waiting;0;1525953277.6387782;cluster_0
Running;0;1525953277.6387782;cluster_0
Stress;0.0;1525953277.6387782;cluster_0
Waiting;0;1525953277.661753;cluster_1
Running;0;1525953277.661753;cluster_1
Stress;0.52;1525953277.661753;cluster_1
Waiting;0;1525953282.1639407;cluster_1
Running;0;1525953282.1639407;cluster_1
Stress;0.52;1525953282.1639407;cluster_1
Waiting;0;1525953282.8309393;cluster_0
Running;0;1525953282.8309393;cluster_0
Stress;0.0;1525953282.8309393;cluster_0
Waiting;0;1525953287.0254576;cluster_0
Running;0;1525953287.0254576;cluster_0
Stress;0.0;1525953287.0254576;cluster_0
Waiting;0;1525953287.6711965;cluster_1
Running;0;1525953287.6711965;cluster_1
Stress;0.44;1525953287.6711965;cluster_1
Waiting;0;1525953292.1838543;cluster_1
Running;0;1525953292.1838543;cluster_1
Waiting;0;1525953292.2176354;cluster_0
Running;0;1525953292.2176354;cluster_0
Stress;0.0;1525953292.2176354;cluster_0
Stress;0.44;1525953292.1838543;cluster_1
Waiting;0;1525953297.4212468;cluster_0
Running;0;1525953297.4212468;cluster_0
Stress;0.0;1525953297.4212468;cluster_0
Waiting;0;1525953297.7130985;cluster_1
Running;0;1525953297.7130985;cluster_1
Stress;0.45;1525953297.7130985;cluster_1
Waiting;0;1525953302.2198858;cluster_1
Running;0;1525953302.2198858;cluster_1
Stress;0.45;1525953302.2198858;cluster_1
Waiting;0;1525953302.6135292;cluster_0
Running;0;1525953302.6135292;cluster_0
Stress;0.0;1525953302.6135292;cluster_0
Waiting;0;1525953307.7317348;cluster_1
Running;0;1525953307.7317348;cluster_1
Waiting;0;1525953307.8062196;cluster_0
Running;0;1525953307.8062196;cluster_0
Stress;0.0;1525953307.8062196;cluster_0
Stress;0.46;1525953307.7317348;cluster_1
Waiting;0;1525953312.2369745;cluster_1
Running;0;1525953312.2369745;cluster_1
Stress;0.46;1525953312.2369745;cluster_1
Waiting;0;1525953312.9990559;cluster_0
Running;0;1525953312.9990559;cluster_0
Stress;0.0;1525953312.9990559;cluster_0
Waiting;0;1525953317.7518063;cluster_1
Running;0;1525953317.7518063;cluster_1
Stress;0.55;1525953317.7518063;cluster_1
Waiting;0;1525953318.1983047;cluster_0
Running;0;1525953318.1983047;cluster_0
Stress;0.0;1525953318.1983047;cluster_0
Action;40;1525953318.1983047;cluster_0
Waiting;0;1525953322.258593;cluster_1
Running;0;1525953322.258593;cluster_1
Stress;0.55;1525953322.258593;cluster_1
Waiting;10;1525953323.0034988;cluster_0
Running;30;1525953323.0034988;cluster_0
Stress;0.0;1525953323.0034988;cluster_0
Waiting;0;1525953327.7799242;cluster_1
Running;0;1525953327.7799242;cluster_1
Stress;3.74;1525953327.7799242;cluster_1
Waiting;10;1525953328.3507357;cluster_0
Running;30;1525953328.3507357;cluster_0
Stress;0.0;1525953328.3507357;cluster_0
Waiting;0;1525953332.1416743;cluster_1
Running;0;1525953332.1416743;cluster_1
Stress;3.74;1525953332.1416743;cluster_1
Waiting;10;1525953333.9143734;cluster_0
Running;30;1525953333.9143734;cluster_0
Stress;0.0;1525953333.9143734;cluster_0
Waiting;0;1525953337.9423606;cluster_1
Running;0;1525953337.9423606;cluster_1
Stress;6.04;1525953337.9423606;cluster_1
Waiting;10;1525953338.5277994;cluster_0
Running;30;1525953338.5277994;cluster_0
Stress;0.0;1525953338.5277994;cluster_0
Waiting;0;1525953342.468188;cluster_1
Running;0;1525953342.468188;cluster_1
Stress;6.04;1525953342.468188;cluster_1
Waiting;10;1525953343.8643377;cluster_0
Running;30;1525953343.8643377;cluster_0
Stress;0.0;1525953343.8643377;cluster_0
Waiting;0;1525953347.971689;cluster_1
Running;0;1525953347.971689;cluster_1
Stress;5.11;1525953347.971689;cluster_1
Waiting;10;1525953348.4731479;cluster_0
Running;30;1525953348.4731479;cluster_0
Stress;0.0;1525953348.4731479;cluster_0
Waiting;0;1525953352.489624;cluster_1
Running;0;1525953352.489624;cluster_1
Stress;5.11;1525953352.489624;cluster_1
Waiting;0;1525953353.1011004;cluster_0
Running;37;1525953353.1011004;cluster_0
Stress;0.0;1525953353.1011004;cluster_0
Waiting;0;1525953357.9915974;cluster_1
Running;0;1525953357.9915974;cluster_1
Stress;4.96;1525953357.9915974;cluster_1
Waiting;0;1525953358.842306;cluster_0
Running;35;1525953358.842306;cluster_0
Stress;0.0;1525953358.842306;cluster_0
Waiting;0;1525953363.515521;cluster_1
Running;0;1525953363.515521;cluster_1
Stress;4.57;1525953363.515521;cluster_1
Waiting;0;1525953363.2763877;cluster_0
Running;31;1525953363.2763877;cluster_0
Stress;0.0;1525953363.2763877;cluster_0
Waiting;0;1525953368.029253;cluster_1
Running;0;1525953368.029253;cluster_1
Stress;4.2;1525953368.029253;cluster_1
Waiting;0;1525953368.5963457;cluster_0
Running;10;1525953368.5963457;cluster_0
Stress;0.0;1525953368.5963457;cluster_0
Waiting;0;1525953373.5628908;cluster_1
Running;0;1525953373.5628908;cluster_1
Stress;3.86;1525953373.5628908;cluster_1
Waiting;0;1525953373.6184723;cluster_0
Running;10;1525953373.6184723;cluster_0
Stress;0.0;1525953373.6184723;cluster_0
Waiting;0;1525953378.0763817;cluster_1
Running;0;1525953378.0763817;cluster_1
Stress;3.55;1525953378.0763817;cluster_1
Waiting;0;1525953378.5360432;cluster_0
Running;10;1525953378.5360432;cluster_0
Stress;0.0;1525953378.5360432;cluster_0
Waiting;0;1525953383.5854423;cluster_1
Running;0;1525953383.5854423;cluster_1
Stress;3.27;1525953383.5854423;cluster_1
Waiting;0;1525953383.3488972;cluster_0
Running;9;1525953383.3488972;cluster_0
Stress;0.0;1525953383.3488972;cluster_0
Waiting;0;1525953388.091628;cluster_1
Running;0;1525953388.091628;cluster_1
Stress;3.01;1525953388.091628;cluster_1
Waiting;0;1525953388.3130004;cluster_0
Running;5;1525953388.3130004;cluster_0
Stress;0.0;1525953388.3130004;cluster_0
Waiting;0;1525953393.5970721;cluster_1
Running;0;1525953393.5970721;cluster_1
Stress;2.77;1525953393.5970721;cluster_1
Waiting;0;1525953393.9803624;cluster_0
Running;0;1525953393.9803624;cluster_0
Stress;0.0;1525953393.9803624;cluster_0
Waiting;0;1525953398.105564;cluster_1
Running;0;1525953398.105564;cluster_1
Stress;2.54;1525953398.105564;cluster_1
Waiting;0;1525953399.4859586;cluster_0
Running;0;1525953399.4859586;cluster_0
Stress;0.0;1525953399.4859586;cluster_0
Waiting;0;1525953403.6184168;cluster_1
Running;0;1525953403.6184168;cluster_1
Stress;2.34;1525953403.6184168;cluster_1
Waiting;0;1525953404.6786041;cluster_0
Running;0;1525953404.6786041;cluster_0
Stress;0.0;1525953404.6786041;cluster_0
Waiting;0;1525953408.3962011;cluster_1
Running;0;1525953408.3962011;cluster_1
Stress;2.15;1525953408.3962011;cluster_1
Waiting;0;1525953409.8844314;cluster_0
Running;0;1525953409.8844314;cluster_0
Stress;0.0;1525953409.8844314;cluster_0
Waiting;0;1525953413.8959465;cluster_1
Running;0;1525953413.8959465;cluster_1
Stress;1.98;1525953413.8959465;cluster_1
Waiting;0;1525953414.0783186;cluster_0
Running;0;1525953414.0783186;cluster_0
Stress;0.0;1525953414.0783186;cluster_0
Waiting;0;1525953418.4114332;cluster_1
Running;0;1525953418.4114332;cluster_1
Stress;1.9;1525953418.4114332;cluster_1
Waiting;0;1525953419.3034382;cluster_0
Running;0;1525953419.3034382;cluster_0
Stress;0.0;1525953419.3034382;cluster_0
Waiting;0;1525953423.925473;cluster_1
Running;0;1525953423.925473;cluster_1
Stress;1.75;1525953423.925473;cluster_1
Waiting;0;1525953424.7749908;cluster_0
Running;0;1525953424.7749908;cluster_0
Stress;0.0;1525953424.7749908;cluster_0
Waiting;0;1525953428.428784;cluster_1
Running;0;1525953428.428784;cluster_1
Stress;1.61;1525953428.428784;cluster_1
Waiting;0;1525953429.9715207;cluster_0
Running;0;1525953429.9715207;cluster_0
Stress;0.0;1525953429.9715207;cluster_0
Waiting;0;1525953433.9358585;cluster_1
Running;0;1525953433.9358585;cluster_1
Stress;1.48;1525953433.9358585;cluster_1
Waiting;0;1525953435.1778505;cluster_0
Running;0;1525953435.1778505;cluster_0
Stress;0.0;1525953435.1778505;cluster_0
Waiting;0;1525953438.453373;cluster_1
Running;0;1525953438.453373;cluster_1
Stress;1.36;1525953438.453373;cluster_1
Waiting;0;1525953440.3758883;cluster_0
Running;0;1525953440.3758883;cluster_0
Stress;0.0;1525953440.3758883;cluster_0
Waiting;0;1525953443.9839377;cluster_1
Running;0;1525953443.9839377;cluster_1
Stress;1.25;1525953443.9839377;cluster_1
Waiting;0;1525953445.5686092;cluster_0
Running;0;1525953445.5686092;cluster_0
Stress;0.0;1525953445.5686092;cluster_0
Waiting;0;1525953449.4960716;cluster_1
Running;0;1525953449.4960716;cluster_1
Stress;1.15;1525953449.4960716;cluster_1
Waiting;0;1525953450.761603;cluster_0
Running;0;1525953450.761603;cluster_0
Stress;0.0;1525953450.761603;cluster_0
Waiting;0;1525953454.0003521;cluster_1
Running;0;1525953454.0003521;cluster_1
Stress;1.06;1525953454.0003521;cluster_1
Waiting;0;1525953455.9550228;cluster_0
Running;0;1525953455.9550228;cluster_0
Stress;0.0;1525953455.9550228;cluster_0
Waiting;0;1525953459.5079558;cluster_1
Running;0;1525953459.5079558;cluster_1
Stress;0.97;1525953459.5079558;cluster_1
Waiting;0;1525953460.160929;cluster_0
Running;0;1525953460.160929;cluster_0
Stress;0.0;1525953460.160929;cluster_0
Waiting;0;1525953464.0124652;cluster_1
Running;0;1525953464.0124652;cluster_1
Stress;0.9;1525953464.0124652;cluster_1
Waiting;0;1525953465.355822;cluster_0
Running;0;1525953465.355822;cluster_0
Stress;0.0;1525953465.355822;cluster_0
Waiting;0;1525953469.5554836;cluster_1
Running;0;1525953469.5554836;cluster_1
Stress;0.82;1525953469.5554836;cluster_1
Waiting;0;1525953470.5603456;cluster_0
Running;0;1525953470.5603456;cluster_0
Stress;0.0;1525953470.5603456;cluster_0
Waiting;0;1525953474.0754757;cluster_1
Running;0;1525953474.0754757;cluster_1
Stress;0.76;1525953474.0754757;cluster_1
Waiting;0;1525953475.7519517;cluster_0
Running;0;1525953475.7519517;cluster_0
Stress;0.0;1525953475.7519517;cluster_0
Waiting;0;1525953479.8661842;cluster_1
Running;0;1525953479.8661842;cluster_1
Stress;0.7;1525953479.8661842;cluster_1
Waiting;0;1525953480.9488008;cluster_0
Running;0;1525953480.9488008;cluster_0
Stress;0.0;1525953480.9488008;cluster_0
Waiting;0;1525953484.3732426;cluster_1
Running;0;1525953484.3732426;cluster_1
Stress;0.64;1525953484.3732426;cluster_1
Waiting;0;1525953485.154176;cluster_0
Running;0;1525953485.154176;cluster_0
Stress;0.0;1525953485.154176;cluster_0
Waiting;0;1525953489.8680496;cluster_1
Running;0;1525953489.8680496;cluster_1
Stress;0.59;1525953489.8680496;cluster_1
Waiting;0;1525953490.3481667;cluster_0
Running;0;1525953490.3481667;cluster_0
Stress;0.0;1525953490.3481667;cluster_0
Waiting;0;1525953494.3727813;cluster_1
Running;0;1525953494.3727813;cluster_1
Stress;0.54;1525953494.3727813;cluster_1
Waiting;0;1525953495.8188605;cluster_0
Running;0;1525953495.8188605;cluster_0
Stress;0.0;1525953495.8188605;cluster_0
Waiting;0;1525953499.8948643;cluster_1
Running;0;1525953499.8948643;cluster_1
Waiting;0;1525953500.016117;cluster_0
Running;0;1525953500.016117;cluster_0
Stress;0.0;1525953500.016117;cluster_0
Stress;0.5;1525953499.8948643;cluster_1
Waiting;0;1525953504.414035;cluster_1
Running;0;1525953504.414035;cluster_1
Stress;0.46;1525953504.414035;cluster_1
Waiting;0;1525953505.2106447;cluster_0
Running;0;1525953505.2106447;cluster_0
Stress;0.0;1525953505.2106447;cluster_0
Waiting;0;1525953509.9163249;cluster_1
Running;0;1525953509.9163249;cluster_1
Stress;0.42;1525953509.9163249;cluster_1
Waiting;0;1525953510.4166522;cluster_0
Running;0;1525953510.4166522;cluster_0
Stress;0.0;1525953510.4166522;cluster_0
Waiting;0;1525953514.4218383;cluster_1
Running;0;1525953514.4218383;cluster_1
Stress;0.39;1525953514.4218383;cluster_1
Waiting;0;1525953515.6087294;cluster_0
Running;0;1525953515.6087294;cluster_0
Stress;0.0;1525953515.6087294;cluster_0
Waiting;0;1525953519.9441633;cluster_1
Running;0;1525953519.9441633;cluster_1
Stress;0.36;1525953519.9441633;cluster_1
Waiting;0;1525953520.8021784;cluster_0
Running;0;1525953520.8021784;cluster_0
Stress;0.0;1525953520.8021784;cluster_0
Action;60;1525953520.8021784;cluster_0
Waiting;0;1525953524.4646504;cluster_1
Running;0;1525953524.4646504;cluster_1
Stress;0.33;1525953524.4646504;cluster_1
Waiting;0;1525953529.9810965;cluster_1
Running;0;1525953529.9810965;cluster_1
Waiting;30;1525953525.0394607;cluster_0
Running;30;1525953525.0394607;cluster_0
Stress;0.0;1525953525.0394607;cluster_0
Stress;2.7;1525953529.9810965;cluster_1
Waiting;30;1525953530.2754407;cluster_0
Running;30;1525953530.2754407;cluster_0
Stress;0.0;1525953530.2754407;cluster_0
Waiting;0;1525953535.5022924;cluster_1
Running;0;1525953535.5022924;cluster_1
Stress;4.81;1525953535.5022924;cluster_1
Waiting;30;1525953535.3800828;cluster_0
Running;30;1525953535.3800828;cluster_0
Stress;0.0;1525953535.3800828;cluster_0
Waiting;0;1525953540.0218666;cluster_1
Running;0;1525953540.0218666;cluster_1
Stress;6.43;1525953540.0218666;cluster_1
Waiting;30;1525953540.5187333;cluster_0
Running;30;1525953540.5187333;cluster_0
Stress;0.0;1525953540.5187333;cluster_0
Waiting;0;1525953545.5532353;cluster_1
Running;0;1525953545.5532353;cluster_1
Stress;7.03;1525953545.5532353;cluster_1
Waiting;30;1525953545.577803;cluster_0
Running;30;1525953545.577803;cluster_0
Stress;0.0;1525953545.577803;cluster_0
Waiting;0;1525953550.3426716;cluster_1
Running;0;1525953550.3426716;cluster_1
Stress;6.47;1525953550.3426716;cluster_1
Waiting;30;1525953550.3638046;cluster_0
Running;30;1525953550.3638046;cluster_0
Stress;0.0;1525953550.3638046;cluster_0
Waiting;0;1525953555.8536906;cluster_1
Running;0;1525953555.8536906;cluster_1
Stress;5.95;1525953555.8536906;cluster_1
Waiting;0;1525953555.4450095;cluster_0
Running;59;1525953555.4450095;cluster_0
Stress;0.0;1525953555.4450095;cluster_0
Waiting;0;1525953560.3874252;cluster_1
Running;0;1525953560.3874252;cluster_1
Stress;6.44;1525953560.3874252;cluster_1
Waiting;0;1525953560.821227;cluster_0
Running;59;1525953560.821227;cluster_0
Stress;0.0;1525953560.821227;cluster_0
Waiting;0;1525953565.9117548;cluster_1
Running;0;1525953565.9117548;cluster_1
Stress;8.16;1525953565.9117548;cluster_1
Waiting;0;1525953565.2118044;cluster_0
Running;55;1525953565.2118044;cluster_0
Stress;0.0;1525953565.2118044;cluster_0
Waiting;0;1525953570.4157765;cluster_1
Running;0;1525953570.4157765;cluster_1
Stress;9.59;1525953570.4157765;cluster_1
Waiting;0;1525953570.5102372;cluster_0
Running;42;1525953570.5102372;cluster_0
Stress;0.0;1525953570.5102372;cluster_0
Waiting;0;1525953575.9516551;cluster_1
Running;0;1525953575.9516551;cluster_1
Stress;9.86;1525953575.9516551;cluster_1
Waiting;0;1525953575.3671954;cluster_0
Running;30;1525953575.3671954;cluster_0
Stress;0.0;1525953575.3671954;cluster_0
Waiting;0;1525953580.4561195;cluster_1
Running;0;1525953580.4561195;cluster_1
Stress;9.07;1525953580.4561195;cluster_1
Waiting;0;1525953580.8245146;cluster_0
Running;30;1525953580.8245146;cluster_0
Stress;0.0;1525953580.8245146;cluster_0
Waiting;0;1525953585.9719486;cluster_1
Running;0;1525953585.9719486;cluster_1
Stress;8.35;1525953585.9719486;cluster_1
Waiting;0;1525953585.5463002;cluster_0
Running;29;1525953585.5463002;cluster_0
Stress;0.0;1525953585.5463002;cluster_0
Waiting;0;1525953590.486009;cluster_1
Running;0;1525953590.486009;cluster_1
Stress;7.68;1525953590.486009;cluster_1
Waiting;0;1525953590.5260303;cluster_0
Running;28;1525953590.5260303;cluster_0
Stress;0.0;1525953590.5260303;cluster_0
Waiting;0;1525953595.0036879;cluster_1
Running;0;1525953595.0036879;cluster_1
Stress;7.06;1525953595.0036879;cluster_1
Waiting;0;1525953595.1829169;cluster_0
Running;26;1525953595.1829169;cluster_0
Stress;0.0;1525953595.1829169;cluster_0
Waiting;0;1525953600.5354166;cluster_1
Running;0;1525953600.5354166;cluster_1
Stress;6.5;1525953600.5354166;cluster_1
Waiting;0;1525953600.0282316;cluster_0
Running;21;1525953600.0282316;cluster_0
Stress;0.0;1525953600.0282316;cluster_0
Waiting;0;1525953605.039068;cluster_1
Running;0;1525953605.039068;cluster_1
Stress;6.06;1525953605.039068;cluster_1
Waiting;0;1525953605.529808;cluster_0
Running;0;1525953605.529808;cluster_0
Stress;0.0;1525953605.529808;cluster_0
Waiting;0;1525953610.5462859;cluster_1
Running;0;1525953610.5462859;cluster_1
Stress;5.57;1525953610.5462859;cluster_1
Waiting;0;1525953610.9199915;cluster_0
Running;0;1525953610.9199915;cluster_0
Stress;0.0;1525953610.9199915;cluster_0
Waiting;0;1525953615.061353;cluster_1
Running;0;1525953615.061353;cluster_1
Stress;0.0;1525953615.061353;cluster_1
Waiting;0;1525953615.2100298;cluster_0
Running;0;1525953615.2100298;cluster_0
Stress;0.0;1525953615.2100298;cluster_0
Waiting;0;1525953620.4134862;cluster_0
Running;0;1525953620.4134862;cluster_0
Stress;0.0;1525953620.4134862;cluster_0
Waiting;0;1525953620.6913757;cluster_1
Running;0;1525953620.6913757;cluster_1
Stress;4.71;1525953620.6913757;cluster_1
Waiting;0;1525953625.2267168;cluster_1
Running;0;1525953625.2267168;cluster_1
Stress;4.34;1525953625.2267168;cluster_1
Waiting;0;1525953625.608046;cluster_0
Running;0;1525953625.608046;cluster_0
Stress;0.0;1525953625.608046;cluster_0
Waiting;0;1525953630.7428336;cluster_1
Running;0;1525953630.7428336;cluster_1
Waiting;0;1525953630.8043733;cluster_0
Running;0;1525953630.8043733;cluster_0
Stress;0.0;1525953630.8043733;cluster_0
Stress;3.99;1525953630.7428336;cluster_1
Waiting;0;1525953635.0081792;cluster_0
Running;0;1525953635.0081792;cluster_0
Stress;0.0;1525953635.0081792;cluster_0
Waiting;0;1525953635.2485387;cluster_1
Running;0;1525953635.2485387;cluster_1
Stress;3.67;1525953635.2485387;cluster_1
Waiting;0;1525953640.2076876;cluster_0
Running;0;1525953640.2076876;cluster_0
Stress;0.0;1525953640.2076876;cluster_0
Waiting;0;1525953640.757135;cluster_1
Running;0;1525953640.757135;cluster_1
Stress;3.38;1525953640.757135;cluster_1
Waiting;0;1525953645.2646585;cluster_1
Running;0;1525953645.2646585;cluster_1
Stress;3.1;1525953645.2646585;cluster_1
Waiting;0;1525953645.4058514;cluster_0
Running;0;1525953645.4058514;cluster_0
Stress;0.0;1525953645.4058514;cluster_0
Waiting;0;1525953650.7652624;cluster_1
Running;0;1525953650.7652624;cluster_1
Waiting;0;1525953650.883787;cluster_0
Running;0;1525953650.883787;cluster_0
Stress;0.0;1525953650.883787;cluster_0
Stress;2.86;1525953650.7652624;cluster_1
Waiting;0;1525953655.077356;cluster_0
Running;0;1525953655.077356;cluster_0
Stress;0.0;1525953655.077356;cluster_0
Waiting;0;1525953655.2726386;cluster_1
Running;0;1525953655.2726386;cluster_1
Stress;2.63;1525953655.2726386;cluster_1
Waiting;0;1525953660.2811701;cluster_0
Running;0;1525953660.2811701;cluster_0
Stress;0.0;1525953660.2811701;cluster_0
Waiting;0;1525953660.7909665;cluster_1
Running;0;1525953660.7909665;cluster_1
Stress;2.42;1525953660.7909665;cluster_1
Waiting;0;1525953665.3078835;cluster_1
Running;0;1525953665.3078835;cluster_1
Stress;2.22;1525953665.3078835;cluster_1
Waiting;0;1525953665.4802487;cluster_0
Running;0;1525953665.4802487;cluster_0
Stress;0.0;1525953665.4802487;cluster_0
Waiting;0;1525953670.6735086;cluster_0
Running;0;1525953670.6735086;cluster_0
Stress;0.0;1525953670.6735086;cluster_0
Waiting;0;1525953670.8212116;cluster_1
Running;0;1525953670.8212116;cluster_1
Stress;2.04;1525953670.8212116;cluster_1
Waiting;0;1525953675.3355758;cluster_1
Running;0;1525953675.3355758;cluster_1
Stress;1.88;1525953675.3355758;cluster_1
Waiting;0;1525953675.869701;cluster_0
Running;0;1525953675.869701;cluster_0
Stress;0.0;1525953675.869701;cluster_0
Waiting;0;1525953680.0644922;cluster_0
Running;0;1525953680.0644922;cluster_0
Stress;0.0;1525953680.0644922;cluster_0
Waiting;0;1525953680.8362818;cluster_1
Running;0;1525953680.8362818;cluster_1
Stress;1.73;1525953680.8362818;cluster_1
Waiting;0;1525953685.2748413;cluster_0
Running;0;1525953685.2748413;cluster_0
Stress;0.0;1525953685.2748413;cluster_0
Waiting;0;1525953685.3596175;cluster_1
Running;0;1525953685.3596175;cluster_1
Stress;1.59;1525953685.3596175;cluster_1
Waiting;0;1525953690.4714465;cluster_0
Running;0;1525953690.4714465;cluster_0
Stress;0.0;1525953690.4714465;cluster_0
Waiting;0;1525953690.7411084;cluster_1
Running;0;1525953690.7411084;cluster_1
Stress;1.46;1525953690.7411084;cluster_1
Waiting;0;1525953695.2694826;cluster_1
Running;0;1525953695.2694826;cluster_1
Stress;1.35;1525953695.2694826;cluster_1
Waiting;0;1525953695.6692736;cluster_0
Running;0;1525953695.6692736;cluster_0
Stress;0.0;1525953695.6692736;cluster_0
Waiting;0;1525953700.8633914;cluster_0
Running;0;1525953700.8633914;cluster_0
Stress;0.0;1525953700.8633914;cluster_0
Waiting;0;1525953700.7828944;cluster_1
Running;0;1525953700.7828944;cluster_1
Stress;1.24;1525953700.7828944;cluster_1
Waiting;0;1525953705.0583625;cluster_0
Running;0;1525953705.0583625;cluster_0
Stress;0.0;1525953705.0583625;cluster_0
Waiting;0;1525953705.3010106;cluster_1
Running;0;1525953705.3010106;cluster_1
Stress;1.14;1525953705.3010106;cluster_1
Waiting;0;1525953710.2524276;cluster_0
Running;0;1525953710.2524276;cluster_0
Stress;0.0;1525953710.2524276;cluster_0
Waiting;0;1525953710.8206813;cluster_1
Running;0;1525953710.8206813;cluster_1
Stress;1.05;1525953710.8206813;cluster_1
Waiting;0;1525953715.322195;cluster_1
Running;0;1525953715.322195;cluster_1
Waiting;0;1525953715.4655516;cluster_0
Running;0;1525953715.4655516;cluster_0
Stress;0.0;1525953715.4655516;cluster_0
Stress;0.96;1525953715.322195;cluster_1
Waiting;0;1525953720.658312;cluster_0
Running;0;1525953720.658312;cluster_0
Stress;0.0;1525953720.658312;cluster_0
Waiting;0;1525953720.84381;cluster_1
Running;0;1525953720.84381;cluster_1
Stress;0.89;1525953720.84381;cluster_1
Waiting;0;1525953725.3572552;cluster_1
Running;0;1525953725.3572552;cluster_1
Stress;0.81;1525953725.3572552;cluster_1
Waiting;0;1525953725.8582013;cluster_0
Running;0;1525953725.8582013;cluster_0
Stress;0.0;1525953725.8582013;cluster_0
Waiting;0;1525953730.0506883;cluster_0
Running;0;1525953730.0506883;cluster_0
Stress;0.0;1525953730.0506883;cluster_0
Waiting;0;1525953730.8648026;cluster_1
Running;0;1525953730.8648026;cluster_1
Stress;0.75;1525953730.8648026;cluster_1
Waiting;0;1525953735.2443042;cluster_0
Running;0;1525953735.2443042;cluster_0
Stress;0.0;1525953735.2443042;cluster_0
Waiting;0;1525953735.376012;cluster_1
Running;0;1525953735.376012;cluster_1
Stress;0.69;1525953735.376012;cluster_1
Waiting;0;1525953740.4702082;cluster_0
Running;0;1525953740.4702082;cluster_0
Stress;0.0;1525953740.4702082;cluster_0
Waiting;0;1525953740.8964689;cluster_1
Running;0;1525953740.8964689;cluster_1
Stress;0.63;1525953740.8964689;cluster_1
Waiting;0;1525953745.4045556;cluster_1
Running;0;1525953745.4045556;cluster_1
Stress;0.58;1525953745.4045556;cluster_1
Waiting;0;1525953745.664867;cluster_0
Running;0;1525953745.664867;cluster_0
Stress;0.0;1525953745.664867;cluster_0
Waiting;0;1525953750.8623211;cluster_0
Running;0;1525953750.8623211;cluster_0
Stress;0.0;1525953750.8623211;cluster_0
Waiting;0;1525953750.90669;cluster_1
Running;0;1525953750.90669;cluster_1
Stress;0.54;1525953750.90669;cluster_1
Waiting;0;1525953755.0579183;cluster_0
Running;0;1525953755.0579183;cluster_0
Stress;0.0;1525953755.0579183;cluster_0
Waiting;0;1525953755.4299424;cluster_1
Running;0;1525953755.4299424;cluster_1
Stress;0.49;1525953755.4299424;cluster_1
Waiting;0;1525953760.2573514;cluster_0
Running;0;1525953760.2573514;cluster_0
Stress;0.0;1525953760.2573514;cluster_0
Waiting;0;1525953760.9491153;cluster_1
Running;0;1525953760.9491153;cluster_1
Stress;0.45;1525953760.9491153;cluster_1
Waiting;0;1525953765.4641376;cluster_0
Running;0;1525953765.4641376;cluster_0
Stress;0.0;1525953765.4641376;cluster_0
Waiting;0;1525953765.7327027;cluster_1
Running;0;1525953765.7327027;cluster_1
Stress;0.42;1525953765.7327027;cluster_1
Waiting;0;1525953770.2578602;cluster_1
Running;0;1525953770.2578602;cluster_1
Stress;0.38;1525953770.2578602;cluster_1
Waiting;0;1525953770.6629322;cluster_0
Running;0;1525953770.6629322;cluster_0
Stress;0.0;1525953770.6629322;cluster_0
Waiting;0;1525953775.7709033;cluster_1
Running;0;1525953775.7709033;cluster_1
Waiting;0;1525953775.8568456;cluster_0
Running;0;1525953775.8568456;cluster_0
Stress;0.0;1525953775.8568456;cluster_0
Stress;0.35;1525953775.7709033;cluster_1
Waiting;0;1525953780.0498874;cluster_0
Running;0;1525953780.0498874;cluster_0
Stress;0.0;1525953780.0498874;cluster_0
Waiting;0;1525953780.2782862;cluster_1
Running;0;1525953780.2782862;cluster_1
Stress;0.32;1525953780.2782862;cluster_1
Waiting;0;1525953785.796476;cluster_1
Running;0;1525953785.796476;cluster_1
Stress;0.3;1525953785.796476;cluster_1
Waiting;0;1525953785.2472281;cluster_0
Running;0;1525953785.2472281;cluster_0
Stress;0.0;1525953785.2472281;cluster_0
Waiting;0;1525953790.3037245;cluster_1
Running;0;1525953790.3037245;cluster_1
Stress;0.27;1525953790.3037245;cluster_1
Waiting;0;1525953790.4895744;cluster_0
Running;0;1525953790.4895744;cluster_0
Stress;0.0;1525953790.4895744;cluster_0
Waiting;0;1525953795.68231;cluster_0
Running;0;1525953795.68231;cluster_0
Stress;0.0;1525953795.68231;cluster_0
Waiting;0;1525953795.8088045;cluster_1
Running;0;1525953795.8088045;cluster_1
Stress;0.25;1525953795.8088045;cluster_1
Waiting;0;1525953800.320633;cluster_1
Running;0;1525953800.320633;cluster_1
Stress;0.31;1525953800.320633;cluster_1
Waiting;0;1525953800.8766365;cluster_0
Running;0;1525953800.8766365;cluster_0
Stress;0.0;1525953800.8766365;cluster_0
Waiting;0;1525953805.074926;cluster_0
Running;0;1525953805.074926;cluster_0
Stress;0.0;1525953805.074926;cluster_0
Waiting;0;1525953805.8325586;cluster_1
Running;0;1525953805.8325586;cluster_1
Stress;0.29;1525953805.8325586;cluster_1
Waiting;0;1525953810.2693558;cluster_0
Running;0;1525953810.2693558;cluster_0
Stress;0.0;1525953810.2693558;cluster_0
Waiting;0;1525953810.338003;cluster_1
Running;0;1525953810.338003;cluster_1
Stress;0.26;1525953810.338003;cluster_1
Waiting;0;1525953815.4758167;cluster_0
Running;0;1525953815.4758167;cluster_0
Stress;0.0;1525953815.4758167;cluster_0
Waiting;0;1525953815.8594804;cluster_1
Running;0;1525953815.8594804;cluster_1
Stress;0.24;1525953815.8594804;cluster_1
Waiting;0;1525953820.3690479;cluster_1
Running;0;1525953820.3690479;cluster_1
Stress;0.22;1525953820.3690479;cluster_1
Waiting;0;1525953820.672775;cluster_0
Running;0;1525953820.672775;cluster_0
Stress;0.0;1525953820.672775;cluster_0
Waiting;0;1525953825.8672814;cluster_0
Running;0;1525953825.8672814;cluster_0
Stress;0.0;1525953825.8672814;cluster_0
Waiting;0;1525953825.8916006;cluster_1
Running;0;1525953825.8916006;cluster_1
Stress;0.2;1525953825.8916006;cluster_1
Waiting;0;1525953830.063476;cluster_0
Running;0;1525953830.063476;cluster_0
Stress;0.0;1525953830.063476;cluster_0
Waiting;0;1525953830.4043257;cluster_1
Running;0;1525953830.4043257;cluster_1
Stress;0.19;1525953830.4043257;cluster_1
Waiting;0;1525953835.184823;cluster_1
Running;0;1525953835.184823;cluster_1
Waiting;0;1525953835.256154;cluster_0
Running;0;1525953835.256154;cluster_0
Stress;0.0;1525953835.256154;cluster_0
Stress;0.17;1525953835.184823;cluster_1
Waiting;0;1525953840.4619803;cluster_0
Running;0;1525953840.4619803;cluster_0
Stress;0.0;1525953840.4619803;cluster_0
Waiting;0;1525953840.6890738;cluster_1
Running;0;1525953840.6890738;cluster_1
Stress;0.16;1525953840.6890738;cluster_1
Waiting;0;1525953845.1924636;cluster_1
Running;0;1525953845.1924636;cluster_1
Stress;0.15;1525953845.1924636;cluster_1
Waiting;0;1525953845.6560977;cluster_0
Running;0;1525953845.6560977;cluster_0
Stress;0.0;1525953845.6560977;cluster_0
Waiting;0;1525953850.7145827;cluster_1
Running;0;1525953850.7145827;cluster_1
Waiting;0;1525953850.8510883;cluster_0
Running;0;1525953850.8510883;cluster_0
Stress;0.0;1525953850.8510883;cluster_0
Stress;0.13;1525953850.7145827;cluster_1
Waiting;0;1525953855.0516346;cluster_0
Running;0;1525953855.0516346;cluster_0
Stress;0.0;1525953855.0516346;cluster_0
Waiting;0;1525953855.2239172;cluster_1
Running;0;1525953855.2239172;cluster_1
Stress;0.12;1525953855.2239172;cluster_1
Waiting;0;1525953860.262101;cluster_0
Running;0;1525953860.262101;cluster_0
Stress;0.0;1525953860.262101;cluster_0
Waiting;0;1525953860.7349765;cluster_1
Running;0;1525953860.7349765;cluster_1
Stress;0.11;1525953860.7349765;cluster_1
Waiting;0;1525953865.2364676;cluster_1
Running;0;1525953865.2364676;cluster_1
Stress;0.1;1525953865.2364676;cluster_1
Waiting;0;1525953865.466907;cluster_0
Running;0;1525953865.466907;cluster_0
Stress;0.0;1525953865.466907;cluster_0
Waiting;0;1525953870.6635644;cluster_0
Running;0;1525953870.6635644;cluster_0
Stress;0.0;1525953870.6635644;cluster_0
Waiting;0;1525953870.7446034;cluster_1
Running;0;1525953870.7446034;cluster_1
Stress;0.1;1525953870.7446034;cluster_1
Waiting;0;1525953875.2488356;cluster_1
Running;0;1525953875.2488356;cluster_1
Stress;0.09;1525953875.2488356;cluster_1
Waiting;0;1525953875.857244;cluster_0
Running;0;1525953875.857244;cluster_0
Stress;0.0;1525953875.857244;cluster_0
Waiting;0;1525953880.052504;cluster_0
Running;0;1525953880.052504;cluster_0
Stress;0.0;1525953880.052504;cluster_0
Waiting;0;1525953880.7647417;cluster_1
Running;0;1525953880.7647417;cluster_1
Stress;0.08;1525953880.7647417;cluster_1
Waiting;0;1525953885.2462926;cluster_0
Running;0;1525953885.2462926;cluster_0
Stress;0.0;1525953885.2462926;cluster_0
Waiting;0;1525953885.2848284;cluster_1
Running;0;1525953885.2848284;cluster_1
Stress;0.07;1525953885.2848284;cluster_1
Waiting;0;1525953890.4584432;cluster_0
Running;0;1525953890.4584432;cluster_0
Stress;0.0;1525953890.4584432;cluster_0
Waiting;0;1525953890.7933297;cluster_1
Running;0;1525953890.7933297;cluster_1
Stress;0.07;1525953890.7933297;cluster_1
Waiting;0;1525953895.3048618;cluster_1
Running;0;1525953895.3048618;cluster_1
Stress;0.06;1525953895.3048618;cluster_1
Waiting;0;1525953895.6544685;cluster_0
Running;0;1525953895.6544685;cluster_0
Stress;0.0;1525953895.6544685;cluster_0
Waiting;0;1525953900.8076434;cluster_1
Running;0;1525953900.8076434;cluster_1
Stress;0.0;1525953900.8076434;cluster_1
Waiting;0;1525953900.8502097;cluster_0
Running;0;1525953900.8502097;cluster_0
Stress;0.0;1525953900.8502097;cluster_0
Waiting;0;1525953905.0428622;cluster_0
Running;0;1525953905.0428622;cluster_0
Stress;0.0;1525953905.0428622;cluster_0
Waiting;0;1525953905.44259;cluster_1
Running;0;1525953905.44259;cluster_1
Stress;0.05;1525953905.44259;cluster_1
Waiting;0;1525953910.2358923;cluster_0
Running;0;1525953910.2358923;cluster_0
Stress;0.0;1525953910.2358923;cluster_0
Waiting;0;1525953910.9638562;cluster_1
Running;0;1525953910.9638562;cluster_1
Stress;0.05;1525953910.9638562;cluster_1
Waiting;0;1525953915.4406104;cluster_0
Running;0;1525953915.4406104;cluster_0
Stress;0.0;1525953915.4406104;cluster_0
Waiting;0;1525953915.484172;cluster_1
Running;0;1525953915.484172;cluster_1
Stress;0.04;1525953915.484172;cluster_1
Waiting;0;1525953920.6418188;cluster_0
Running;0;1525953920.6418188;cluster_0
Stress;0.0;1525953920.6418188;cluster_0
Waiting;0;1525953920.9991467;cluster_1
Running;0;1525953920.9991467;cluster_1
Stress;0.04;1525953920.9991467;cluster_1
Waiting;0;1525953926.5086467;cluster_1
Running;0;1525953926.5086467;cluster_1
Stress;0.04;1525953926.5086467;cluster_1
Waiting;0;1525953925.8404806;cluster_0
Running;0;1525953925.8404806;cluster_0
Stress;0.0;1525953925.8404806;cluster_0
Waiting;0;1525953930.3238297;cluster_0
Running;0;1525953930.3238297;cluster_0
Stress;0.0;1525953930.3238297;cluster_0
Waiting;0;1525953931.0195653;cluster_1
Running;0;1525953931.0195653;cluster_1
Stress;0.03;1525953931.0195653;cluster_1
Waiting;0;1525953935.5184593;cluster_0
Running;0;1525953935.5184593;cluster_0
Stress;0.0;1525953935.5184593;cluster_0
Waiting;0;1525953936.5242376;cluster_1
Running;0;1525953936.5242376;cluster_1
Stress;0.03;1525953936.5242376;cluster_1
Waiting;0;1525953940.7222235;cluster_0
Running;0;1525953940.7222235;cluster_0
Stress;0.0;1525953940.7222235;cluster_0
Waiting;0;1525953941.0544007;cluster_1
Running;0;1525953941.0544007;cluster_1
Stress;0.03;1525953941.0544007;cluster_1
Waiting;0;1525953945.9183433;cluster_0
Running;0;1525953945.9183433;cluster_0
Stress;0.0;1525953945.9183433;cluster_0
Waiting;0;1525953946.5571573;cluster_1
Running;0;1525953946.5571573;cluster_1
Stress;0.02;1525953946.5571573;cluster_1
Waiting;0;1525953950.1168747;cluster_0
Running;0;1525953950.1168747;cluster_0
Stress;0.0;1525953950.1168747;cluster_0
Waiting;0;1525953951.0720518;cluster_1
Running;0;1525953951.0720518;cluster_1
Stress;0.02;1525953951.0720518;cluster_1
Waiting;0;1525953955.3116715;cluster_0
Running;0;1525953955.3116715;cluster_0
Stress;0.0;1525953955.3116715;cluster_0
Waiting;0;1525953956.582602;cluster_1
Running;0;1525953956.582602;cluster_1
Stress;0.02;1525953956.582602;cluster_1
Waiting;0;1525953960.5094674;cluster_0
Running;0;1525953960.5094674;cluster_0
Stress;0.0;1525953960.5094674;cluster_0
Waiting;0;1525953961.1005838;cluster_1
Running;0;1525953961.1005838;cluster_1
Stress;0.02;1525953961.1005838;cluster_1
Waiting;0;1525953965.7031956;cluster_0
Running;0;1525953965.7031956;cluster_0
Stress;0.0;1525953965.7031956;cluster_0
Waiting;0;1525953966.6084685;cluster_1
Running;0;1525953966.6084685;cluster_1
Stress;0.02;1525953966.6084685;cluster_1
Waiting;0;1525953970.9094405;cluster_0
Running;0;1525953970.9094405;cluster_0
Stress;0.0;1525953970.9094405;cluster_0
Waiting;0;1525953971.1166742;cluster_1
Running;0;1525953971.1166742;cluster_1
Stress;0.0;1525953971.1166742;cluster_1
Waiting;0;1525953975.104609;cluster_0
Running;0;1525953975.104609;cluster_0
Stress;0.0;1525953975.104609;cluster_0
Waiting;0;1525953976.7581503;cluster_1
Running;0;1525953976.7581503;cluster_1
Stress;0.01;1525953976.7581503;cluster_1
Waiting;0;1525953980.2978623;cluster_0
Running;0;1525953980.2978623;cluster_0
Stress;0.0;1525953980.2978623;cluster_0
Waiting;0;1525953981.2849746;cluster_1
Running;0;1525953981.2849746;cluster_1
Stress;0.01;1525953981.2849746;cluster_1
