Waiting;0;1521714533.754556;tchernobyl
Running;0;1521714533.7546906;tchernobyl
Resources;0;1521714534.0112464;-
Waiting;0;1521714548.4623635;tchernobyl
Running;1;1521714548.4624388;tchernobyl
Resources;9;1521714548.7996771;-
Waiting;0;1521714564.2590938;tchernobyl
Running;1;1521714564.2591624;tchernobyl
Resources;9;1521714564.537652;-
Action;12;1521714564.663758;tchernobyl
Waiting;9;1521714579.9190083;tchernobyl
Running;4;1521714579.919125;tchernobyl
Resources;9;1521714584.3911078;-
Action;10;1521714584.5150409;tchernobyl
Waiting;19;1521714594.8170311;tchernobyl
Running;4;1521714594.8171182;tchernobyl
Resources;9;1521714602.5309997;-
Action;8;1521714602.6718154;tchernobyl
Waiting;26;1521714609.9427493;tchernobyl
Running;2;1521714609.9428234;tchernobyl
Resources;9;1521714619.3670757;-
Action;7;1521714619.495385;tchernobyl
Waiting;31;1521714625.824082;tchernobyl
Running;4;1521714625.8241584;tchernobyl
Resources;0;1521714637.7859468;-
Action;6;1521714637.9173586;tchernobyl
Waiting;28;1521714643.2928007;tchernobyl
Running;12;1521714643.2930565;tchernobyl
Resources;1;1521714656.8873036;-
Action;6;1521714657.016221;tchernobyl
Waiting;32;1521714662.4274971;tchernobyl
Running;12;1521714662.427596;tchernobyl
Resources;1;1521714677.6597648;-
Action;5;1521714677.7960858;tchernobyl
Waiting;27;1521714683.7208574;tchernobyl
Running;11;1521714683.72098;tchernobyl
Resources;1;1521714697.9676688;-
Action;6;1521714698.1010218;tchernobyl
Waiting;32;1521714703.554733;tchernobyl
Running;12;1521714703.5550056;tchernobyl
Resources;1;1521714718.569793;-
Action;5;1521714718.7016928;tchernobyl
Waiting;34;1521714724.0035691;tchernobyl
Running;5;1521714724.0036542;tchernobyl
Resources;1;1521714738.705976;-
Action;5;1521714738.8430898;tchernobyl
Waiting;31;1521714744.2132246;tchernobyl
Running;11;1521714744.2133443;tchernobyl
Resources;1;1521714758.9888167;-
Action;6;1521714759.1258845;tchernobyl
Waiting;35;1521714764.660702;tchernobyl
Running;3;1521714764.6608331;tchernobyl
Resources;3;1521714780.3325746;-
Action;5;1521714780.4617112;tchernobyl
Waiting;33;1521714785.8656325;tchernobyl
Running;10;1521714785.8660078;tchernobyl
Resources;3;1521714800.4842577;-
Action;5;1521714800.615607;tchernobyl
Waiting;36;1521714806.0767536;tchernobyl
Running;10;1521714806.076821;tchernobyl
Resources;3;1521714822.0852098;-
Action;5;1521714822.2177134;tchernobyl
Waiting;34;1521714827.959351;tchernobyl
Running;8;1521714827.959478;tchernobyl
Resources;3;1521714842.8594508;-
Action;5;1521714842.9867609;tchernobyl
Waiting;36;1521714848.4138308;tchernobyl
Running;10;1521714848.414232;tchernobyl
Resources;3;1521714864.370411;-
Action;5;1521714864.5007486;tchernobyl
Waiting;39;1521714869.9357333;tchernobyl
Running;7;1521714869.935812;tchernobyl
Resources;4;1521714885.2282887;-
Action;4;1521714885.358728;tchernobyl
Waiting;37;1521714890.6986663;tchernobyl
Running;8;1521714890.6987836;tchernobyl
Resources;4;1521714906.2764275;-
Action;4;1521714906.404072;tchernobyl
Waiting;39;1521714911.7780235;tchernobyl
Running;7;1521714911.7784436;tchernobyl
Resources;4;1521714928.1781;-
Action;4;1521714928.308319;tchernobyl
Waiting;37;1521714933.636055;tchernobyl
Running;7;1521714933.6361227;tchernobyl
Resources;4;1521714949.229434;-
Action;4;1521714949.3614888;tchernobyl
Waiting;39;1521714954.8404562;tchernobyl
Running;7;1521714954.8405228;tchernobyl
Resources;4;1521714971.2752507;-
Action;4;1521714971.40211;tchernobyl
Waiting;37;1521714976.938764;tchernobyl
Running;9;1521714976.938875;tchernobyl
Resources;2;1521714992.543948;-
Action;4;1521714992.6723685;tchernobyl
Waiting;40;1521714998.386539;tchernobyl
Running;5;1521714998.3866131;tchernobyl
Resources;2;1521715015.1743171;-
Action;4;1521715015.3046749;tchernobyl
Waiting;35;1521715020.6644433;tchernobyl
Running;11;1521715020.6645663;tchernobyl
Resources;2;1521715036.3231018;-
Action;5;1521715036.4607608;tchernobyl
Waiting;34;1521715041.8029451;tchernobyl
Running;7;1521715041.8031888;tchernobyl
Resources;2;1521715057.1685612;-
Action;5;1521715057.2980242;tchernobyl
Waiting;35;1521715062.8193374;tchernobyl
Running;11;1521715062.8194108;tchernobyl
Resources;2;1521715078.5633862;-
Action;5;1521715078.7072756;tchernobyl
Waiting;34;1521715084.2371097;tchernobyl
Running;11;1521715084.2372081;tchernobyl
Resources;2;1521715099.72332;-
Waiting;29;1521715100.850408;tchernobyl
Running;11;1521715100.8504963;tchernobyl
Resources;2;1521715114.8197188;-
Action;6;1521715114.952881;tchernobyl
Waiting;34;1521715120.3620331;tchernobyl
Running;8;1521715120.362118;tchernobyl
Resources;4;1521715135.5564551;-
Action;5;1521715135.6935172;tchernobyl
Waiting;34;1521715141.1521716;tchernobyl
Running;6;1521715141.1523638;tchernobyl
Resources;4;1521715155.055044;-
Action;5;1521715155.1803339;tchernobyl
Waiting;35;1521715160.596985;tchernobyl
Running;9;1521715160.5971208;tchernobyl
Resources;4;1521715175.5268378;-
Action;5;1521715175.655412;tchernobyl
Waiting;36;1521715181.0574536;tchernobyl
Running;7;1521715181.0576806;tchernobyl
Resources;4;1521715196.3215418;-
Action;5;1521715196.4583507;tchernobyl
Waiting;36;1521715201.8205519;tchernobyl
Running;9;1521715201.820657;tchernobyl
Resources;4;1521715217.4033563;-
Action;5;1521715217.5353646;tchernobyl
Waiting;38;1521715223.0127132;tchernobyl
Running;9;1521715223.0128386;tchernobyl
Resources;4;1521715239.0821948;-
Action;4;1521715239.2136443;tchernobyl
Waiting;37;1521715244.5677469;tchernobyl
Running;8;1521715244.5678313;tchernobyl
Resources;4;1521715260.2338133;-
Action;4;1521715260.4481027;tchernobyl
Waiting;37;1521715265.863283;tchernobyl
Running;8;1521715265.8635623;tchernobyl
Resources;0;1521715282.1098435;-
Action;4;1521715282.4403632;tchernobyl
Waiting;33;1521715288.1433966;tchernobyl
Running;10;1521715288.1434867;tchernobyl
Resources;0;1521715303.929904;-
Action;5;1521715304.0591705;tchernobyl
Waiting;32;1521715309.414551;tchernobyl
Running;12;1521715309.4146292;tchernobyl
Resources;0;1521715324.708267;-
Action;5;1521715324.856403;tchernobyl
Waiting;30;1521715330.2002401;tchernobyl
Running;10;1521715330.2166476;tchernobyl
Resources;0;1521715345.3343596;-
Waiting;25;1521715346.5385385;tchernobyl
Running;10;1521715346.5386298;tchernobyl
Resources;0;1521715359.586314;-
Action;5;1521715359.7185454;tchernobyl
Waiting;25;1521715365.0257032;tchernobyl
Running;11;1521715365.0257802;tchernobyl
Resources;2;1521715379.7545214;-
Action;7;1521715379.8842616;tchernobyl
Waiting;29;1521715385.513775;tchernobyl
Running;9;1521715385.5138752;tchernobyl
Resources;2;1521715399.1158872;-
Action;1;1521715399.2453418;tchernobyl
Waiting;23;1521715404.2844024;tchernobyl
Running;11;1521715404.284494;tchernobyl
Resources;2;1521715415.865042;-
Action;7;1521715415.9810977;tchernobyl
Waiting;28;1521715421.4128635;tchernobyl
Running;10;1521715421.4131532;tchernobyl
Resources;2;1521715434.3518164;-
Action;6;1521715434.4869432;tchernobyl
Waiting;30;1521715439.8895688;tchernobyl
Running;7;1521715439.8896608;tchernobyl
Resources;2;1521715454.2949169;-
Action;6;1521715454.4155915;tchernobyl
Waiting;30;1521715459.781509;tchernobyl
Running;9;1521715459.781597;tchernobyl
Resources;2;1521715473.803082;-
Action;6;1521715473.923293;tchernobyl
Waiting;32;1521715479.3301375;tchernobyl
Running;11;1521715479.3301992;tchernobyl
Resources;2;1521715494.580925;-
Waiting;26;1521715495.5923133;tchernobyl
Running;11;1521715495.5924041;tchernobyl
Resources;2;1521715508.384683;-
Action;7;1521715508.508367;tchernobyl
Waiting;29;1521715514.0672042;tchernobyl
Running;11;1521715514.0673437;tchernobyl
Resources;2;1521715528.224486;-
Waiting;23;1521715530.211053;tchernobyl
Running;11;1521715530.21114;tchernobyl
Resources;2;1521715541.844273;-
Action;7;1521715541.9702213;tchernobyl
Waiting;30;1521715547.4995673;tchernobyl
Running;3;1521715547.4996815;tchernobyl
Resources;8;1521715562.570759;-
Action;6;1521715562.6912966;tchernobyl
Waiting;31;1521715567.998331;tchernobyl
Running;5;1521715567.9984381;tchernobyl
Resources;8;1521715580.03523;-
Action;6;1521715580.166741;tchernobyl
Waiting;37;1521715585.7238781;tchernobyl
Running;2;1521715585.7239547;tchernobyl
Resources;8;1521715599.959908;-
Action;4;1521715600.0767431;tchernobyl
Waiting;37;1521715605.377038;tchernobyl
Running;5;1521715605.3771474;tchernobyl
Resources;8;1521715619.477573;-
Action;4;1521715619.5990093;tchernobyl
Waiting;41;1521715624.9032638;tchernobyl
Running;2;1521715624.9033482;tchernobyl
Resources;8;1521715640.3967657;-
Action;3;1521715640.51362;tchernobyl
Waiting;40;1521715645.8625722;tchernobyl
Running;5;1521715645.8626573;tchernobyl
Resources;8;1521715661.0443563;-
Action;3;1521715661.1614568;tchernobyl
Waiting;43;1521715666.5072963;tchernobyl
Running;5;1521715666.5075893;tchernobyl
Resources;8;1521715682.7437866;-
Action;1;1521715682.8684006;tchernobyl
Waiting;40;1521715688.1524355;tchernobyl
Running;5;1521715688.1525266;tchernobyl
Resources;8;1521715703.3265357;-
Action;2;1521715703.4580498;tchernobyl
Waiting;41;1521715708.7425086;tchernobyl
Running;5;1521715708.7426002;tchernobyl
Resources;8;1521715724.632283;-
Action;1;1521715724.7530165;tchernobyl
Waiting;40;1521715729.9696724;tchernobyl
Running;5;1521715729.969756;tchernobyl
Resources;0;1521715744.815737;-
Action;2;1521715744.9375677;tchernobyl
Waiting;40;1521715750.2012064;tchernobyl
Running;4;1521715750.2013867;tchernobyl
Resources;8;1521715765.3636413;-
Action;2;1521715765.4827113;tchernobyl
Waiting;39;1521715770.7289908;tchernobyl
Running;4;1521715770.72908;tchernobyl
Resources;8;1521715785.5042663;-
Action;2;1521715785.6236098;tchernobyl
Waiting;40;1521715790.9190822;tchernobyl
Running;5;1521715790.9191742;tchernobyl
Resources;8;1521715806.3832324;-
Waiting;38;1521715807.4476717;tchernobyl
Running;4;1521715807.4477599;tchernobyl
Resources;8;1521715821.5923467;-
Action;3;1521715821.71214;tchernobyl
Waiting;39;1521715826.9886148;tchernobyl
Running;4;1521715826.9887164;tchernobyl
Resources;8;1521715841.8346949;-
Action;3;1521715841.9572787;tchernobyl
Waiting;40;1521715847.3052738;tchernobyl
Running;3;1521715847.3053677;tchernobyl
Resources;0;1521715863.1959713;-
Action;3;1521715863.3230417;tchernobyl
Waiting;33;1521715868.629835;tchernobyl
Running;10;1521715868.629927;tchernobyl
Resources;0;1521715884.1558743;-
Action;5;1521715884.2724848;tchernobyl
Waiting;36;1521715889.735347;tchernobyl
Running;12;1521715889.7356644;tchernobyl
Resources;0;1521715906.5773807;-
Action;5;1521715906.6996784;tchernobyl
Waiting;31;1521715912.3973253;tchernobyl
Running;10;1521715912.3974142;tchernobyl
Resources;0;1521715927.2410574;-
Action;6;1521715927.3677127;tchernobyl
Waiting;35;1521715932.8439617;tchernobyl
Running;12;1521715932.844161;tchernobyl
Resources;0;1521715949.4036915;-
Action;5;1521715949.5205035;tchernobyl
Waiting;38;1521715954.845215;tchernobyl
Running;3;1521715954.8453608;tchernobyl
Resources;10;1521715969.9885764;-
Action;4;1521715970.107651;tchernobyl
Waiting;41;1521715975.5579765;tchernobyl
Running;3;1521715975.5580988;tchernobyl
Resources;10;1521715990.2628984;-
Action;3;1521715990.390655;tchernobyl
Waiting;43;1521715995.6900325;tchernobyl
Running;3;1521715995.6901276;tchernobyl
Resources;10;1521716011.1161776;-
Action;1;1521716011.2332997;tchernobyl
Waiting;43;1521716016.4745522;tchernobyl
Running;3;1521716016.4746394;tchernobyl
Resources;10;1521716031.9674435;-
Waiting;43;1521716033.0930812;tchernobyl
Running;1;1521716033.0932043;tchernobyl
Resources;10;1521716048.1398718;-
Waiting;42;1521716049.267609;tchernobyl
Running;3;1521716049.267752;tchernobyl
Resources;10;1521716064.1822784;-
Waiting;42;1521716065.3176208;tchernobyl
Running;3;1521716065.3177621;tchernobyl
Resources;0;1521716080.1279798;-
Waiting;41;1521716081.2544758;tchernobyl
Running;1;1521716081.25455;tchernobyl
Resources;10;1521716095.47988;-
Waiting;39;1521716097.5457602;tchernobyl
Running;3;1521716097.5458283;tchernobyl
Resources;10;1521716111.6928008;-
Waiting;38;1521716113.7934196;tchernobyl
Running;3;1521716113.793529;tchernobyl
Resources;10;1521716127.5676289;-
Waiting;37;1521716129.6101398;tchernobyl
Running;3;1521716129.6102674;tchernobyl
Resources;10;1521716143.011538;-
Action;1;1521716143.1340268;tchernobyl
Waiting;37;1521716148.3105242;tchernobyl
Running;3;1521716148.3106182;tchernobyl
Resources;10;1521716161.800572;-
Action;2;1521716161.915959;tchernobyl
Waiting;39;1521716167.1216822;tchernobyl
Running;2;1521716167.121763;tchernobyl
Resources;10;1521716180.9278877;-
Action;2;1521716181.0474014;tchernobyl
Waiting;40;1521716186.2766852;tchernobyl
Running;3;1521716186.2768095;tchernobyl
Resources;10;1521716200.336676;-
Action;2;1521716200.4624765;tchernobyl
Waiting;41;1521716205.7587075;tchernobyl
Running;3;1521716205.7590165;tchernobyl
Resources;4;1521716220.5395951;-
Action;1;1521716220.656447;tchernobyl
Waiting;34;1521716225.8606968;tchernobyl
Running;9;1521716225.8607888;tchernobyl
Resources;4;1521716240.3317604;-
Action;5;1521716240.4526336;tchernobyl
Waiting;38;1521716245.8420198;tchernobyl
Running;7;1521716245.842089;tchernobyl
Resources;4;1521716261.8619545;-
Waiting;31;1521716262.9225519;tchernobyl
Running;9;1521716262.922646;tchernobyl
Resources;4;1521716276.7243721;-
Action;6;1521716276.8420372;tchernobyl
Waiting;36;1521716282.2235022;tchernobyl
Running;5;1521716282.223665;tchernobyl
Resources;4;1521716298.288002;-
Action;5;1521716298.4095652;tchernobyl
Waiting;39;1521716303.7886984;tchernobyl
Running;5;1521716303.7890062;tchernobyl
Resources;4;1521716318.3084342;-
Action;4;1521716318.423676;tchernobyl
Waiting;39;1521716324.0183532;tchernobyl
Running;4;1521716324.018459;tchernobyl
Resources;5;1521716339.3217204;-
Action;4;1521716339.44124;tchernobyl
Waiting;40;1521716344.7701828;tchernobyl
Running;7;1521716344.7702868;tchernobyl
Resources;5;1521716361.1260645;-
Action;4;1521716361.244242;tchernobyl
Waiting;38;1521716366.6232061;tchernobyl
Running;8;1521716366.6234007;tchernobyl
Resources;5;1521716382.1912966;-
Action;4;1521716382.3099744;tchernobyl
Waiting;40;1521716387.8074777;tchernobyl
Running;7;1521716387.807557;tchernobyl
Resources;5;1521716404.657893;-
Action;4;1521716404.79016;tchernobyl
Waiting;38;1521716410.2761595;tchernobyl
Running;8;1521716410.2762585;tchernobyl
Resources;5;1521716426.2236245;-
Action;4;1521716426.344679;tchernobyl
Waiting;41;1521716431.9225852;tchernobyl
Running;4;1521716431.9226584;tchernobyl
Resources;3;1521716448.5421355;-
Action;3;1521716448.6625378;tchernobyl
Waiting;35;1521716454.104893;tchernobyl
Running;10;1521716454.1563523;tchernobyl
Resources;3;1521716470.4131496;-
Action;5;1521716470.5482874;tchernobyl
Waiting;34;1521716476.0503218;tchernobyl
Running;8;1521716476.0504038;tchernobyl
Resources;3;1521716491.0045087;-
Action;5;1521716491.1235888;tchernobyl
Waiting;36;1521716496.53647;tchernobyl
Running;10;1521716496.5365534;tchernobyl
Resources;3;1521716512.1545465;-
Action;5;1521716512.2801826;tchernobyl
Waiting;35;1521716517.6685255;tchernobyl
Running;8;1521716517.6688328;tchernobyl
Resources;3;1521716533.001309;-
Action;5;1521716533.1168041;tchernobyl
Waiting;36;1521716538.5059028;tchernobyl
Running;10;1521716538.5060368;tchernobyl
Resources;3;1521716554.4291043;-
Action;5;1521716554.5504625;tchernobyl
Waiting;36;1521716559.9068274;tchernobyl
Running;8;1521716559.906898;tchernobyl
Resources;3;1521716575.5295134;-
Action;5;1521716575.6552687;tchernobyl
Waiting;37;1521716581.0988703;tchernobyl
Running;10;1521716581.0991518;tchernobyl
Resources;3;1521716597.0104907;-
Action;4;1521716597.124643;tchernobyl
Waiting;36;1521716602.404225;tchernobyl
Running;6;1521716602.404322;tchernobyl
Resources;3;1521716617.9640825;-
Action;5;1521716618.08024;tchernobyl
Waiting;42;1521716623.5281014;tchernobyl
Running;5;1521716623.5281932;tchernobyl
Resources;0;1521716639.3230815;-
Action;2;1521716639.4474225;tchernobyl
Waiting;43;1521716644.7002215;tchernobyl
Running;1;1521716644.7003636;tchernobyl
Resources;12;1521716659.4393563;-
Action;1;1521716659.5540917;tchernobyl
Waiting;44;1521716664.7357638;tchernobyl
Running;1;1521716664.7358415;tchernobyl
Resources;12;1521716679.759793;-
Waiting;44;1521716680.9007497;tchernobyl
Running;1;1521716680.900848;tchernobyl
Resources;12;1521716695.9860928;-
Waiting;44;1521716697.0784967;tchernobyl
Running;1;1521716697.078593;tchernobyl
Resources;12;1521716712.1413496;-
Waiting;44;1521716713.269141;tchernobyl
Running;1;1521716713.269234;tchernobyl
Resources;12;1521716728.316253;-
Waiting;44;1521716729.4265313;tchernobyl
Running;1;1521716729.4266076;tchernobyl
Resources;12;1521716744.5013266;-
Waiting;44;1521716745.6274695;tchernobyl
Running;1;1521716745.6275969;tchernobyl
Resources;12;1521716760.6827164;-
Waiting;44;1521716761.784704;tchernobyl
Running;1;1521716761.7847946;tchernobyl
Resources;12;1521716776.9027984;-
Waiting;45;1521716778.0259879;tchernobyl
Running;1;1521716778.037681;tchernobyl
Resources;12;1521716793.0590458;-
Waiting;45;1521716794.1861143;tchernobyl
Running;1;1521716794.186215;tchernobyl
Resources;0;1521716809.2706864;-
Waiting;43;1521716810.4617906;tchernobyl
Running;2;1521716810.461875;tchernobyl
Resources;11;1521716825.508323;-
Waiting;43;1521716826.6041024;tchernobyl
Running;2;1521716826.6041775;tchernobyl
Resources;11;1521716841.686393;-
Waiting;42;1521716842.8097622;tchernobyl
Running;1;1521716842.8098412;tchernobyl
Resources;11;1521716857.5048199;-
Waiting;42;1521716858.5890625;tchernobyl
Running;2;1521716858.589141;tchernobyl
Resources;11;1521716873.401324;-
Waiting;42;1521716874.50748;tchernobyl
Running;2;1521716874.5075936;tchernobyl
Resources;11;1521716889.3102484;-
Waiting;41;1521716890.385532;tchernobyl
Running;2;1521716890.3856099;tchernobyl
Resources;11;1521716904.8448064;-
Waiting;41;1521716906.9272969;tchernobyl
Running;2;1521716906.927381;tchernobyl
Resources;11;1521716921.3443618;-
Waiting;41;1521716922.4147599;tchernobyl
Running;2;1521716922.4148467;tchernobyl
Resources;11;1521716936.503139;-
Waiting;41;1521716938.5878747;tchernobyl
Running;2;1521716938.5879653;tchernobyl
Resources;11;1521716952.651737;-
Waiting;40;1521716954.7235098;tchernobyl
Running;2;1521716954.7235932;tchernobyl
Resources;0;1521716968.42749;-
Waiting;33;1521716971.5176694;tchernobyl
Running;5;1521716971.5177534;tchernobyl
Resources;2;1521716985.4156027;-
Waiting;29;1521716987.4576545;tchernobyl
Running;11;1521716987.4577441;tchernobyl
Resources;2;1521717000.9186444;-
Action;2;1521717001.037882;tchernobyl
Waiting;31;1521717006.363274;tchernobyl
Running;4;1521717006.3633704;tchernobyl
Resources;2;1521717021.198931;-
Waiting;22;1521717022.1786144;tchernobyl
Running;10;1521717022.1786885;tchernobyl
Resources;2;1521717033.5048673;-
Waiting;21;1521717038.423492;tchernobyl
Running;11;1521717038.4235773;tchernobyl
Resources;2;1521717049.3295915;-
Waiting;20;1521717054.1962786;tchernobyl
Running;6;1521717054.1963716;tchernobyl
Resources;2;1521717065.034723;-
Waiting;11;1521717069.8631494;tchernobyl
Running;11;1521717069.863243;tchernobyl
Resources;2;1521717077.3486166;-
Waiting;11;1521717085.1432276;tchernobyl
Running;10;1521717085.143302;tchernobyl
Resources;2;1521717092.5968094;-
Waiting;10;1521717101.2698493;tchernobyl
Running;5;1521717101.2699509;tchernobyl
Resources;2;1521717108.9082043;-
Waiting;1;1521717116.586297;tchernobyl
Running;11;1521717116.5864193;tchernobyl
Resources;0;1521717120.76218;-
Waiting;0;1521717132.3596215;tchernobyl
Running;10;1521717132.3597543;tchernobyl
Resources;0;1521717136.2086349;-
Waiting;0;1521717147.6742806;tchernobyl
Running;1;1521717147.6743605;tchernobyl
Resources;0;1521717151.3918285;-
Waiting;0;1521717162.8289082;tchernobyl
Running;0;1521717162.828971;tchernobyl
Resources;0;1521717163.459742;-
Waiting;0;1521717177.893607;tchernobyl
Running;0;1521717177.8936703;tchernobyl
Resources;0;1521717178.1460142;-
Waiting;0;1521717192.5923402;tchernobyl
Running;0;1521717192.5924306;tchernobyl
Resources;0;1521717192.847305;-
Waiting;0;1521717208.3010135;tchernobyl
Running;1;1521717208.3010857;tchernobyl
Resources;3;1521717208.55413;-
Waiting;0;1521717224.0077548;tchernobyl
Running;1;1521717224.0078228;tchernobyl
Resources;3;1521717224.2628293;-
Waiting;0;1521717239.7155745;tchernobyl
Running;1;1521717239.7156436;tchernobyl
Resources;3;1521717239.9676147;-
Waiting;0;1521717254.4197829;tchernobyl
Running;1;1521717254.4198616;tchernobyl
Resources;3;1521717254.6769037;-
Waiting;0;1521717270.1305897;tchernobyl
Running;1;1521717270.130651;tchernobyl
Resources;3;1521717270.387594;-
Waiting;0;1521717285.8383398;tchernobyl
Running;1;1521717285.8384092;tchernobyl
Resources;3;1521717286.0924354;-
Waiting;0;1521717300.5453727;tchernobyl
Running;1;1521717300.5454369;tchernobyl
Resources;3;1521717300.798867;-
Waiting;0;1521717316.2506835;tchernobyl
Running;1;1521717316.2507598;tchernobyl
Resources;3;1521717316.5042446;-
Waiting;0;1521717331.9805315;tchernobyl
Running;2;1521717331.9806085;tchernobyl
Resources;2;1521717332.2376592;-
Waiting;0;1521717346.6953137;tchernobyl
Running;1;1521717346.69538;tchernobyl
Resources;2;1521717346.9475787;-
Waiting;0;1521717361.3968246;tchernobyl
Running;1;1521717361.3968837;tchernobyl
Resources;2;1521717361.656951;-
Waiting;0;1521717377.1131723;tchernobyl
Running;1;1521717377.1132367;tchernobyl
Resources;2;1521717377.3680665;-
