%!PS-Adobe-3.0 EPSF-3.0
%%Title: estimation_ekf.eps
%%Creator: matplotlib version 2.2.2, http://matplotlib.org/
%%CreationDate: Sun Jun 17 17:32:02 2018
%%Orientation: portrait
%%BoundingBox: 146 318 465 473
%%EndComments
%%BeginProlog
/mpldict 9 dict def
mpldict begin
/m { moveto } bind def
/l { lineto } bind def
/r { rlineto } bind def
/c { curveto } bind def
/cl { closepath } bind def
/box {
m
1 index 0 r
0 exch r
neg 0 r
cl
} bind def
/clipbox {
box
clip
newpath
} bind def
%!PS-Adobe-3.0 Resource-Font
%%Title: DejaVu Sans
%%Copyright: Copyright (c) 2003 by Bitstream, Inc. All Rights Reserved. Copyright (c) 2006 by Tavmjong Bah. All Rights Reserved. DejaVu changes are in public domain 
%%Creator: Converted from TrueType to type 3 by PPR
25 dict begin
/_d{bind def}bind def
/_m{moveto}_d
/_l{lineto}_d
/_cl{closepath eofill}_d
/_c{curveto}_d
/_sc{7 -1 roll{setcachedevice}{pop pop pop pop pop pop}ifelse}_d
/_e{exec}_d
/FontName /DejaVuSans def
/PaintType 0 def
/FontMatrix[.001 0 0 .001 0 0]def
/FontBBox[-1021 -463 1793 1232]def
/FontType 3 def
/Encoding [ /space /zero /two /three /four /six /eight /E /T /W /bracketleft /bracketright /a /c /d /e /g /i /m /n /o /q /s /t /u /uni0302 ] def
/FontInfo 10 dict dup begin
/FamilyName (DejaVu Sans) def
/FullName (DejaVu Sans) def
/Notice (Copyright (c) 2003 by Bitstream, Inc. All Rights Reserved. Copyright (c) 2006 by Tavmjong Bah. All Rights Reserved. DejaVu changes are in public domain ) def
/Weight (Book) def
/Version (Version 2.35) def
/ItalicAngle 0.0 def
/isFixedPitch false def
/UnderlinePosition -130 def
/UnderlineThickness 90 def
end readonly def
/CharStrings 27 dict dup begin
/.notdef 0 def
/space{318 0 0 0 0 0 _sc
}_d
/zero{636 0 66 -13 570 742 _sc
318 664 _m
267 664 229 639 203 589 _c
177 539 165 464 165 364 _c
165 264 177 189 203 139 _c
229 89 267 64 318 64 _c
369 64 407 89 433 139 _c
458 189 471 264 471 364 _c
471 464 458 539 433 589 _c
407 639 369 664 318 664 _c
318 742 _m
399 742 461 709 505 645 _c
548 580 570 486 570 364 _c
570 241 548 147 505 83 _c
461 19 399 -13 318 -13 _c
236 -13 173 19 130 83 _c
87 147 66 241 66 364 _c
66 486 87 580 130 645 _c
173 709 236 742 318 742 _c
_cl}_d
/two{{636 0 73 0 536 742 _sc
192 83 _m
536 83 _l
536 0 _l
73 0 _l
73 83 _l
110 121 161 173 226 239 _c
290 304 331 346 348 365 _c
380 400 402 430 414 455 _c
426 479 433 504 433 528 _c
433 566 419 598 392 622 _c
365 646 330 659 286 659 _c
255 659 222 653 188 643 _c
154 632 117 616 78 594 _c
78 694 _l
118 710 155 722 189 730 _c
223 738 255 742 284 742 _c
}_e{359 742 419 723 464 685 _c
509 647 532 597 532 534 _c
532 504 526 475 515 449 _c
504 422 484 390 454 354 _c
446 344 420 317 376 272 _c
332 227 271 164 192 83 _c
_cl}_e}_d
/three{{636 0 76 -13 556 742 _sc
406 393 _m
453 383 490 362 516 330 _c
542 298 556 258 556 212 _c
556 140 531 84 482 45 _c
432 6 362 -13 271 -13 _c
240 -13 208 -10 176 -4 _c
144 1 110 10 76 22 _c
76 117 _l
103 101 133 89 166 81 _c
198 73 232 69 268 69 _c
330 69 377 81 409 105 _c
441 129 458 165 458 212 _c
458 254 443 288 413 312 _c
383 336 341 349 287 349 _c
}_e{202 349 _l
202 430 _l
291 430 _l
339 430 376 439 402 459 _c
428 478 441 506 441 543 _c
441 580 427 609 401 629 _c
374 649 336 659 287 659 _c
260 659 231 656 200 650 _c
169 644 135 635 98 623 _c
98 711 _l
135 721 170 729 203 734 _c
235 739 266 742 296 742 _c
370 742 429 725 473 691 _c
517 657 539 611 539 553 _c
539 513 527 479 504 451 _c
481 423 448 403 406 393 _c
_cl}_e}_d
/four{636 0 49 0 580 729 _sc
378 643 _m
129 254 _l
378 254 _l
378 643 _l
352 729 _m
476 729 _l
476 254 _l
580 254 _l
580 172 _l
476 172 _l
476 0 _l
378 0 _l
378 172 _l
49 172 _l
49 267 _l
352 729 _l
_cl}_d
/six{{636 0 70 -13 573 742 _sc
330 404 _m
286 404 251 388 225 358 _c
199 328 186 286 186 234 _c
186 181 199 139 225 109 _c
251 79 286 64 330 64 _c
374 64 409 79 435 109 _c
461 139 474 181 474 234 _c
474 286 461 328 435 358 _c
409 388 374 404 330 404 _c
526 713 _m
526 623 _l
501 635 476 644 451 650 _c
425 656 400 659 376 659 _c
310 659 260 637 226 593 _c
}_e{192 549 172 482 168 394 _c
187 422 211 444 240 459 _c
269 474 301 482 336 482 _c
409 482 467 459 509 415 _c
551 371 573 310 573 234 _c
573 159 550 99 506 54 _c
462 9 403 -13 330 -13 _c
246 -13 181 19 137 83 _c
92 147 70 241 70 364 _c
70 479 97 571 152 639 _c
206 707 280 742 372 742 _c
396 742 421 739 447 735 _c
472 730 498 723 526 713 _c
_cl}_e}_d
/eight{{636 0 68 -13 568 742 _sc
318 346 _m
271 346 234 333 207 308 _c
180 283 167 249 167 205 _c
167 161 180 126 207 101 _c
234 76 271 64 318 64 _c
364 64 401 76 428 102 _c
455 127 469 161 469 205 _c
469 249 455 283 429 308 _c
402 333 365 346 318 346 _c
219 388 _m
177 398 144 418 120 447 _c
96 476 85 511 85 553 _c
85 611 105 657 147 691 _c
188 725 245 742 318 742 _c
}_e{390 742 447 725 489 691 _c
530 657 551 611 551 553 _c
551 511 539 476 515 447 _c
491 418 459 398 417 388 _c
464 377 501 355 528 323 _c
554 291 568 251 568 205 _c
568 134 546 80 503 43 _c
459 5 398 -13 318 -13 _c
237 -13 175 5 132 43 _c
89 80 68 134 68 205 _c
68 251 81 291 108 323 _c
134 355 171 377 219 388 _c
183 544 _m
183 506 194 476 218 455 _c
}_e{242 434 275 424 318 424 _c
360 424 393 434 417 455 _c
441 476 453 506 453 544 _c
453 582 441 611 417 632 _c
393 653 360 664 318 664 _c
275 664 242 653 218 632 _c
194 611 183 582 183 544 _c
_cl}_e}_d
/E{632 0 98 0 568 729 _sc
98 729 _m
559 729 _l
559 646 _l
197 646 _l
197 430 _l
544 430 _l
544 347 _l
197 347 _l
197 83 _l
568 83 _l
568 0 _l
98 0 _l
98 729 _l
_cl}_d
/T{611 0 -2 0 614 729 _sc
-2 729 _m
614 729 _l
614 646 _l
355 646 _l
355 0 _l
256 0 _l
256 646 _l
-2 646 _l
-2 729 _l
_cl}_d
/W{989 0 33 0 956 729 _sc
33 729 _m
133 729 _l
286 113 _l
439 729 _l
550 729 _l
703 113 _l
856 729 _l
956 729 _l
773 0 _l
649 0 _l
495 633 _l
340 0 _l
216 0 _l
33 729 _l
_cl}_d
/bracketleft{390 0 86 -131 293 760 _sc
86 760 _m
293 760 _l
293 690 _l
176 690 _l
176 -61 _l
293 -61 _l
293 -131 _l
86 -131 _l
86 760 _l
_cl}_d
/bracketright{390 0 97 -131 304 760 _sc
304 760 _m
304 -131 _l
97 -131 _l
97 -61 _l
214 -61 _l
214 690 _l
97 690 _l
97 760 _l
304 760 _l
_cl}_d
/a{{613 0 60 -13 522 560 _sc
343 275 _m
270 275 220 266 192 250 _c
164 233 150 205 150 165 _c
150 133 160 107 181 89 _c
202 70 231 61 267 61 _c
317 61 357 78 387 114 _c
417 149 432 196 432 255 _c
432 275 _l
343 275 _l
522 312 _m
522 0 _l
432 0 _l
432 83 _l
411 49 385 25 355 10 _c
325 -5 287 -13 243 -13 _c
187 -13 142 2 109 33 _c
76 64 60 106 60 159 _c
}_e{60 220 80 266 122 298 _c
163 329 224 345 306 345 _c
432 345 _l
432 354 _l
432 395 418 427 391 450 _c
364 472 326 484 277 484 _c
245 484 215 480 185 472 _c
155 464 127 453 100 439 _c
100 522 _l
132 534 164 544 195 550 _c
226 556 256 560 286 560 _c
365 560 424 539 463 498 _c
502 457 522 395 522 312 _c
_cl}_e}_d
/c{{550 0 55 -13 488 560 _sc
488 526 _m
488 442 _l
462 456 437 466 411 473 _c
385 480 360 484 334 484 _c
276 484 230 465 198 428 _c
166 391 150 339 150 273 _c
150 206 166 154 198 117 _c
230 80 276 62 334 62 _c
360 62 385 65 411 72 _c
437 79 462 90 488 104 _c
488 21 _l
462 9 436 0 410 -5 _c
383 -10 354 -13 324 -13 _c
242 -13 176 12 128 64 _c
}_e{79 115 55 185 55 273 _c
55 362 79 432 128 483 _c
177 534 244 560 330 560 _c
358 560 385 557 411 551 _c
437 545 463 537 488 526 _c
_cl}_e}_d
/d{{635 0 55 -13 544 760 _sc
454 464 _m
454 760 _l
544 760 _l
544 0 _l
454 0 _l
454 82 _l
435 49 411 25 382 10 _c
353 -5 319 -13 279 -13 _c
213 -13 159 13 117 65 _c
75 117 55 187 55 273 _c
55 359 75 428 117 481 _c
159 533 213 560 279 560 _c
319 560 353 552 382 536 _c
411 520 435 496 454 464 _c
148 273 _m
148 207 161 155 188 117 _c
215 79 253 61 301 61 _c
}_e{348 61 385 79 413 117 _c
440 155 454 207 454 273 _c
454 339 440 390 413 428 _c
385 466 348 485 301 485 _c
253 485 215 466 188 428 _c
161 390 148 339 148 273 _c
_cl}_e}_d
/e{{615 0 55 -13 562 560 _sc
562 296 _m
562 252 _l
149 252 _l
153 190 171 142 205 110 _c
238 78 284 62 344 62 _c
378 62 412 66 444 74 _c
476 82 509 95 541 113 _c
541 28 _l
509 14 476 3 442 -3 _c
408 -9 373 -13 339 -13 _c
251 -13 182 12 131 62 _c
80 112 55 181 55 268 _c
55 357 79 428 127 481 _c
175 533 241 560 323 560 _c
397 560 455 536 498 489 _c
}_e{540 441 562 377 562 296 _c
472 322 _m
471 371 457 410 431 440 _c
404 469 368 484 324 484 _c
274 484 234 469 204 441 _c
174 413 156 373 152 322 _c
472 322 _l
_cl}_e}_d
/g{{635 0 55 -207 544 560 _sc
454 280 _m
454 344 440 395 414 431 _c
387 467 349 485 301 485 _c
253 485 215 467 188 431 _c
161 395 148 344 148 280 _c
148 215 161 165 188 129 _c
215 93 253 75 301 75 _c
349 75 387 93 414 129 _c
440 165 454 215 454 280 _c
544 68 _m
544 -24 523 -93 482 -139 _c
440 -184 377 -207 292 -207 _c
260 -207 231 -204 203 -200 _c
175 -195 147 -188 121 -178 _c
}_e{121 -91 _l
147 -105 173 -115 199 -122 _c
225 -129 251 -133 278 -133 _c
336 -133 380 -117 410 -87 _c
439 -56 454 -10 454 52 _c
454 96 _l
435 64 411 40 382 24 _c
353 8 319 0 279 0 _c
211 0 157 25 116 76 _c
75 127 55 195 55 280 _c
55 364 75 432 116 483 _c
157 534 211 560 279 560 _c
319 560 353 552 382 536 _c
411 520 435 496 454 464 _c
454 547 _l
544 547 _l
}_e{544 68 _l
_cl}_e}_d
/i{278 0 94 0 184 760 _sc
94 547 _m
184 547 _l
184 0 _l
94 0 _l
94 547 _l
94 760 _m
184 760 _l
184 646 _l
94 646 _l
94 760 _l
_cl}_d
/m{{974 0 91 0 889 560 _sc
520 442 _m
542 482 569 511 600 531 _c
631 550 668 560 711 560 _c
767 560 811 540 842 500 _c
873 460 889 403 889 330 _c
889 0 _l
799 0 _l
799 327 _l
799 379 789 418 771 444 _c
752 469 724 482 686 482 _c
639 482 602 466 575 435 _c
548 404 535 362 535 309 _c
535 0 _l
445 0 _l
445 327 _l
445 379 435 418 417 444 _c
398 469 369 482 331 482 _c
}_e{285 482 248 466 221 435 _c
194 404 181 362 181 309 _c
181 0 _l
91 0 _l
91 547 _l
181 547 _l
181 462 _l
201 495 226 520 255 536 _c
283 552 317 560 357 560 _c
397 560 430 550 458 530 _c
486 510 506 480 520 442 _c
_cl}_e}_d
/n{634 0 91 0 549 560 _sc
549 330 _m
549 0 _l
459 0 _l
459 327 _l
459 379 448 417 428 443 _c
408 469 378 482 338 482 _c
289 482 251 466 223 435 _c
195 404 181 362 181 309 _c
181 0 _l
91 0 _l
91 547 _l
181 547 _l
181 462 _l
202 494 227 519 257 535 _c
286 551 320 560 358 560 _c
420 560 468 540 500 501 _c
532 462 549 405 549 330 _c
_cl}_d
/o{612 0 55 -13 557 560 _sc
306 484 _m
258 484 220 465 192 427 _c
164 389 150 338 150 273 _c
150 207 163 156 191 118 _c
219 80 257 62 306 62 _c
354 62 392 80 420 118 _c
448 156 462 207 462 273 _c
462 337 448 389 420 427 _c
392 465 354 484 306 484 _c
306 560 _m
384 560 445 534 490 484 _c
534 433 557 363 557 273 _c
557 183 534 113 490 63 _c
445 12 384 -13 306 -13 _c
227 -13 165 12 121 63 _c
77 113 55 183 55 273 _c
55 363 77 433 121 484 _c
165 534 227 560 306 560 _c
_cl}_d
/q{{635 0 55 -207 544 560 _sc
148 273 _m
148 207 161 155 188 117 _c
215 79 253 61 301 61 _c
348 61 385 79 413 117 _c
440 155 454 207 454 273 _c
454 339 440 390 413 428 _c
385 466 348 485 301 485 _c
253 485 215 466 188 428 _c
161 390 148 339 148 273 _c
454 82 _m
435 49 411 25 382 10 _c
353 -5 319 -13 279 -13 _c
213 -13 159 13 117 65 _c
75 117 55 187 55 273 _c
}_e{55 359 75 428 117 481 _c
159 533 213 560 279 560 _c
319 560 353 552 382 536 _c
411 520 435 496 454 464 _c
454 547 _l
544 547 _l
544 -207 _l
454 -207 _l
454 82 _l
_cl}_e}_d
/s{{521 0 54 -13 472 560 _sc
443 531 _m
443 446 _l
417 458 391 468 364 475 _c
336 481 308 485 279 485 _c
234 485 200 478 178 464 _c
156 450 145 430 145 403 _c
145 382 153 366 169 354 _c
185 342 217 330 265 320 _c
296 313 _l
360 299 405 279 432 255 _c
458 230 472 195 472 151 _c
472 100 452 60 412 31 _c
372 1 316 -13 246 -13 _c
216 -13 186 -10 154 -5 _c
}_e{122 0 89 8 54 20 _c
54 113 _l
87 95 120 82 152 74 _c
184 65 216 61 248 61 _c
290 61 323 68 346 82 _c
368 96 380 117 380 144 _c
380 168 371 187 355 200 _c
339 213 303 226 247 238 _c
216 245 _l
160 257 119 275 95 299 _c
70 323 58 356 58 399 _c
58 450 76 490 112 518 _c
148 546 200 560 268 560 _c
301 560 332 557 362 552 _c
391 547 418 540 443 531 _c
}_e{_cl}_e}_d
/t{392 0 27 0 368 702 _sc
183 702 _m
183 547 _l
368 547 _l
368 477 _l
183 477 _l
183 180 _l
183 135 189 106 201 94 _c
213 81 238 75 276 75 _c
368 75 _l
368 0 _l
276 0 _l
206 0 158 13 132 39 _c
106 65 93 112 93 180 _c
93 477 _l
27 477 _l
27 547 _l
93 547 _l
93 702 _l
183 702 _l
_cl}_d
/u{634 0 85 -13 543 560 _sc
85 216 _m
85 547 _l
175 547 _l
175 219 _l
175 167 185 129 205 103 _c
225 77 255 64 296 64 _c
344 64 383 79 411 110 _c
439 141 453 183 453 237 _c
453 547 _l
543 547 _l
543 0 _l
453 0 _l
453 84 _l
431 50 405 26 377 10 _c
348 -5 315 -13 277 -13 _c
214 -13 166 6 134 45 _c
101 83 85 140 85 216 _c
311 560 _m
311 560 _l
_cl}_d
/uni0302{0 0 -405 560 -93 800 _sc
-285 800 _m
-213 800 _l
-93 616 _l
-161 616 _l
-249 736 _l
-337 616 _l
-405 616 _l
-285 800 _l
-249 560 _m
-249 560 _l
_cl}_d
end readonly def

/BuildGlyph
 {exch begin
 CharStrings exch
 2 copy known not{pop /.notdef}if
 true 3 1 roll get exec
 end}_d

/BuildChar {
 1 index /Encoding get exch get
 1 index /BuildGlyph get exec
}_d

FontName currentdict end definefont pop
%!PS-Adobe-3.0 Resource-Font
%%Title: DejaVu Sans Oblique
%%Copyright: Copyright (c) 2003 by Bitstream, Inc. All Rights Reserved. Copyright (c) 2006 by Tavmjong Bah. All Rights Reserved. DejaVu changes are in public domain 
%%Creator: Converted from TrueType to type 3 by PPR
25 dict begin
/_d{bind def}bind def
/_m{moveto}_d
/_l{lineto}_d
/_cl{closepath eofill}_d
/_c{curveto}_d
/_sc{7 -1 roll{setcachedevice}{pop pop pop pop pop pop}ifelse}_d
/_e{exec}_d
/FontName /DejaVuSans-Oblique def
/PaintType 0 def
/FontMatrix[.001 0 0 .001 0 0]def
/FontBBox[-1016 -350 1659 1068]def
/FontType 3 def
/Encoding [ /k /q ] def
/FontInfo 10 dict dup begin
/FamilyName (DejaVu Sans) def
/FullName (DejaVu Sans Oblique) def
/Notice (Copyright (c) 2003 by Bitstream, Inc. All Rights Reserved. Copyright (c) 2006 by Tavmjong Bah. All Rights Reserved. DejaVu changes are in public domain ) def
/Weight (Oblique) def
/Version (Version 2.35) def
/ItalicAngle -11.0 def
/isFixedPitch false def
/UnderlinePosition -130 def
/UnderlineThickness 90 def
end readonly def
/CharStrings 3 dict dup begin
/.notdef 0 def
/k{579 0 35 0 612 760 _sc
183 760 _m
273 760 _l
187 317 _l
495 547 _l
612 547 _l
268 285 _l
519 0 _l
410 0 _l
177 267 _l
125 0 _l
35 0 _l
183 760 _l
_cl}_d
/q{{635 0 46 -205 597 560 _sc
417 82 _m
393 50 364 27 332 11 _c
299 -5 263 -13 223 -13 _c
167 -13 124 5 93 42 _c
61 79 46 130 46 196 _c
46 248 55 299 75 348 _c
94 397 122 441 158 481 _c
181 506 208 525 239 539 _c
269 553 301 560 335 560 _c
375 560 409 552 435 536 _c
461 520 479 496 491 464 _c
507 546 _l
597 546 _l
451 -205 _l
361 -205 _l
417 82 _l
139 209 _m
}_e{139 161 149 124 169 99 _c
189 73 219 61 257 61 _c
313 61 362 88 402 142 _c
442 196 462 262 462 340 _c
462 386 451 422 431 447 _c
410 472 380 485 342 485 _c
313 485 287 478 263 465 _c
239 451 218 432 200 407 _c
181 380 166 349 155 313 _c
144 277 139 243 139 209 _c
_cl}_e}_d
end readonly def

/BuildGlyph
 {exch begin
 CharStrings exch
 2 copy known not{pop /.notdef}if
 true 3 1 roll get exec
 end}_d

/BuildChar {
 1 index /Encoding get exch get
 1 index /BuildGlyph get exec
}_d

FontName currentdict end definefont pop
end
%%EndProlog
mpldict begin
146.886 318.36 translate
318.228 155.28 0 0 clipbox
gsave
0 0 m
318.228125 0 l
318.228125 155.28 l
0 155.28 l
cl
1.000 setgray
fill
grestore
gsave
24.3875 33.7 m
303.3875 33.7 l
303.3875 144.58 l
24.3875 144.58 l
cl
1.000 setgray
fill
grestore
0.800 setlinewidth
1 setlinejoin
0 setlinecap
[0.8 1.32] 0 setdash
0.690 setgray
gsave
279 110.9 24.39 33.7 clipbox
24.3875 33.7 m
24.3875 144.58 l
stroke
grestore
[] 0 setdash
0.000 setgray
gsave
/o {
gsave
newpath
translate
0.8 setlinewidth
1 setlinejoin
0 setlinecap
0 0 m
0 -3.5 l

gsave
0.000 setgray
fill
grestore
stroke
grestore
} bind def
24.3875 33.7 o
grestore
/DejaVuSans findfont
8.000 scalefont
setfont
gsave
16.746875 20.621875 translate
0.000000 rotate
0.000000 0.000000 m /two glyphshow
5.089844 0.000000 m /zero glyphshow
10.179688 0.000000 m /zero glyphshow
grestore
[0.8 1.32] 0 setdash
0.690 setgray
gsave
279 110.9 24.39 33.7 clipbox
80.1875 33.7 m
80.1875 144.58 l
stroke
grestore
[] 0 setdash
0.000 setgray
gsave
/o {
gsave
newpath
translate
0.8 setlinewidth
1 setlinejoin
0 setlinecap
0 0 m
0 -3.5 l

gsave
0.000 setgray
fill
grestore
stroke
grestore
} bind def
80.1875 33.7 o
grestore
gsave
72.546875 20.621875 translate
0.000000 rotate
0.000000 0.000000 m /two glyphshow
5.089844 0.000000 m /two glyphshow
10.179688 0.000000 m /zero glyphshow
grestore
[0.8 1.32] 0 setdash
0.690 setgray
gsave
279 110.9 24.39 33.7 clipbox
135.9875 33.7 m
135.9875 144.58 l
stroke
grestore
[] 0 setdash
0.000 setgray
gsave
/o {
gsave
newpath
translate
0.8 setlinewidth
1 setlinejoin
0 setlinecap
0 0 m
0 -3.5 l

gsave
0.000 setgray
fill
grestore
stroke
grestore
} bind def
135.988 33.7 o
grestore
gsave
128.346875 20.621875 translate
0.000000 rotate
0.000000 0.000000 m /two glyphshow
5.089844 0.000000 m /four glyphshow
10.179688 0.000000 m /zero glyphshow
grestore
[0.8 1.32] 0 setdash
0.690 setgray
gsave
279 110.9 24.39 33.7 clipbox
191.7875 33.7 m
191.7875 144.58 l
stroke
grestore
[] 0 setdash
0.000 setgray
gsave
/o {
gsave
newpath
translate
0.8 setlinewidth
1 setlinejoin
0 setlinecap
0 0 m
0 -3.5 l

gsave
0.000 setgray
fill
grestore
stroke
grestore
} bind def
191.788 33.7 o
grestore
gsave
184.146875 20.621875 translate
0.000000 rotate
0.000000 0.000000 m /two glyphshow
5.089844 0.000000 m /six glyphshow
10.179688 0.000000 m /zero glyphshow
grestore
[0.8 1.32] 0 setdash
0.690 setgray
gsave
279 110.9 24.39 33.7 clipbox
247.5875 33.7 m
247.5875 144.58 l
stroke
grestore
[] 0 setdash
0.000 setgray
gsave
/o {
gsave
newpath
translate
0.8 setlinewidth
1 setlinejoin
0 setlinecap
0 0 m
0 -3.5 l

gsave
0.000 setgray
fill
grestore
stroke
grestore
} bind def
247.588 33.7 o
grestore
gsave
239.946875 20.621875 translate
0.000000 rotate
0.000000 0.000000 m /two glyphshow
5.089844 0.000000 m /eight glyphshow
10.179688 0.000000 m /zero glyphshow
grestore
[0.8 1.32] 0 setdash
0.690 setgray
gsave
279 110.9 24.39 33.7 clipbox
303.3875 33.7 m
303.3875 144.58 l
stroke
grestore
[] 0 setdash
0.000 setgray
gsave
/o {
gsave
newpath
translate
0.8 setlinewidth
1 setlinejoin
0 setlinecap
0 0 m
0 -3.5 l

gsave
0.000 setgray
fill
grestore
stroke
grestore
} bind def
303.388 33.7 o
grestore
gsave
295.746875 20.621875 translate
0.000000 rotate
0.000000 0.000000 m /three glyphshow
5.089844 0.000000 m /zero glyphshow
10.179688 0.000000 m /zero glyphshow
grestore
gsave
133.215625 8.871875 translate
0.000000 rotate
0.000000 0.000000 m /T glyphshow
4.886719 0.000000 m /i glyphshow
7.109375 0.000000 m /m glyphshow
14.902344 0.000000 m /e glyphshow
19.824219 0.000000 m /space glyphshow
22.367188 0.000000 m /bracketleft glyphshow
25.488281 0.000000 m /s glyphshow
29.656250 0.000000 m /e glyphshow
34.578125 0.000000 m /c glyphshow
38.976562 0.000000 m /o glyphshow
43.871094 0.000000 m /n glyphshow
48.941406 0.000000 m /d glyphshow
54.019531 0.000000 m /s glyphshow
58.187500 0.000000 m /bracketright glyphshow
grestore
[0.8 1.32] 0 setdash
0.690 setgray
gsave
279 110.9 24.39 33.7 clipbox
24.3875 33.7 m
303.3875 33.7 l
stroke
grestore
[] 0 setdash
0.000 setgray
gsave
/o {
gsave
newpath
translate
0.8 setlinewidth
1 setlinejoin
0 setlinecap
0 0 m
-3.5 0 l

gsave
0.000 setgray
fill
grestore
stroke
grestore
} bind def
24.3875 33.7 o
grestore
gsave
7.200000 30.660937 translate
0.000000 rotate
0.000000 0.000000 m /two glyphshow
5.089844 0.000000 m /four glyphshow
grestore
[0.8 1.32] 0 setdash
0.690 setgray
gsave
279 110.9 24.39 33.7 clipbox
24.3875 61.42 m
303.3875 61.42 l
stroke
grestore
[] 0 setdash
0.000 setgray
gsave
/o {
gsave
newpath
translate
0.8 setlinewidth
1 setlinejoin
0 setlinecap
0 0 m
-3.5 0 l

gsave
0.000 setgray
fill
grestore
stroke
grestore
} bind def
24.3875 61.42 o
grestore
gsave
7.200000 58.380937 translate
0.000000 rotate
0.000000 0.000000 m /two glyphshow
5.089844 0.000000 m /six glyphshow
grestore
[0.8 1.32] 0 setdash
0.690 setgray
gsave
279 110.9 24.39 33.7 clipbox
24.3875 89.14 m
303.3875 89.14 l
stroke
grestore
[] 0 setdash
0.000 setgray
gsave
/o {
gsave
newpath
translate
0.8 setlinewidth
1 setlinejoin
0 setlinecap
0 0 m
-3.5 0 l

gsave
0.000 setgray
fill
grestore
stroke
grestore
} bind def
24.3875 89.14 o
grestore
gsave
7.200000 86.100937 translate
0.000000 rotate
0.000000 0.000000 m /two glyphshow
5.089844 0.000000 m /eight glyphshow
grestore
[0.8 1.32] 0 setdash
0.690 setgray
gsave
279 110.9 24.39 33.7 clipbox
24.3875 116.86 m
303.3875 116.86 l
stroke
grestore
[] 0 setdash
0.000 setgray
gsave
/o {
gsave
newpath
translate
0.8 setlinewidth
1 setlinejoin
0 setlinecap
0 0 m
-3.5 0 l

gsave
0.000 setgray
fill
grestore
stroke
grestore
} bind def
24.3875 116.86 o
grestore
gsave
7.200000 113.820937 translate
0.000000 rotate
0.000000 0.000000 m /three glyphshow
5.089844 0.000000 m /zero glyphshow
grestore
[0.8 1.32] 0 setdash
0.690 setgray
gsave
279 110.9 24.39 33.7 clipbox
24.3875 144.58 m
303.3875 144.58 l
stroke
grestore
[] 0 setdash
0.000 setgray
gsave
/o {
gsave
newpath
translate
0.8 setlinewidth
1 setlinejoin
0 setlinecap
0 0 m
-3.5 0 l

gsave
0.000 setgray
fill
grestore
stroke
grestore
} bind def
24.3875 144.58 o
grestore
gsave
7.200000 141.540937 translate
0.000000 rotate
0.000000 0.000000 m /three glyphshow
5.089844 0.000000 m /two glyphshow
grestore
1.500 setlinewidth
2 setlinecap
0.122 0.467 0.706 setrgbcolor
gsave
279 110.9 24.39 33.7 clipbox
24.1085 61.42 m
33.3155 61.42 l
33.5945 75.28 l
45.0335 75.28 l
45.3125 61.42 l
58.9835 61.42 l
59.2625 47.56 l
70.4225 47.56 l
70.7015 61.42 l
79.6295 61.42 l
79.9085 75.28 l
89.1155 75.28 l
89.3945 89.14 l
100.8335 89.14 l
101.1125 75.28 l
114.7835 75.28 l
115.0625 61.42 l
126.2225 61.42 l
126.5015 75.28 l
135.4295 75.28 l
135.7085 89.14 l
144.9155 89.14 l
145.1945 103 l
156.6335 103 l
156.9125 89.14 l
170.5835 89.14 l
170.8625 75.28 l
182.0225 75.28 l
182.3015 89.14 l
191.2295 89.14 l
191.5085 103 l
200.7155 103 l
200.9945 116.86 l
212.4335 116.86 l
212.7125 103 l
226.3835 103 l
226.6625 89.14 l
237.8225 89.14 l
238.1015 103 l
247.0295 103 l
247.3085 116.86 l
256.5155 116.86 l
256.7945 130.72 l
268.2335 130.72 l
268.5125 116.86 l
282.1835 116.86 l
282.4625 103 l
293.6225 103 l
293.9015 116.86 l
302.8295 116.86 l
303.1085 130.72 l
303.3875 130.72 l
303.3875 130.72 l
stroke
grestore
0.839 0.153 0.157 setrgbcolor
gsave
279 110.9 24.39 33.7 clipbox
24.1085 53.980439 m
30.8045 64.041002 l
38.3375 75.295522 l
66.2375 47.514143 l
94.1375 89.151569 l
122.0375 61.3755 l
149.9375 103.01736 l
177.8375 75.244952 l
205.7375 116.889755 l
233.6375 89.119667 l
261.5375 130.766222 l
289.4375 102.9974 l
303.3875 123.749623 l
303.3875 123.749623 l
stroke
grestore
0.800 setlinewidth
0 setlinejoin
[] 0 setdash
0.000 setgray
gsave
24.3875 33.7 m
24.3875 144.58 l
stroke
grestore
gsave
303.3875 33.7 m
303.3875 144.58 l
stroke
grestore
gsave
24.3875 33.7 m
303.3875 33.7 l
stroke
grestore
gsave
24.3875 144.58 m
303.3875 144.58 l
stroke
grestore
1.000 setlinewidth
0 setlinecap
0.800 setgray
gsave
29.9875 111.18 m
125.5875 111.18 l
126.654167 111.18 127.1875 111.713333 127.1875 112.78 c
127.1875 138.98 l
127.1875 140.046667 126.654167 140.58 125.5875 140.58 c
29.9875 140.58 l
28.920833 140.58 28.3875 140.046667 28.3875 138.98 c
28.3875 112.78 l
28.3875 111.713333 28.920833 111.18 29.9875 111.18 c
cl
gsave
1.000 setgray
fill
grestore
stroke
grestore
1.500 setlinewidth
1 setlinejoin
2 setlinecap
[] 0 setdash
0.122 0.467 0.706 setrgbcolor
gsave
31.5875 133.18 m
47.5875 133.18 l
stroke
grestore
0.000 setgray
gsave
53.987500 130.380000 translate
0.000000 rotate
/DejaVuSans findfont
8.0 scalefont
setfont
0.000000 0.921875 moveto
/W glyphshow

7.910156 0.921875 moveto
/a glyphshow

12.812500 0.921875 moveto
/i glyphshow

15.035156 0.921875 moveto
/t glyphshow

18.171875 0.921875 moveto
/i glyphshow

20.394531 0.921875 moveto
/n glyphshow

25.464844 0.921875 moveto
/g glyphshow

30.542969 0.921875 moveto
/space glyphshow

33.085938 0.921875 moveto
/q glyphshow

38.164062 0.921875 moveto
/u glyphshow

43.234375 0.921875 moveto
/e glyphshow

48.156250 0.921875 moveto
/u glyphshow

53.226562 0.921875 moveto
/e glyphshow

58.148438 0.921875 moveto
/space glyphshow

/DejaVuSans-Oblique findfont
8.0 scalefont
setfont
60.691406 0.921875 moveto
/q glyphshow

/DejaVuSans-Oblique findfont
5.6 scalefont
setfont
65.769531 -0.390625 moveto
/k glyphshow


grestore
0.839 0.153 0.157 setrgbcolor
gsave
31.5875 119.18 m
47.5875 119.18 l
stroke
grestore
0.000 setgray
gsave
53.987500 116.380000 translate
0.000000 rotate
/DejaVuSans findfont
8.0 scalefont
setfont
0.000000 0.593750 moveto
/E glyphshow

5.054688 0.593750 moveto
/s glyphshow

9.222656 0.593750 moveto
/t glyphshow

12.359375 0.593750 moveto
/i glyphshow

14.582031 0.593750 moveto
/m glyphshow

22.375000 0.593750 moveto
/a glyphshow

27.277344 0.593750 moveto
/t glyphshow

30.414062 0.593750 moveto
/e glyphshow

35.335938 0.593750 moveto
/d glyphshow

40.414062 0.593750 moveto
/space glyphshow

48.476562 1.593750 moveto
/uni0302 glyphshow

/DejaVuSans-Oblique findfont
8.0 scalefont
setfont
42.957031 0.593750 moveto
/q glyphshow

/DejaVuSans-Oblique findfont
5.6 scalefont
setfont
48.111719 -0.718750 moveto
/k glyphshow


grestore

end
showpage
