%!PS-Adobe-3.0 EPSF-3.0
%%Title: estimation.eps
%%Creator: matplotlib version 2.2.2, http://matplotlib.org/
%%CreationDate: Tue Jun 12 17:52:25 2018
%%Orientation: portrait
%%BoundingBox: 114 262 497 529
%%EndComments
%%BeginProlog
/mpldict 9 dict def
mpldict begin
/m { moveto } bind def
/l { lineto } bind def
/r { rlineto } bind def
/c { curveto } bind def
/cl { closepath } bind def
/box {
m
1 index 0 r
0 exch r
neg 0 r
cl
} bind def
/clipbox {
box
clip
newpath
} bind def
%!PS-Adobe-3.0 Resource-Font
%%Title: DejaVu Sans
%%Copyright: Copyright (c) 2003 by Bitstream, Inc. All Rights Reserved. Copyright (c) 2006 by Tavmjong Bah. All Rights Reserved. DejaVu changes are in public domain 
%%Creator: Converted from TrueType to type 3 by PPR
25 dict begin
/_d{bind def}bind def
/_m{moveto}_d
/_l{lineto}_d
/_cl{closepath eofill}_d
/_c{curveto}_d
/_sc{7 -1 roll{setcachedevice}{pop pop pop pop pop pop}ifelse}_d
/_e{exec}_d
/FontName /DejaVuSans def
/PaintType 0 def
/FontMatrix[.001 0 0 .001 0 0]def
/FontBBox[-1021 -463 1793 1232]def
/FontType 3 def
/Encoding [ /space /period /zero /one /two /three /five /E /T /bracketleft /bracketright /a /c /d /e /i /m /n /o /s /t /uni0302 ] def
/FontInfo 10 dict dup begin
/FamilyName (DejaVu Sans) def
/FullName (DejaVu Sans) def
/Notice (Copyright (c) 2003 by Bitstream, Inc. All Rights Reserved. Copyright (c) 2006 by Tavmjong Bah. All Rights Reserved. DejaVu changes are in public domain ) def
/Weight (Book) def
/Version (Version 2.35) def
/ItalicAngle 0.0 def
/isFixedPitch false def
/UnderlinePosition -130 def
/UnderlineThickness 90 def
end readonly def
/CharStrings 23 dict dup begin
/.notdef 0 def
/space{318 0 0 0 0 0 _sc
}_d
/period{318 0 107 0 210 124 _sc
107 124 _m
210 124 _l
210 0 _l
107 0 _l
107 124 _l
_cl}_d
/zero{636 0 66 -13 570 742 _sc
318 664 _m
267 664 229 639 203 589 _c
177 539 165 464 165 364 _c
165 264 177 189 203 139 _c
229 89 267 64 318 64 _c
369 64 407 89 433 139 _c
458 189 471 264 471 364 _c
471 464 458 539 433 589 _c
407 639 369 664 318 664 _c
318 742 _m
399 742 461 709 505 645 _c
548 580 570 486 570 364 _c
570 241 548 147 505 83 _c
461 19 399 -13 318 -13 _c
236 -13 173 19 130 83 _c
87 147 66 241 66 364 _c
66 486 87 580 130 645 _c
173 709 236 742 318 742 _c
_cl}_d
/one{636 0 110 0 544 729 _sc
124 83 _m
285 83 _l
285 639 _l
110 604 _l
110 694 _l
284 729 _l
383 729 _l
383 83 _l
544 83 _l
544 0 _l
124 0 _l
124 83 _l
_cl}_d
/two{{636 0 73 0 536 742 _sc
192 83 _m
536 83 _l
536 0 _l
73 0 _l
73 83 _l
110 121 161 173 226 239 _c
290 304 331 346 348 365 _c
380 400 402 430 414 455 _c
426 479 433 504 433 528 _c
433 566 419 598 392 622 _c
365 646 330 659 286 659 _c
255 659 222 653 188 643 _c
154 632 117 616 78 594 _c
78 694 _l
118 710 155 722 189 730 _c
223 738 255 742 284 742 _c
}_e{359 742 419 723 464 685 _c
509 647 532 597 532 534 _c
532 504 526 475 515 449 _c
504 422 484 390 454 354 _c
446 344 420 317 376 272 _c
332 227 271 164 192 83 _c
_cl}_e}_d
/three{{636 0 76 -13 556 742 _sc
406 393 _m
453 383 490 362 516 330 _c
542 298 556 258 556 212 _c
556 140 531 84 482 45 _c
432 6 362 -13 271 -13 _c
240 -13 208 -10 176 -4 _c
144 1 110 10 76 22 _c
76 117 _l
103 101 133 89 166 81 _c
198 73 232 69 268 69 _c
330 69 377 81 409 105 _c
441 129 458 165 458 212 _c
458 254 443 288 413 312 _c
383 336 341 349 287 349 _c
}_e{202 349 _l
202 430 _l
291 430 _l
339 430 376 439 402 459 _c
428 478 441 506 441 543 _c
441 580 427 609 401 629 _c
374 649 336 659 287 659 _c
260 659 231 656 200 650 _c
169 644 135 635 98 623 _c
98 711 _l
135 721 170 729 203 734 _c
235 739 266 742 296 742 _c
370 742 429 725 473 691 _c
517 657 539 611 539 553 _c
539 513 527 479 504 451 _c
481 423 448 403 406 393 _c
_cl}_e}_d
/five{{636 0 77 -13 549 729 _sc
108 729 _m
495 729 _l
495 646 _l
198 646 _l
198 467 _l
212 472 227 476 241 478 _c
255 480 270 482 284 482 _c
365 482 429 459 477 415 _c
525 370 549 310 549 234 _c
549 155 524 94 475 51 _c
426 8 357 -13 269 -13 _c
238 -13 207 -10 175 -6 _c
143 -1 111 6 77 17 _c
77 116 _l
106 100 136 88 168 80 _c
199 72 232 69 267 69 _c
}_e{323 69 368 83 401 113 _c
433 143 450 183 450 234 _c
450 284 433 324 401 354 _c
368 384 323 399 267 399 _c
241 399 214 396 188 390 _c
162 384 135 375 108 363 _c
108 729 _l
_cl}_e}_d
/E{632 0 98 0 568 729 _sc
98 729 _m
559 729 _l
559 646 _l
197 646 _l
197 430 _l
544 430 _l
544 347 _l
197 347 _l
197 83 _l
568 83 _l
568 0 _l
98 0 _l
98 729 _l
_cl}_d
/T{611 0 -2 0 614 729 _sc
-2 729 _m
614 729 _l
614 646 _l
355 646 _l
355 0 _l
256 0 _l
256 646 _l
-2 646 _l
-2 729 _l
_cl}_d
/bracketleft{390 0 86 -131 293 760 _sc
86 760 _m
293 760 _l
293 690 _l
176 690 _l
176 -61 _l
293 -61 _l
293 -131 _l
86 -131 _l
86 760 _l
_cl}_d
/bracketright{390 0 97 -131 304 760 _sc
304 760 _m
304 -131 _l
97 -131 _l
97 -61 _l
214 -61 _l
214 690 _l
97 690 _l
97 760 _l
304 760 _l
_cl}_d
/a{{613 0 60 -13 522 560 _sc
343 275 _m
270 275 220 266 192 250 _c
164 233 150 205 150 165 _c
150 133 160 107 181 89 _c
202 70 231 61 267 61 _c
317 61 357 78 387 114 _c
417 149 432 196 432 255 _c
432 275 _l
343 275 _l
522 312 _m
522 0 _l
432 0 _l
432 83 _l
411 49 385 25 355 10 _c
325 -5 287 -13 243 -13 _c
187 -13 142 2 109 33 _c
76 64 60 106 60 159 _c
}_e{60 220 80 266 122 298 _c
163 329 224 345 306 345 _c
432 345 _l
432 354 _l
432 395 418 427 391 450 _c
364 472 326 484 277 484 _c
245 484 215 480 185 472 _c
155 464 127 453 100 439 _c
100 522 _l
132 534 164 544 195 550 _c
226 556 256 560 286 560 _c
365 560 424 539 463 498 _c
502 457 522 395 522 312 _c
_cl}_e}_d
/c{{550 0 55 -13 488 560 _sc
488 526 _m
488 442 _l
462 456 437 466 411 473 _c
385 480 360 484 334 484 _c
276 484 230 465 198 428 _c
166 391 150 339 150 273 _c
150 206 166 154 198 117 _c
230 80 276 62 334 62 _c
360 62 385 65 411 72 _c
437 79 462 90 488 104 _c
488 21 _l
462 9 436 0 410 -5 _c
383 -10 354 -13 324 -13 _c
242 -13 176 12 128 64 _c
}_e{79 115 55 185 55 273 _c
55 362 79 432 128 483 _c
177 534 244 560 330 560 _c
358 560 385 557 411 551 _c
437 545 463 537 488 526 _c
_cl}_e}_d
/d{{635 0 55 -13 544 760 _sc
454 464 _m
454 760 _l
544 760 _l
544 0 _l
454 0 _l
454 82 _l
435 49 411 25 382 10 _c
353 -5 319 -13 279 -13 _c
213 -13 159 13 117 65 _c
75 117 55 187 55 273 _c
55 359 75 428 117 481 _c
159 533 213 560 279 560 _c
319 560 353 552 382 536 _c
411 520 435 496 454 464 _c
148 273 _m
148 207 161 155 188 117 _c
215 79 253 61 301 61 _c
}_e{348 61 385 79 413 117 _c
440 155 454 207 454 273 _c
454 339 440 390 413 428 _c
385 466 348 485 301 485 _c
253 485 215 466 188 428 _c
161 390 148 339 148 273 _c
_cl}_e}_d
/e{{615 0 55 -13 562 560 _sc
562 296 _m
562 252 _l
149 252 _l
153 190 171 142 205 110 _c
238 78 284 62 344 62 _c
378 62 412 66 444 74 _c
476 82 509 95 541 113 _c
541 28 _l
509 14 476 3 442 -3 _c
408 -9 373 -13 339 -13 _c
251 -13 182 12 131 62 _c
80 112 55 181 55 268 _c
55 357 79 428 127 481 _c
175 533 241 560 323 560 _c
397 560 455 536 498 489 _c
}_e{540 441 562 377 562 296 _c
472 322 _m
471 371 457 410 431 440 _c
404 469 368 484 324 484 _c
274 484 234 469 204 441 _c
174 413 156 373 152 322 _c
472 322 _l
_cl}_e}_d
/i{278 0 94 0 184 760 _sc
94 547 _m
184 547 _l
184 0 _l
94 0 _l
94 547 _l
94 760 _m
184 760 _l
184 646 _l
94 646 _l
94 760 _l
_cl}_d
/m{{974 0 91 0 889 560 _sc
520 442 _m
542 482 569 511 600 531 _c
631 550 668 560 711 560 _c
767 560 811 540 842 500 _c
873 460 889 403 889 330 _c
889 0 _l
799 0 _l
799 327 _l
799 379 789 418 771 444 _c
752 469 724 482 686 482 _c
639 482 602 466 575 435 _c
548 404 535 362 535 309 _c
535 0 _l
445 0 _l
445 327 _l
445 379 435 418 417 444 _c
398 469 369 482 331 482 _c
}_e{285 482 248 466 221 435 _c
194 404 181 362 181 309 _c
181 0 _l
91 0 _l
91 547 _l
181 547 _l
181 462 _l
201 495 226 520 255 536 _c
283 552 317 560 357 560 _c
397 560 430 550 458 530 _c
486 510 506 480 520 442 _c
_cl}_e}_d
/n{634 0 91 0 549 560 _sc
549 330 _m
549 0 _l
459 0 _l
459 327 _l
459 379 448 417 428 443 _c
408 469 378 482 338 482 _c
289 482 251 466 223 435 _c
195 404 181 362 181 309 _c
181 0 _l
91 0 _l
91 547 _l
181 547 _l
181 462 _l
202 494 227 519 257 535 _c
286 551 320 560 358 560 _c
420 560 468 540 500 501 _c
532 462 549 405 549 330 _c
_cl}_d
/o{612 0 55 -13 557 560 _sc
306 484 _m
258 484 220 465 192 427 _c
164 389 150 338 150 273 _c
150 207 163 156 191 118 _c
219 80 257 62 306 62 _c
354 62 392 80 420 118 _c
448 156 462 207 462 273 _c
462 337 448 389 420 427 _c
392 465 354 484 306 484 _c
306 560 _m
384 560 445 534 490 484 _c
534 433 557 363 557 273 _c
557 183 534 113 490 63 _c
445 12 384 -13 306 -13 _c
227 -13 165 12 121 63 _c
77 113 55 183 55 273 _c
55 363 77 433 121 484 _c
165 534 227 560 306 560 _c
_cl}_d
/s{{521 0 54 -13 472 560 _sc
443 531 _m
443 446 _l
417 458 391 468 364 475 _c
336 481 308 485 279 485 _c
234 485 200 478 178 464 _c
156 450 145 430 145 403 _c
145 382 153 366 169 354 _c
185 342 217 330 265 320 _c
296 313 _l
360 299 405 279 432 255 _c
458 230 472 195 472 151 _c
472 100 452 60 412 31 _c
372 1 316 -13 246 -13 _c
216 -13 186 -10 154 -5 _c
}_e{122 0 89 8 54 20 _c
54 113 _l
87 95 120 82 152 74 _c
184 65 216 61 248 61 _c
290 61 323 68 346 82 _c
368 96 380 117 380 144 _c
380 168 371 187 355 200 _c
339 213 303 226 247 238 _c
216 245 _l
160 257 119 275 95 299 _c
70 323 58 356 58 399 _c
58 450 76 490 112 518 _c
148 546 200 560 268 560 _c
301 560 332 557 362 552 _c
391 547 418 540 443 531 _c
}_e{_cl}_e}_d
/t{392 0 27 0 368 702 _sc
183 702 _m
183 547 _l
368 547 _l
368 477 _l
183 477 _l
183 180 _l
183 135 189 106 201 94 _c
213 81 238 75 276 75 _c
368 75 _l
368 0 _l
276 0 _l
206 0 158 13 132 39 _c
106 65 93 112 93 180 _c
93 477 _l
27 477 _l
27 547 _l
93 547 _l
93 702 _l
183 702 _l
_cl}_d
/uni0302{0 0 -405 560 -93 800 _sc
-285 800 _m
-213 800 _l
-93 616 _l
-161 616 _l
-249 736 _l
-337 616 _l
-405 616 _l
-285 800 _l
-249 560 _m
-249 560 _l
_cl}_d
end readonly def

/BuildGlyph
 {exch begin
 CharStrings exch
 2 copy known not{pop /.notdef}if
 true 3 1 roll get exec
 end}_d

/BuildChar {
 1 index /Encoding get exch get
 1 index /BuildGlyph get exec
}_d

FontName currentdict end definefont pop
%!PS-Adobe-3.0 Resource-Font
%%Title: DejaVu Sans Oblique
%%Copyright: Copyright (c) 2003 by Bitstream, Inc. All Rights Reserved. Copyright (c) 2006 by Tavmjong Bah. All Rights Reserved. DejaVu changes are in public domain 
%%Creator: Converted from TrueType to type 3 by PPR
25 dict begin
/_d{bind def}bind def
/_m{moveto}_d
/_l{lineto}_d
/_cl{closepath eofill}_d
/_c{curveto}_d
/_sc{7 -1 roll{setcachedevice}{pop pop pop pop pop pop}ifelse}_d
/_e{exec}_d
/FontName /DejaVuSans-Oblique def
/PaintType 0 def
/FontMatrix[.001 0 0 .001 0 0]def
/FontBBox[-1016 -350 1659 1068]def
/FontType 3 def
/Encoding [ /i /k /n /p ] def
/FontInfo 10 dict dup begin
/FamilyName (DejaVu Sans) def
/FullName (DejaVu Sans Oblique) def
/Notice (Copyright (c) 2003 by Bitstream, Inc. All Rights Reserved. Copyright (c) 2006 by Tavmjong Bah. All Rights Reserved. DejaVu changes are in public domain ) def
/Weight (Oblique) def
/Version (Version 2.35) def
/ItalicAngle -11.0 def
/isFixedPitch false def
/UnderlinePosition -130 def
/UnderlineThickness 90 def
end readonly def
/CharStrings 5 dict dup begin
/.notdef 0 def
/i{278 0 35 0 273 760 _sc
183 760 _m
273 760 _l
251 646 _l
161 646 _l
183 760 _l
142 547 _m
232 547 _l
125 0 _l
35 0 _l
142 547 _l
_cl}_d
/k{579 0 35 0 612 760 _sc
183 760 _m
273 760 _l
187 317 _l
495 547 _l
612 547 _l
268 285 _l
519 0 _l
410 0 _l
177 267 _l
125 0 _l
35 0 _l
183 760 _l
_cl}_d
/n{{634 0 35 0 566 560 _sc
557 330 _m
493 0 _l
403 0 _l
467 327 _l
469 342 471 355 473 367 _c
475 379 476 388 476 395 _c
476 422 467 443 450 459 _c
432 474 408 482 378 482 _c
330 482 288 466 253 434 _c
218 402 195 358 185 303 _c
125 0 _l
35 0 _l
141 547 _l
231 547 _l
213 461 _l
237 492 267 516 303 534 _c
338 551 375 560 414 560 _c
462 560 499 547 526 521 _c
}_e{552 495 566 458 566 411 _c
566 399 565 387 564 374 _c
562 360 560 346 557 330 _c
_cl}_e}_d
/p{{635 0 -2 -207 589 560 _sc
496 337 _m
496 385 485 421 465 447 _c
444 472 414 485 375 485 _c
348 485 322 478 298 464 _c
274 450 252 431 234 405 _c
215 379 200 347 189 311 _c
178 275 173 239 173 203 _c
173 157 183 122 204 98 _c
224 73 254 61 293 61 _c
321 61 347 67 371 81 _c
395 94 416 113 434 139 _c
452 165 467 197 479 233 _c
490 269 496 304 496 337 _c
218 464 _m
}_e{242 495 270 519 303 535 _c
335 551 372 560 412 560 _c
468 560 511 541 542 505 _c
573 468 589 417 589 351 _c
589 297 579 245 560 196 _c
540 147 513 103 477 65 _c
453 39 425 19 395 6 _c
365 -6 333 -13 300 -13 _c
261 -13 228 -5 202 10 _c
176 26 156 50 143 82 _c
87 -207 _l
-2 -207 _l
144 547 _l
234 547 _l
218 464 _l
_cl}_e}_d
end readonly def

/BuildGlyph
 {exch begin
 CharStrings exch
 2 copy known not{pop /.notdef}if
 true 3 1 roll get exec
 end}_d

/BuildChar {
 1 index /Encoding get exch get
 1 index /BuildGlyph get exec
}_d

FontName currentdict end definefont pop
end
%%EndProlog
mpldict begin
114.689 262.92 translate
382.622 266.16 0 0 clipbox
gsave
0 0 m
382.621875 0 l
382.621875 266.16 l
0 266.16 l
cl
1.000 setgray
fill
grestore
gsave
37.121875 154.66 m
371.921875 154.66 l
371.921875 255.46 l
37.121875 255.46 l
cl
1.000 setgray
fill
grestore
0.800 setlinewidth
1 setlinejoin
0 setlinecap
[0.8 1.32] 0 setdash
0.690 setgray
gsave
334.8 100.8 37.12 154.7 clipbox
37.121875 154.66 m
37.121875 255.46 l
stroke
grestore
[] 0 setdash
0.000 setgray
gsave
/o {
gsave
newpath
translate
0.8 setlinewidth
1 setlinejoin
0 setlinecap
0 0 m
0 -3.5 l

gsave
0.000 setgray
fill
grestore
stroke
grestore
} bind def
37.1219 154.66 o
grestore
/DejaVuSans findfont
8.000 scalefont
setfont
gsave
34.575000 141.581875 translate
0.000000 rotate
0.000000 0.000000 m /zero glyphshow
grestore
[0.8 1.32] 0 setdash
0.690 setgray
gsave
334.8 100.8 37.12 154.7 clipbox
81.174507 154.66 m
81.174507 255.46 l
stroke
grestore
[] 0 setdash
0.000 setgray
gsave
/o {
gsave
newpath
translate
0.8 setlinewidth
1 setlinejoin
0 setlinecap
0 0 m
0 -3.5 l

gsave
0.000 setgray
fill
grestore
stroke
grestore
} bind def
81.1745 154.66 o
grestore
gsave
76.080757 141.581875 translate
0.000000 rotate
0.000000 0.000000 m /five glyphshow
5.089844 0.000000 m /zero glyphshow
grestore
[0.8 1.32] 0 setdash
0.690 setgray
gsave
334.8 100.8 37.12 154.7 clipbox
125.227138 154.66 m
125.227138 255.46 l
stroke
grestore
[] 0 setdash
0.000 setgray
gsave
/o {
gsave
newpath
translate
0.8 setlinewidth
1 setlinejoin
0 setlinecap
0 0 m
0 -3.5 l

gsave
0.000 setgray
fill
grestore
stroke
grestore
} bind def
125.227 154.66 o
grestore
gsave
117.586513 141.581875 translate
0.000000 rotate
0.000000 0.000000 m /one glyphshow
5.089844 0.000000 m /zero glyphshow
10.179688 0.000000 m /zero glyphshow
grestore
[0.8 1.32] 0 setdash
0.690 setgray
gsave
334.8 100.8 37.12 154.7 clipbox
169.27977 154.66 m
169.27977 255.46 l
stroke
grestore
[] 0 setdash
0.000 setgray
gsave
/o {
gsave
newpath
translate
0.8 setlinewidth
1 setlinejoin
0 setlinecap
0 0 m
0 -3.5 l

gsave
0.000 setgray
fill
grestore
stroke
grestore
} bind def
169.28 154.66 o
grestore
gsave
161.639145 141.581875 translate
0.000000 rotate
0.000000 0.000000 m /one glyphshow
5.089844 0.000000 m /five glyphshow
10.179688 0.000000 m /zero glyphshow
grestore
[0.8 1.32] 0 setdash
0.690 setgray
gsave
334.8 100.8 37.12 154.7 clipbox
213.332401 154.66 m
213.332401 255.46 l
stroke
grestore
[] 0 setdash
0.000 setgray
gsave
/o {
gsave
newpath
translate
0.8 setlinewidth
1 setlinejoin
0 setlinecap
0 0 m
0 -3.5 l

gsave
0.000 setgray
fill
grestore
stroke
grestore
} bind def
213.332 154.66 o
grestore
gsave
205.691776 141.581875 translate
0.000000 rotate
0.000000 0.000000 m /two glyphshow
5.089844 0.000000 m /zero glyphshow
10.179688 0.000000 m /zero glyphshow
grestore
[0.8 1.32] 0 setdash
0.690 setgray
gsave
334.8 100.8 37.12 154.7 clipbox
257.385033 154.66 m
257.385033 255.46 l
stroke
grestore
[] 0 setdash
0.000 setgray
gsave
/o {
gsave
newpath
translate
0.8 setlinewidth
1 setlinejoin
0 setlinecap
0 0 m
0 -3.5 l

gsave
0.000 setgray
fill
grestore
stroke
grestore
} bind def
257.385 154.66 o
grestore
gsave
249.744408 141.581875 translate
0.000000 rotate
0.000000 0.000000 m /two glyphshow
5.089844 0.000000 m /five glyphshow
10.179688 0.000000 m /zero glyphshow
grestore
[0.8 1.32] 0 setdash
0.690 setgray
gsave
334.8 100.8 37.12 154.7 clipbox
301.437664 154.66 m
301.437664 255.46 l
stroke
grestore
[] 0 setdash
0.000 setgray
gsave
/o {
gsave
newpath
translate
0.8 setlinewidth
1 setlinejoin
0 setlinecap
0 0 m
0 -3.5 l

gsave
0.000 setgray
fill
grestore
stroke
grestore
} bind def
301.438 154.66 o
grestore
gsave
293.797039 141.581875 translate
0.000000 rotate
0.000000 0.000000 m /three glyphshow
5.089844 0.000000 m /zero glyphshow
10.179688 0.000000 m /zero glyphshow
grestore
[0.8 1.32] 0 setdash
0.690 setgray
gsave
334.8 100.8 37.12 154.7 clipbox
345.490296 154.66 m
345.490296 255.46 l
stroke
grestore
[] 0 setdash
0.000 setgray
gsave
/o {
gsave
newpath
translate
0.8 setlinewidth
1 setlinejoin
0 setlinecap
0 0 m
0 -3.5 l

gsave
0.000 setgray
fill
grestore
stroke
grestore
} bind def
345.49 154.66 o
grestore
gsave
337.849671 141.581875 translate
0.000000 rotate
0.000000 0.000000 m /three glyphshow
5.089844 0.000000 m /five glyphshow
10.179688 0.000000 m /zero glyphshow
grestore
gsave
173.850000 129.831875 translate
0.000000 rotate
0.000000 0.000000 m /T glyphshow
4.886719 0.000000 m /i glyphshow
7.109375 0.000000 m /m glyphshow
14.902344 0.000000 m /e glyphshow
19.824219 0.000000 m /space glyphshow
22.367188 0.000000 m /bracketleft glyphshow
25.488281 0.000000 m /s glyphshow
29.656250 0.000000 m /e glyphshow
34.578125 0.000000 m /c glyphshow
38.976562 0.000000 m /o glyphshow
43.871094 0.000000 m /n glyphshow
48.941406 0.000000 m /d glyphshow
54.019531 0.000000 m /s glyphshow
58.187500 0.000000 m /bracketright glyphshow
grestore
[0.8 1.32] 0 setdash
0.690 setgray
gsave
334.8 100.8 37.12 154.7 clipbox
37.121875 160.926533 m
371.921875 160.926533 l
stroke
grestore
[] 0 setdash
0.000 setgray
gsave
/o {
gsave
newpath
translate
0.8 setlinewidth
1 setlinejoin
0 setlinecap
0 0 m
-3.5 0 l

gsave
0.000 setgray
fill
grestore
stroke
grestore
} bind def
37.1219 160.927 o
grestore
gsave
7.200000 157.887471 translate
0.000000 rotate
0.000000 0.000000 m /zero glyphshow
5.089844 0.000000 m /period glyphshow
7.632812 0.000000 m /zero glyphshow
12.722656 0.000000 m /one glyphshow
17.812500 0.000000 m /zero glyphshow
grestore
[0.8 1.32] 0 setdash
0.690 setgray
gsave
334.8 100.8 37.12 154.7 clipbox
37.121875 189.334075 m
371.921875 189.334075 l
stroke
grestore
[] 0 setdash
0.000 setgray
gsave
/o {
gsave
newpath
translate
0.8 setlinewidth
1 setlinejoin
0 setlinecap
0 0 m
-3.5 0 l

gsave
0.000 setgray
fill
grestore
stroke
grestore
} bind def
37.1219 189.334 o
grestore
gsave
7.200000 186.295013 translate
0.000000 rotate
0.000000 0.000000 m /zero glyphshow
5.089844 0.000000 m /period glyphshow
7.632812 0.000000 m /zero glyphshow
12.722656 0.000000 m /one glyphshow
17.812500 0.000000 m /five glyphshow
grestore
[0.8 1.32] 0 setdash
0.690 setgray
gsave
334.8 100.8 37.12 154.7 clipbox
37.121875 217.741618 m
371.921875 217.741618 l
stroke
grestore
[] 0 setdash
0.000 setgray
gsave
/o {
gsave
newpath
translate
0.8 setlinewidth
1 setlinejoin
0 setlinecap
0 0 m
-3.5 0 l

gsave
0.000 setgray
fill
grestore
stroke
grestore
} bind def
37.1219 217.742 o
grestore
gsave
7.200000 214.702555 translate
0.000000 rotate
0.000000 0.000000 m /zero glyphshow
5.089844 0.000000 m /period glyphshow
7.632812 0.000000 m /zero glyphshow
12.722656 0.000000 m /two glyphshow
17.812500 0.000000 m /zero glyphshow
grestore
[0.8 1.32] 0 setdash
0.690 setgray
gsave
334.8 100.8 37.12 154.7 clipbox
37.121875 246.14916 m
371.921875 246.14916 l
stroke
grestore
[] 0 setdash
0.000 setgray
gsave
/o {
gsave
newpath
translate
0.8 setlinewidth
1 setlinejoin
0 setlinecap
0 0 m
-3.5 0 l

gsave
0.000 setgray
fill
grestore
stroke
grestore
} bind def
37.1219 246.149 o
grestore
gsave
7.200000 243.110098 translate
0.000000 rotate
0.000000 0.000000 m /zero glyphshow
5.089844 0.000000 m /period glyphshow
7.632812 0.000000 m /zero glyphshow
12.722656 0.000000 m /two glyphshow
17.812500 0.000000 m /five glyphshow
grestore
1.500 setlinewidth
2 setlinecap
0.122 0.467 0.706 setrgbcolor
gsave
334.8 100.8 37.12 154.7 clipbox
37.121875 160.926533 m
41.843328 160.926533 l
45.674684 160.925233 l
50.496851 160.926471 l
55.212386 160.926866 l
58.912477 160.927057 l
63.861085 160.928619 l
68.082883 161.347856 l
72.341643 159.982933 l
78.957801 160.011098 l
83.870202 159.241818 l
89.993489 159.535547 l
97.284255 171.403076 l
103.951054 181.008892 l
109.612238 192.882647 l
117.160156 191.91486 l
122.151272 197.780876 l
128.613927 196.344817 l
133.226466 199.865917 l
139.590521 208.576626 l
145.986071 221.148642 l
152.036052 218.946177 l
157.058109 214.182662 l
162.984148 218.035704 l
170.230761 223.326404 l
176.559887 228.264982 l
184.092936 226.899887 l
190.436615 233.230806 l
195.811075 234.074683 l
201.141579 237.328942 l
208.410272 233.800666 l
214.814091 235.310738 l
221.084329 238.101083 l
226.436864 242.240131 l
231.561643 244.004851 l
236.716006 234.723204 l
242.868574 234.341074 l
249.248939 232.291084 l
254.549951 238.000168 l
259.283773 234.998185 l
265.585411 234.743595 l
271.715742 233.046049 l
277.956593 239.170886 l
283.573662 250.878182 l
289.565129 243.336379 l
295.857482 231.340027 l
302.120328 230.515122 l
309.543126 238.986162 l
315.857516 238.867462 l
320.835551 246.117297 l
327.039729 243.368671 l
332.979556 238.440451 l
337.898855 237.746415 l
342.198525 236.570085 l
346.189277 238.405231 l
351.037188 237.086434 l
354.999402 236.280428 l
359.834541 234.286493 l
363.778297 231.43694 l
368.600719 237.598481 l
372.513317 240.414371 l
377.284188 240.591905 l
382.048168 240.708368 l
383.621875 240.724011 l
stroke
grestore
0.800 setlinewidth
0 setlinejoin
[] 0 setdash
0.000 setgray
gsave
37.121875 154.66 m
37.121875 255.46 l
stroke
grestore
gsave
371.921875 154.66 m
371.921875 255.46 l
stroke
grestore
gsave
37.121875 154.66 m
371.921875 154.66 l
stroke
grestore
gsave
37.121875 255.46 m
371.921875 255.46 l
stroke
grestore
1.000 setlinewidth
0 setlinecap
0.800 setgray
gsave
42.721875 235.06 m
119.321875 235.06 l
120.388542 235.06 120.921875 235.593333 120.921875 236.66 c
120.921875 249.86 l
120.921875 250.926667 120.388542 251.46 119.321875 251.46 c
42.721875 251.46 l
41.655208 251.46 41.121875 250.926667 41.121875 249.86 c
41.121875 236.66 l
41.121875 235.593333 41.655208 235.06 42.721875 235.06 c
cl
gsave
1.000 setgray
fill
grestore
stroke
grestore
1.500 setlinewidth
1 setlinejoin
2 setlinecap
[] 0 setdash
0.122 0.467 0.706 setrgbcolor
gsave
44.321875 243.06 m
60.321875 243.06 l
stroke
grestore
0.000 setgray
gsave
66.721875 240.260000 translate
0.000000 rotate
/DejaVuSans findfont
8.0 scalefont
setfont
0.000000 0.593750 moveto
/E glyphshow

5.054688 0.593750 moveto
/s glyphshow

9.222656 0.593750 moveto
/t glyphshow

12.359375 0.593750 moveto
/i glyphshow

14.582031 0.593750 moveto
/m glyphshow

22.375000 0.593750 moveto
/a glyphshow

27.277344 0.593750 moveto
/t glyphshow

30.414062 0.593750 moveto
/i glyphshow

32.636719 0.593750 moveto
/o glyphshow

37.531250 0.593750 moveto
/n glyphshow

42.601562 0.593750 moveto
/space glyphshow

50.664062 1.593750 moveto
/uni0302 glyphshow

/DejaVuSans-Oblique findfont
8.0 scalefont
setfont
45.144531 0.593750 moveto
/p glyphshow


grestore
gsave
37.121875 33.7 m
371.921875 33.7 l
371.921875 134.5 l
37.121875 134.5 l
cl
1.000 setgray
fill
grestore
0.800 setlinewidth
0 setlinecap
[0.8 1.32] 0 setdash
0.690 setgray
gsave
334.8 100.8 37.12 33.7 clipbox
37.121875 33.7 m
37.121875 134.5 l
stroke
grestore
[] 0 setdash
0.000 setgray
gsave
/o {
gsave
newpath
translate
0.8 setlinewidth
1 setlinejoin
0 setlinecap
0 0 m
0 -3.5 l

gsave
0.000 setgray
fill
grestore
stroke
grestore
} bind def
37.1219 33.7 o
grestore
gsave
34.575000 20.621875 translate
0.000000 rotate
0.000000 0.000000 m /zero glyphshow
grestore
[0.8 1.32] 0 setdash
0.690 setgray
gsave
334.8 100.8 37.12 33.7 clipbox
81.174507 33.7 m
81.174507 134.5 l
stroke
grestore
[] 0 setdash
0.000 setgray
gsave
/o {
gsave
newpath
translate
0.8 setlinewidth
1 setlinejoin
0 setlinecap
0 0 m
0 -3.5 l

gsave
0.000 setgray
fill
grestore
stroke
grestore
} bind def
81.1745 33.7 o
grestore
gsave
76.080757 20.621875 translate
0.000000 rotate
0.000000 0.000000 m /five glyphshow
5.089844 0.000000 m /zero glyphshow
grestore
[0.8 1.32] 0 setdash
0.690 setgray
gsave
334.8 100.8 37.12 33.7 clipbox
125.227138 33.7 m
125.227138 134.5 l
stroke
grestore
[] 0 setdash
0.000 setgray
gsave
/o {
gsave
newpath
translate
0.8 setlinewidth
1 setlinejoin
0 setlinecap
0 0 m
0 -3.5 l

gsave
0.000 setgray
fill
grestore
stroke
grestore
} bind def
125.227 33.7 o
grestore
gsave
117.586513 20.621875 translate
0.000000 rotate
0.000000 0.000000 m /one glyphshow
5.089844 0.000000 m /zero glyphshow
10.179688 0.000000 m /zero glyphshow
grestore
[0.8 1.32] 0 setdash
0.690 setgray
gsave
334.8 100.8 37.12 33.7 clipbox
169.27977 33.7 m
169.27977 134.5 l
stroke
grestore
[] 0 setdash
0.000 setgray
gsave
/o {
gsave
newpath
translate
0.8 setlinewidth
1 setlinejoin
0 setlinecap
0 0 m
0 -3.5 l

gsave
0.000 setgray
fill
grestore
stroke
grestore
} bind def
169.28 33.7 o
grestore
gsave
161.639145 20.621875 translate
0.000000 rotate
0.000000 0.000000 m /one glyphshow
5.089844 0.000000 m /five glyphshow
10.179688 0.000000 m /zero glyphshow
grestore
[0.8 1.32] 0 setdash
0.690 setgray
gsave
334.8 100.8 37.12 33.7 clipbox
213.332401 33.7 m
213.332401 134.5 l
stroke
grestore
[] 0 setdash
0.000 setgray
gsave
/o {
gsave
newpath
translate
0.8 setlinewidth
1 setlinejoin
0 setlinecap
0 0 m
0 -3.5 l

gsave
0.000 setgray
fill
grestore
stroke
grestore
} bind def
213.332 33.7 o
grestore
gsave
205.691776 20.621875 translate
0.000000 rotate
0.000000 0.000000 m /two glyphshow
5.089844 0.000000 m /zero glyphshow
10.179688 0.000000 m /zero glyphshow
grestore
[0.8 1.32] 0 setdash
0.690 setgray
gsave
334.8 100.8 37.12 33.7 clipbox
257.385033 33.7 m
257.385033 134.5 l
stroke
grestore
[] 0 setdash
0.000 setgray
gsave
/o {
gsave
newpath
translate
0.8 setlinewidth
1 setlinejoin
0 setlinecap
0 0 m
0 -3.5 l

gsave
0.000 setgray
fill
grestore
stroke
grestore
} bind def
257.385 33.7 o
grestore
gsave
249.744408 20.621875 translate
0.000000 rotate
0.000000 0.000000 m /two glyphshow
5.089844 0.000000 m /five glyphshow
10.179688 0.000000 m /zero glyphshow
grestore
[0.8 1.32] 0 setdash
0.690 setgray
gsave
334.8 100.8 37.12 33.7 clipbox
301.437664 33.7 m
301.437664 134.5 l
stroke
grestore
[] 0 setdash
0.000 setgray
gsave
/o {
gsave
newpath
translate
0.8 setlinewidth
1 setlinejoin
0 setlinecap
0 0 m
0 -3.5 l

gsave
0.000 setgray
fill
grestore
stroke
grestore
} bind def
301.438 33.7 o
grestore
gsave
293.797039 20.621875 translate
0.000000 rotate
0.000000 0.000000 m /three glyphshow
5.089844 0.000000 m /zero glyphshow
10.179688 0.000000 m /zero glyphshow
grestore
[0.8 1.32] 0 setdash
0.690 setgray
gsave
334.8 100.8 37.12 33.7 clipbox
345.490296 33.7 m
345.490296 134.5 l
stroke
grestore
[] 0 setdash
0.000 setgray
gsave
/o {
gsave
newpath
translate
0.8 setlinewidth
1 setlinejoin
0 setlinecap
0 0 m
0 -3.5 l

gsave
0.000 setgray
fill
grestore
stroke
grestore
} bind def
345.49 33.7 o
grestore
gsave
337.849671 20.621875 translate
0.000000 rotate
0.000000 0.000000 m /three glyphshow
5.089844 0.000000 m /five glyphshow
10.179688 0.000000 m /zero glyphshow
grestore
gsave
173.850000 8.871875 translate
0.000000 rotate
0.000000 0.000000 m /T glyphshow
4.886719 0.000000 m /i glyphshow
7.109375 0.000000 m /m glyphshow
14.902344 0.000000 m /e glyphshow
19.824219 0.000000 m /space glyphshow
22.367188 0.000000 m /bracketleft glyphshow
25.488281 0.000000 m /s glyphshow
29.656250 0.000000 m /e glyphshow
34.578125 0.000000 m /c glyphshow
38.976562 0.000000 m /o glyphshow
43.871094 0.000000 m /n glyphshow
48.941406 0.000000 m /d glyphshow
54.019531 0.000000 m /s glyphshow
58.187500 0.000000 m /bracketright glyphshow
grestore
[0.8 1.32] 0 setdash
0.690 setgray
gsave
334.8 100.8 37.12 33.7 clipbox
37.121875 38.281818 m
371.921875 38.281818 l
stroke
grestore
[] 0 setdash
0.000 setgray
gsave
/o {
gsave
newpath
translate
0.8 setlinewidth
1 setlinejoin
0 setlinecap
0 0 m
-3.5 0 l

gsave
0.000 setgray
fill
grestore
stroke
grestore
} bind def
37.1219 38.2818 o
grestore
gsave
12.293750 35.242756 translate
0.000000 rotate
0.000000 0.000000 m /zero glyphshow
5.089844 0.000000 m /period glyphshow
7.632812 0.000000 m /zero glyphshow
12.722656 0.000000 m /zero glyphshow
grestore
[0.8 1.32] 0 setdash
0.690 setgray
gsave
334.8 100.8 37.12 33.7 clipbox
37.121875 59.14098 m
371.921875 59.14098 l
stroke
grestore
[] 0 setdash
0.000 setgray
gsave
/o {
gsave
newpath
translate
0.8 setlinewidth
1 setlinejoin
0 setlinecap
0 0 m
-3.5 0 l

gsave
0.000 setgray
fill
grestore
stroke
grestore
} bind def
37.1219 59.141 o
grestore
gsave
12.293750 56.101917 translate
0.000000 rotate
0.000000 0.000000 m /zero glyphshow
5.089844 0.000000 m /period glyphshow
7.632812 0.000000 m /zero glyphshow
12.722656 0.000000 m /five glyphshow
grestore
[0.8 1.32] 0 setdash
0.690 setgray
gsave
334.8 100.8 37.12 33.7 clipbox
37.121875 80.000141 m
371.921875 80.000141 l
stroke
grestore
[] 0 setdash
0.000 setgray
gsave
/o {
gsave
newpath
translate
0.8 setlinewidth
1 setlinejoin
0 setlinecap
0 0 m
-3.5 0 l

gsave
0.000 setgray
fill
grestore
stroke
grestore
} bind def
37.1219 80.0001 o
grestore
gsave
12.293750 76.961079 translate
0.000000 rotate
0.000000 0.000000 m /zero glyphshow
5.089844 0.000000 m /period glyphshow
7.632812 0.000000 m /one glyphshow
12.722656 0.000000 m /zero glyphshow
grestore
[0.8 1.32] 0 setdash
0.690 setgray
gsave
334.8 100.8 37.12 33.7 clipbox
37.121875 100.859302 m
371.921875 100.859302 l
stroke
grestore
[] 0 setdash
0.000 setgray
gsave
/o {
gsave
newpath
translate
0.8 setlinewidth
1 setlinejoin
0 setlinecap
0 0 m
-3.5 0 l

gsave
0.000 setgray
fill
grestore
stroke
grestore
} bind def
37.1219 100.859 o
grestore
gsave
12.293750 97.820240 translate
0.000000 rotate
0.000000 0.000000 m /zero glyphshow
5.089844 0.000000 m /period glyphshow
7.632812 0.000000 m /one glyphshow
12.722656 0.000000 m /five glyphshow
grestore
[0.8 1.32] 0 setdash
0.690 setgray
gsave
334.8 100.8 37.12 33.7 clipbox
37.121875 121.718464 m
371.921875 121.718464 l
stroke
grestore
[] 0 setdash
0.000 setgray
gsave
/o {
gsave
newpath
translate
0.8 setlinewidth
1 setlinejoin
0 setlinecap
0 0 m
-3.5 0 l

gsave
0.000 setgray
fill
grestore
stroke
grestore
} bind def
37.1219 121.718 o
grestore
gsave
12.293750 118.679401 translate
0.000000 rotate
0.000000 0.000000 m /zero glyphshow
5.089844 0.000000 m /period glyphshow
7.632812 0.000000 m /two glyphshow
12.722656 0.000000 m /zero glyphshow
grestore
1.500 setlinewidth
2 setlinecap
0.122 0.467 0.706 setrgbcolor
gsave
334.8 100.8 37.12 33.7 clipbox
37.121875 121.718464 m
41.843328 121.718464 l
45.674684 121.718497 l
50.496851 120.711638 l
55.212386 120.418318 l
58.912477 120.305847 l
63.861085 106.312666 l
68.082883 105.592196 l
72.341643 97.244617 l
78.957801 96.700943 l
83.870202 96.576773 l
89.993489 94.56263 l
97.284255 93.647705 l
103.951054 93.923553 l
109.612238 94.593164 l
117.160156 94.430075 l
122.151272 94.530409 l
128.613927 94.571848 l
133.226466 94.686434 l
139.590521 94.561703 l
145.986071 95.026308 l
152.036052 94.915191 l
157.058109 94.606735 l
162.984148 94.574616 l
170.230761 94.664418 l
176.559887 94.675286 l
184.092936 94.695195 l
190.436615 94.825476 l
195.811075 94.886062 l
201.141579 95.03621 l
208.410272 95.016655 l
214.814091 94.92096 l
221.084329 94.808782 l
226.436864 94.806695 l
231.561643 94.823379 l
236.716006 94.740766 l
242.868574 94.681491 l
249.248939 94.681664 l
254.549951 94.724799 l
259.283773 94.697067 l
265.585411 94.68783 l
271.715742 94.573951 l
277.956593 94.389229 l
283.573662 94.640851 l
289.565129 94.696136 l
295.857482 94.771968 l
302.120328 94.81181 l
309.543126 94.870541 l
315.857516 94.900008 l
320.835551 94.944064 l
327.039729 94.923408 l
332.979556 94.847156 l
337.898855 94.851139 l
342.198525 94.804924 l
346.189277 94.796391 l
351.037188 94.790237 l
354.999402 94.790734 l
359.834541 94.79199 l
363.778297 94.793512 l
368.600719 94.792359 l
372.513317 94.791449 l
377.284188 94.790845 l
382.048168 94.790453 l
383.621875 94.790414 l
stroke
grestore
1.000 0.498 0.055 setrgbcolor
gsave
334.8 100.8 37.12 33.7 clipbox
37.121875 129.731723 m
41.843328 129.918182 l
45.674684 128.99377 l
50.496851 125.075385 l
55.212386 125.926454 l
58.912477 122.341316 l
63.861085 106.59358 l
68.082883 110.862212 l
72.341643 80.000141 l
78.957801 71.656476 l
83.870202 54.969147 l
89.993489 50.797315 l
97.284255 46.625483 l
103.951054 44.539567 l
109.612238 38.281818 l
117.160156 38.281818 l
122.151272 38.281818 l
128.613927 38.281818 l
133.226466 38.281818 l
139.590521 38.281818 l
145.986071 38.281818 l
152.036052 38.281818 l
157.058109 38.281818 l
162.984148 38.281818 l
170.230761 38.281818 l
176.559887 38.281818 l
184.092936 38.281818 l
190.436615 38.281818 l
195.811075 38.281818 l
201.141579 38.281818 l
208.410272 38.281818 l
214.814091 38.281818 l
221.084329 38.281818 l
226.436864 38.281818 l
231.561643 38.281818 l
236.716006 38.281818 l
242.868574 38.281818 l
249.248939 38.281818 l
254.549951 38.281818 l
259.283773 38.281818 l
265.585411 38.281818 l
271.715742 38.281818 l
277.956593 38.281818 l
283.573662 38.281818 l
289.565129 38.281818 l
295.857482 38.281818 l
302.120328 38.281818 l
309.543126 38.281818 l
315.857516 38.281818 l
320.835551 38.281818 l
327.039729 38.281818 l
332.979556 38.281818 l
337.898855 38.281818 l
342.198525 38.281818 l
346.189277 38.281818 l
351.037188 38.281818 l
354.999402 38.281818 l
359.834541 38.281818 l
363.778297 38.281818 l
368.600719 38.281818 l
372.513317 38.281818 l
377.284188 38.281818 l
382.048168 38.281818 l
383.621875 38.281818 l
stroke
grestore
0.800 setlinewidth
0 setlinejoin
[] 0 setdash
0.000 setgray
gsave
37.121875 33.7 m
37.121875 134.5 l
stroke
grestore
gsave
371.921875 33.7 m
371.921875 134.5 l
stroke
grestore
gsave
37.121875 33.7 m
371.921875 33.7 l
stroke
grestore
gsave
37.121875 134.5 m
371.921875 134.5 l
stroke
grestore
1.000 setlinewidth
0 setlinecap
0.800 setgray
gsave
284.721875 37.7 m
366.321875 37.7 l
367.388542 37.7 367.921875 38.233333 367.921875 39.3 c
367.921875 70.5 l
367.921875 71.566667 367.388542 72.1 366.321875 72.1 c
284.721875 72.1 l
283.655208 72.1 283.121875 71.566667 283.121875 70.5 c
283.121875 39.3 l
283.121875 38.233333 283.655208 37.7 284.721875 37.7 c
cl
gsave
1.000 setgray
fill
grestore
stroke
grestore
1.500 setlinewidth
1 setlinejoin
2 setlinecap
[] 0 setdash
0.122 0.467 0.706 setrgbcolor
gsave
286.321875 62.7 m
302.321875 62.7 l
stroke
grestore
0.000 setgray
gsave
308.721875 59.900000 translate
0.000000 rotate
/DejaVuSans findfont
8.0 scalefont
setfont
0.000000 0.000000 moveto
/E glyphshow

5.054688 0.000000 moveto
/s glyphshow

9.222656 0.000000 moveto
/t glyphshow

12.359375 0.000000 moveto
/i glyphshow

14.582031 0.000000 moveto
/m glyphshow

22.375000 0.000000 moveto
/a glyphshow

27.277344 0.000000 moveto
/t glyphshow

30.414062 0.000000 moveto
/i glyphshow

32.636719 0.000000 moveto
/o glyphshow

37.531250 0.000000 moveto
/n glyphshow

42.601562 0.000000 moveto
/space glyphshow

49.552734 2.593750 moveto
/uni0302 glyphshow

/DejaVuSans-Oblique findfont
8.0 scalefont
setfont
45.144531 0.000000 moveto
/k glyphshow

/DejaVuSans findfont
5.6 scalefont
setfont
49.853906 3.067187 moveto
/one glyphshow

/DejaVuSans-Oblique findfont
5.6 scalefont
setfont
49.853906 -2.187500 moveto
/i glyphshow

51.409766 -2.187500 moveto
/n glyphshow


grestore
1.000 0.498 0.055 setrgbcolor
gsave
286.321875 46.7 m
302.321875 46.7 l
stroke
grestore
0.000 setgray
gsave
308.721875 43.900000 translate
0.000000 rotate
/DejaVuSans findfont
8.0 scalefont
setfont
0.000000 0.000000 moveto
/E glyphshow

5.054688 0.000000 moveto
/s glyphshow

9.222656 0.000000 moveto
/t glyphshow

12.359375 0.000000 moveto
/i glyphshow

14.582031 0.000000 moveto
/m glyphshow

22.375000 0.000000 moveto
/a glyphshow

27.277344 0.000000 moveto
/t glyphshow

30.414062 0.000000 moveto
/i glyphshow

32.636719 0.000000 moveto
/o glyphshow

37.531250 0.000000 moveto
/n glyphshow

42.601562 0.000000 moveto
/space glyphshow

49.552734 2.593750 moveto
/uni0302 glyphshow

/DejaVuSans-Oblique findfont
8.0 scalefont
setfont
45.144531 0.000000 moveto
/k glyphshow

/DejaVuSans findfont
5.6 scalefont
setfont
49.853906 3.067187 moveto
/two glyphshow

/DejaVuSans-Oblique findfont
5.6 scalefont
setfont
49.853906 -2.187500 moveto
/i glyphshow

51.409766 -2.187500 moveto
/n glyphshow


grestore

end
showpage
