%!PS-Adobe-3.0 EPSF-3.0
%%Title: estimation_ekf.eps
%%Creator: matplotlib version 2.2.2, http://matplotlib.org/
%%CreationDate: Tue Jun 12 17:31:18 2018
%%Orientation: portrait
%%BoundingBox: 142 318 469 473
%%EndComments
%%BeginProlog
/mpldict 9 dict def
mpldict begin
/m { moveto } bind def
/l { lineto } bind def
/r { rlineto } bind def
/c { curveto } bind def
/cl { closepath } bind def
/box {
m
1 index 0 r
0 exch r
neg 0 r
cl
} bind def
/clipbox {
box
clip
newpath
} bind def
%!PS-Adobe-3.0 Resource-Font
%%Title: DejaVu Sans
%%Copyright: Copyright (c) 2003 by Bitstream, Inc. All Rights Reserved. Copyright (c) 2006 by Tavmjong Bah. All Rights Reserved. DejaVu changes are in public domain 
%%Creator: Converted from TrueType to type 3 by PPR
25 dict begin
/_d{bind def}bind def
/_m{moveto}_d
/_l{lineto}_d
/_cl{closepath eofill}_d
/_c{curveto}_d
/_sc{7 -1 roll{setcachedevice}{pop pop pop pop pop pop}ifelse}_d
/_e{exec}_d
/FontName /DejaVuSans def
/PaintType 0 def
/FontMatrix[.001 0 0 .001 0 0]def
/FontBBox[-1021 -463 1793 1232]def
/FontType 3 def
/Encoding [ /space /parenleft /parenright /period /zero /one /two /three /five /E /F /K /T /bracketleft /bracketright /a /c /d /e /i /l /m /n /o /r /s /t /u /v /x /uni0302 ] def
/FontInfo 10 dict dup begin
/FamilyName (DejaVu Sans) def
/FullName (DejaVu Sans) def
/Notice (Copyright (c) 2003 by Bitstream, Inc. All Rights Reserved. Copyright (c) 2006 by Tavmjong Bah. All Rights Reserved. DejaVu changes are in public domain ) def
/Weight (Book) def
/Version (Version 2.35) def
/ItalicAngle 0.0 def
/isFixedPitch false def
/UnderlinePosition -130 def
/UnderlineThickness 90 def
end readonly def
/CharStrings 32 dict dup begin
/.notdef 0 def
/space{318 0 0 0 0 0 _sc
}_d
/parenleft{390 0 86 -131 310 759 _sc
310 759 _m
266 683 234 609 213 536 _c
191 463 181 389 181 314 _c
181 238 191 164 213 91 _c
234 17 266 -56 310 -131 _c
232 -131 _l
183 -54 146 20 122 94 _c
98 168 86 241 86 314 _c
86 386 98 459 122 533 _c
146 607 182 682 232 759 _c
310 759 _l
_cl}_d
/parenright{390 0 80 -131 304 759 _sc
80 759 _m
158 759 _l
206 682 243 607 267 533 _c
291 459 304 386 304 314 _c
304 241 291 168 267 94 _c
243 20 206 -54 158 -131 _c
80 -131 _l
123 -56 155 17 177 91 _c
198 164 209 238 209 314 _c
209 389 198 463 177 536 _c
155 609 123 683 80 759 _c
_cl}_d
/period{318 0 107 0 210 124 _sc
107 124 _m
210 124 _l
210 0 _l
107 0 _l
107 124 _l
_cl}_d
/zero{636 0 66 -13 570 742 _sc
318 664 _m
267 664 229 639 203 589 _c
177 539 165 464 165 364 _c
165 264 177 189 203 139 _c
229 89 267 64 318 64 _c
369 64 407 89 433 139 _c
458 189 471 264 471 364 _c
471 464 458 539 433 589 _c
407 639 369 664 318 664 _c
318 742 _m
399 742 461 709 505 645 _c
548 580 570 486 570 364 _c
570 241 548 147 505 83 _c
461 19 399 -13 318 -13 _c
236 -13 173 19 130 83 _c
87 147 66 241 66 364 _c
66 486 87 580 130 645 _c
173 709 236 742 318 742 _c
_cl}_d
/one{636 0 110 0 544 729 _sc
124 83 _m
285 83 _l
285 639 _l
110 604 _l
110 694 _l
284 729 _l
383 729 _l
383 83 _l
544 83 _l
544 0 _l
124 0 _l
124 83 _l
_cl}_d
/two{{636 0 73 0 536 742 _sc
192 83 _m
536 83 _l
536 0 _l
73 0 _l
73 83 _l
110 121 161 173 226 239 _c
290 304 331 346 348 365 _c
380 400 402 430 414 455 _c
426 479 433 504 433 528 _c
433 566 419 598 392 622 _c
365 646 330 659 286 659 _c
255 659 222 653 188 643 _c
154 632 117 616 78 594 _c
78 694 _l
118 710 155 722 189 730 _c
223 738 255 742 284 742 _c
}_e{359 742 419 723 464 685 _c
509 647 532 597 532 534 _c
532 504 526 475 515 449 _c
504 422 484 390 454 354 _c
446 344 420 317 376 272 _c
332 227 271 164 192 83 _c
_cl}_e}_d
/three{{636 0 76 -13 556 742 _sc
406 393 _m
453 383 490 362 516 330 _c
542 298 556 258 556 212 _c
556 140 531 84 482 45 _c
432 6 362 -13 271 -13 _c
240 -13 208 -10 176 -4 _c
144 1 110 10 76 22 _c
76 117 _l
103 101 133 89 166 81 _c
198 73 232 69 268 69 _c
330 69 377 81 409 105 _c
441 129 458 165 458 212 _c
458 254 443 288 413 312 _c
383 336 341 349 287 349 _c
}_e{202 349 _l
202 430 _l
291 430 _l
339 430 376 439 402 459 _c
428 478 441 506 441 543 _c
441 580 427 609 401 629 _c
374 649 336 659 287 659 _c
260 659 231 656 200 650 _c
169 644 135 635 98 623 _c
98 711 _l
135 721 170 729 203 734 _c
235 739 266 742 296 742 _c
370 742 429 725 473 691 _c
517 657 539 611 539 553 _c
539 513 527 479 504 451 _c
481 423 448 403 406 393 _c
_cl}_e}_d
/five{{636 0 77 -13 549 729 _sc
108 729 _m
495 729 _l
495 646 _l
198 646 _l
198 467 _l
212 472 227 476 241 478 _c
255 480 270 482 284 482 _c
365 482 429 459 477 415 _c
525 370 549 310 549 234 _c
549 155 524 94 475 51 _c
426 8 357 -13 269 -13 _c
238 -13 207 -10 175 -6 _c
143 -1 111 6 77 17 _c
77 116 _l
106 100 136 88 168 80 _c
199 72 232 69 267 69 _c
}_e{323 69 368 83 401 113 _c
433 143 450 183 450 234 _c
450 284 433 324 401 354 _c
368 384 323 399 267 399 _c
241 399 214 396 188 390 _c
162 384 135 375 108 363 _c
108 729 _l
_cl}_e}_d
/E{632 0 98 0 568 729 _sc
98 729 _m
559 729 _l
559 646 _l
197 646 _l
197 430 _l
544 430 _l
544 347 _l
197 347 _l
197 83 _l
568 83 _l
568 0 _l
98 0 _l
98 729 _l
_cl}_d
/F{575 0 98 0 517 729 _sc
98 729 _m
517 729 _l
517 646 _l
197 646 _l
197 431 _l
486 431 _l
486 348 _l
197 348 _l
197 0 _l
98 0 _l
98 729 _l
_cl}_d
/K{656 0 98 0 677 729 _sc
98 729 _m
197 729 _l
197 421 _l
524 729 _l
651 729 _l
289 389 _l
677 0 _l
547 0 _l
197 351 _l
197 0 _l
98 0 _l
98 729 _l
_cl}_d
/T{611 0 -2 0 614 729 _sc
-2 729 _m
614 729 _l
614 646 _l
355 646 _l
355 0 _l
256 0 _l
256 646 _l
-2 646 _l
-2 729 _l
_cl}_d
/bracketleft{390 0 86 -131 293 760 _sc
86 760 _m
293 760 _l
293 690 _l
176 690 _l
176 -61 _l
293 -61 _l
293 -131 _l
86 -131 _l
86 760 _l
_cl}_d
/bracketright{390 0 97 -131 304 760 _sc
304 760 _m
304 -131 _l
97 -131 _l
97 -61 _l
214 -61 _l
214 690 _l
97 690 _l
97 760 _l
304 760 _l
_cl}_d
/a{{613 0 60 -13 522 560 _sc
343 275 _m
270 275 220 266 192 250 _c
164 233 150 205 150 165 _c
150 133 160 107 181 89 _c
202 70 231 61 267 61 _c
317 61 357 78 387 114 _c
417 149 432 196 432 255 _c
432 275 _l
343 275 _l
522 312 _m
522 0 _l
432 0 _l
432 83 _l
411 49 385 25 355 10 _c
325 -5 287 -13 243 -13 _c
187 -13 142 2 109 33 _c
76 64 60 106 60 159 _c
}_e{60 220 80 266 122 298 _c
163 329 224 345 306 345 _c
432 345 _l
432 354 _l
432 395 418 427 391 450 _c
364 472 326 484 277 484 _c
245 484 215 480 185 472 _c
155 464 127 453 100 439 _c
100 522 _l
132 534 164 544 195 550 _c
226 556 256 560 286 560 _c
365 560 424 539 463 498 _c
502 457 522 395 522 312 _c
_cl}_e}_d
/c{{550 0 55 -13 488 560 _sc
488 526 _m
488 442 _l
462 456 437 466 411 473 _c
385 480 360 484 334 484 _c
276 484 230 465 198 428 _c
166 391 150 339 150 273 _c
150 206 166 154 198 117 _c
230 80 276 62 334 62 _c
360 62 385 65 411 72 _c
437 79 462 90 488 104 _c
488 21 _l
462 9 436 0 410 -5 _c
383 -10 354 -13 324 -13 _c
242 -13 176 12 128 64 _c
}_e{79 115 55 185 55 273 _c
55 362 79 432 128 483 _c
177 534 244 560 330 560 _c
358 560 385 557 411 551 _c
437 545 463 537 488 526 _c
_cl}_e}_d
/d{{635 0 55 -13 544 760 _sc
454 464 _m
454 760 _l
544 760 _l
544 0 _l
454 0 _l
454 82 _l
435 49 411 25 382 10 _c
353 -5 319 -13 279 -13 _c
213 -13 159 13 117 65 _c
75 117 55 187 55 273 _c
55 359 75 428 117 481 _c
159 533 213 560 279 560 _c
319 560 353 552 382 536 _c
411 520 435 496 454 464 _c
148 273 _m
148 207 161 155 188 117 _c
215 79 253 61 301 61 _c
}_e{348 61 385 79 413 117 _c
440 155 454 207 454 273 _c
454 339 440 390 413 428 _c
385 466 348 485 301 485 _c
253 485 215 466 188 428 _c
161 390 148 339 148 273 _c
_cl}_e}_d
/e{{615 0 55 -13 562 560 _sc
562 296 _m
562 252 _l
149 252 _l
153 190 171 142 205 110 _c
238 78 284 62 344 62 _c
378 62 412 66 444 74 _c
476 82 509 95 541 113 _c
541 28 _l
509 14 476 3 442 -3 _c
408 -9 373 -13 339 -13 _c
251 -13 182 12 131 62 _c
80 112 55 181 55 268 _c
55 357 79 428 127 481 _c
175 533 241 560 323 560 _c
397 560 455 536 498 489 _c
}_e{540 441 562 377 562 296 _c
472 322 _m
471 371 457 410 431 440 _c
404 469 368 484 324 484 _c
274 484 234 469 204 441 _c
174 413 156 373 152 322 _c
472 322 _l
_cl}_e}_d
/i{278 0 94 0 184 760 _sc
94 547 _m
184 547 _l
184 0 _l
94 0 _l
94 547 _l
94 760 _m
184 760 _l
184 646 _l
94 646 _l
94 760 _l
_cl}_d
/l{278 0 94 0 184 760 _sc
94 760 _m
184 760 _l
184 0 _l
94 0 _l
94 760 _l
_cl}_d
/m{{974 0 91 0 889 560 _sc
520 442 _m
542 482 569 511 600 531 _c
631 550 668 560 711 560 _c
767 560 811 540 842 500 _c
873 460 889 403 889 330 _c
889 0 _l
799 0 _l
799 327 _l
799 379 789 418 771 444 _c
752 469 724 482 686 482 _c
639 482 602 466 575 435 _c
548 404 535 362 535 309 _c
535 0 _l
445 0 _l
445 327 _l
445 379 435 418 417 444 _c
398 469 369 482 331 482 _c
}_e{285 482 248 466 221 435 _c
194 404 181 362 181 309 _c
181 0 _l
91 0 _l
91 547 _l
181 547 _l
181 462 _l
201 495 226 520 255 536 _c
283 552 317 560 357 560 _c
397 560 430 550 458 530 _c
486 510 506 480 520 442 _c
_cl}_e}_d
/n{634 0 91 0 549 560 _sc
549 330 _m
549 0 _l
459 0 _l
459 327 _l
459 379 448 417 428 443 _c
408 469 378 482 338 482 _c
289 482 251 466 223 435 _c
195 404 181 362 181 309 _c
181 0 _l
91 0 _l
91 547 _l
181 547 _l
181 462 _l
202 494 227 519 257 535 _c
286 551 320 560 358 560 _c
420 560 468 540 500 501 _c
532 462 549 405 549 330 _c
_cl}_d
/o{612 0 55 -13 557 560 _sc
306 484 _m
258 484 220 465 192 427 _c
164 389 150 338 150 273 _c
150 207 163 156 191 118 _c
219 80 257 62 306 62 _c
354 62 392 80 420 118 _c
448 156 462 207 462 273 _c
462 337 448 389 420 427 _c
392 465 354 484 306 484 _c
306 560 _m
384 560 445 534 490 484 _c
534 433 557 363 557 273 _c
557 183 534 113 490 63 _c
445 12 384 -13 306 -13 _c
227 -13 165 12 121 63 _c
77 113 55 183 55 273 _c
55 363 77 433 121 484 _c
165 534 227 560 306 560 _c
_cl}_d
/r{411 0 91 0 411 560 _sc
411 463 _m
401 469 390 473 378 476 _c
366 478 353 480 339 480 _c
288 480 249 463 222 430 _c
194 397 181 350 181 288 _c
181 0 _l
91 0 _l
91 547 _l
181 547 _l
181 462 _l
199 495 224 520 254 536 _c
284 552 321 560 365 560 _c
371 560 378 559 386 559 _c
393 558 401 557 411 555 _c
411 463 _l
_cl}_d
/s{{521 0 54 -13 472 560 _sc
443 531 _m
443 446 _l
417 458 391 468 364 475 _c
336 481 308 485 279 485 _c
234 485 200 478 178 464 _c
156 450 145 430 145 403 _c
145 382 153 366 169 354 _c
185 342 217 330 265 320 _c
296 313 _l
360 299 405 279 432 255 _c
458 230 472 195 472 151 _c
472 100 452 60 412 31 _c
372 1 316 -13 246 -13 _c
216 -13 186 -10 154 -5 _c
}_e{122 0 89 8 54 20 _c
54 113 _l
87 95 120 82 152 74 _c
184 65 216 61 248 61 _c
290 61 323 68 346 82 _c
368 96 380 117 380 144 _c
380 168 371 187 355 200 _c
339 213 303 226 247 238 _c
216 245 _l
160 257 119 275 95 299 _c
70 323 58 356 58 399 _c
58 450 76 490 112 518 _c
148 546 200 560 268 560 _c
301 560 332 557 362 552 _c
391 547 418 540 443 531 _c
}_e{_cl}_e}_d
/t{392 0 27 0 368 702 _sc
183 702 _m
183 547 _l
368 547 _l
368 477 _l
183 477 _l
183 180 _l
183 135 189 106 201 94 _c
213 81 238 75 276 75 _c
368 75 _l
368 0 _l
276 0 _l
206 0 158 13 132 39 _c
106 65 93 112 93 180 _c
93 477 _l
27 477 _l
27 547 _l
93 547 _l
93 702 _l
183 702 _l
_cl}_d
/u{634 0 85 -13 543 560 _sc
85 216 _m
85 547 _l
175 547 _l
175 219 _l
175 167 185 129 205 103 _c
225 77 255 64 296 64 _c
344 64 383 79 411 110 _c
439 141 453 183 453 237 _c
453 547 _l
543 547 _l
543 0 _l
453 0 _l
453 84 _l
431 50 405 26 377 10 _c
348 -5 315 -13 277 -13 _c
214 -13 166 6 134 45 _c
101 83 85 140 85 216 _c
311 560 _m
311 560 _l
_cl}_d
/v{592 0 30 0 562 547 _sc
30 547 _m
125 547 _l
296 88 _l
467 547 _l
562 547 _l
357 0 _l
235 0 _l
30 547 _l
_cl}_d
/x{592 0 29 0 559 547 _sc
549 547 _m
351 281 _l
559 0 _l
453 0 _l
294 215 _l
135 0 _l
29 0 _l
241 286 _l
47 547 _l
153 547 _l
298 352 _l
443 547 _l
549 547 _l
_cl}_d
/uni0302{0 0 -405 560 -93 800 _sc
-285 800 _m
-213 800 _l
-93 616 _l
-161 616 _l
-249 736 _l
-337 616 _l
-405 616 _l
-285 800 _l
-249 560 _m
-249 560 _l
_cl}_d
end readonly def

/BuildGlyph
 {exch begin
 CharStrings exch
 2 copy known not{pop /.notdef}if
 true 3 1 roll get exec
 end}_d

/BuildChar {
 1 index /Encoding get exch get
 1 index /BuildGlyph get exec
}_d

FontName currentdict end definefont pop
%!PS-Adobe-3.0 Resource-Font
%%Title: DejaVu Sans Oblique
%%Copyright: Copyright (c) 2003 by Bitstream, Inc. All Rights Reserved. Copyright (c) 2006 by Tavmjong Bah. All Rights Reserved. DejaVu changes are in public domain 
%%Creator: Converted from TrueType to type 3 by PPR
25 dict begin
/_d{bind def}bind def
/_m{moveto}_d
/_l{lineto}_d
/_cl{closepath eofill}_d
/_c{curveto}_d
/_sc{7 -1 roll{setcachedevice}{pop pop pop pop pop pop}ifelse}_d
/_e{exec}_d
/FontName /DejaVuSans-Oblique def
/PaintType 0 def
/FontMatrix[.001 0 0 .001 0 0]def
/FontBBox[-1016 -350 1659 1068]def
/FontType 3 def
/Encoding [ /p ] def
/FontInfo 10 dict dup begin
/FamilyName (DejaVu Sans) def
/FullName (DejaVu Sans Oblique) def
/Notice (Copyright (c) 2003 by Bitstream, Inc. All Rights Reserved. Copyright (c) 2006 by Tavmjong Bah. All Rights Reserved. DejaVu changes are in public domain ) def
/Weight (Oblique) def
/Version (Version 2.35) def
/ItalicAngle -11.0 def
/isFixedPitch false def
/UnderlinePosition -130 def
/UnderlineThickness 90 def
end readonly def
/CharStrings 2 dict dup begin
/.notdef 0 def
/p{{635 0 -2 -207 589 560 _sc
496 337 _m
496 385 485 421 465 447 _c
444 472 414 485 375 485 _c
348 485 322 478 298 464 _c
274 450 252 431 234 405 _c
215 379 200 347 189 311 _c
178 275 173 239 173 203 _c
173 157 183 122 204 98 _c
224 73 254 61 293 61 _c
321 61 347 67 371 81 _c
395 94 416 113 434 139 _c
452 165 467 197 479 233 _c
490 269 496 304 496 337 _c
218 464 _m
}_e{242 495 270 519 303 535 _c
335 551 372 560 412 560 _c
468 560 511 541 542 505 _c
573 468 589 417 589 351 _c
589 297 579 245 560 196 _c
540 147 513 103 477 65 _c
453 39 425 19 395 6 _c
365 -6 333 -13 300 -13 _c
261 -13 228 -5 202 10 _c
176 26 156 50 143 82 _c
87 -207 _l
-2 -207 _l
144 547 _l
234 547 _l
218 464 _l
_cl}_e}_d
end readonly def

/BuildGlyph
 {exch begin
 CharStrings exch
 2 copy known not{pop /.notdef}if
 true 3 1 roll get exec
 end}_d

/BuildChar {
 1 index /Encoding get exch get
 1 index /BuildGlyph get exec
}_d

FontName currentdict end definefont pop
end
%%EndProlog
mpldict begin
142.589 318.36 translate
326.822 155.28 0 0 clipbox
gsave
0 0 m
326.821875 0 l
326.821875 155.28 l
0 155.28 l
cl
1.000 setgray
fill
grestore
gsave
37.121875 33.7 m
316.121875 33.7 l
316.121875 144.58 l
37.121875 144.58 l
cl
1.000 setgray
fill
grestore
0.800 setlinewidth
1 setlinejoin
0 setlinecap
[0.8 1.32] 0 setdash
0.690 setgray
gsave
279 110.9 37.12 33.7 clipbox
37.121875 33.7 m
37.121875 144.58 l
stroke
grestore
[] 0 setdash
0.000 setgray
gsave
/o {
gsave
newpath
translate
0.8 setlinewidth
1 setlinejoin
0 setlinecap
0 0 m
0 -3.5 l

gsave
0.000 setgray
fill
grestore
stroke
grestore
} bind def
37.1219 33.7 o
grestore
/DejaVuSans findfont
8.000 scalefont
setfont
gsave
34.575000 20.621875 translate
0.000000 rotate
0.000000 0.000000 m /zero glyphshow
grestore
[0.8 1.32] 0 setdash
0.690 setgray
gsave
279 110.9 37.12 33.7 clipbox
73.832401 33.7 m
73.832401 144.58 l
stroke
grestore
[] 0 setdash
0.000 setgray
gsave
/o {
gsave
newpath
translate
0.8 setlinewidth
1 setlinejoin
0 setlinecap
0 0 m
0 -3.5 l

gsave
0.000 setgray
fill
grestore
stroke
grestore
} bind def
73.8324 33.7 o
grestore
gsave
68.738651 20.621875 translate
0.000000 rotate
0.000000 0.000000 m /five glyphshow
5.089844 0.000000 m /zero glyphshow
grestore
[0.8 1.32] 0 setdash
0.690 setgray
gsave
279 110.9 37.12 33.7 clipbox
110.542928 33.7 m
110.542928 144.58 l
stroke
grestore
[] 0 setdash
0.000 setgray
gsave
/o {
gsave
newpath
translate
0.8 setlinewidth
1 setlinejoin
0 setlinecap
0 0 m
0 -3.5 l

gsave
0.000 setgray
fill
grestore
stroke
grestore
} bind def
110.543 33.7 o
grestore
gsave
102.902303 20.621875 translate
0.000000 rotate
0.000000 0.000000 m /one glyphshow
5.089844 0.000000 m /zero glyphshow
10.179688 0.000000 m /zero glyphshow
grestore
[0.8 1.32] 0 setdash
0.690 setgray
gsave
279 110.9 37.12 33.7 clipbox
147.253454 33.7 m
147.253454 144.58 l
stroke
grestore
[] 0 setdash
0.000 setgray
gsave
/o {
gsave
newpath
translate
0.8 setlinewidth
1 setlinejoin
0 setlinecap
0 0 m
0 -3.5 l

gsave
0.000 setgray
fill
grestore
stroke
grestore
} bind def
147.253 33.7 o
grestore
gsave
139.612829 20.621875 translate
0.000000 rotate
0.000000 0.000000 m /one glyphshow
5.089844 0.000000 m /five glyphshow
10.179688 0.000000 m /zero glyphshow
grestore
[0.8 1.32] 0 setdash
0.690 setgray
gsave
279 110.9 37.12 33.7 clipbox
183.96398 33.7 m
183.96398 144.58 l
stroke
grestore
[] 0 setdash
0.000 setgray
gsave
/o {
gsave
newpath
translate
0.8 setlinewidth
1 setlinejoin
0 setlinecap
0 0 m
0 -3.5 l

gsave
0.000 setgray
fill
grestore
stroke
grestore
} bind def
183.964 33.7 o
grestore
gsave
176.323355 20.621875 translate
0.000000 rotate
0.000000 0.000000 m /two glyphshow
5.089844 0.000000 m /zero glyphshow
10.179688 0.000000 m /zero glyphshow
grestore
[0.8 1.32] 0 setdash
0.690 setgray
gsave
279 110.9 37.12 33.7 clipbox
220.674507 33.7 m
220.674507 144.58 l
stroke
grestore
[] 0 setdash
0.000 setgray
gsave
/o {
gsave
newpath
translate
0.8 setlinewidth
1 setlinejoin
0 setlinecap
0 0 m
0 -3.5 l

gsave
0.000 setgray
fill
grestore
stroke
grestore
} bind def
220.675 33.7 o
grestore
gsave
213.033882 20.621875 translate
0.000000 rotate
0.000000 0.000000 m /two glyphshow
5.089844 0.000000 m /five glyphshow
10.179688 0.000000 m /zero glyphshow
grestore
[0.8 1.32] 0 setdash
0.690 setgray
gsave
279 110.9 37.12 33.7 clipbox
257.385033 33.7 m
257.385033 144.58 l
stroke
grestore
[] 0 setdash
0.000 setgray
gsave
/o {
gsave
newpath
translate
0.8 setlinewidth
1 setlinejoin
0 setlinecap
0 0 m
0 -3.5 l

gsave
0.000 setgray
fill
grestore
stroke
grestore
} bind def
257.385 33.7 o
grestore
gsave
249.744408 20.621875 translate
0.000000 rotate
0.000000 0.000000 m /three glyphshow
5.089844 0.000000 m /zero glyphshow
10.179688 0.000000 m /zero glyphshow
grestore
[0.8 1.32] 0 setdash
0.690 setgray
gsave
279 110.9 37.12 33.7 clipbox
294.095559 33.7 m
294.095559 144.58 l
stroke
grestore
[] 0 setdash
0.000 setgray
gsave
/o {
gsave
newpath
translate
0.8 setlinewidth
1 setlinejoin
0 setlinecap
0 0 m
0 -3.5 l

gsave
0.000 setgray
fill
grestore
stroke
grestore
} bind def
294.096 33.7 o
grestore
gsave
286.454934 20.621875 translate
0.000000 rotate
0.000000 0.000000 m /three glyphshow
5.089844 0.000000 m /five glyphshow
10.179688 0.000000 m /zero glyphshow
grestore
gsave
145.950000 8.871875 translate
0.000000 rotate
0.000000 0.000000 m /T glyphshow
4.886719 0.000000 m /i glyphshow
7.109375 0.000000 m /m glyphshow
14.902344 0.000000 m /e glyphshow
19.824219 0.000000 m /space glyphshow
22.367188 0.000000 m /bracketleft glyphshow
25.488281 0.000000 m /s glyphshow
29.656250 0.000000 m /e glyphshow
34.578125 0.000000 m /c glyphshow
38.976562 0.000000 m /o glyphshow
43.871094 0.000000 m /n glyphshow
48.941406 0.000000 m /d glyphshow
54.019531 0.000000 m /s glyphshow
58.187500 0.000000 m /bracketright glyphshow
grestore
[0.8 1.32] 0 setdash
0.690 setgray
gsave
279 110.9 37.12 33.7 clipbox
37.121875 36.630909 m
316.121875 36.630909 l
stroke
grestore
[] 0 setdash
0.000 setgray
gsave
/o {
gsave
newpath
translate
0.8 setlinewidth
1 setlinejoin
0 setlinecap
0 0 m
-3.5 0 l

gsave
0.000 setgray
fill
grestore
stroke
grestore
} bind def
37.1219 36.6309 o
grestore
gsave
7.200000 33.591847 translate
0.000000 rotate
0.000000 0.000000 m /zero glyphshow
5.089844 0.000000 m /period glyphshow
7.632812 0.000000 m /zero glyphshow
12.722656 0.000000 m /zero glyphshow
17.812500 0.000000 m /zero glyphshow
grestore
[0.8 1.32] 0 setdash
0.690 setgray
gsave
279 110.9 37.12 33.7 clipbox
37.121875 60.602523 m
316.121875 60.602523 l
stroke
grestore
[] 0 setdash
0.000 setgray
gsave
/o {
gsave
newpath
translate
0.8 setlinewidth
1 setlinejoin
0 setlinecap
0 0 m
-3.5 0 l

gsave
0.000 setgray
fill
grestore
stroke
grestore
} bind def
37.1219 60.6025 o
grestore
gsave
7.200000 57.563460 translate
0.000000 rotate
0.000000 0.000000 m /zero glyphshow
5.089844 0.000000 m /period glyphshow
7.632812 0.000000 m /zero glyphshow
12.722656 0.000000 m /zero glyphshow
17.812500 0.000000 m /five glyphshow
grestore
[0.8 1.32] 0 setdash
0.690 setgray
gsave
279 110.9 37.12 33.7 clipbox
37.121875 84.574137 m
316.121875 84.574137 l
stroke
grestore
[] 0 setdash
0.000 setgray
gsave
/o {
gsave
newpath
translate
0.8 setlinewidth
1 setlinejoin
0 setlinecap
0 0 m
-3.5 0 l

gsave
0.000 setgray
fill
grestore
stroke
grestore
} bind def
37.1219 84.5741 o
grestore
gsave
7.200000 81.535074 translate
0.000000 rotate
0.000000 0.000000 m /zero glyphshow
5.089844 0.000000 m /period glyphshow
7.632812 0.000000 m /zero glyphshow
12.722656 0.000000 m /one glyphshow
17.812500 0.000000 m /zero glyphshow
grestore
[0.8 1.32] 0 setdash
0.690 setgray
gsave
279 110.9 37.12 33.7 clipbox
37.121875 108.545751 m
316.121875 108.545751 l
stroke
grestore
[] 0 setdash
0.000 setgray
gsave
/o {
gsave
newpath
translate
0.8 setlinewidth
1 setlinejoin
0 setlinecap
0 0 m
-3.5 0 l

gsave
0.000 setgray
fill
grestore
stroke
grestore
} bind def
37.1219 108.546 o
grestore
gsave
7.200000 105.506688 translate
0.000000 rotate
0.000000 0.000000 m /zero glyphshow
5.089844 0.000000 m /period glyphshow
7.632812 0.000000 m /zero glyphshow
12.722656 0.000000 m /one glyphshow
17.812500 0.000000 m /five glyphshow
grestore
[0.8 1.32] 0 setdash
0.690 setgray
gsave
279 110.9 37.12 33.7 clipbox
37.121875 132.517365 m
316.121875 132.517365 l
stroke
grestore
[] 0 setdash
0.000 setgray
gsave
/o {
gsave
newpath
translate
0.8 setlinewidth
1 setlinejoin
0 setlinecap
0 0 m
-3.5 0 l

gsave
0.000 setgray
fill
grestore
stroke
grestore
} bind def
37.1219 132.517 o
grestore
gsave
7.200000 129.478302 translate
0.000000 rotate
0.000000 0.000000 m /zero glyphshow
5.089844 0.000000 m /period glyphshow
7.632812 0.000000 m /zero glyphshow
12.722656 0.000000 m /two glyphshow
17.812500 0.000000 m /zero glyphshow
grestore
1.500 setlinewidth
[5.55 2.4] 0 setdash
0.502 setgray
gsave
279 110.9 37.12 33.7 clipbox
37.121875 132.517365 m
316.195296 132.517365 l
316.195296 132.517365 l
stroke
grestore
2 setlinecap
[] 0 setdash
0.122 0.467 0.706 setrgbcolor
gsave
279 110.9 37.12 33.7 clipbox
37.121875 41.425232 m
37.195296 41.425232 l
38.370033 52.451281 l
38.443454 38.74 l
38.516875 39.452821 l
40.792928 60.520738 l
40.866349 46.785249 l
40.93977 47.473934 l
43.289243 68.454059 l
43.362664 54.69477 l
43.436086 55.359726 l
45.712138 75.012981 l
45.785559 61.234015 l
45.85898 61.879354 l
48.208454 81.538976 l
48.281875 67.740432 l
48.355296 68.366252 l
50.631349 86.862786 l
50.70477 73.048271 l
50.778191 73.658167 l
53.054243 91.684071 l
53.127664 77.855092 l
53.201086 78.450568 l
55.477138 96.050265 l
55.550559 82.208187 l
55.62398 82.790603 l
57.973454 100.533353 l
58.046875 86.677826 l
58.120296 87.246833 l
60.396349 104.064245 l
60.46977 90.198125 l
60.543191 90.756572 l
62.819243 107.261848 l
62.892664 93.386136 l
62.966086 93.935018 l
65.315559 110.656192 l
65.38898 96.770296 l
65.462401 97.309027 l
67.738454 113.231568 l
67.811875 99.337947 l
67.885296 99.868974 l
70.161349 115.56385 l
70.23477 101.663231 l
70.308191 102.187282 l
72.657664 118.151995 l
72.731086 104.243612 l
72.804507 104.759922 l
75.080559 120.019827 l
75.15398 106.105841 l
75.227401 106.616564 l
77.503454 121.711351 l
77.576875 107.79229 l
77.650296 108.297954 l
79.99977 123.70252 l
80.073191 109.777485 l
80.146612 110.277193 l
82.422664 125.046426 l
82.496086 111.11736 l
82.569507 111.613049 l
84.845559 126.263479 l
84.91898 112.330761 l
84.992401 112.82281 l
87.341875 127.812595 l
87.415296 113.87523 l
87.488717 114.362646 l
89.76477 128.768544 l
89.838191 114.828311 l
89.911612 115.312867 l
92.187664 129.634258 l
92.261086 115.691428 l
92.334507 116.173395 l
94.68398 130.856042 l
94.757401 116.909547 l
94.830822 117.387859 l
97.106875 131.524713 l
97.180296 117.576212 l
97.253717 118.052524 l
99.52977 132.130267 l
99.603191 118.179949 l
99.676612 118.65445 l
102.026086 133.109666 l
102.099507 119.15641 l
102.172928 119.627982 l
104.44898 133.565613 l
104.522401 119.610989 l
104.595822 120.081197 l
106.871875 133.978522 l
106.945296 120.022659 l
107.018717 120.491632 l
109.368191 134.778439 l
109.441612 120.820177 l
109.515033 121.286757 l
111.791086 135.076867 l
111.864507 121.117709 l
111.937928 121.583397 l
114.21398 135.347126 l
114.287401 121.387157 l
114.360822 121.852037 l
116.710296 136.01414 l
116.783717 122.05217 l
116.857138 122.515055 l
119.133191 136.195927 l
119.206612 122.233412 l
119.280033 122.695753 l
121.556086 136.360555 l
121.629507 122.397547 l
121.702928 122.859395 l
124.052401 136.929156 l
124.125822 122.964442 l
124.199243 123.424589 l
126.475296 137.024574 l
126.548717 123.059573 l
126.622138 123.519435 l
128.971612 137.528692 l
129.045033 123.562179 l
129.118454 124.020534 l
131.394507 137.567518 l
131.467928 123.600888 l
131.541349 124.059127 l
133.817401 137.602679 l
133.890822 123.635944 l
133.964243 124.094077 l
136.313717 138.050659 l
136.387138 124.08258 l
136.460559 124.539373 l
138.736612 138.040215 l
138.810033 124.072167 l
138.883454 124.528992 l
141.159507 138.030757 l
141.232928 124.062738 l
141.306349 124.519591 l
143.655822 138.437167 l
143.729243 124.467928 l
143.802664 124.923565 l
146.078717 138.39024 l
146.152138 124.421142 l
146.225559 124.876919 l
148.501612 138.347742 l
148.575033 124.378772 l
148.648454 124.834677 l
150.997928 138.72337 l
151.071349 124.753272 l
151.14477 125.208054 l
153.420822 138.649427 l
153.494243 124.679552 l
153.567664 125.134554 l
155.843717 138.582465 l
155.917138 124.61279 l
155.990559 125.067993 l
158.340033 138.935298 l
158.413454 124.964565 l
158.486875 125.418713 l
160.762928 138.841352 l
160.836349 124.870901 l
160.90977 125.325329 l
163.185822 138.756273 l
163.259243 124.786077 l
163.332664 125.24076 l
165.682138 139.092228 l
165.755559 125.121025 l
165.82898 125.574703 l
168.105033 138.983469 l
168.178454 125.012591 l
168.251875 125.466595 l
170.527928 138.884975 l
170.601349 124.914393 l
170.67477 125.368691 l
173.024243 139.208433 l
173.097664 125.23688 l
173.171086 125.690211 l
175.447138 139.088704 l
175.520559 125.117511 l
175.59398 125.5712 l
177.870033 138.980277 l
177.943454 125.009409 l
178.016875 125.463422 l
180.366349 139.29448 l
180.43977 125.322669 l
180.513191 125.775742 l
182.789243 139.166629 l
182.862664 125.195202 l
182.936086 125.648658 l
185.212138 139.050847 l
185.285559 125.079767 l
185.35898 125.533569 l
187.708454 139.358197 l
187.781875 125.386195 l
187.855296 125.839077 l
190.131349 139.224332 l
190.20477 125.252732 l
190.278191 125.706015 l
192.554243 139.103103 l
192.627664 125.131866 l
192.701086 125.585512 l
195.050559 139.405378 l
195.12398 125.433235 l
195.197401 125.885976 l
197.473454 139.267059 l
197.546875 125.295331 l
197.620296 125.748486 l
199.896349 139.141797 l
199.96977 125.170445 l
200.043191 125.623974 l
202.392664 139.440315 l
202.466086 125.468067 l
202.539507 125.920704 l
204.815559 139.298699 l
204.88898 125.326875 l
204.962401 125.779936 l
207.238454 139.17045 l
207.311875 125.199011 l
207.385296 125.652455 l
209.73477 139.466185 l
209.808191 125.493859 l
209.881612 125.946419 l
212.157664 139.322127 l
212.231086 125.350233 l
212.304507 125.803224 l
214.580559 139.191667 l
214.65398 125.220165 l
214.727401 125.673545 l
217.076875 139.485342 l
217.150296 125.512958 l
217.223717 125.965461 l
219.49977 139.339475 l
219.573191 125.36753 l
219.646612 125.820468 l
221.922664 139.207378 l
221.996086 125.235828 l
222.069507 125.689162 l
224.41898 139.499527 l
224.492401 125.527101 l
224.565822 125.979561 l
226.841875 139.352321 l
226.915296 125.380337 l
226.988717 125.833237 l
229.26477 139.219011 l
229.338191 125.247427 l
229.411612 125.700726 l
231.761086 139.510031 l
231.834507 125.537573 l
231.907928 125.990002 l
234.18398 139.361834 l
234.257401 125.389821 l
234.330822 125.842693 l
236.606875 139.227626 l
236.680296 125.256015 l
236.753717 125.709289 l
239.103191 139.517808 l
239.176612 125.545328 l
239.250033 125.997733 l
241.526086 139.368878 l
241.599507 125.396844 l
241.672928 125.849694 l
243.94898 139.234004 l
244.022401 125.262375 l
244.095822 125.715629 l
246.445296 139.523568 l
246.518717 125.55107 l
246.592138 126.003458 l
248.868191 139.374093 l
248.941612 125.402044 l
249.015033 125.854879 l
251.291086 139.238728 l
251.364507 125.267085 l
251.437928 125.720324 l
253.787401 139.527833 l
253.860822 125.555322 l
253.934243 126.007697 l
256.210296 139.377956 l
256.283717 125.405894 l
256.357138 125.858718 l
258.633191 139.242226 l
258.706612 125.270572 l
258.780033 125.723801 l
261.129507 139.530991 l
261.202928 125.55847 l
261.276349 126.010836 l
263.552401 139.380815 l
263.625822 125.408746 l
263.699243 125.861561 l
265.975296 139.244816 l
266.048717 125.273154 l
266.122138 125.726376 l
268.471612 139.533329 l
268.545033 125.560802 l
268.618454 126.013161 l
270.894507 139.382933 l
270.967928 125.410857 l
271.041349 125.863666 l
273.317401 139.246733 l
273.390822 125.275066 l
273.464243 125.728282 l
275.813717 139.535061 l
275.887138 125.562528 l
275.960559 126.014882 l
278.236612 139.384501 l
278.310033 125.412421 l
278.383454 125.865224 l
280.659507 139.248153 l
280.732928 125.276482 l
280.806349 125.729693 l
283.155822 139.536343 l
283.229243 125.563807 l
283.302664 126.016156 l
285.578717 139.385662 l
285.652138 125.413578 l
285.725559 125.866379 l
288.001612 139.249205 l
288.075033 125.27753 l
288.148454 125.730739 l
290.497928 139.537292 l
290.571349 125.564753 l
290.64477 126.0171 l
292.920822 139.386522 l
292.994243 125.414436 l
293.067664 125.867233 l
295.343717 139.249984 l
295.417138 125.278307 l
295.490559 125.731513 l
297.840033 139.537995 l
297.913454 125.565454 l
297.986875 126.017799 l
300.262928 139.387159 l
300.336349 125.41507 l
300.40977 125.867866 l
302.685822 139.25056 l
302.759243 125.278881 l
302.832664 125.732086 l
305.182138 139.538516 l
305.255559 125.565973 l
305.32898 126.018316 l
307.605033 139.38763 l
307.678454 125.41554 l
307.751875 125.868335 l
310.027928 139.250987 l
310.101349 125.279307 l
310.17477 125.73251 l
312.524243 139.538902 l
312.597664 125.566358 l
312.671086 126.0187 l
314.947138 139.38798 l
315.020559 125.415888 l
315.09398 125.868682 l
316.195296 132.499838 l
316.195296 132.499838 l
stroke
grestore
0.839 0.153 0.157 setrgbcolor
gsave
279 110.9 37.12 33.7 clipbox
37.121875 41.425232 m
39.765033 41.530842 l
41.233454 41.905803 l
42.041086 42.221469 l
42.848717 42.790835 l
44.977928 44.84195 l
46.960296 47.900675 l
47.841349 49.827962 l
48.722401 51.742021 l
49.603454 53.892965 l
52.026349 60.849269 l
57.606349 79.207539 l
58.340559 81.501292 l
59.80898 86.01336 l
60.763454 88.829479 l
62.305296 93.076398 l
63.186349 95.336489 l
64.728191 99.013944 l
65.682664 101.147453 l
67.151086 104.123378 l
68.032138 105.805906 l
69.427138 108.139981 l
70.528454 109.903297 l
71.923454 111.855635 l
72.951349 113.257617 l
74.272928 114.774759 l
75.447664 116.093235 l
76.769243 117.35901 l
77.870559 118.376548 l
79.118717 119.357364 l
80.440296 120.38867 l
81.761875 121.282124 l
82.78977 121.942602 l
84.111349 122.672985 l
85.212664 123.274162 l
86.534243 123.883666 l
87.782401 124.46364 l
89.10398 124.997463 l
90.205296 125.417746 l
91.600296 125.899077 l
92.628191 126.224444 l
94.023191 126.632978 l
95.197928 126.958441 l
96.666349 127.352187 l
97.547401 127.545618 l
99.015822 127.87326 l
100.043717 128.069077 l
101.585559 128.381249 l
102.540033 128.535737 l
104.081875 128.815918 l
104.962928 128.93 l
106.578191 129.19072 l
107.385822 129.271411 l
109.001086 129.499947 l
109.955559 129.592939 l
111.644243 129.825798 l
112.378454 129.862725 l
115.829243 130.186936 l
119.206612 130.503764 l
121.042138 130.618324 l
122.58398 130.701468 l
137.121349 131.456512 l
145.931875 131.782225 l
147.326875 131.791082 l
158.707138 132.07088 l
162.525033 132.138484 l
166.416349 132.199699 l
174.786349 132.325192 l
178.677664 132.365278 l
187.341349 132.470538 l
190.351612 132.498727 l
194.169507 132.515889 l
200.410296 132.565259 l
204.595296 132.606995 l
207.311875 132.621167 l
210.689243 132.619723 l
241.379243 132.738029 l
243.875559 132.743562 l
246.298454 132.743302 l
248.79477 132.750094 l
251.805033 132.730685 l
255.990033 132.748627 l
258.633191 132.751211 l
261.643454 132.735271 l
267.296875 132.726008 l
283.596349 132.726363 l
287.707928 132.731529 l
290.64477 132.728234 l
294.242401 132.706612 l
308.265822 132.691339 l
314.35977 132.687369 l
316.195296 132.675112 l
316.195296 132.675112 l
stroke
grestore
0.800 setlinewidth
0 setlinejoin
[] 0 setdash
0.000 setgray
gsave
37.121875 33.7 m
37.121875 144.58 l
stroke
grestore
gsave
316.121875 33.7 m
316.121875 144.58 l
stroke
grestore
gsave
37.121875 33.7 m
316.121875 33.7 l
stroke
grestore
gsave
37.121875 144.58 m
316.121875 144.58 l
stroke
grestore
1.000 setlinewidth
0 setlinecap
0.800 setgray
gsave
176.921875 37.7 m
310.521875 37.7 l
311.588542 37.7 312.121875 38.233333 312.121875 39.3 c
312.121875 78.578125 l
312.121875 79.644792 311.588542 80.178125 310.521875 80.178125 c
176.921875 80.178125 l
175.855208 80.178125 175.321875 79.644792 175.321875 78.578125 c
175.321875 39.3 l
175.321875 38.233333 175.855208 37.7 176.921875 37.7 c
cl
gsave
1.000 setgray
fill
grestore
stroke
grestore
1.500 setlinewidth
1 setlinejoin
[5.55 2.4] 0 setdash
0.502 setgray
gsave
178.521875 73.7 m
194.521875 73.7 l
stroke
grestore
0.000 setgray
gsave
200.921875 70.900000 translate
0.000000 rotate
/DejaVuSans-Oblique findfont
8.0 scalefont
setfont
0.000000 0.515625 moveto
/p glyphshow


grestore
2 setlinecap
[] 0 setdash
0.122 0.467 0.706 setrgbcolor
gsave
178.521875 59.7 m
194.521875 59.7 l
stroke
grestore
0.000 setgray
gsave
200.921875 56.900000 translate
0.000000 rotate
/DejaVuSans findfont
8.0 scalefont
setfont
5.519531 1.593750 moveto
/uni0302 glyphshow

/DejaVuSans-Oblique findfont
8.0 scalefont
setfont
0.000000 0.593750 moveto
/p glyphshow

/DejaVuSans findfont
8.0 scalefont
setfont
5.078125 0.593750 moveto
/space glyphshow

7.621094 0.593750 moveto
/parenleft glyphshow

10.742188 0.593750 moveto
/r glyphshow

14.031250 0.593750 moveto
/e glyphshow

18.953125 0.593750 moveto
/c glyphshow

23.351562 0.593750 moveto
/u glyphshow

28.421875 0.593750 moveto
/r glyphshow

31.710938 0.593750 moveto
/s glyphshow

35.878906 0.593750 moveto
/i glyphshow

38.101562 0.593750 moveto
/v glyphshow

42.835938 0.593750 moveto
/e glyphshow

47.757812 0.593750 moveto
/space glyphshow

50.300781 0.593750 moveto
/e glyphshow

55.222656 0.593750 moveto
/s glyphshow

59.390625 0.593750 moveto
/t glyphshow

62.527344 0.593750 moveto
/i glyphshow

64.750000 0.593750 moveto
/m glyphshow

72.542969 0.593750 moveto
/a glyphshow

77.445312 0.593750 moveto
/t glyphshow

80.582031 0.593750 moveto
/i glyphshow

82.804688 0.593750 moveto
/o glyphshow

87.699219 0.593750 moveto
/n glyphshow

92.769531 0.593750 moveto
/parenright glyphshow


grestore
0.839 0.153 0.157 setrgbcolor
gsave
178.521875 45.7 m
194.521875 45.7 l
stroke
grestore
0.000 setgray
gsave
200.921875 42.900000 translate
0.000000 rotate
/DejaVuSans findfont
8.0 scalefont
setfont
5.519531 1.593750 moveto
/uni0302 glyphshow

/DejaVuSans-Oblique findfont
8.0 scalefont
setfont
0.000000 0.593750 moveto
/p glyphshow

/DejaVuSans findfont
8.0 scalefont
setfont
5.078125 0.593750 moveto
/space glyphshow

7.621094 0.593750 moveto
/parenleft glyphshow

10.742188 0.593750 moveto
/E glyphshow

15.796875 0.593750 moveto
/x glyphshow

20.531250 0.593750 moveto
/t glyphshow

23.667969 0.593750 moveto
/e glyphshow

28.589844 0.593750 moveto
/n glyphshow

33.660156 0.593750 moveto
/d glyphshow

38.738281 0.593750 moveto
/e glyphshow

43.660156 0.593750 moveto
/d glyphshow

48.738281 0.593750 moveto
/space glyphshow

51.281250 0.593750 moveto
/K glyphshow

56.527344 0.593750 moveto
/a glyphshow

61.429688 0.593750 moveto
/l glyphshow

63.652344 0.593750 moveto
/m glyphshow

71.445312 0.593750 moveto
/a glyphshow

76.347656 0.593750 moveto
/n glyphshow

81.417969 0.593750 moveto
/space glyphshow

83.960938 0.593750 moveto
/F glyphshow

88.562500 0.593750 moveto
/i glyphshow

90.785156 0.593750 moveto
/l glyphshow

93.007812 0.593750 moveto
/t glyphshow

96.144531 0.593750 moveto
/e glyphshow

101.066406 0.593750 moveto
/r glyphshow

104.355469 0.593750 moveto
/parenright glyphshow


grestore

end
showpage
