%!PS-Adobe-3.0 EPSF-3.0
%%Title: test.eps
%%Creator: matplotlib version 2.1.2, http://matplotlib.org/
%%CreationDate: Sat Mar 24 13:43:51 2018
%%Orientation: portrait
%%BoundingBox: 108 259 503 532
%%EndComments
%%BeginProlog
/mpldict 8 dict def
mpldict begin
/m { moveto } bind def
/l { lineto } bind def
/r { rlineto } bind def
/c { curveto } bind def
/cl { closepath } bind def
/box {
m
1 index 0 r
0 exch r
neg 0 r
cl
} bind def
/clipbox {
box
clip
newpath
} bind def
%!PS-Adobe-3.0 Resource-Font
%%Title: DejaVu Sans
%%Copyright: Copyright (c) 2003 by Bitstream, Inc. All Rights Reserved. Copyright (c) 2006 by Tavmjong Bah. All Rights Reserved. DejaVu changes are in public domain 
%%Creator: Converted from TrueType to type 3 by PPR
25 dict begin
/_d{bind def}bind def
/_m{moveto}_d
/_l{lineto}_d
/_cl{closepath eofill}_d
/_c{curveto}_d
/_sc{7 -1 roll{setcachedevice}{pop pop pop pop pop pop}ifelse}_d
/_e{exec}_d
/FontName /DejaVuSans def
/PaintType 0 def
/FontMatrix[.001 0 0 .001 0 0]def
/FontBBox[-1021 -463 1793 1232]def
/FontType 3 def
/Encoding [ /space /zero /one /two /three /four /five /six /F /T /bracketleft /bracketright /c /d /e /i /m /n /o /q /r /s /u /y ] def
/FontInfo 10 dict dup begin
/FamilyName (DejaVu Sans) def
/FullName (DejaVu Sans) def
/Notice (Copyright (c) 2003 by Bitstream, Inc. All Rights Reserved. Copyright (c) 2006 by Tavmjong Bah. All Rights Reserved. DejaVu changes are in public domain ) def
/Weight (Book) def
/Version (Version 2.35) def
/ItalicAngle 0.0 def
/isFixedPitch false def
/UnderlinePosition -130 def
/UnderlineThickness 90 def
end readonly def
/CharStrings 25 dict dup begin
/.notdef 0 def
/space{318 0 0 0 0 0 _sc
}_d
/zero{636 0 66 -13 570 742 _sc
318 664 _m
267 664 229 639 203 589 _c
177 539 165 464 165 364 _c
165 264 177 189 203 139 _c
229 89 267 64 318 64 _c
369 64 407 89 433 139 _c
458 189 471 264 471 364 _c
471 464 458 539 433 589 _c
407 639 369 664 318 664 _c
318 742 _m
399 742 461 709 505 645 _c
548 580 570 486 570 364 _c
570 241 548 147 505 83 _c
461 19 399 -13 318 -13 _c
236 -13 173 19 130 83 _c
87 147 66 241 66 364 _c
66 486 87 580 130 645 _c
173 709 236 742 318 742 _c
_cl}_d
/one{636 0 110 0 544 729 _sc
124 83 _m
285 83 _l
285 639 _l
110 604 _l
110 694 _l
284 729 _l
383 729 _l
383 83 _l
544 83 _l
544 0 _l
124 0 _l
124 83 _l
_cl}_d
/two{{636 0 73 0 536 742 _sc
192 83 _m
536 83 _l
536 0 _l
73 0 _l
73 83 _l
110 121 161 173 226 239 _c
290 304 331 346 348 365 _c
380 400 402 430 414 455 _c
426 479 433 504 433 528 _c
433 566 419 598 392 622 _c
365 646 330 659 286 659 _c
255 659 222 653 188 643 _c
154 632 117 616 78 594 _c
78 694 _l
118 710 155 722 189 730 _c
223 738 255 742 284 742 _c
}_e{359 742 419 723 464 685 _c
509 647 532 597 532 534 _c
532 504 526 475 515 449 _c
504 422 484 390 454 354 _c
446 344 420 317 376 272 _c
332 227 271 164 192 83 _c
_cl}_e}_d
/three{{636 0 76 -13 556 742 _sc
406 393 _m
453 383 490 362 516 330 _c
542 298 556 258 556 212 _c
556 140 531 84 482 45 _c
432 6 362 -13 271 -13 _c
240 -13 208 -10 176 -4 _c
144 1 110 10 76 22 _c
76 117 _l
103 101 133 89 166 81 _c
198 73 232 69 268 69 _c
330 69 377 81 409 105 _c
441 129 458 165 458 212 _c
458 254 443 288 413 312 _c
383 336 341 349 287 349 _c
}_e{202 349 _l
202 430 _l
291 430 _l
339 430 376 439 402 459 _c
428 478 441 506 441 543 _c
441 580 427 609 401 629 _c
374 649 336 659 287 659 _c
260 659 231 656 200 650 _c
169 644 135 635 98 623 _c
98 711 _l
135 721 170 729 203 734 _c
235 739 266 742 296 742 _c
370 742 429 725 473 691 _c
517 657 539 611 539 553 _c
539 513 527 479 504 451 _c
481 423 448 403 406 393 _c
_cl}_e}_d
/four{636 0 49 0 580 729 _sc
378 643 _m
129 254 _l
378 254 _l
378 643 _l
352 729 _m
476 729 _l
476 254 _l
580 254 _l
580 172 _l
476 172 _l
476 0 _l
378 0 _l
378 172 _l
49 172 _l
49 267 _l
352 729 _l
_cl}_d
/five{{636 0 77 -13 549 729 _sc
108 729 _m
495 729 _l
495 646 _l
198 646 _l
198 467 _l
212 472 227 476 241 478 _c
255 480 270 482 284 482 _c
365 482 429 459 477 415 _c
525 370 549 310 549 234 _c
549 155 524 94 475 51 _c
426 8 357 -13 269 -13 _c
238 -13 207 -10 175 -6 _c
143 -1 111 6 77 17 _c
77 116 _l
106 100 136 88 168 80 _c
199 72 232 69 267 69 _c
}_e{323 69 368 83 401 113 _c
433 143 450 183 450 234 _c
450 284 433 324 401 354 _c
368 384 323 399 267 399 _c
241 399 214 396 188 390 _c
162 384 135 375 108 363 _c
108 729 _l
_cl}_e}_d
/six{{636 0 70 -13 573 742 _sc
330 404 _m
286 404 251 388 225 358 _c
199 328 186 286 186 234 _c
186 181 199 139 225 109 _c
251 79 286 64 330 64 _c
374 64 409 79 435 109 _c
461 139 474 181 474 234 _c
474 286 461 328 435 358 _c
409 388 374 404 330 404 _c
526 713 _m
526 623 _l
501 635 476 644 451 650 _c
425 656 400 659 376 659 _c
310 659 260 637 226 593 _c
}_e{192 549 172 482 168 394 _c
187 422 211 444 240 459 _c
269 474 301 482 336 482 _c
409 482 467 459 509 415 _c
551 371 573 310 573 234 _c
573 159 550 99 506 54 _c
462 9 403 -13 330 -13 _c
246 -13 181 19 137 83 _c
92 147 70 241 70 364 _c
70 479 97 571 152 639 _c
206 707 280 742 372 742 _c
396 742 421 739 447 735 _c
472 730 498 723 526 713 _c
_cl}_e}_d
/F{575 0 98 0 517 729 _sc
98 729 _m
517 729 _l
517 646 _l
197 646 _l
197 431 _l
486 431 _l
486 348 _l
197 348 _l
197 0 _l
98 0 _l
98 729 _l
_cl}_d
/T{611 0 -2 0 614 729 _sc
-2 729 _m
614 729 _l
614 646 _l
355 646 _l
355 0 _l
256 0 _l
256 646 _l
-2 646 _l
-2 729 _l
_cl}_d
/bracketleft{390 0 86 -131 293 760 _sc
86 760 _m
293 760 _l
293 690 _l
176 690 _l
176 -61 _l
293 -61 _l
293 -131 _l
86 -131 _l
86 760 _l
_cl}_d
/bracketright{390 0 97 -131 304 760 _sc
304 760 _m
304 -131 _l
97 -131 _l
97 -61 _l
214 -61 _l
214 690 _l
97 690 _l
97 760 _l
304 760 _l
_cl}_d
/c{{550 0 55 -13 488 560 _sc
488 526 _m
488 442 _l
462 456 437 466 411 473 _c
385 480 360 484 334 484 _c
276 484 230 465 198 428 _c
166 391 150 339 150 273 _c
150 206 166 154 198 117 _c
230 80 276 62 334 62 _c
360 62 385 65 411 72 _c
437 79 462 90 488 104 _c
488 21 _l
462 9 436 0 410 -5 _c
383 -10 354 -13 324 -13 _c
242 -13 176 12 128 64 _c
}_e{79 115 55 185 55 273 _c
55 362 79 432 128 483 _c
177 534 244 560 330 560 _c
358 560 385 557 411 551 _c
437 545 463 537 488 526 _c
_cl}_e}_d
/d{{635 0 55 -13 544 760 _sc
454 464 _m
454 760 _l
544 760 _l
544 0 _l
454 0 _l
454 82 _l
435 49 411 25 382 10 _c
353 -5 319 -13 279 -13 _c
213 -13 159 13 117 65 _c
75 117 55 187 55 273 _c
55 359 75 428 117 481 _c
159 533 213 560 279 560 _c
319 560 353 552 382 536 _c
411 520 435 496 454 464 _c
148 273 _m
148 207 161 155 188 117 _c
215 79 253 61 301 61 _c
}_e{348 61 385 79 413 117 _c
440 155 454 207 454 273 _c
454 339 440 390 413 428 _c
385 466 348 485 301 485 _c
253 485 215 466 188 428 _c
161 390 148 339 148 273 _c
_cl}_e}_d
/e{{615 0 55 -13 562 560 _sc
562 296 _m
562 252 _l
149 252 _l
153 190 171 142 205 110 _c
238 78 284 62 344 62 _c
378 62 412 66 444 74 _c
476 82 509 95 541 113 _c
541 28 _l
509 14 476 3 442 -3 _c
408 -9 373 -13 339 -13 _c
251 -13 182 12 131 62 _c
80 112 55 181 55 268 _c
55 357 79 428 127 481 _c
175 533 241 560 323 560 _c
397 560 455 536 498 489 _c
}_e{540 441 562 377 562 296 _c
472 322 _m
471 371 457 410 431 440 _c
404 469 368 484 324 484 _c
274 484 234 469 204 441 _c
174 413 156 373 152 322 _c
472 322 _l
_cl}_e}_d
/i{278 0 94 0 184 760 _sc
94 547 _m
184 547 _l
184 0 _l
94 0 _l
94 547 _l
94 760 _m
184 760 _l
184 646 _l
94 646 _l
94 760 _l
_cl}_d
/m{{974 0 91 0 889 560 _sc
520 442 _m
542 482 569 511 600 531 _c
631 550 668 560 711 560 _c
767 560 811 540 842 500 _c
873 460 889 403 889 330 _c
889 0 _l
799 0 _l
799 327 _l
799 379 789 418 771 444 _c
752 469 724 482 686 482 _c
639 482 602 466 575 435 _c
548 404 535 362 535 309 _c
535 0 _l
445 0 _l
445 327 _l
445 379 435 418 417 444 _c
398 469 369 482 331 482 _c
}_e{285 482 248 466 221 435 _c
194 404 181 362 181 309 _c
181 0 _l
91 0 _l
91 547 _l
181 547 _l
181 462 _l
201 495 226 520 255 536 _c
283 552 317 560 357 560 _c
397 560 430 550 458 530 _c
486 510 506 480 520 442 _c
_cl}_e}_d
/n{634 0 91 0 549 560 _sc
549 330 _m
549 0 _l
459 0 _l
459 327 _l
459 379 448 417 428 443 _c
408 469 378 482 338 482 _c
289 482 251 466 223 435 _c
195 404 181 362 181 309 _c
181 0 _l
91 0 _l
91 547 _l
181 547 _l
181 462 _l
202 494 227 519 257 535 _c
286 551 320 560 358 560 _c
420 560 468 540 500 501 _c
532 462 549 405 549 330 _c
_cl}_d
/o{612 0 55 -13 557 560 _sc
306 484 _m
258 484 220 465 192 427 _c
164 389 150 338 150 273 _c
150 207 163 156 191 118 _c
219 80 257 62 306 62 _c
354 62 392 80 420 118 _c
448 156 462 207 462 273 _c
462 337 448 389 420 427 _c
392 465 354 484 306 484 _c
306 560 _m
384 560 445 534 490 484 _c
534 433 557 363 557 273 _c
557 183 534 113 490 63 _c
445 12 384 -13 306 -13 _c
227 -13 165 12 121 63 _c
77 113 55 183 55 273 _c
55 363 77 433 121 484 _c
165 534 227 560 306 560 _c
_cl}_d
/q{{635 0 55 -207 544 560 _sc
148 273 _m
148 207 161 155 188 117 _c
215 79 253 61 301 61 _c
348 61 385 79 413 117 _c
440 155 454 207 454 273 _c
454 339 440 390 413 428 _c
385 466 348 485 301 485 _c
253 485 215 466 188 428 _c
161 390 148 339 148 273 _c
454 82 _m
435 49 411 25 382 10 _c
353 -5 319 -13 279 -13 _c
213 -13 159 13 117 65 _c
75 117 55 187 55 273 _c
}_e{55 359 75 428 117 481 _c
159 533 213 560 279 560 _c
319 560 353 552 382 536 _c
411 520 435 496 454 464 _c
454 547 _l
544 547 _l
544 -207 _l
454 -207 _l
454 82 _l
_cl}_e}_d
/r{411 0 91 0 411 560 _sc
411 463 _m
401 469 390 473 378 476 _c
366 478 353 480 339 480 _c
288 480 249 463 222 430 _c
194 397 181 350 181 288 _c
181 0 _l
91 0 _l
91 547 _l
181 547 _l
181 462 _l
199 495 224 520 254 536 _c
284 552 321 560 365 560 _c
371 560 378 559 386 559 _c
393 558 401 557 411 555 _c
411 463 _l
_cl}_d
/s{{521 0 54 -13 472 560 _sc
443 531 _m
443 446 _l
417 458 391 468 364 475 _c
336 481 308 485 279 485 _c
234 485 200 478 178 464 _c
156 450 145 430 145 403 _c
145 382 153 366 169 354 _c
185 342 217 330 265 320 _c
296 313 _l
360 299 405 279 432 255 _c
458 230 472 195 472 151 _c
472 100 452 60 412 31 _c
372 1 316 -13 246 -13 _c
216 -13 186 -10 154 -5 _c
}_e{122 0 89 8 54 20 _c
54 113 _l
87 95 120 82 152 74 _c
184 65 216 61 248 61 _c
290 61 323 68 346 82 _c
368 96 380 117 380 144 _c
380 168 371 187 355 200 _c
339 213 303 226 247 238 _c
216 245 _l
160 257 119 275 95 299 _c
70 323 58 356 58 399 _c
58 450 76 490 112 518 _c
148 546 200 560 268 560 _c
301 560 332 557 362 552 _c
391 547 418 540 443 531 _c
}_e{_cl}_e}_d
/u{634 0 85 -13 543 560 _sc
85 216 _m
85 547 _l
175 547 _l
175 219 _l
175 167 185 129 205 103 _c
225 77 255 64 296 64 _c
344 64 383 79 411 110 _c
439 141 453 183 453 237 _c
453 547 _l
543 547 _l
543 0 _l
453 0 _l
453 84 _l
431 50 405 26 377 10 _c
348 -5 315 -13 277 -13 _c
214 -13 166 6 134 45 _c
101 83 85 140 85 216 _c
311 560 _m
311 560 _l
_cl}_d
/y{592 0 30 -207 562 547 _sc
322 -50 _m
296 -114 271 -157 247 -177 _c
223 -197 191 -207 151 -207 _c
79 -207 _l
79 -132 _l
132 -132 _l
156 -132 175 -126 189 -114 _c
203 -102 218 -75 235 -31 _c
251 9 _l
30 547 _l
125 547 _l
296 119 _l
467 547 _l
562 547 _l
322 -50 _l
_cl}_d
end readonly def

/BuildGlyph
 {exch begin
 CharStrings exch
 2 copy known not{pop /.notdef}if
 true 3 1 roll get exec
 end}_d

/BuildChar {
 1 index /Encoding get exch get
 1 index /BuildGlyph get exec
}_d

FontName currentdict end definefont pop
end
%%EndProlog
mpldict begin
108.959 259.291 translate
394.082 273.418 0 0 clipbox
gsave
0 0 m
394.082387 0 l
394.082387 273.418125 l
0 273.418125 l
cl
1.000 setgray
fill
grestore
gsave
43.92 161.918125 m
196.101818 161.918125 l
196.101818 262.718125 l
43.92 262.718125 l
cl
1.000 setgray
fill
grestore
gsave
152.2 100.8 43.92 161.9 clipbox
50.837355 161.918125 m
53.604298 161.918125 l
53.604298 163.77859 l
50.837355 163.77859 l
cl
0.122 0.467 0.706 setrgbcolor
fill
grestore
gsave
152.2 100.8 43.92 161.9 clipbox
53.604298 161.918125 m
56.37124 161.918125 l
56.37124 164.150683 l
53.604298 164.150683 l
cl
0.122 0.467 0.706 setrgbcolor
fill
grestore
gsave
152.2 100.8 43.92 161.9 clipbox
56.37124 161.918125 m
59.138182 161.918125 l
59.138182 164.894869 l
56.37124 164.894869 l
cl
0.122 0.467 0.706 setrgbcolor
fill
grestore
gsave
152.2 100.8 43.92 161.9 clipbox
59.138182 161.918125 m
61.905124 161.918125 l
61.905124 164.894869 l
59.138182 164.894869 l
cl
0.122 0.467 0.706 setrgbcolor
fill
grestore
gsave
152.2 100.8 43.92 161.9 clipbox
61.905124 161.918125 m
64.672066 161.918125 l
64.672066 164.894869 l
61.905124 164.894869 l
cl
0.122 0.467 0.706 setrgbcolor
fill
grestore
gsave
152.2 100.8 43.92 161.9 clipbox
64.672066 161.918125 m
67.439008 161.918125 l
67.439008 167.49952 l
64.672066 167.49952 l
cl
0.122 0.467 0.706 setrgbcolor
fill
grestore
gsave
152.2 100.8 43.92 161.9 clipbox
67.439008 161.918125 m
70.20595 161.918125 l
70.20595 167.49952 l
67.439008 167.49952 l
cl
0.122 0.467 0.706 setrgbcolor
fill
grestore
gsave
152.2 100.8 43.92 161.9 clipbox
70.20595 161.918125 m
72.972893 161.918125 l
72.972893 174.569288 l
70.20595 174.569288 l
cl
0.122 0.467 0.706 setrgbcolor
fill
grestore
gsave
152.2 100.8 43.92 161.9 clipbox
72.972893 161.918125 m
75.739835 161.918125 l
75.739835 184.615799 l
72.972893 184.615799 l
cl
0.122 0.467 0.706 setrgbcolor
fill
grestore
gsave
152.2 100.8 43.92 161.9 clipbox
75.739835 161.918125 m
78.506777 161.918125 l
78.506777 188.33673 l
75.739835 188.33673 l
cl
0.122 0.467 0.706 setrgbcolor
fill
grestore
gsave
152.2 100.8 43.92 161.9 clipbox
78.506777 161.918125 m
81.273719 161.918125 l
81.273719 208.801846 l
78.506777 208.801846 l
cl
0.122 0.467 0.706 setrgbcolor
fill
grestore
gsave
152.2 100.8 43.92 161.9 clipbox
81.273719 161.918125 m
84.040661 161.918125 l
84.040661 231.871613 l
81.273719 231.871613 l
cl
0.122 0.467 0.706 setrgbcolor
fill
grestore
gsave
152.2 100.8 43.92 161.9 clipbox
84.040661 161.918125 m
86.807603 161.918125 l
86.807603 256.801846 l
84.040661 256.801846 l
cl
0.122 0.467 0.706 setrgbcolor
fill
grestore
gsave
152.2 100.8 43.92 161.9 clipbox
86.807603 161.918125 m
89.574545 161.918125 l
89.574545 246.755334 l
86.807603 246.755334 l
cl
0.122 0.467 0.706 setrgbcolor
fill
grestore
gsave
152.2 100.8 43.92 161.9 clipbox
89.574545 161.918125 m
92.341488 161.918125 l
92.341488 257.918125 l
89.574545 257.918125 l
cl
0.122 0.467 0.706 setrgbcolor
fill
grestore
gsave
152.2 100.8 43.92 161.9 clipbox
92.341488 161.918125 m
95.10843 161.918125 l
95.10843 238.197195 l
92.341488 238.197195 l
cl
0.122 0.467 0.706 setrgbcolor
fill
grestore
gsave
152.2 100.8 43.92 161.9 clipbox
95.10843 161.918125 m
97.875372 161.918125 l
97.875372 225.918125 l
95.10843 225.918125 l
cl
0.122 0.467 0.706 setrgbcolor
fill
grestore
gsave
152.2 100.8 43.92 161.9 clipbox
97.875372 161.918125 m
100.642314 161.918125 l
100.642314 198.383241 l
97.875372 198.383241 l
cl
0.122 0.467 0.706 setrgbcolor
fill
grestore
gsave
152.2 100.8 43.92 161.9 clipbox
100.642314 161.918125 m
103.409256 161.918125 l
103.409256 183.871613 l
100.642314 183.871613 l
cl
0.122 0.467 0.706 setrgbcolor
fill
grestore
gsave
152.2 100.8 43.92 161.9 clipbox
103.409256 161.918125 m
106.176198 161.918125 l
106.176198 174.941381 l
103.409256 174.941381 l
cl
0.122 0.467 0.706 setrgbcolor
fill
grestore
gsave
152.2 100.8 43.92 161.9 clipbox
106.176198 161.918125 m
108.94314 161.918125 l
108.94314 166.011148 l
106.176198 166.011148 l
cl
0.122 0.467 0.706 setrgbcolor
fill
grestore
gsave
152.2 100.8 43.92 161.9 clipbox
108.94314 161.918125 m
111.710083 161.918125 l
111.710083 164.522776 l
108.94314 164.522776 l
cl
0.122 0.467 0.706 setrgbcolor
fill
grestore
gsave
152.2 100.8 43.92 161.9 clipbox
111.710083 161.918125 m
114.477025 161.918125 l
114.477025 162.662311 l
111.710083 162.662311 l
cl
0.122 0.467 0.706 setrgbcolor
fill
grestore
gsave
152.2 100.8 43.92 161.9 clipbox
114.477025 161.918125 m
117.243967 161.918125 l
117.243967 161.918125 l
114.477025 161.918125 l
cl
0.122 0.467 0.706 setrgbcolor
fill
grestore
gsave
152.2 100.8 43.92 161.9 clipbox
117.243967 161.918125 m
120.010909 161.918125 l
120.010909 164.150683 l
117.243967 164.150683 l
cl
0.122 0.467 0.706 setrgbcolor
fill
grestore
gsave
152.2 100.8 43.92 161.9 clipbox
120.010909 161.918125 m
122.777851 161.918125 l
122.777851 164.894869 l
120.010909 164.894869 l
cl
0.122 0.467 0.706 setrgbcolor
fill
grestore
gsave
152.2 100.8 43.92 161.9 clipbox
122.777851 161.918125 m
125.544793 161.918125 l
125.544793 162.662311 l
122.777851 162.662311 l
cl
0.122 0.467 0.706 setrgbcolor
fill
grestore
gsave
152.2 100.8 43.92 161.9 clipbox
125.544793 161.918125 m
128.311736 161.918125 l
128.311736 163.406497 l
125.544793 163.406497 l
cl
0.122 0.467 0.706 setrgbcolor
fill
grestore
gsave
152.2 100.8 43.92 161.9 clipbox
128.311736 161.918125 m
131.078678 161.918125 l
131.078678 163.77859 l
128.311736 163.77859 l
cl
0.122 0.467 0.706 setrgbcolor
fill
grestore
gsave
152.2 100.8 43.92 161.9 clipbox
131.078678 161.918125 m
133.84562 161.918125 l
133.84562 163.77859 l
131.078678 163.77859 l
cl
0.122 0.467 0.706 setrgbcolor
fill
grestore
gsave
152.2 100.8 43.92 161.9 clipbox
133.84562 161.918125 m
136.612562 161.918125 l
136.612562 163.406497 l
133.84562 163.406497 l
cl
0.122 0.467 0.706 setrgbcolor
fill
grestore
gsave
152.2 100.8 43.92 161.9 clipbox
136.612562 161.918125 m
139.379504 161.918125 l
139.379504 164.150683 l
136.612562 164.150683 l
cl
0.122 0.467 0.706 setrgbcolor
fill
grestore
gsave
152.2 100.8 43.92 161.9 clipbox
139.379504 161.918125 m
142.146446 161.918125 l
142.146446 162.662311 l
139.379504 162.662311 l
cl
0.122 0.467 0.706 setrgbcolor
fill
grestore
gsave
152.2 100.8 43.92 161.9 clipbox
142.146446 161.918125 m
144.913388 161.918125 l
144.913388 163.034404 l
142.146446 163.034404 l
cl
0.122 0.467 0.706 setrgbcolor
fill
grestore
gsave
152.2 100.8 43.92 161.9 clipbox
144.913388 161.918125 m
147.680331 161.918125 l
147.680331 161.918125 l
144.913388 161.918125 l
cl
0.122 0.467 0.706 setrgbcolor
fill
grestore
gsave
152.2 100.8 43.92 161.9 clipbox
147.680331 161.918125 m
150.447273 161.918125 l
150.447273 162.662311 l
147.680331 162.662311 l
cl
0.122 0.467 0.706 setrgbcolor
fill
grestore
gsave
152.2 100.8 43.92 161.9 clipbox
150.447273 161.918125 m
153.214215 161.918125 l
153.214215 161.918125 l
150.447273 161.918125 l
cl
0.122 0.467 0.706 setrgbcolor
fill
grestore
gsave
152.2 100.8 43.92 161.9 clipbox
153.214215 161.918125 m
155.981157 161.918125 l
155.981157 163.034404 l
153.214215 163.034404 l
cl
0.122 0.467 0.706 setrgbcolor
fill
grestore
gsave
152.2 100.8 43.92 161.9 clipbox
155.981157 161.918125 m
158.748099 161.918125 l
158.748099 161.918125 l
155.981157 161.918125 l
cl
0.122 0.467 0.706 setrgbcolor
fill
grestore
gsave
152.2 100.8 43.92 161.9 clipbox
158.748099 161.918125 m
161.515041 161.918125 l
161.515041 162.662311 l
158.748099 162.662311 l
cl
0.122 0.467 0.706 setrgbcolor
fill
grestore
gsave
152.2 100.8 43.92 161.9 clipbox
161.515041 161.918125 m
164.281983 161.918125 l
164.281983 161.918125 l
161.515041 161.918125 l
cl
0.122 0.467 0.706 setrgbcolor
fill
grestore
gsave
152.2 100.8 43.92 161.9 clipbox
164.281983 161.918125 m
167.048926 161.918125 l
167.048926 161.918125 l
164.281983 161.918125 l
cl
0.122 0.467 0.706 setrgbcolor
fill
grestore
gsave
152.2 100.8 43.92 161.9 clipbox
167.048926 161.918125 m
169.815868 161.918125 l
169.815868 161.918125 l
167.048926 161.918125 l
cl
0.122 0.467 0.706 setrgbcolor
fill
grestore
gsave
152.2 100.8 43.92 161.9 clipbox
169.815868 161.918125 m
172.58281 161.918125 l
172.58281 162.290218 l
169.815868 162.290218 l
cl
0.122 0.467 0.706 setrgbcolor
fill
grestore
gsave
152.2 100.8 43.92 161.9 clipbox
172.58281 161.918125 m
175.349752 161.918125 l
175.349752 161.918125 l
172.58281 161.918125 l
cl
0.122 0.467 0.706 setrgbcolor
fill
grestore
gsave
152.2 100.8 43.92 161.9 clipbox
175.349752 161.918125 m
178.116694 161.918125 l
178.116694 161.918125 l
175.349752 161.918125 l
cl
0.122 0.467 0.706 setrgbcolor
fill
grestore
gsave
152.2 100.8 43.92 161.9 clipbox
178.116694 161.918125 m
180.883636 161.918125 l
180.883636 161.918125 l
178.116694 161.918125 l
cl
0.122 0.467 0.706 setrgbcolor
fill
grestore
gsave
152.2 100.8 43.92 161.9 clipbox
180.883636 161.918125 m
183.650579 161.918125 l
183.650579 161.918125 l
180.883636 161.918125 l
cl
0.122 0.467 0.706 setrgbcolor
fill
grestore
gsave
152.2 100.8 43.92 161.9 clipbox
183.650579 161.918125 m
186.417521 161.918125 l
186.417521 161.918125 l
183.650579 161.918125 l
cl
0.122 0.467 0.706 setrgbcolor
fill
grestore
gsave
152.2 100.8 43.92 161.9 clipbox
186.417521 161.918125 m
189.184463 161.918125 l
189.184463 162.290218 l
186.417521 162.290218 l
cl
0.122 0.467 0.706 setrgbcolor
fill
grestore
0.800 setlinewidth
1 setlinejoin
0 setlinecap
[] 0 setdash
0.000 setgray
gsave
/o {
gsave
newpath
translate
0.8 setlinewidth
1 setlinejoin
0 setlinecap
0 0 m
0 -3.5 l

gsave
0.000 setgray
fill
grestore
stroke
grestore
} bind def
46.6695 161.918 o
grestore
/DejaVuSans findfont
10.000 scalefont
setfont
gsave
43.489837 147.324375 translate
0.000000 rotate
0.000000 0.000000 m /zero glyphshow
grestore
gsave
/o {
gsave
newpath
translate
0.8 setlinewidth
1 setlinejoin
0 setlinecap
0 0 m
0 -3.5 l

gsave
0.000 setgray
fill
grestore
stroke
grestore
} bind def
77.7727 161.918 o
grestore
gsave
68.233678 147.324375 translate
0.000000 rotate
0.000000 0.000000 m /five glyphshow
6.362305 0.000000 m /zero glyphshow
12.724609 0.000000 m /zero glyphshow
grestore
gsave
/o {
gsave
newpath
translate
0.8 setlinewidth
1 setlinejoin
0 setlinecap
0 0 m
0 -3.5 l

gsave
0.000 setgray
fill
grestore
stroke
grestore
} bind def
108.876 161.918 o
grestore
gsave
96.157208 147.324375 translate
0.000000 rotate
0.000000 0.000000 m /one glyphshow
6.362305 0.000000 m /zero glyphshow
12.724609 0.000000 m /zero glyphshow
19.086914 0.000000 m /zero glyphshow
grestore
gsave
/o {
gsave
newpath
translate
0.8 setlinewidth
1 setlinejoin
0 setlinecap
0 0 m
0 -3.5 l

gsave
0.000 setgray
fill
grestore
stroke
grestore
} bind def
139.979 161.918 o
grestore
gsave
127.260424 147.324375 translate
0.000000 rotate
0.000000 0.000000 m /one glyphshow
6.362305 0.000000 m /five glyphshow
12.724609 0.000000 m /zero glyphshow
19.086914 0.000000 m /zero glyphshow
grestore
gsave
/o {
gsave
newpath
translate
0.8 setlinewidth
1 setlinejoin
0 setlinecap
0 0 m
0 -3.5 l

gsave
0.000 setgray
fill
grestore
stroke
grestore
} bind def
171.082 161.918 o
grestore
gsave
158.363641 147.324375 translate
0.000000 rotate
0.000000 0.000000 m /two glyphshow
6.362305 0.000000 m /zero glyphshow
12.724609 0.000000 m /zero glyphshow
19.086914 0.000000 m /zero glyphshow
grestore
gsave
/o {
gsave
newpath
translate
0.8 setlinewidth
1 setlinejoin
0 setlinecap
0 0 m
-3.5 0 l

gsave
0.000 setgray
fill
grestore
stroke
grestore
} bind def
43.92 161.918 o
grestore
gsave
30.560625 158.121250 translate
0.000000 rotate
0.000000 0.000000 m /zero glyphshow
grestore
gsave
/o {
gsave
newpath
translate
0.8 setlinewidth
1 setlinejoin
0 setlinecap
0 0 m
-3.5 0 l

gsave
0.000 setgray
fill
grestore
stroke
grestore
} bind def
43.92 199.127 o
grestore
gsave
17.841875 195.330552 translate
0.000000 rotate
0.000000 0.000000 m /one glyphshow
6.362305 0.000000 m /zero glyphshow
12.724609 0.000000 m /zero glyphshow
grestore
gsave
/o {
gsave
newpath
translate
0.8 setlinewidth
1 setlinejoin
0 setlinecap
0 0 m
-3.5 0 l

gsave
0.000 setgray
fill
grestore
stroke
grestore
} bind def
43.92 236.337 o
grestore
gsave
17.841875 232.539855 translate
0.000000 rotate
0.000000 0.000000 m /two glyphshow
6.362305 0.000000 m /zero glyphshow
12.724609 0.000000 m /zero glyphshow
grestore
0 setlinejoin
2 setlinecap
[] 0 setdash
gsave
43.92 161.918125 m
43.92 262.718125 l
stroke
grestore
gsave
196.101818 161.918125 m
196.101818 262.718125 l
stroke
grestore
gsave
43.92 161.918125 m
196.101818 161.918125 l
stroke
grestore
gsave
43.92 262.718125 m
196.101818 262.718125 l
stroke
grestore
gsave
226.538182 161.918125 m
378.72 161.918125 l
378.72 262.718125 l
226.538182 262.718125 l
cl
1.000 setgray
fill
grestore
gsave
152.2 100.8 226.5 161.9 clipbox
233.455537 161.918125 m
236.222479 161.918125 l
236.222479 163.830476 l
233.455537 163.830476 l
cl
0.122 0.467 0.706 setrgbcolor
fill
grestore
gsave
152.2 100.8 226.5 161.9 clipbox
236.222479 161.918125 m
238.989421 161.918125 l
238.989421 202.842428 l
236.222479 202.842428 l
cl
0.122 0.467 0.706 setrgbcolor
fill
grestore
gsave
152.2 100.8 226.5 161.9 clipbox
238.989421 161.918125 m
241.756364 161.918125 l
241.756364 176.45199 l
238.989421 176.45199 l
cl
0.122 0.467 0.706 setrgbcolor
fill
grestore
gsave
152.2 100.8 226.5 161.9 clipbox
241.756364 161.918125 m
244.523306 161.918125 l
244.523306 162.683065 l
241.756364 162.683065 l
cl
0.122 0.467 0.706 setrgbcolor
fill
grestore
gsave
152.2 100.8 226.5 161.9 clipbox
244.523306 161.918125 m
247.290248 161.918125 l
247.290248 161.918125 l
244.523306 161.918125 l
cl
0.122 0.467 0.706 setrgbcolor
fill
grestore
gsave
152.2 100.8 226.5 161.9 clipbox
247.290248 161.918125 m
250.05719 161.918125 l
250.05719 161.918125 l
247.290248 161.918125 l
cl
0.122 0.467 0.706 setrgbcolor
fill
grestore
gsave
152.2 100.8 226.5 161.9 clipbox
250.05719 161.918125 m
252.824132 161.918125 l
252.824132 162.300595 l
250.05719 162.300595 l
cl
0.122 0.467 0.706 setrgbcolor
fill
grestore
gsave
152.2 100.8 226.5 161.9 clipbox
252.824132 161.918125 m
255.591074 161.918125 l
255.591074 161.918125 l
252.824132 161.918125 l
cl
0.122 0.467 0.706 setrgbcolor
fill
grestore
gsave
152.2 100.8 226.5 161.9 clipbox
255.591074 161.918125 m
258.358017 161.918125 l
258.358017 162.683065 l
255.591074 162.683065 l
cl
0.122 0.467 0.706 setrgbcolor
fill
grestore
gsave
152.2 100.8 226.5 161.9 clipbox
258.358017 161.918125 m
261.124959 161.918125 l
261.124959 167.655177 l
258.358017 167.655177 l
cl
0.122 0.467 0.706 setrgbcolor
fill
grestore
gsave
152.2 100.8 226.5 161.9 clipbox
261.124959 161.918125 m
263.891901 161.918125 l
263.891901 181.424101 l
261.124959 181.424101 l
cl
0.122 0.467 0.706 setrgbcolor
fill
grestore
gsave
152.2 100.8 226.5 161.9 clipbox
263.891901 161.918125 m
266.658843 161.918125 l
266.658843 210.49183 l
263.891901 210.49183 l
cl
0.122 0.467 0.706 setrgbcolor
fill
grestore
gsave
152.2 100.8 226.5 161.9 clipbox
266.658843 161.918125 m
269.425785 161.918125 l
269.425785 220.053583 l
266.658843 220.053583 l
cl
0.122 0.467 0.706 setrgbcolor
fill
grestore
gsave
152.2 100.8 226.5 161.9 clipbox
269.425785 161.918125 m
272.192727 161.918125 l
272.192727 247.591432 l
269.425785 247.591432 l
cl
0.122 0.467 0.706 setrgbcolor
fill
grestore
gsave
152.2 100.8 226.5 161.9 clipbox
272.192727 161.918125 m
274.959669 161.918125 l
274.959669 257.918125 l
272.192727 257.918125 l
cl
0.122 0.467 0.706 setrgbcolor
fill
grestore
gsave
152.2 100.8 226.5 161.9 clipbox
274.959669 161.918125 m
277.726612 161.918125 l
277.726612 242.23685 l
274.959669 242.23685 l
cl
0.122 0.467 0.706 setrgbcolor
fill
grestore
gsave
152.2 100.8 226.5 161.9 clipbox
277.726612 161.918125 m
280.493554 161.918125 l
280.493554 222.730874 l
277.726612 222.730874 l
cl
0.122 0.467 0.706 setrgbcolor
fill
grestore
gsave
152.2 100.8 226.5 161.9 clipbox
280.493554 161.918125 m
283.260496 161.918125 l
283.260496 207.814539 l
280.493554 207.814539 l
cl
0.122 0.467 0.706 setrgbcolor
fill
grestore
gsave
152.2 100.8 226.5 161.9 clipbox
283.260496 161.918125 m
286.027438 161.918125 l
286.027438 194.428085 l
283.260496 194.428085 l
cl
0.122 0.467 0.706 setrgbcolor
fill
grestore
gsave
152.2 100.8 226.5 161.9 clipbox
286.027438 161.918125 m
288.79438 161.918125 l
288.79438 192.898205 l
286.027438 192.898205 l
cl
0.122 0.467 0.706 setrgbcolor
fill
grestore
gsave
152.2 100.8 226.5 161.9 clipbox
288.79438 161.918125 m
291.561322 161.918125 l
291.561322 189.073503 l
288.79438 189.073503 l
cl
0.122 0.467 0.706 setrgbcolor
fill
grestore
gsave
152.2 100.8 226.5 161.9 clipbox
291.561322 161.918125 m
294.328264 161.918125 l
294.328264 182.189041 l
291.561322 182.189041 l
cl
0.122 0.467 0.706 setrgbcolor
fill
grestore
gsave
152.2 100.8 226.5 161.9 clipbox
294.328264 161.918125 m
297.095207 161.918125 l
297.095207 175.304579 l
294.328264 175.304579 l
cl
0.122 0.467 0.706 setrgbcolor
fill
grestore
gsave
152.2 100.8 226.5 161.9 clipbox
297.095207 161.918125 m
299.862149 161.918125 l
299.862149 167.655177 l
297.095207 167.655177 l
cl
0.122 0.467 0.706 setrgbcolor
fill
grestore
gsave
152.2 100.8 226.5 161.9 clipbox
299.862149 161.918125 m
302.629091 161.918125 l
302.629091 171.097408 l
299.862149 171.097408 l
cl
0.122 0.467 0.706 setrgbcolor
fill
grestore
gsave
152.2 100.8 226.5 161.9 clipbox
302.629091 161.918125 m
305.396033 161.918125 l
305.396033 168.037647 l
302.629091 168.037647 l
cl
0.122 0.467 0.706 setrgbcolor
fill
grestore
gsave
152.2 100.8 226.5 161.9 clipbox
305.396033 161.918125 m
308.162975 161.918125 l
308.162975 165.360356 l
305.396033 165.360356 l
cl
0.122 0.467 0.706 setrgbcolor
fill
grestore
gsave
152.2 100.8 226.5 161.9 clipbox
308.162975 161.918125 m
310.929917 161.918125 l
310.929917 166.890237 l
308.162975 166.890237 l
cl
0.122 0.467 0.706 setrgbcolor
fill
grestore
gsave
152.2 100.8 226.5 161.9 clipbox
310.929917 161.918125 m
313.69686 161.918125 l
313.69686 164.977886 l
310.929917 164.977886 l
cl
0.122 0.467 0.706 setrgbcolor
fill
grestore
gsave
152.2 100.8 226.5 161.9 clipbox
313.69686 161.918125 m
316.463802 161.918125 l
316.463802 164.595416 l
313.69686 164.595416 l
cl
0.122 0.467 0.706 setrgbcolor
fill
grestore
gsave
152.2 100.8 226.5 161.9 clipbox
316.463802 161.918125 m
319.230744 161.918125 l
319.230744 164.595416 l
316.463802 164.595416 l
cl
0.122 0.467 0.706 setrgbcolor
fill
grestore
gsave
152.2 100.8 226.5 161.9 clipbox
319.230744 161.918125 m
321.997686 161.918125 l
321.997686 163.448005 l
319.230744 163.448005 l
cl
0.122 0.467 0.706 setrgbcolor
fill
grestore
gsave
152.2 100.8 226.5 161.9 clipbox
321.997686 161.918125 m
324.764628 161.918125 l
324.764628 162.300595 l
321.997686 162.300595 l
cl
0.122 0.467 0.706 setrgbcolor
fill
grestore
gsave
152.2 100.8 226.5 161.9 clipbox
324.764628 161.918125 m
327.53157 161.918125 l
327.53157 162.300595 l
324.764628 162.300595 l
cl
0.122 0.467 0.706 setrgbcolor
fill
grestore
gsave
152.2 100.8 226.5 161.9 clipbox
327.53157 161.918125 m
330.298512 161.918125 l
330.298512 162.300595 l
327.53157 162.300595 l
cl
0.122 0.467 0.706 setrgbcolor
fill
grestore
gsave
152.2 100.8 226.5 161.9 clipbox
330.298512 161.918125 m
333.065455 161.918125 l
333.065455 162.300595 l
330.298512 162.300595 l
cl
0.122 0.467 0.706 setrgbcolor
fill
grestore
gsave
152.2 100.8 226.5 161.9 clipbox
333.065455 161.918125 m
335.832397 161.918125 l
335.832397 162.300595 l
333.065455 162.300595 l
cl
0.122 0.467 0.706 setrgbcolor
fill
grestore
gsave
152.2 100.8 226.5 161.9 clipbox
335.832397 161.918125 m
338.599339 161.918125 l
338.599339 162.300595 l
335.832397 162.300595 l
cl
0.122 0.467 0.706 setrgbcolor
fill
grestore
gsave
152.2 100.8 226.5 161.9 clipbox
338.599339 161.918125 m
341.366281 161.918125 l
341.366281 162.300595 l
338.599339 162.300595 l
cl
0.122 0.467 0.706 setrgbcolor
fill
grestore
gsave
152.2 100.8 226.5 161.9 clipbox
341.366281 161.918125 m
344.133223 161.918125 l
344.133223 161.918125 l
341.366281 161.918125 l
cl
0.122 0.467 0.706 setrgbcolor
fill
grestore
gsave
152.2 100.8 226.5 161.9 clipbox
344.133223 161.918125 m
346.900165 161.918125 l
346.900165 161.918125 l
344.133223 161.918125 l
cl
0.122 0.467 0.706 setrgbcolor
fill
grestore
gsave
152.2 100.8 226.5 161.9 clipbox
346.900165 161.918125 m
349.667107 161.918125 l
349.667107 161.918125 l
346.900165 161.918125 l
cl
0.122 0.467 0.706 setrgbcolor
fill
grestore
gsave
152.2 100.8 226.5 161.9 clipbox
349.667107 161.918125 m
352.43405 161.918125 l
352.43405 161.918125 l
349.667107 161.918125 l
cl
0.122 0.467 0.706 setrgbcolor
fill
grestore
gsave
152.2 100.8 226.5 161.9 clipbox
352.43405 161.918125 m
355.200992 161.918125 l
355.200992 162.300595 l
352.43405 162.300595 l
cl
0.122 0.467 0.706 setrgbcolor
fill
grestore
gsave
152.2 100.8 226.5 161.9 clipbox
355.200992 161.918125 m
357.967934 161.918125 l
357.967934 161.918125 l
355.200992 161.918125 l
cl
0.122 0.467 0.706 setrgbcolor
fill
grestore
gsave
152.2 100.8 226.5 161.9 clipbox
357.967934 161.918125 m
360.734876 161.918125 l
360.734876 161.918125 l
357.967934 161.918125 l
cl
0.122 0.467 0.706 setrgbcolor
fill
grestore
gsave
152.2 100.8 226.5 161.9 clipbox
360.734876 161.918125 m
363.501818 161.918125 l
363.501818 161.918125 l
360.734876 161.918125 l
cl
0.122 0.467 0.706 setrgbcolor
fill
grestore
gsave
152.2 100.8 226.5 161.9 clipbox
363.501818 161.918125 m
366.26876 161.918125 l
366.26876 161.918125 l
363.501818 161.918125 l
cl
0.122 0.467 0.706 setrgbcolor
fill
grestore
gsave
152.2 100.8 226.5 161.9 clipbox
366.26876 161.918125 m
369.035702 161.918125 l
369.035702 161.918125 l
366.26876 161.918125 l
cl
0.122 0.467 0.706 setrgbcolor
fill
grestore
gsave
152.2 100.8 226.5 161.9 clipbox
369.035702 161.918125 m
371.802645 161.918125 l
371.802645 162.683065 l
369.035702 162.683065 l
cl
0.122 0.467 0.706 setrgbcolor
fill
grestore
1 setlinejoin
0 setlinecap
[] 0 setdash
gsave
/o {
gsave
newpath
translate
0.8 setlinewidth
1 setlinejoin
0 setlinecap
0 0 m
0 -3.5 l

gsave
0.000 setgray
fill
grestore
stroke
grestore
} bind def
233.185 161.918 o
grestore
gsave
230.004935 147.324375 translate
0.000000 rotate
0.000000 0.000000 m /zero glyphshow
grestore
gsave
/o {
gsave
newpath
translate
0.8 setlinewidth
1 setlinejoin
0 setlinecap
0 0 m
0 -3.5 l

gsave
0.000 setgray
fill
grestore
stroke
grestore
} bind def
278.337 161.918 o
grestore
gsave
265.618323 147.324375 translate
0.000000 rotate
0.000000 0.000000 m /one glyphshow
6.362305 0.000000 m /zero glyphshow
12.724609 0.000000 m /zero glyphshow
19.086914 0.000000 m /zero glyphshow
grestore
gsave
/o {
gsave
newpath
translate
0.8 setlinewidth
1 setlinejoin
0 setlinecap
0 0 m
0 -3.5 l

gsave
0.000 setgray
fill
grestore
stroke
grestore
} bind def
323.49 161.918 o
grestore
gsave
310.770773 147.324375 translate
0.000000 rotate
0.000000 0.000000 m /two glyphshow
6.362305 0.000000 m /zero glyphshow
12.724609 0.000000 m /zero glyphshow
19.086914 0.000000 m /zero glyphshow
grestore
gsave
/o {
gsave
newpath
translate
0.8 setlinewidth
1 setlinejoin
0 setlinecap
0 0 m
0 -3.5 l

gsave
0.000 setgray
fill
grestore
stroke
grestore
} bind def
368.642 161.918 o
grestore
gsave
355.923223 147.324375 translate
0.000000 rotate
0.000000 0.000000 m /three glyphshow
6.362305 0.000000 m /zero glyphshow
12.724609 0.000000 m /zero glyphshow
19.086914 0.000000 m /zero glyphshow
grestore
gsave
/o {
gsave
newpath
translate
0.8 setlinewidth
1 setlinejoin
0 setlinecap
0 0 m
-3.5 0 l

gsave
0.000 setgray
fill
grestore
stroke
grestore
} bind def
226.538 161.918 o
grestore
gsave
213.178807 158.121250 translate
0.000000 rotate
0.000000 0.000000 m /zero glyphshow
grestore
gsave
/o {
gsave
newpath
translate
0.8 setlinewidth
1 setlinejoin
0 setlinecap
0 0 m
-3.5 0 l

gsave
0.000 setgray
fill
grestore
stroke
grestore
} bind def
226.538 200.165 o
grestore
gsave
200.460057 196.368262 translate
0.000000 rotate
0.000000 0.000000 m /one glyphshow
6.362305 0.000000 m /zero glyphshow
12.724609 0.000000 m /zero glyphshow
grestore
gsave
/o {
gsave
newpath
translate
0.8 setlinewidth
1 setlinejoin
0 setlinecap
0 0 m
-3.5 0 l

gsave
0.000 setgray
fill
grestore
stroke
grestore
} bind def
226.538 238.412 o
grestore
gsave
200.460057 234.615274 translate
0.000000 rotate
0.000000 0.000000 m /two glyphshow
6.362305 0.000000 m /zero glyphshow
12.724609 0.000000 m /zero glyphshow
grestore
0 setlinejoin
2 setlinecap
[] 0 setdash
gsave
226.538182 161.918125 m
226.538182 262.718125 l
stroke
grestore
gsave
378.72 161.918125 m
378.72 262.718125 l
stroke
grestore
gsave
226.538182 161.918125 m
378.72 161.918125 l
stroke
grestore
gsave
226.538182 262.718125 m
378.72 262.718125 l
stroke
grestore
gsave
43.92 40.958125 m
196.101818 40.958125 l
196.101818 141.758125 l
43.92 141.758125 l
cl
1.000 setgray
fill
grestore
gsave
152.2 100.8 43.92 40.96 clipbox
50.837355 40.958125 m
53.604298 40.958125 l
53.604298 43.867216 l
50.837355 43.867216 l
cl
0.122 0.467 0.706 setrgbcolor
fill
grestore
gsave
152.2 100.8 43.92 40.96 clipbox
53.604298 40.958125 m
56.37124 40.958125 l
56.37124 40.958125 l
53.604298 40.958125 l
cl
0.122 0.467 0.706 setrgbcolor
fill
grestore
gsave
152.2 100.8 43.92 40.96 clipbox
56.37124 40.958125 m
59.138182 40.958125 l
59.138182 40.958125 l
56.37124 40.958125 l
cl
0.122 0.467 0.706 setrgbcolor
fill
grestore
gsave
152.2 100.8 43.92 40.96 clipbox
59.138182 40.958125 m
61.905124 40.958125 l
61.905124 40.958125 l
59.138182 40.958125 l
cl
0.122 0.467 0.706 setrgbcolor
fill
grestore
gsave
152.2 100.8 43.92 40.96 clipbox
61.905124 40.958125 m
64.672066 40.958125 l
64.672066 40.958125 l
61.905124 40.958125 l
cl
0.122 0.467 0.706 setrgbcolor
fill
grestore
gsave
152.2 100.8 43.92 40.96 clipbox
64.672066 40.958125 m
67.439008 40.958125 l
67.439008 40.958125 l
64.672066 40.958125 l
cl
0.122 0.467 0.706 setrgbcolor
fill
grestore
gsave
152.2 100.8 43.92 40.96 clipbox
67.439008 40.958125 m
70.20595 40.958125 l
70.20595 40.958125 l
67.439008 40.958125 l
cl
0.122 0.467 0.706 setrgbcolor
fill
grestore
gsave
152.2 100.8 43.92 40.96 clipbox
70.20595 40.958125 m
72.972893 40.958125 l
72.972893 40.958125 l
70.20595 40.958125 l
cl
0.122 0.467 0.706 setrgbcolor
fill
grestore
gsave
152.2 100.8 43.92 40.96 clipbox
72.972893 40.958125 m
75.739835 40.958125 l
75.739835 40.958125 l
72.972893 40.958125 l
cl
0.122 0.467 0.706 setrgbcolor
fill
grestore
gsave
152.2 100.8 43.92 40.96 clipbox
75.739835 40.958125 m
78.506777 40.958125 l
78.506777 40.958125 l
75.739835 40.958125 l
cl
0.122 0.467 0.706 setrgbcolor
fill
grestore
gsave
152.2 100.8 43.92 40.96 clipbox
78.506777 40.958125 m
81.273719 40.958125 l
81.273719 40.958125 l
78.506777 40.958125 l
cl
0.122 0.467 0.706 setrgbcolor
fill
grestore
gsave
152.2 100.8 43.92 40.96 clipbox
81.273719 40.958125 m
84.040661 40.958125 l
84.040661 43.867216 l
81.273719 43.867216 l
cl
0.122 0.467 0.706 setrgbcolor
fill
grestore
gsave
152.2 100.8 43.92 40.96 clipbox
84.040661 40.958125 m
86.807603 40.958125 l
86.807603 43.867216 l
84.040661 43.867216 l
cl
0.122 0.467 0.706 setrgbcolor
fill
grestore
gsave
152.2 100.8 43.92 40.96 clipbox
86.807603 40.958125 m
89.574545 40.958125 l
89.574545 43.867216 l
86.807603 43.867216 l
cl
0.122 0.467 0.706 setrgbcolor
fill
grestore
gsave
152.2 100.8 43.92 40.96 clipbox
89.574545 40.958125 m
92.341488 40.958125 l
92.341488 40.958125 l
89.574545 40.958125 l
cl
0.122 0.467 0.706 setrgbcolor
fill
grestore
gsave
152.2 100.8 43.92 40.96 clipbox
92.341488 40.958125 m
95.10843 40.958125 l
95.10843 40.958125 l
92.341488 40.958125 l
cl
0.122 0.467 0.706 setrgbcolor
fill
grestore
gsave
152.2 100.8 43.92 40.96 clipbox
95.10843 40.958125 m
97.875372 40.958125 l
97.875372 40.958125 l
95.10843 40.958125 l
cl
0.122 0.467 0.706 setrgbcolor
fill
grestore
gsave
152.2 100.8 43.92 40.96 clipbox
97.875372 40.958125 m
100.642314 40.958125 l
100.642314 40.958125 l
97.875372 40.958125 l
cl
0.122 0.467 0.706 setrgbcolor
fill
grestore
gsave
152.2 100.8 43.92 40.96 clipbox
100.642314 40.958125 m
103.409256 40.958125 l
103.409256 46.776307 l
100.642314 46.776307 l
cl
0.122 0.467 0.706 setrgbcolor
fill
grestore
gsave
152.2 100.8 43.92 40.96 clipbox
103.409256 40.958125 m
106.176198 40.958125 l
106.176198 43.867216 l
103.409256 43.867216 l
cl
0.122 0.467 0.706 setrgbcolor
fill
grestore
gsave
152.2 100.8 43.92 40.96 clipbox
106.176198 40.958125 m
108.94314 40.958125 l
108.94314 46.776307 l
106.176198 46.776307 l
cl
0.122 0.467 0.706 setrgbcolor
fill
grestore
gsave
152.2 100.8 43.92 40.96 clipbox
108.94314 40.958125 m
111.710083 40.958125 l
111.710083 52.594489 l
108.94314 52.594489 l
cl
0.122 0.467 0.706 setrgbcolor
fill
grestore
gsave
152.2 100.8 43.92 40.96 clipbox
111.710083 40.958125 m
114.477025 40.958125 l
114.477025 78.776307 l
111.710083 78.776307 l
cl
0.122 0.467 0.706 setrgbcolor
fill
grestore
gsave
152.2 100.8 43.92 40.96 clipbox
114.477025 40.958125 m
117.243967 40.958125 l
117.243967 99.139943 l
114.477025 99.139943 l
cl
0.122 0.467 0.706 setrgbcolor
fill
grestore
gsave
152.2 100.8 43.92 40.96 clipbox
117.243967 40.958125 m
120.010909 40.958125 l
120.010909 113.685398 l
117.243967 113.685398 l
cl
0.122 0.467 0.706 setrgbcolor
fill
grestore
gsave
152.2 100.8 43.92 40.96 clipbox
120.010909 40.958125 m
122.777851 40.958125 l
122.777851 75.867216 l
120.010909 75.867216 l
cl
0.122 0.467 0.706 setrgbcolor
fill
grestore
gsave
152.2 100.8 43.92 40.96 clipbox
122.777851 40.958125 m
125.544793 40.958125 l
125.544793 102.049034 l
122.777851 102.049034 l
cl
0.122 0.467 0.706 setrgbcolor
fill
grestore
gsave
152.2 100.8 43.92 40.96 clipbox
125.544793 40.958125 m
128.311736 40.958125 l
128.311736 110.776307 l
125.544793 110.776307 l
cl
0.122 0.467 0.706 setrgbcolor
fill
grestore
gsave
152.2 100.8 43.92 40.96 clipbox
128.311736 40.958125 m
131.078678 40.958125 l
131.078678 110.776307 l
128.311736 110.776307 l
cl
0.122 0.467 0.706 setrgbcolor
fill
grestore
gsave
152.2 100.8 43.92 40.96 clipbox
131.078678 40.958125 m
133.84562 40.958125 l
133.84562 136.958125 l
131.078678 136.958125 l
cl
0.122 0.467 0.706 setrgbcolor
fill
grestore
gsave
152.2 100.8 43.92 40.96 clipbox
133.84562 40.958125 m
136.612562 40.958125 l
136.612562 136.958125 l
133.84562 136.958125 l
cl
0.122 0.467 0.706 setrgbcolor
fill
grestore
gsave
152.2 100.8 43.92 40.96 clipbox
136.612562 40.958125 m
139.379504 40.958125 l
139.379504 119.50358 l
136.612562 119.50358 l
cl
0.122 0.467 0.706 setrgbcolor
fill
grestore
gsave
152.2 100.8 43.92 40.96 clipbox
139.379504 40.958125 m
142.146446 40.958125 l
142.146446 84.594489 l
139.379504 84.594489 l
cl
0.122 0.467 0.706 setrgbcolor
fill
grestore
gsave
152.2 100.8 43.92 40.96 clipbox
142.146446 40.958125 m
144.913388 40.958125 l
144.913388 84.594489 l
142.146446 84.594489 l
cl
0.122 0.467 0.706 setrgbcolor
fill
grestore
gsave
152.2 100.8 43.92 40.96 clipbox
144.913388 40.958125 m
147.680331 40.958125 l
147.680331 84.594489 l
144.913388 84.594489 l
cl
0.122 0.467 0.706 setrgbcolor
fill
grestore
gsave
152.2 100.8 43.92 40.96 clipbox
147.680331 40.958125 m
150.447273 40.958125 l
150.447273 61.321761 l
147.680331 61.321761 l
cl
0.122 0.467 0.706 setrgbcolor
fill
grestore
gsave
152.2 100.8 43.92 40.96 clipbox
150.447273 40.958125 m
153.214215 40.958125 l
153.214215 64.230852 l
150.447273 64.230852 l
cl
0.122 0.467 0.706 setrgbcolor
fill
grestore
gsave
152.2 100.8 43.92 40.96 clipbox
153.214215 40.958125 m
155.981157 40.958125 l
155.981157 55.50358 l
153.214215 55.50358 l
cl
0.122 0.467 0.706 setrgbcolor
fill
grestore
gsave
152.2 100.8 43.92 40.96 clipbox
155.981157 40.958125 m
158.748099 40.958125 l
158.748099 46.776307 l
155.981157 46.776307 l
cl
0.122 0.467 0.706 setrgbcolor
fill
grestore
gsave
152.2 100.8 43.92 40.96 clipbox
158.748099 40.958125 m
161.515041 40.958125 l
161.515041 40.958125 l
158.748099 40.958125 l
cl
0.122 0.467 0.706 setrgbcolor
fill
grestore
gsave
152.2 100.8 43.92 40.96 clipbox
161.515041 40.958125 m
164.281983 40.958125 l
164.281983 46.776307 l
161.515041 46.776307 l
cl
0.122 0.467 0.706 setrgbcolor
fill
grestore
gsave
152.2 100.8 43.92 40.96 clipbox
164.281983 40.958125 m
167.048926 40.958125 l
167.048926 43.867216 l
164.281983 43.867216 l
cl
0.122 0.467 0.706 setrgbcolor
fill
grestore
gsave
152.2 100.8 43.92 40.96 clipbox
167.048926 40.958125 m
169.815868 40.958125 l
169.815868 43.867216 l
167.048926 43.867216 l
cl
0.122 0.467 0.706 setrgbcolor
fill
grestore
gsave
152.2 100.8 43.92 40.96 clipbox
169.815868 40.958125 m
172.58281 40.958125 l
172.58281 43.867216 l
169.815868 43.867216 l
cl
0.122 0.467 0.706 setrgbcolor
fill
grestore
gsave
152.2 100.8 43.92 40.96 clipbox
172.58281 40.958125 m
175.349752 40.958125 l
175.349752 43.867216 l
172.58281 43.867216 l
cl
0.122 0.467 0.706 setrgbcolor
fill
grestore
gsave
152.2 100.8 43.92 40.96 clipbox
175.349752 40.958125 m
178.116694 40.958125 l
178.116694 40.958125 l
175.349752 40.958125 l
cl
0.122 0.467 0.706 setrgbcolor
fill
grestore
gsave
152.2 100.8 43.92 40.96 clipbox
178.116694 40.958125 m
180.883636 40.958125 l
180.883636 40.958125 l
178.116694 40.958125 l
cl
0.122 0.467 0.706 setrgbcolor
fill
grestore
gsave
152.2 100.8 43.92 40.96 clipbox
180.883636 40.958125 m
183.650579 40.958125 l
183.650579 40.958125 l
180.883636 40.958125 l
cl
0.122 0.467 0.706 setrgbcolor
fill
grestore
gsave
152.2 100.8 43.92 40.96 clipbox
183.650579 40.958125 m
186.417521 40.958125 l
186.417521 43.867216 l
183.650579 43.867216 l
cl
0.122 0.467 0.706 setrgbcolor
fill
grestore
gsave
152.2 100.8 43.92 40.96 clipbox
186.417521 40.958125 m
189.184463 40.958125 l
189.184463 43.867216 l
186.417521 43.867216 l
cl
0.122 0.467 0.706 setrgbcolor
fill
grestore
1 setlinejoin
0 setlinecap
[] 0 setdash
gsave
/o {
gsave
newpath
translate
0.8 setlinewidth
1 setlinejoin
0 setlinecap
0 0 m
0 -3.5 l

gsave
0.000 setgray
fill
grestore
stroke
grestore
} bind def
49.5304 40.9581 o
grestore
gsave
46.350745 26.364375 translate
0.000000 rotate
0.000000 0.000000 m /zero glyphshow
grestore
gsave
/o {
gsave
newpath
translate
0.8 setlinewidth
1 setlinejoin
0 setlinecap
0 0 m
0 -3.5 l

gsave
0.000 setgray
fill
grestore
stroke
grestore
} bind def
80.6476 40.9581 o
grestore
gsave
71.108578 26.364375 translate
0.000000 rotate
0.000000 0.000000 m /five glyphshow
6.362305 0.000000 m /zero glyphshow
12.724609 0.000000 m /zero glyphshow
grestore
gsave
/o {
gsave
newpath
translate
0.8 setlinewidth
1 setlinejoin
0 setlinecap
0 0 m
0 -3.5 l

gsave
0.000 setgray
fill
grestore
stroke
grestore
} bind def
111.765 40.9581 o
grestore
gsave
99.046099 26.364375 translate
0.000000 rotate
0.000000 0.000000 m /one glyphshow
6.362305 0.000000 m /zero glyphshow
12.724609 0.000000 m /zero glyphshow
19.086914 0.000000 m /zero glyphshow
grestore
gsave
/o {
gsave
newpath
translate
0.8 setlinewidth
1 setlinejoin
0 setlinecap
0 0 m
0 -3.5 l

gsave
0.000 setgray
fill
grestore
stroke
grestore
} bind def
142.882 40.9581 o
grestore
gsave
130.163307 26.364375 translate
0.000000 rotate
0.000000 0.000000 m /one glyphshow
6.362305 0.000000 m /five glyphshow
12.724609 0.000000 m /zero glyphshow
19.086914 0.000000 m /zero glyphshow
grestore
gsave
/o {
gsave
newpath
translate
0.8 setlinewidth
1 setlinejoin
0 setlinecap
0 0 m
0 -3.5 l

gsave
0.000 setgray
fill
grestore
stroke
grestore
} bind def
173.999 40.9581 o
grestore
gsave
161.280515 26.364375 translate
0.000000 rotate
0.000000 0.000000 m /two glyphshow
6.362305 0.000000 m /zero glyphshow
12.724609 0.000000 m /zero glyphshow
19.086914 0.000000 m /zero glyphshow
grestore
gsave
/o {
gsave
newpath
translate
0.8 setlinewidth
1 setlinejoin
0 setlinecap
0 0 m
-3.5 0 l

gsave
0.000 setgray
fill
grestore
stroke
grestore
} bind def
43.92 40.9581 o
grestore
gsave
30.560625 37.161250 translate
0.000000 rotate
0.000000 0.000000 m /zero glyphshow
grestore
gsave
/o {
gsave
newpath
translate
0.8 setlinewidth
1 setlinejoin
0 setlinecap
0 0 m
-3.5 0 l

gsave
0.000 setgray
fill
grestore
stroke
grestore
} bind def
43.92 70.049 o
grestore
gsave
24.201250 66.252159 translate
0.000000 rotate
0.000000 0.000000 m /one glyphshow
6.362305 0.000000 m /zero glyphshow
grestore
gsave
/o {
gsave
newpath
translate
0.8 setlinewidth
1 setlinejoin
0 setlinecap
0 0 m
-3.5 0 l

gsave
0.000 setgray
fill
grestore
stroke
grestore
} bind def
43.92 99.1399 o
grestore
gsave
24.201250 95.343068 translate
0.000000 rotate
0.000000 0.000000 m /two glyphshow
6.362305 0.000000 m /zero glyphshow
grestore
gsave
/o {
gsave
newpath
translate
0.8 setlinewidth
1 setlinejoin
0 setlinecap
0 0 m
-3.5 0 l

gsave
0.000 setgray
fill
grestore
stroke
grestore
} bind def
43.92 128.231 o
grestore
gsave
24.201250 124.433977 translate
0.000000 rotate
0.000000 0.000000 m /three glyphshow
6.362305 0.000000 m /zero glyphshow
grestore
0 setlinejoin
2 setlinecap
[] 0 setdash
gsave
43.92 40.958125 m
43.92 141.758125 l
stroke
grestore
gsave
196.101818 40.958125 m
196.101818 141.758125 l
stroke
grestore
gsave
43.92 40.958125 m
196.101818 40.958125 l
stroke
grestore
gsave
43.92 141.758125 m
196.101818 141.758125 l
stroke
grestore
gsave
226.538182 40.958125 m
378.72 40.958125 l
378.72 141.758125 l
226.538182 141.758125 l
cl
1.000 setgray
fill
grestore
gsave
152.2 100.8 226.5 40.96 clipbox
233.455537 40.958125 m
236.222479 40.958125 l
236.222479 57.41118 l
233.455537 57.41118 l
cl
0.122 0.467 0.706 setrgbcolor
fill
grestore
gsave
152.2 100.8 226.5 40.96 clipbox
236.222479 40.958125 m
238.989421 40.958125 l
238.989421 41.387335 l
236.222479 41.387335 l
cl
0.122 0.467 0.706 setrgbcolor
fill
grestore
gsave
152.2 100.8 226.5 40.96 clipbox
238.989421 40.958125 m
241.756364 40.958125 l
241.756364 41.101195 l
238.989421 41.101195 l
cl
0.122 0.467 0.706 setrgbcolor
fill
grestore
gsave
152.2 100.8 226.5 40.96 clipbox
241.756364 40.958125 m
244.523306 40.958125 l
244.523306 43.819526 l
241.756364 43.819526 l
cl
0.122 0.467 0.706 setrgbcolor
fill
grestore
gsave
152.2 100.8 226.5 40.96 clipbox
244.523306 40.958125 m
247.290248 40.958125 l
247.290248 50.543818 l
244.523306 50.543818 l
cl
0.122 0.467 0.706 setrgbcolor
fill
grestore
gsave
152.2 100.8 226.5 40.96 clipbox
247.290248 40.958125 m
250.05719 40.958125 l
250.05719 45.107156 l
247.290248 45.107156 l
cl
0.122 0.467 0.706 setrgbcolor
fill
grestore
gsave
152.2 100.8 226.5 40.96 clipbox
250.05719 40.958125 m
252.824132 40.958125 l
252.824132 48.397767 l
250.05719 48.397767 l
cl
0.122 0.467 0.706 setrgbcolor
fill
grestore
gsave
152.2 100.8 226.5 40.96 clipbox
252.824132 40.958125 m
255.591074 40.958125 l
255.591074 46.967067 l
252.824132 46.967067 l
cl
0.122 0.467 0.706 setrgbcolor
fill
grestore
gsave
152.2 100.8 226.5 40.96 clipbox
255.591074 40.958125 m
258.358017 40.958125 l
258.358017 42.674966 l
255.591074 42.674966 l
cl
0.122 0.467 0.706 setrgbcolor
fill
grestore
gsave
152.2 100.8 226.5 40.96 clipbox
258.358017 40.958125 m
261.124959 40.958125 l
261.124959 41.816545 l
258.358017 41.816545 l
cl
0.122 0.467 0.706 setrgbcolor
fill
grestore
gsave
152.2 100.8 226.5 40.96 clipbox
261.124959 40.958125 m
263.891901 40.958125 l
263.891901 42.674966 l
261.124959 42.674966 l
cl
0.122 0.467 0.706 setrgbcolor
fill
grestore
gsave
152.2 100.8 226.5 40.96 clipbox
263.891901 40.958125 m
266.658843 40.958125 l
266.658843 51.116098 l
263.891901 51.116098 l
cl
0.122 0.467 0.706 setrgbcolor
fill
grestore
gsave
152.2 100.8 226.5 40.96 clipbox
266.658843 40.958125 m
269.425785 40.958125 l
269.425785 73.005815 l
266.658843 73.005815 l
cl
0.122 0.467 0.706 setrgbcolor
fill
grestore
gsave
152.2 100.8 226.5 40.96 clipbox
269.425785 40.958125 m
272.192727 40.958125 l
272.192727 96.040092 l
269.425785 96.040092 l
cl
0.122 0.467 0.706 setrgbcolor
fill
grestore
gsave
152.2 100.8 226.5 40.96 clipbox
272.192727 40.958125 m
274.959669 40.958125 l
274.959669 109.774817 l
272.192727 109.774817 l
cl
0.122 0.467 0.706 setrgbcolor
fill
grestore
gsave
152.2 100.8 226.5 40.96 clipbox
274.959669 40.958125 m
277.726612 40.958125 l
277.726612 134.812074 l
274.959669 134.812074 l
cl
0.122 0.467 0.706 setrgbcolor
fill
grestore
gsave
152.2 100.8 226.5 40.96 clipbox
277.726612 40.958125 m
280.493554 40.958125 l
280.493554 136.958125 l
277.726612 136.958125 l
cl
0.122 0.467 0.706 setrgbcolor
fill
grestore
gsave
152.2 100.8 226.5 40.96 clipbox
280.493554 40.958125 m
283.260496 40.958125 l
283.260496 127.515502 l
280.493554 127.515502 l
cl
0.122 0.467 0.706 setrgbcolor
fill
grestore
gsave
152.2 100.8 226.5 40.96 clipbox
283.260496 40.958125 m
286.027438 40.958125 l
286.027438 94.895532 l
283.260496 94.895532 l
cl
0.122 0.467 0.706 setrgbcolor
fill
grestore
gsave
152.2 100.8 226.5 40.96 clipbox
286.027438 40.958125 m
288.79438 40.958125 l
288.79438 69.142924 l
286.027438 69.142924 l
cl
0.122 0.467 0.706 setrgbcolor
fill
grestore
gsave
152.2 100.8 226.5 40.96 clipbox
288.79438 40.958125 m
291.561322 40.958125 l
291.561322 56.26662 l
288.79438 56.26662 l
cl
0.122 0.467 0.706 setrgbcolor
fill
grestore
gsave
152.2 100.8 226.5 40.96 clipbox
291.561322 40.958125 m
294.328264 40.958125 l
294.328264 50.829958 l
291.561322 50.829958 l
cl
0.122 0.467 0.706 setrgbcolor
fill
grestore
gsave
152.2 100.8 226.5 40.96 clipbox
294.328264 40.958125 m
297.095207 40.958125 l
297.095207 45.536366 l
294.328264 45.536366 l
cl
0.122 0.467 0.706 setrgbcolor
fill
grestore
gsave
152.2 100.8 226.5 40.96 clipbox
297.095207 40.958125 m
299.862149 40.958125 l
299.862149 44.391806 l
297.095207 44.391806 l
cl
0.122 0.467 0.706 setrgbcolor
fill
grestore
gsave
152.2 100.8 226.5 40.96 clipbox
299.862149 40.958125 m
302.629091 40.958125 l
302.629091 45.250226 l
299.862149 45.250226 l
cl
0.122 0.467 0.706 setrgbcolor
fill
grestore
gsave
152.2 100.8 226.5 40.96 clipbox
302.629091 40.958125 m
305.396033 40.958125 l
305.396033 44.391806 l
302.629091 44.391806 l
cl
0.122 0.467 0.706 setrgbcolor
fill
grestore
gsave
152.2 100.8 226.5 40.96 clipbox
305.396033 40.958125 m
308.162975 40.958125 l
308.162975 45.107156 l
305.396033 45.107156 l
cl
0.122 0.467 0.706 setrgbcolor
fill
grestore
gsave
152.2 100.8 226.5 40.96 clipbox
308.162975 40.958125 m
310.929917 40.958125 l
310.929917 43.962596 l
308.162975 43.962596 l
cl
0.122 0.467 0.706 setrgbcolor
fill
grestore
gsave
152.2 100.8 226.5 40.96 clipbox
310.929917 40.958125 m
313.69686 40.958125 l
313.69686 42.818036 l
310.929917 42.818036 l
cl
0.122 0.467 0.706 setrgbcolor
fill
grestore
gsave
152.2 100.8 226.5 40.96 clipbox
313.69686 40.958125 m
316.463802 40.958125 l
316.463802 42.388825 l
313.69686 42.388825 l
cl
0.122 0.467 0.706 setrgbcolor
fill
grestore
gsave
152.2 100.8 226.5 40.96 clipbox
316.463802 40.958125 m
319.230744 40.958125 l
319.230744 42.388825 l
316.463802 42.388825 l
cl
0.122 0.467 0.706 setrgbcolor
fill
grestore
gsave
152.2 100.8 226.5 40.96 clipbox
319.230744 40.958125 m
321.997686 40.958125 l
321.997686 41.244265 l
319.230744 41.244265 l
cl
0.122 0.467 0.706 setrgbcolor
fill
grestore
gsave
152.2 100.8 226.5 40.96 clipbox
321.997686 40.958125 m
324.764628 40.958125 l
324.764628 41.101195 l
321.997686 41.101195 l
cl
0.122 0.467 0.706 setrgbcolor
fill
grestore
gsave
152.2 100.8 226.5 40.96 clipbox
324.764628 40.958125 m
327.53157 40.958125 l
327.53157 40.958125 l
324.764628 40.958125 l
cl
0.122 0.467 0.706 setrgbcolor
fill
grestore
gsave
152.2 100.8 226.5 40.96 clipbox
327.53157 40.958125 m
330.298512 40.958125 l
330.298512 41.101195 l
327.53157 41.101195 l
cl
0.122 0.467 0.706 setrgbcolor
fill
grestore
gsave
152.2 100.8 226.5 40.96 clipbox
330.298512 40.958125 m
333.065455 40.958125 l
333.065455 41.530405 l
330.298512 41.530405 l
cl
0.122 0.467 0.706 setrgbcolor
fill
grestore
gsave
152.2 100.8 226.5 40.96 clipbox
333.065455 40.958125 m
335.832397 40.958125 l
335.832397 41.530405 l
333.065455 41.530405 l
cl
0.122 0.467 0.706 setrgbcolor
fill
grestore
gsave
152.2 100.8 226.5 40.96 clipbox
335.832397 40.958125 m
338.599339 40.958125 l
338.599339 40.958125 l
335.832397 40.958125 l
cl
0.122 0.467 0.706 setrgbcolor
fill
grestore
gsave
152.2 100.8 226.5 40.96 clipbox
338.599339 40.958125 m
341.366281 40.958125 l
341.366281 40.958125 l
338.599339 40.958125 l
cl
0.122 0.467 0.706 setrgbcolor
fill
grestore
gsave
152.2 100.8 226.5 40.96 clipbox
341.366281 40.958125 m
344.133223 40.958125 l
344.133223 41.101195 l
341.366281 41.101195 l
cl
0.122 0.467 0.706 setrgbcolor
fill
grestore
gsave
152.2 100.8 226.5 40.96 clipbox
344.133223 40.958125 m
346.900165 40.958125 l
346.900165 40.958125 l
344.133223 40.958125 l
cl
0.122 0.467 0.706 setrgbcolor
fill
grestore
gsave
152.2 100.8 226.5 40.96 clipbox
346.900165 40.958125 m
349.667107 40.958125 l
349.667107 41.101195 l
346.900165 41.101195 l
cl
0.122 0.467 0.706 setrgbcolor
fill
grestore
gsave
152.2 100.8 226.5 40.96 clipbox
349.667107 40.958125 m
352.43405 40.958125 l
352.43405 40.958125 l
349.667107 40.958125 l
cl
0.122 0.467 0.706 setrgbcolor
fill
grestore
gsave
152.2 100.8 226.5 40.96 clipbox
352.43405 40.958125 m
355.200992 40.958125 l
355.200992 40.958125 l
352.43405 40.958125 l
cl
0.122 0.467 0.706 setrgbcolor
fill
grestore
gsave
152.2 100.8 226.5 40.96 clipbox
355.200992 40.958125 m
357.967934 40.958125 l
357.967934 40.958125 l
355.200992 40.958125 l
cl
0.122 0.467 0.706 setrgbcolor
fill
grestore
gsave
152.2 100.8 226.5 40.96 clipbox
357.967934 40.958125 m
360.734876 40.958125 l
360.734876 40.958125 l
357.967934 40.958125 l
cl
0.122 0.467 0.706 setrgbcolor
fill
grestore
gsave
152.2 100.8 226.5 40.96 clipbox
360.734876 40.958125 m
363.501818 40.958125 l
363.501818 40.958125 l
360.734876 40.958125 l
cl
0.122 0.467 0.706 setrgbcolor
fill
grestore
gsave
152.2 100.8 226.5 40.96 clipbox
363.501818 40.958125 m
366.26876 40.958125 l
366.26876 40.958125 l
363.501818 40.958125 l
cl
0.122 0.467 0.706 setrgbcolor
fill
grestore
gsave
152.2 100.8 226.5 40.96 clipbox
366.26876 40.958125 m
369.035702 40.958125 l
369.035702 41.387335 l
366.26876 41.387335 l
cl
0.122 0.467 0.706 setrgbcolor
fill
grestore
gsave
152.2 100.8 226.5 40.96 clipbox
369.035702 40.958125 m
371.802645 40.958125 l
371.802645 41.101195 l
369.035702 41.101195 l
cl
0.122 0.467 0.706 setrgbcolor
fill
grestore
1 setlinejoin
0 setlinecap
[] 0 setdash
gsave
/o {
gsave
newpath
translate
0.8 setlinewidth
1 setlinejoin
0 setlinecap
0 0 m
0 -3.5 l

gsave
0.000 setgray
fill
grestore
stroke
grestore
} bind def
233.209 40.9581 o
grestore
gsave
230.029179 26.364375 translate
0.000000 rotate
0.000000 0.000000 m /zero glyphshow
grestore
gsave
/o {
gsave
newpath
translate
0.8 setlinewidth
1 setlinejoin
0 setlinecap
0 0 m
0 -3.5 l

gsave
0.000 setgray
fill
grestore
stroke
grestore
} bind def
268.448 40.9581 o
grestore
gsave
255.728809 26.364375 translate
0.000000 rotate
0.000000 0.000000 m /one glyphshow
6.362305 0.000000 m /zero glyphshow
12.724609 0.000000 m /zero glyphshow
19.086914 0.000000 m /zero glyphshow
grestore
gsave
/o {
gsave
newpath
translate
0.8 setlinewidth
1 setlinejoin
0 setlinecap
0 0 m
0 -3.5 l

gsave
0.000 setgray
fill
grestore
stroke
grestore
} bind def
303.686 40.9581 o
grestore
gsave
290.967502 26.364375 translate
0.000000 rotate
0.000000 0.000000 m /two glyphshow
6.362305 0.000000 m /zero glyphshow
12.724609 0.000000 m /zero glyphshow
19.086914 0.000000 m /zero glyphshow
grestore
gsave
/o {
gsave
newpath
translate
0.8 setlinewidth
1 setlinejoin
0 setlinecap
0 0 m
0 -3.5 l

gsave
0.000 setgray
fill
grestore
stroke
grestore
} bind def
338.925 40.9581 o
grestore
gsave
326.206194 26.364375 translate
0.000000 rotate
0.000000 0.000000 m /three glyphshow
6.362305 0.000000 m /zero glyphshow
12.724609 0.000000 m /zero glyphshow
19.086914 0.000000 m /zero glyphshow
grestore
gsave
/o {
gsave
newpath
translate
0.8 setlinewidth
1 setlinejoin
0 setlinecap
0 0 m
0 -3.5 l

gsave
0.000 setgray
fill
grestore
stroke
grestore
} bind def
374.164 40.9581 o
grestore
gsave
361.444887 26.364375 translate
0.000000 rotate
0.000000 0.000000 m /four glyphshow
6.362305 0.000000 m /zero glyphshow
12.724609 0.000000 m /zero glyphshow
19.086914 0.000000 m /zero glyphshow
grestore
gsave
/o {
gsave
newpath
translate
0.8 setlinewidth
1 setlinejoin
0 setlinecap
0 0 m
-3.5 0 l

gsave
0.000 setgray
fill
grestore
stroke
grestore
} bind def
226.538 40.9581 o
grestore
gsave
213.178807 37.161250 translate
0.000000 rotate
0.000000 0.000000 m /zero glyphshow
grestore
gsave
/o {
gsave
newpath
translate
0.8 setlinewidth
1 setlinejoin
0 setlinecap
0 0 m
-3.5 0 l

gsave
0.000 setgray
fill
grestore
stroke
grestore
} bind def
226.538 69.5721 o
grestore
gsave
200.460057 65.775259 translate
0.000000 rotate
0.000000 0.000000 m /two glyphshow
6.362305 0.000000 m /zero glyphshow
12.724609 0.000000 m /zero glyphshow
grestore
gsave
/o {
gsave
newpath
translate
0.8 setlinewidth
1 setlinejoin
0 setlinecap
0 0 m
-3.5 0 l

gsave
0.000 setgray
fill
grestore
stroke
grestore
} bind def
226.538 98.1861 o
grestore
gsave
200.460057 94.389268 translate
0.000000 rotate
0.000000 0.000000 m /four glyphshow
6.362305 0.000000 m /zero glyphshow
12.724609 0.000000 m /zero glyphshow
grestore
gsave
/o {
gsave
newpath
translate
0.8 setlinewidth
1 setlinejoin
0 setlinecap
0 0 m
-3.5 0 l

gsave
0.000 setgray
fill
grestore
stroke
grestore
} bind def
226.538 126.8 o
grestore
gsave
200.460057 123.003277 translate
0.000000 rotate
0.000000 0.000000 m /six glyphshow
6.362305 0.000000 m /zero glyphshow
12.724609 0.000000 m /zero glyphshow
grestore
0 setlinejoin
2 setlinecap
[] 0 setdash
gsave
226.538182 40.958125 m
226.538182 141.758125 l
stroke
grestore
gsave
378.72 40.958125 m
378.72 141.758125 l
stroke
grestore
gsave
226.538182 40.958125 m
378.72 40.958125 l
stroke
grestore
gsave
226.538182 141.758125 m
378.72 141.758125 l
stroke
grestore
gsave
167.568438 9.278125 translate
0.000000 rotate
0.000000 0.000000 m /T glyphshow
6.108398 0.000000 m /i glyphshow
8.886719 0.000000 m /m glyphshow
18.627930 0.000000 m /e glyphshow
24.780273 0.000000 m /space glyphshow
27.958984 0.000000 m /bracketleft glyphshow
31.860352 0.000000 m /s glyphshow
37.070312 0.000000 m /e glyphshow
43.222656 0.000000 m /c glyphshow
48.720703 0.000000 m /o glyphshow
54.838867 0.000000 m /n glyphshow
61.176758 0.000000 m /d glyphshow
67.524414 0.000000 m /s glyphshow
72.734375 0.000000 m /bracketright glyphshow
grestore
gsave
14.793750 126.965625 translate
90.000000 rotate
0.000000 0.000000 m /F glyphshow
5.751953 0.000000 m /r glyphshow
9.863281 0.000000 m /e glyphshow
16.015625 0.000000 m /q glyphshow
22.363281 0.000000 m /u glyphshow
28.701172 0.000000 m /e glyphshow
34.853516 0.000000 m /n glyphshow
41.191406 0.000000 m /c glyphshow
46.689453 0.000000 m /y glyphshow
grestore

end
showpage
