%!PS-Adobe-3.0 EPSF-3.0
%%Title: results_max.eps
%%Creator: matplotlib version 2.2.2, http://matplotlib.org/
%%CreationDate: Mon Jun 11 15:00:15 2018
%%Orientation: portrait
%%BoundingBox: 115 262 496 529
%%EndComments
%%BeginProlog
/mpldict 9 dict def
mpldict begin
/m { moveto } bind def
/l { lineto } bind def
/r { rlineto } bind def
/c { curveto } bind def
/cl { closepath } bind def
/box {
m
1 index 0 r
0 exch r
neg 0 r
cl
} bind def
/clipbox {
box
clip
newpath
} bind def
%!PS-Adobe-3.0 Resource-Font
%%Title: DejaVu Sans
%%Copyright: Copyright (c) 2003 by Bitstream, Inc. All Rights Reserved. Copyright (c) 2006 by Tavmjong Bah. All Rights Reserved. DejaVu changes are in public domain 
%%Creator: Converted from TrueType to type 3 by PPR
25 dict begin
/_d{bind def}bind def
/_m{moveto}_d
/_l{lineto}_d
/_cl{closepath eofill}_d
/_c{curveto}_d
/_sc{7 -1 roll{setcachedevice}{pop pop pop pop pop pop}ifelse}_d
/_e{exec}_d
/FontName /DejaVuSans def
/PaintType 0 def
/FontMatrix[.001 0 0 .001 0 0]def
/FontBBox[-1021 -463 1793 1232]def
/FontType 3 def
/Encoding [ /space /zero /one /two /three /four /five /six /A /F /J /R /T /W /bracketleft /bracketright /a /b /c /d /e /g /i /j /l /m /n /o /r /s /t /u /v ] def
/FontInfo 10 dict dup begin
/FamilyName (DejaVu Sans) def
/FullName (DejaVu Sans) def
/Notice (Copyright (c) 2003 by Bitstream, Inc. All Rights Reserved. Copyright (c) 2006 by Tavmjong Bah. All Rights Reserved. DejaVu changes are in public domain ) def
/Weight (Book) def
/Version (Version 2.35) def
/ItalicAngle 0.0 def
/isFixedPitch false def
/UnderlinePosition -130 def
/UnderlineThickness 90 def
end readonly def
/CharStrings 34 dict dup begin
/.notdef 0 def
/space{318 0 0 0 0 0 _sc
}_d
/zero{636 0 66 -13 570 742 _sc
318 664 _m
267 664 229 639 203 589 _c
177 539 165 464 165 364 _c
165 264 177 189 203 139 _c
229 89 267 64 318 64 _c
369 64 407 89 433 139 _c
458 189 471 264 471 364 _c
471 464 458 539 433 589 _c
407 639 369 664 318 664 _c
318 742 _m
399 742 461 709 505 645 _c
548 580 570 486 570 364 _c
570 241 548 147 505 83 _c
461 19 399 -13 318 -13 _c
236 -13 173 19 130 83 _c
87 147 66 241 66 364 _c
66 486 87 580 130 645 _c
173 709 236 742 318 742 _c
_cl}_d
/one{636 0 110 0 544 729 _sc
124 83 _m
285 83 _l
285 639 _l
110 604 _l
110 694 _l
284 729 _l
383 729 _l
383 83 _l
544 83 _l
544 0 _l
124 0 _l
124 83 _l
_cl}_d
/two{{636 0 73 0 536 742 _sc
192 83 _m
536 83 _l
536 0 _l
73 0 _l
73 83 _l
110 121 161 173 226 239 _c
290 304 331 346 348 365 _c
380 400 402 430 414 455 _c
426 479 433 504 433 528 _c
433 566 419 598 392 622 _c
365 646 330 659 286 659 _c
255 659 222 653 188 643 _c
154 632 117 616 78 594 _c
78 694 _l
118 710 155 722 189 730 _c
223 738 255 742 284 742 _c
}_e{359 742 419 723 464 685 _c
509 647 532 597 532 534 _c
532 504 526 475 515 449 _c
504 422 484 390 454 354 _c
446 344 420 317 376 272 _c
332 227 271 164 192 83 _c
_cl}_e}_d
/three{{636 0 76 -13 556 742 _sc
406 393 _m
453 383 490 362 516 330 _c
542 298 556 258 556 212 _c
556 140 531 84 482 45 _c
432 6 362 -13 271 -13 _c
240 -13 208 -10 176 -4 _c
144 1 110 10 76 22 _c
76 117 _l
103 101 133 89 166 81 _c
198 73 232 69 268 69 _c
330 69 377 81 409 105 _c
441 129 458 165 458 212 _c
458 254 443 288 413 312 _c
383 336 341 349 287 349 _c
}_e{202 349 _l
202 430 _l
291 430 _l
339 430 376 439 402 459 _c
428 478 441 506 441 543 _c
441 580 427 609 401 629 _c
374 649 336 659 287 659 _c
260 659 231 656 200 650 _c
169 644 135 635 98 623 _c
98 711 _l
135 721 170 729 203 734 _c
235 739 266 742 296 742 _c
370 742 429 725 473 691 _c
517 657 539 611 539 553 _c
539 513 527 479 504 451 _c
481 423 448 403 406 393 _c
_cl}_e}_d
/four{636 0 49 0 580 729 _sc
378 643 _m
129 254 _l
378 254 _l
378 643 _l
352 729 _m
476 729 _l
476 254 _l
580 254 _l
580 172 _l
476 172 _l
476 0 _l
378 0 _l
378 172 _l
49 172 _l
49 267 _l
352 729 _l
_cl}_d
/five{{636 0 77 -13 549 729 _sc
108 729 _m
495 729 _l
495 646 _l
198 646 _l
198 467 _l
212 472 227 476 241 478 _c
255 480 270 482 284 482 _c
365 482 429 459 477 415 _c
525 370 549 310 549 234 _c
549 155 524 94 475 51 _c
426 8 357 -13 269 -13 _c
238 -13 207 -10 175 -6 _c
143 -1 111 6 77 17 _c
77 116 _l
106 100 136 88 168 80 _c
199 72 232 69 267 69 _c
}_e{323 69 368 83 401 113 _c
433 143 450 183 450 234 _c
450 284 433 324 401 354 _c
368 384 323 399 267 399 _c
241 399 214 396 188 390 _c
162 384 135 375 108 363 _c
108 729 _l
_cl}_e}_d
/six{{636 0 70 -13 573 742 _sc
330 404 _m
286 404 251 388 225 358 _c
199 328 186 286 186 234 _c
186 181 199 139 225 109 _c
251 79 286 64 330 64 _c
374 64 409 79 435 109 _c
461 139 474 181 474 234 _c
474 286 461 328 435 358 _c
409 388 374 404 330 404 _c
526 713 _m
526 623 _l
501 635 476 644 451 650 _c
425 656 400 659 376 659 _c
310 659 260 637 226 593 _c
}_e{192 549 172 482 168 394 _c
187 422 211 444 240 459 _c
269 474 301 482 336 482 _c
409 482 467 459 509 415 _c
551 371 573 310 573 234 _c
573 159 550 99 506 54 _c
462 9 403 -13 330 -13 _c
246 -13 181 19 137 83 _c
92 147 70 241 70 364 _c
70 479 97 571 152 639 _c
206 707 280 742 372 742 _c
396 742 421 739 447 735 _c
472 730 498 723 526 713 _c
_cl}_e}_d
/A{684 0 8 0 676 729 _sc
342 632 _m
208 269 _l
476 269 _l
342 632 _l
286 729 _m
398 729 _l
676 0 _l
573 0 _l
507 187 _l
178 187 _l
112 0 _l
8 0 _l
286 729 _l
_cl}_d
/F{575 0 98 0 517 729 _sc
98 729 _m
517 729 _l
517 646 _l
197 646 _l
197 431 _l
486 431 _l
486 348 _l
197 348 _l
197 0 _l
98 0 _l
98 729 _l
_cl}_d
/J{295 0 -51 -199 197 729 _sc
98 729 _m
197 729 _l
197 51 _l
197 -36 180 -99 147 -139 _c
113 -179 60 -199 -13 -199 _c
-51 -199 _l
-51 -116 _l
-20 -116 _l
22 -116 53 -103 71 -79 _c
89 -55 98 -11 98 51 _c
98 729 _l
_cl}_d
/R{{695 0 98 0 666 729 _sc
444 342 _m
465 334 486 319 506 296 _c
526 272 546 240 566 199 _c
666 0 _l
560 0 _l
467 187 _l
443 235 419 268 397 284 _c
374 300 343 308 304 308 _c
197 308 _l
197 0 _l
98 0 _l
98 729 _l
321 729 _l
404 729 466 711 507 677 _c
548 642 569 589 569 519 _c
569 473 558 434 537 404 _c
515 374 484 353 444 342 _c
197 648 _m
197 389 _l
321 389 _l
}_e{368 389 404 400 428 422 _c
452 444 465 476 465 519 _c
465 561 452 593 428 615 _c
404 637 368 648 321 648 _c
197 648 _l
_cl}_e}_d
/T{611 0 -2 0 614 729 _sc
-2 729 _m
614 729 _l
614 646 _l
355 646 _l
355 0 _l
256 0 _l
256 646 _l
-2 646 _l
-2 729 _l
_cl}_d
/W{989 0 33 0 956 729 _sc
33 729 _m
133 729 _l
286 113 _l
439 729 _l
550 729 _l
703 113 _l
856 729 _l
956 729 _l
773 0 _l
649 0 _l
495 633 _l
340 0 _l
216 0 _l
33 729 _l
_cl}_d
/bracketleft{390 0 86 -131 293 760 _sc
86 760 _m
293 760 _l
293 690 _l
176 690 _l
176 -61 _l
293 -61 _l
293 -131 _l
86 -131 _l
86 760 _l
_cl}_d
/bracketright{390 0 97 -131 304 760 _sc
304 760 _m
304 -131 _l
97 -131 _l
97 -61 _l
214 -61 _l
214 690 _l
97 690 _l
97 760 _l
304 760 _l
_cl}_d
/a{{613 0 60 -13 522 560 _sc
343 275 _m
270 275 220 266 192 250 _c
164 233 150 205 150 165 _c
150 133 160 107 181 89 _c
202 70 231 61 267 61 _c
317 61 357 78 387 114 _c
417 149 432 196 432 255 _c
432 275 _l
343 275 _l
522 312 _m
522 0 _l
432 0 _l
432 83 _l
411 49 385 25 355 10 _c
325 -5 287 -13 243 -13 _c
187 -13 142 2 109 33 _c
76 64 60 106 60 159 _c
}_e{60 220 80 266 122 298 _c
163 329 224 345 306 345 _c
432 345 _l
432 354 _l
432 395 418 427 391 450 _c
364 472 326 484 277 484 _c
245 484 215 480 185 472 _c
155 464 127 453 100 439 _c
100 522 _l
132 534 164 544 195 550 _c
226 556 256 560 286 560 _c
365 560 424 539 463 498 _c
502 457 522 395 522 312 _c
_cl}_e}_d
/b{{635 0 91 -13 580 760 _sc
487 273 _m
487 339 473 390 446 428 _c
418 466 381 485 334 485 _c
286 485 249 466 222 428 _c
194 390 181 339 181 273 _c
181 207 194 155 222 117 _c
249 79 286 61 334 61 _c
381 61 418 79 446 117 _c
473 155 487 207 487 273 _c
181 464 _m
199 496 223 520 252 536 _c
281 552 316 560 356 560 _c
422 560 476 533 518 481 _c
559 428 580 359 580 273 _c
}_e{580 187 559 117 518 65 _c
476 13 422 -13 356 -13 _c
316 -13 281 -5 252 10 _c
223 25 199 49 181 82 _c
181 0 _l
91 0 _l
91 760 _l
181 760 _l
181 464 _l
_cl}_e}_d
/c{{550 0 55 -13 488 560 _sc
488 526 _m
488 442 _l
462 456 437 466 411 473 _c
385 480 360 484 334 484 _c
276 484 230 465 198 428 _c
166 391 150 339 150 273 _c
150 206 166 154 198 117 _c
230 80 276 62 334 62 _c
360 62 385 65 411 72 _c
437 79 462 90 488 104 _c
488 21 _l
462 9 436 0 410 -5 _c
383 -10 354 -13 324 -13 _c
242 -13 176 12 128 64 _c
}_e{79 115 55 185 55 273 _c
55 362 79 432 128 483 _c
177 534 244 560 330 560 _c
358 560 385 557 411 551 _c
437 545 463 537 488 526 _c
_cl}_e}_d
/d{{635 0 55 -13 544 760 _sc
454 464 _m
454 760 _l
544 760 _l
544 0 _l
454 0 _l
454 82 _l
435 49 411 25 382 10 _c
353 -5 319 -13 279 -13 _c
213 -13 159 13 117 65 _c
75 117 55 187 55 273 _c
55 359 75 428 117 481 _c
159 533 213 560 279 560 _c
319 560 353 552 382 536 _c
411 520 435 496 454 464 _c
148 273 _m
148 207 161 155 188 117 _c
215 79 253 61 301 61 _c
}_e{348 61 385 79 413 117 _c
440 155 454 207 454 273 _c
454 339 440 390 413 428 _c
385 466 348 485 301 485 _c
253 485 215 466 188 428 _c
161 390 148 339 148 273 _c
_cl}_e}_d
/e{{615 0 55 -13 562 560 _sc
562 296 _m
562 252 _l
149 252 _l
153 190 171 142 205 110 _c
238 78 284 62 344 62 _c
378 62 412 66 444 74 _c
476 82 509 95 541 113 _c
541 28 _l
509 14 476 3 442 -3 _c
408 -9 373 -13 339 -13 _c
251 -13 182 12 131 62 _c
80 112 55 181 55 268 _c
55 357 79 428 127 481 _c
175 533 241 560 323 560 _c
397 560 455 536 498 489 _c
}_e{540 441 562 377 562 296 _c
472 322 _m
471 371 457 410 431 440 _c
404 469 368 484 324 484 _c
274 484 234 469 204 441 _c
174 413 156 373 152 322 _c
472 322 _l
_cl}_e}_d
/g{{635 0 55 -207 544 560 _sc
454 280 _m
454 344 440 395 414 431 _c
387 467 349 485 301 485 _c
253 485 215 467 188 431 _c
161 395 148 344 148 280 _c
148 215 161 165 188 129 _c
215 93 253 75 301 75 _c
349 75 387 93 414 129 _c
440 165 454 215 454 280 _c
544 68 _m
544 -24 523 -93 482 -139 _c
440 -184 377 -207 292 -207 _c
260 -207 231 -204 203 -200 _c
175 -195 147 -188 121 -178 _c
}_e{121 -91 _l
147 -105 173 -115 199 -122 _c
225 -129 251 -133 278 -133 _c
336 -133 380 -117 410 -87 _c
439 -56 454 -10 454 52 _c
454 96 _l
435 64 411 40 382 24 _c
353 8 319 0 279 0 _c
211 0 157 25 116 76 _c
75 127 55 195 55 280 _c
55 364 75 432 116 483 _c
157 534 211 560 279 560 _c
319 560 353 552 382 536 _c
411 520 435 496 454 464 _c
454 547 _l
544 547 _l
}_e{544 68 _l
_cl}_e}_d
/i{278 0 94 0 184 760 _sc
94 547 _m
184 547 _l
184 0 _l
94 0 _l
94 547 _l
94 760 _m
184 760 _l
184 646 _l
94 646 _l
94 760 _l
_cl}_d
/j{278 0 -17 -207 184 760 _sc
94 547 _m
184 547 _l
184 -9 _l
184 -78 170 -128 144 -160 _c
117 -191 74 -207 16 -207 _c
-17 -207 _l
-17 -131 _l
6 -131 _l
40 -131 63 -123 75 -107 _c
87 -91 94 -58 94 -9 _c
94 547 _l
94 760 _m
184 760 _l
184 646 _l
94 646 _l
94 760 _l
_cl}_d
/l{278 0 94 0 184 760 _sc
94 760 _m
184 760 _l
184 0 _l
94 0 _l
94 760 _l
_cl}_d
/m{{974 0 91 0 889 560 _sc
520 442 _m
542 482 569 511 600 531 _c
631 550 668 560 711 560 _c
767 560 811 540 842 500 _c
873 460 889 403 889 330 _c
889 0 _l
799 0 _l
799 327 _l
799 379 789 418 771 444 _c
752 469 724 482 686 482 _c
639 482 602 466 575 435 _c
548 404 535 362 535 309 _c
535 0 _l
445 0 _l
445 327 _l
445 379 435 418 417 444 _c
398 469 369 482 331 482 _c
}_e{285 482 248 466 221 435 _c
194 404 181 362 181 309 _c
181 0 _l
91 0 _l
91 547 _l
181 547 _l
181 462 _l
201 495 226 520 255 536 _c
283 552 317 560 357 560 _c
397 560 430 550 458 530 _c
486 510 506 480 520 442 _c
_cl}_e}_d
/n{634 0 91 0 549 560 _sc
549 330 _m
549 0 _l
459 0 _l
459 327 _l
459 379 448 417 428 443 _c
408 469 378 482 338 482 _c
289 482 251 466 223 435 _c
195 404 181 362 181 309 _c
181 0 _l
91 0 _l
91 547 _l
181 547 _l
181 462 _l
202 494 227 519 257 535 _c
286 551 320 560 358 560 _c
420 560 468 540 500 501 _c
532 462 549 405 549 330 _c
_cl}_d
/o{612 0 55 -13 557 560 _sc
306 484 _m
258 484 220 465 192 427 _c
164 389 150 338 150 273 _c
150 207 163 156 191 118 _c
219 80 257 62 306 62 _c
354 62 392 80 420 118 _c
448 156 462 207 462 273 _c
462 337 448 389 420 427 _c
392 465 354 484 306 484 _c
306 560 _m
384 560 445 534 490 484 _c
534 433 557 363 557 273 _c
557 183 534 113 490 63 _c
445 12 384 -13 306 -13 _c
227 -13 165 12 121 63 _c
77 113 55 183 55 273 _c
55 363 77 433 121 484 _c
165 534 227 560 306 560 _c
_cl}_d
/r{411 0 91 0 411 560 _sc
411 463 _m
401 469 390 473 378 476 _c
366 478 353 480 339 480 _c
288 480 249 463 222 430 _c
194 397 181 350 181 288 _c
181 0 _l
91 0 _l
91 547 _l
181 547 _l
181 462 _l
199 495 224 520 254 536 _c
284 552 321 560 365 560 _c
371 560 378 559 386 559 _c
393 558 401 557 411 555 _c
411 463 _l
_cl}_d
/s{{521 0 54 -13 472 560 _sc
443 531 _m
443 446 _l
417 458 391 468 364 475 _c
336 481 308 485 279 485 _c
234 485 200 478 178 464 _c
156 450 145 430 145 403 _c
145 382 153 366 169 354 _c
185 342 217 330 265 320 _c
296 313 _l
360 299 405 279 432 255 _c
458 230 472 195 472 151 _c
472 100 452 60 412 31 _c
372 1 316 -13 246 -13 _c
216 -13 186 -10 154 -5 _c
}_e{122 0 89 8 54 20 _c
54 113 _l
87 95 120 82 152 74 _c
184 65 216 61 248 61 _c
290 61 323 68 346 82 _c
368 96 380 117 380 144 _c
380 168 371 187 355 200 _c
339 213 303 226 247 238 _c
216 245 _l
160 257 119 275 95 299 _c
70 323 58 356 58 399 _c
58 450 76 490 112 518 _c
148 546 200 560 268 560 _c
301 560 332 557 362 552 _c
391 547 418 540 443 531 _c
}_e{_cl}_e}_d
/t{392 0 27 0 368 702 _sc
183 702 _m
183 547 _l
368 547 _l
368 477 _l
183 477 _l
183 180 _l
183 135 189 106 201 94 _c
213 81 238 75 276 75 _c
368 75 _l
368 0 _l
276 0 _l
206 0 158 13 132 39 _c
106 65 93 112 93 180 _c
93 477 _l
27 477 _l
27 547 _l
93 547 _l
93 702 _l
183 702 _l
_cl}_d
/u{634 0 85 -13 543 560 _sc
85 216 _m
85 547 _l
175 547 _l
175 219 _l
175 167 185 129 205 103 _c
225 77 255 64 296 64 _c
344 64 383 79 411 110 _c
439 141 453 183 453 237 _c
453 547 _l
543 547 _l
543 0 _l
453 0 _l
453 84 _l
431 50 405 26 377 10 _c
348 -5 315 -13 277 -13 _c
214 -13 166 6 134 45 _c
101 83 85 140 85 216 _c
311 560 _m
311 560 _l
_cl}_d
/v{592 0 30 0 562 547 _sc
30 547 _m
125 547 _l
296 88 _l
467 547 _l
562 547 _l
357 0 _l
235 0 _l
30 547 _l
_cl}_d
end readonly def

/BuildGlyph
 {exch begin
 CharStrings exch
 2 copy known not{pop /.notdef}if
 true 3 1 roll get exec
 end}_d

/BuildChar {
 1 index /Encoding get exch get
 1 index /BuildGlyph get exec
}_d

FontName currentdict end definefont pop
%!PS-Adobe-3.0 Resource-Font
%%Title: DejaVu Sans Oblique
%%Copyright: Copyright (c) 2003 by Bitstream, Inc. All Rights Reserved. Copyright (c) 2006 by Tavmjong Bah. All Rights Reserved. DejaVu changes are in public domain 
%%Creator: Converted from TrueType to type 3 by PPR
25 dict begin
/_d{bind def}bind def
/_m{moveto}_d
/_l{lineto}_d
/_cl{closepath eofill}_d
/_c{curveto}_d
/_sc{7 -1 roll{setcachedevice}{pop pop pop pop pop pop}ifelse}_d
/_e{exec}_d
/FontName /DejaVuSans-Oblique def
/PaintType 0 def
/FontMatrix[.001 0 0 .001 0 0]def
/FontBBox[-1016 -350 1659 1068]def
/FontType 3 def
/Encoding [ /a /f /k /m /q /r /x ] def
/FontInfo 10 dict dup begin
/FamilyName (DejaVu Sans) def
/FullName (DejaVu Sans Oblique) def
/Notice (Copyright (c) 2003 by Bitstream, Inc. All Rights Reserved. Copyright (c) 2006 by Tavmjong Bah. All Rights Reserved. DejaVu changes are in public domain ) def
/Weight (Oblique) def
/Version (Version 2.35) def
/ItalicAngle -11.0 def
/isFixedPitch false def
/UnderlinePosition -130 def
/UnderlineThickness 90 def
end readonly def
/CharStrings 8 dict dup begin
/.notdef 0 def
/a{{613 0 41 -13 547 560 _sc
537 312 _m
476 0 _l
386 0 _l
403 83 _l
376 50 346 26 312 10 _c
278 -5 241 -13 200 -13 _c
153 -13 115 1 85 29 _c
55 57 41 93 41 138 _c
41 202 66 252 117 289 _c
168 326 238 345 328 345 _c
453 345 _l
458 369 _l
458 371 459 374 459 377 _c
459 380 460 385 460 392 _c
460 421 448 444 424 460 _c
400 476 367 484 325 484 _c
}_e{295 484 265 480 235 472 _c
204 464 172 453 140 439 _c
156 522 _l
190 534 223 544 255 550 _c
287 556 319 560 349 560 _c
413 560 462 546 496 518 _c
530 490 547 449 547 396 _c
547 385 546 372 544 358 _c
542 343 540 328 537 312 _c
440 275 _m
350 275 _l
276 275 222 265 187 245 _c
151 225 134 195 134 154 _c
134 125 143 102 161 86 _c
179 70 204 62 236 62 _c
}_e{284 62 327 79 363 114 _c
399 149 424 196 436 255 _c
440 275 _l
_cl}_e}_d
/f{352 0 68 0 478 760 _sc
478 760 _m
464 685 _l
378 685 _l
345 685 321 678 307 665 _c
292 652 281 629 274 595 _c
264 547 _l
412 547 _l
399 477 _l
251 477 _l
158 0 _l
68 0 _l
161 477 _l
75 477 _l
88 547 _l
174 547 _l
181 585 _l
193 649 215 695 246 721 _c
277 747 326 760 393 760 _c
478 760 _l
_cl}_d
/k{579 0 35 0 612 760 _sc
183 760 _m
273 760 _l
187 317 _l
495 547 _l
612 547 _l
268 285 _l
519 0 _l
410 0 _l
177 267 _l
125 0 _l
35 0 _l
183 760 _l
_cl}_d
/m{{974 0 35 0 906 560 _sc
898 330 _m
834 0 _l
744 0 _l
807 327 _l
809 341 811 353 813 363 _c
814 373 815 381 815 389 _c
815 418 806 441 790 457 _c
774 473 751 482 722 482 _c
678 482 639 465 605 433 _c
571 400 549 357 539 305 _c
479 0 _l
389 0 _l
453 327 _l
455 339 457 350 459 360 _c
460 370 461 380 461 388 _c
461 418 452 441 436 457 _c
420 473 397 482 369 482 _c
}_e{325 482 285 465 251 433 _c
217 400 195 357 185 305 _c
125 0 _l
35 0 _l
142 547 _l
232 547 _l
215 462 _l
239 494 267 518 300 535 _c
333 551 368 560 406 560 _c
445 560 477 549 503 529 _c
529 508 544 479 550 442 _c
577 480 609 510 645 530 _c
681 550 719 560 759 560 _c
805 560 841 546 867 519 _c
893 492 906 454 906 405 _c
906 394 905 382 904 369 _c
}_e{902 356 900 343 898 330 _c
_cl}_e}_d
/q{{635 0 46 -205 597 560 _sc
417 82 _m
393 50 364 27 332 11 _c
299 -5 263 -13 223 -13 _c
167 -13 124 5 93 42 _c
61 79 46 130 46 196 _c
46 248 55 299 75 348 _c
94 397 122 441 158 481 _c
181 506 208 525 239 539 _c
269 553 301 560 335 560 _c
375 560 409 552 435 536 _c
461 520 479 496 491 464 _c
507 546 _l
597 546 _l
451 -205 _l
361 -205 _l
417 82 _l
139 209 _m
}_e{139 161 149 124 169 99 _c
189 73 219 61 257 61 _c
313 61 362 88 402 142 _c
442 196 462 262 462 340 _c
462 386 451 422 431 447 _c
410 472 380 485 342 485 _c
313 485 287 478 263 465 _c
239 451 218 432 200 407 _c
181 380 166 349 155 313 _c
144 277 139 243 139 209 _c
_cl}_e}_d
/r{411 0 35 0 463 560 _sc
446 464 _m
436 468 426 472 414 475 _c
402 477 390 479 377 479 _c
329 479 287 460 251 424 _c
215 388 192 339 180 279 _c
125 0 _l
35 0 _l
142 547 _l
232 547 _l
215 462 _l
238 493 266 517 300 534 _c
333 551 368 560 406 560 _c
415 560 424 559 434 558 _c
444 557 453 555 463 553 _c
446 464 _l
_cl}_d
/x{592 0 -25 0 600 547 _sc
600 547 _m
349 279 _l
503 0 _l
400 0 _l
284 217 _l
83 0 _l
-25 0 _l
243 288 _l
100 547 _l
203 547 _l
308 349 _l
491 547 _l
600 547 _l
_cl}_d
end readonly def

/BuildGlyph
 {exch begin
 CharStrings exch
 2 copy known not{pop /.notdef}if
 true 3 1 roll get exec
 end}_d

/BuildChar {
 1 index /Encoding get exch get
 1 index /BuildGlyph get exec
}_d

FontName currentdict end definefont pop
end
%%EndProlog
mpldict begin
115.181 262.92 translate
381.637 266.16 0 0 clipbox
gsave
0 0 m
381.6375 0 l
381.6375 266.16 l
0 266.16 l
cl
1.000 setgray
fill
grestore
gsave
36.1375 154.66 m
370.9375 154.66 l
370.9375 255.46 l
36.1375 255.46 l
cl
1.000 setgray
fill
grestore
0.800 setlinewidth
1 setlinejoin
0 setlinecap
[0.8 1.32] 0 setdash
0.690 setgray
gsave
334.8 100.8 36.14 154.7 clipbox
36.1375 154.66 m
36.1375 255.46 l
stroke
grestore
[] 0 setdash
0.000 setgray
gsave
/o {
gsave
newpath
translate
0.8 setlinewidth
1 setlinejoin
0 setlinecap
0 0 m
0 -3.5 l

gsave
0.000 setgray
fill
grestore
stroke
grestore
} bind def
36.1375 154.66 o
grestore
/DejaVuSans findfont
8.000 scalefont
setfont
gsave
33.590625 141.581875 translate
0.000000 rotate
0.000000 0.000000 m /zero glyphshow
grestore
[0.8 1.32] 0 setdash
0.690 setgray
gsave
334.8 100.8 36.14 154.7 clipbox
74.182955 154.66 m
74.182955 255.46 l
stroke
grestore
[] 0 setdash
0.000 setgray
gsave
/o {
gsave
newpath
translate
0.8 setlinewidth
1 setlinejoin
0 setlinecap
0 0 m
0 -3.5 l

gsave
0.000 setgray
fill
grestore
stroke
grestore
} bind def
74.183 154.66 o
grestore
gsave
69.089205 141.581875 translate
0.000000 rotate
0.000000 0.000000 m /five glyphshow
5.089844 0.000000 m /zero glyphshow
grestore
[0.8 1.32] 0 setdash
0.690 setgray
gsave
334.8 100.8 36.14 154.7 clipbox
112.228409 154.66 m
112.228409 255.46 l
stroke
grestore
[] 0 setdash
0.000 setgray
gsave
/o {
gsave
newpath
translate
0.8 setlinewidth
1 setlinejoin
0 setlinecap
0 0 m
0 -3.5 l

gsave
0.000 setgray
fill
grestore
stroke
grestore
} bind def
112.228 154.66 o
grestore
gsave
104.587784 141.581875 translate
0.000000 rotate
0.000000 0.000000 m /one glyphshow
5.089844 0.000000 m /zero glyphshow
10.179688 0.000000 m /zero glyphshow
grestore
[0.8 1.32] 0 setdash
0.690 setgray
gsave
334.8 100.8 36.14 154.7 clipbox
150.273864 154.66 m
150.273864 255.46 l
stroke
grestore
[] 0 setdash
0.000 setgray
gsave
/o {
gsave
newpath
translate
0.8 setlinewidth
1 setlinejoin
0 setlinecap
0 0 m
0 -3.5 l

gsave
0.000 setgray
fill
grestore
stroke
grestore
} bind def
150.274 154.66 o
grestore
gsave
142.633239 141.581875 translate
0.000000 rotate
0.000000 0.000000 m /one glyphshow
5.089844 0.000000 m /five glyphshow
10.179688 0.000000 m /zero glyphshow
grestore
[0.8 1.32] 0 setdash
0.690 setgray
gsave
334.8 100.8 36.14 154.7 clipbox
188.319318 154.66 m
188.319318 255.46 l
stroke
grestore
[] 0 setdash
0.000 setgray
gsave
/o {
gsave
newpath
translate
0.8 setlinewidth
1 setlinejoin
0 setlinecap
0 0 m
0 -3.5 l

gsave
0.000 setgray
fill
grestore
stroke
grestore
} bind def
188.319 154.66 o
grestore
gsave
180.678693 141.581875 translate
0.000000 rotate
0.000000 0.000000 m /two glyphshow
5.089844 0.000000 m /zero glyphshow
10.179688 0.000000 m /zero glyphshow
grestore
[0.8 1.32] 0 setdash
0.690 setgray
gsave
334.8 100.8 36.14 154.7 clipbox
226.364773 154.66 m
226.364773 255.46 l
stroke
grestore
[] 0 setdash
0.000 setgray
gsave
/o {
gsave
newpath
translate
0.8 setlinewidth
1 setlinejoin
0 setlinecap
0 0 m
0 -3.5 l

gsave
0.000 setgray
fill
grestore
stroke
grestore
} bind def
226.365 154.66 o
grestore
gsave
218.724148 141.581875 translate
0.000000 rotate
0.000000 0.000000 m /two glyphshow
5.089844 0.000000 m /five glyphshow
10.179688 0.000000 m /zero glyphshow
grestore
[0.8 1.32] 0 setdash
0.690 setgray
gsave
334.8 100.8 36.14 154.7 clipbox
264.410227 154.66 m
264.410227 255.46 l
stroke
grestore
[] 0 setdash
0.000 setgray
gsave
/o {
gsave
newpath
translate
0.8 setlinewidth
1 setlinejoin
0 setlinecap
0 0 m
0 -3.5 l

gsave
0.000 setgray
fill
grestore
stroke
grestore
} bind def
264.41 154.66 o
grestore
gsave
256.769602 141.581875 translate
0.000000 rotate
0.000000 0.000000 m /three glyphshow
5.089844 0.000000 m /zero glyphshow
10.179688 0.000000 m /zero glyphshow
grestore
[0.8 1.32] 0 setdash
0.690 setgray
gsave
334.8 100.8 36.14 154.7 clipbox
302.455682 154.66 m
302.455682 255.46 l
stroke
grestore
[] 0 setdash
0.000 setgray
gsave
/o {
gsave
newpath
translate
0.8 setlinewidth
1 setlinejoin
0 setlinecap
0 0 m
0 -3.5 l

gsave
0.000 setgray
fill
grestore
stroke
grestore
} bind def
302.456 154.66 o
grestore
gsave
294.815057 141.581875 translate
0.000000 rotate
0.000000 0.000000 m /three glyphshow
5.089844 0.000000 m /five glyphshow
10.179688 0.000000 m /zero glyphshow
grestore
[0.8 1.32] 0 setdash
0.690 setgray
gsave
334.8 100.8 36.14 154.7 clipbox
340.501136 154.66 m
340.501136 255.46 l
stroke
grestore
[] 0 setdash
0.000 setgray
gsave
/o {
gsave
newpath
translate
0.8 setlinewidth
1 setlinejoin
0 setlinecap
0 0 m
0 -3.5 l

gsave
0.000 setgray
fill
grestore
stroke
grestore
} bind def
340.501 154.66 o
grestore
gsave
332.860511 141.581875 translate
0.000000 rotate
0.000000 0.000000 m /four glyphshow
5.089844 0.000000 m /zero glyphshow
10.179688 0.000000 m /zero glyphshow
grestore
gsave
172.865625 129.831875 translate
0.000000 rotate
0.000000 0.000000 m /T glyphshow
4.886719 0.000000 m /i glyphshow
7.109375 0.000000 m /m glyphshow
14.902344 0.000000 m /e glyphshow
19.824219 0.000000 m /space glyphshow
22.367188 0.000000 m /bracketleft glyphshow
25.488281 0.000000 m /s glyphshow
29.656250 0.000000 m /e glyphshow
34.578125 0.000000 m /c glyphshow
38.976562 0.000000 m /o glyphshow
43.871094 0.000000 m /n glyphshow
48.941406 0.000000 m /d glyphshow
54.019531 0.000000 m /s glyphshow
58.187500 0.000000 m /bracketright glyphshow
grestore
[0.8 1.32] 0 setdash
0.690 setgray
gsave
334.8 100.8 36.14 154.7 clipbox
36.1375 159.241818 m
370.9375 159.241818 l
stroke
grestore
[] 0 setdash
0.000 setgray
gsave
/o {
gsave
newpath
translate
0.8 setlinewidth
1 setlinejoin
0 setlinecap
0 0 m
-3.5 0 l

gsave
0.000 setgray
fill
grestore
stroke
grestore
} bind def
36.1375 159.242 o
grestore
gsave
24.043750 156.202756 translate
0.000000 rotate
0.000000 0.000000 m /zero glyphshow
grestore
[0.8 1.32] 0 setdash
0.690 setgray
gsave
334.8 100.8 36.14 154.7 clipbox
36.1375 189.787273 m
370.9375 189.787273 l
stroke
grestore
[] 0 setdash
0.000 setgray
gsave
/o {
gsave
newpath
translate
0.8 setlinewidth
1 setlinejoin
0 setlinecap
0 0 m
-3.5 0 l

gsave
0.000 setgray
fill
grestore
stroke
grestore
} bind def
36.1375 189.787 o
grestore
gsave
18.950000 186.748210 translate
0.000000 rotate
0.000000 0.000000 m /two glyphshow
5.089844 0.000000 m /zero glyphshow
grestore
[0.8 1.32] 0 setdash
0.690 setgray
gsave
334.8 100.8 36.14 154.7 clipbox
36.1375 220.332727 m
370.9375 220.332727 l
stroke
grestore
[] 0 setdash
0.000 setgray
gsave
/o {
gsave
newpath
translate
0.8 setlinewidth
1 setlinejoin
0 setlinecap
0 0 m
-3.5 0 l

gsave
0.000 setgray
fill
grestore
stroke
grestore
} bind def
36.1375 220.333 o
grestore
gsave
18.950000 217.293665 translate
0.000000 rotate
0.000000 0.000000 m /four glyphshow
5.089844 0.000000 m /zero glyphshow
grestore
[0.8 1.32] 0 setdash
0.690 setgray
gsave
334.8 100.8 36.14 154.7 clipbox
36.1375 250.878182 m
370.9375 250.878182 l
stroke
grestore
[] 0 setdash
0.000 setgray
gsave
/o {
gsave
newpath
translate
0.8 setlinewidth
1 setlinejoin
0 setlinecap
0 0 m
-3.5 0 l

gsave
0.000 setgray
fill
grestore
stroke
grestore
} bind def
36.1375 250.878 o
grestore
gsave
18.950000 247.839119 translate
0.000000 rotate
0.000000 0.000000 m /six glyphshow
5.089844 0.000000 m /zero glyphshow
grestore
gsave
13.278125 196.810000 translate
90.000000 rotate
0.000000 0.000000 m /J glyphshow
2.359375 0.000000 m /o glyphshow
7.253906 0.000000 m /b glyphshow
12.332031 0.000000 m /s glyphshow
grestore
1.500 setlinewidth
[5.55 2.4] 0 setdash
0.502 setgray
gsave
334.8 100.8 36.14 154.7 clipbox
36.1375 250.878182 m
40.209451 250.878182 l
43.875055 250.878182 l
47.244542 250.878182 l
51.211699 250.878182 l
54.889642 250.878182 l
59.392389 250.878182 l
64.439767 250.878182 l
69.392173 250.878182 l
73.881599 250.878182 l
78.349547 250.878182 l
84.465877 250.878182 l
90.896574 250.878182 l
97.745387 250.878182 l
105.781249 250.878182 l
112.737521 250.878182 l
119.528642 250.878182 l
127.144112 250.878182 l
134.930651 250.878182 l
141.791587 250.878182 l
148.341693 250.878182 l
156.782467 250.878182 l
164.245685 250.878182 l
171.924406 250.878182 l
179.660261 250.878182 l
186.749501 250.878182 l
195.247126 250.878182 l
202.437141 250.878182 l
206.854826 250.878182 l
211.152979 250.878182 l
215.301549 250.878182 l
219.090524 250.878182 l
222.660509 250.878182 l
226.743463 250.878182 l
231.212894 250.878182 l
234.843695 250.878182 l
238.448206 250.878182 l
242.66394 250.878182 l
246.209942 250.878182 l
250.007239 250.878182 l
253.678358 250.878182 l
257.792062 250.878182 l
261.102049 250.878182 l
265.166411 250.878182 l
269.228698 250.878182 l
272.523795 250.878182 l
276.584949 250.878182 l
280.649648 250.878182 l
283.944479 250.878182 l
288.002836 250.878182 l
292.06912 250.878182 l
295.369039 250.878182 l
299.425045 250.878182 l
303.483292 250.878182 l
306.785002 250.878182 l
310.842474 250.878182 l
314.830819 250.878182 l
318.131344 250.878182 l
322.188045 250.878182 l
326.246662 250.878182 l
329.54509 250.878182 l
333.601628 250.878182 l
337.573136 250.878182 l
341.085401 250.878182 l
345.148219 250.878182 l
349.202399 250.878182 l
352.495818 250.878182 l
356.556405 250.878182 l
360.630901 250.878182 l
363.930776 250.878182 l
367.984162 250.878182 l
372.041273 250.878182 l
375.341985 250.878182 l
379.399815 250.878182 l
stroke
grestore
2 setlinecap
[] 0 setdash
0.122 0.467 0.706 setrgbcolor
gsave
334.8 100.8 36.14 154.7 clipbox
36.1375 159.241818 m
47.244542 159.241818 l
47.244542 174.514545 l
54.889642 174.514545 l
54.889642 192.841818 l
64.439767 192.841818 l
64.439767 211.169091 l
69.392173 211.169091 l
69.392173 227.969091 l
73.881599 227.969091 l
73.881599 214.223636 l
78.349547 214.223636 l
78.349547 240.187273 l
84.465877 240.187273 l
84.465877 246.296364 l
90.896574 246.296364 l
90.896574 247.823636 l
97.745387 247.823636 l
97.745387 243.241818 l
105.781249 243.241818 l
105.781249 244.769091 l
112.737521 244.769091 l
112.737521 249.350909 l
127.144112 249.350909 l
127.144112 247.823636 l
134.930651 247.823636 l
134.930651 250.878182 l
156.782467 250.878182 l
156.782467 249.350909 l
164.245685 249.350909 l
164.245685 246.296364 l
171.924406 246.296364 l
171.924406 240.187273 l
179.660261 240.187273 l
179.660261 226.441818 l
186.749501 226.441818 l
186.749501 243.241818 l
202.437141 243.241818 l
202.437141 237.132727 l
206.854826 237.132727 l
206.854826 227.969091 l
211.152979 227.969091 l
211.152979 220.332727 l
215.301549 220.332727 l
215.301549 206.587273 l
222.660509 206.587273 l
222.660509 205.06 l
226.743463 205.06 l
226.743463 202.005455 l
231.212894 202.005455 l
231.212894 200.478182 l
234.843695 200.478182 l
234.843695 191.314545 l
238.448206 191.314545 l
238.448206 177.569091 l
242.66394 177.569091 l
242.66394 159.241818 l
379.399815 159.241818 l
379.399815 159.241818 l
stroke
grestore
1.000 0.498 0.055 setrgbcolor
gsave
334.8 100.8 36.14 154.7 clipbox
36.1375 159.241818 m
51.211699 159.241818 l
51.211699 176.041818 l
54.889642 176.041818 l
54.889642 159.241818 l
59.392389 159.241818 l
59.392389 176.041818 l
64.439767 176.041818 l
64.439767 159.241818 l
90.896574 159.241818 l
90.896574 166.878182 l
97.745387 166.878182 l
97.745387 174.514545 l
105.781249 174.514545 l
105.781249 185.205455 l
112.737521 185.205455 l
112.737521 179.096364 l
119.528642 179.096364 l
119.528642 177.569091 l
127.144112 177.569091 l
127.144112 180.623636 l
134.930651 180.623636 l
134.930651 177.569091 l
141.791587 177.569091 l
141.791587 180.623636 l
148.341693 180.623636 l
148.341693 177.569091 l
164.245685 177.569091 l
164.245685 176.041818 l
171.924406 176.041818 l
171.924406 159.241818 l
179.660261 159.241818 l
179.660261 174.514545 l
186.749501 174.514545 l
186.749501 162.296364 l
195.247126 162.296364 l
195.247126 165.350909 l
202.437141 165.350909 l
202.437141 159.241818 l
379.399815 159.241818 l
379.399815 159.241818 l
stroke
grestore
0.800 setlinewidth
0 setlinejoin
[] 0 setdash
0.000 setgray
gsave
36.1375 154.66 m
36.1375 255.46 l
stroke
grestore
gsave
370.9375 154.66 m
370.9375 255.46 l
stroke
grestore
gsave
36.1375 154.66 m
370.9375 154.66 l
stroke
grestore
gsave
36.1375 255.46 m
370.9375 255.46 l
stroke
grestore
1.000 setlinewidth
0 setlinecap
0.800 setgray
gsave
242.7375 210.06 m
365.3375 210.06 l
366.404167 210.06 366.9375 210.593333 366.9375 211.66 c
366.9375 249.86 l
366.9375 250.926667 366.404167 251.46 365.3375 251.46 c
242.7375 251.46 l
241.670833 251.46 241.1375 250.926667 241.1375 249.86 c
241.1375 211.66 l
241.1375 210.593333 241.670833 210.06 242.7375 210.06 c
cl
gsave
1.000 setgray
fill
grestore
stroke
grestore
1.500 setlinewidth
1 setlinejoin
[5.55 2.4] 0 setdash
0.502 setgray
gsave
244.3375 244.06 m
260.3375 244.06 l
stroke
grestore
0.000 setgray
gsave
266.737500 241.260000 translate
0.000000 rotate
/DejaVuSans findfont
8.0 scalefont
setfont
0.000000 0.921875 moveto
/A glyphshow

5.472656 0.921875 moveto
/v glyphshow

10.207031 0.921875 moveto
/a glyphshow

15.109375 0.921875 moveto
/i glyphshow

17.332031 0.921875 moveto
/l glyphshow

19.554688 0.921875 moveto
/a glyphshow

24.457031 0.921875 moveto
/b glyphshow

29.535156 0.921875 moveto
/l glyphshow

31.757812 0.921875 moveto
/e glyphshow

36.679688 0.921875 moveto
/space glyphshow

39.222656 0.921875 moveto
/r glyphshow

42.511719 0.921875 moveto
/e glyphshow

47.433594 0.921875 moveto
/s glyphshow

51.601562 0.921875 moveto
/o glyphshow

56.496094 0.921875 moveto
/u glyphshow

61.566406 0.921875 moveto
/r glyphshow

64.855469 0.921875 moveto
/c glyphshow

69.253906 0.921875 moveto
/e glyphshow

74.175781 0.921875 moveto
/s glyphshow

78.343750 0.921875 moveto
/space glyphshow

/DejaVuSans-Oblique findfont
8.0 scalefont
setfont
80.886719 0.921875 moveto
/r glyphshow

/DejaVuSans-Oblique findfont
5.6 scalefont
setfont
84.175781 -0.390625 moveto
/m glyphshow

89.630859 -0.390625 moveto
/a glyphshow

93.062500 -0.390625 moveto
/x glyphshow


grestore
2 setlinecap
[] 0 setdash
0.122 0.467 0.706 setrgbcolor
gsave
244.3375 231.06 m
260.3375 231.06 l
stroke
grestore
0.000 setgray
gsave
266.737500 228.260000 translate
0.000000 rotate
/DejaVuSans findfont
8.0 scalefont
setfont
0.000000 0.921875 moveto
/R glyphshow

5.558594 0.921875 moveto
/u glyphshow

10.628906 0.921875 moveto
/n glyphshow

15.699219 0.921875 moveto
/n glyphshow

20.769531 0.921875 moveto
/i glyphshow

22.992188 0.921875 moveto
/n glyphshow

28.062500 0.921875 moveto
/g glyphshow

33.140625 0.921875 moveto
/space glyphshow

35.683594 0.921875 moveto
/j glyphshow

37.906250 0.921875 moveto
/o glyphshow

42.800781 0.921875 moveto
/b glyphshow

47.878906 0.921875 moveto
/s glyphshow

52.046875 0.921875 moveto
/space glyphshow

/DejaVuSans-Oblique findfont
8.0 scalefont
setfont
54.589844 0.921875 moveto
/r glyphshow

/DejaVuSans-Oblique findfont
5.6 scalefont
setfont
57.878906 -0.390625 moveto
/k glyphshow


grestore
1.000 0.498 0.055 setrgbcolor
gsave
244.3375 218.06 m
260.3375 218.06 l
stroke
grestore
0.000 setgray
gsave
266.737500 215.260000 translate
0.000000 rotate
/DejaVuSans findfont
8.0 scalefont
setfont
0.000000 0.921875 moveto
/W glyphshow

7.910156 0.921875 moveto
/a glyphshow

12.812500 0.921875 moveto
/i glyphshow

15.035156 0.921875 moveto
/t glyphshow

18.171875 0.921875 moveto
/i glyphshow

20.394531 0.921875 moveto
/n glyphshow

25.464844 0.921875 moveto
/g glyphshow

30.542969 0.921875 moveto
/space glyphshow

33.085938 0.921875 moveto
/j glyphshow

35.308594 0.921875 moveto
/o glyphshow

40.203125 0.921875 moveto
/b glyphshow

45.281250 0.921875 moveto
/s glyphshow

49.449219 0.921875 moveto
/space glyphshow

/DejaVuSans-Oblique findfont
8.0 scalefont
setfont
51.992188 0.921875 moveto
/q glyphshow

/DejaVuSans-Oblique findfont
5.6 scalefont
setfont
57.070312 -0.390625 moveto
/k glyphshow


grestore
gsave
36.1375 33.7 m
370.9375 33.7 l
370.9375 134.5 l
36.1375 134.5 l
cl
1.000 setgray
fill
grestore
0.800 setlinewidth
0 setlinecap
[0.8 1.32] 0 setdash
0.690 setgray
gsave
334.8 100.8 36.14 33.7 clipbox
36.1375 33.7 m
36.1375 134.5 l
stroke
grestore
[] 0 setdash
0.000 setgray
gsave
/o {
gsave
newpath
translate
0.8 setlinewidth
1 setlinejoin
0 setlinecap
0 0 m
0 -3.5 l

gsave
0.000 setgray
fill
grestore
stroke
grestore
} bind def
36.1375 33.7 o
grestore
gsave
33.590625 20.621875 translate
0.000000 rotate
0.000000 0.000000 m /zero glyphshow
grestore
[0.8 1.32] 0 setdash
0.690 setgray
gsave
334.8 100.8 36.14 33.7 clipbox
74.182955 33.7 m
74.182955 134.5 l
stroke
grestore
[] 0 setdash
0.000 setgray
gsave
/o {
gsave
newpath
translate
0.8 setlinewidth
1 setlinejoin
0 setlinecap
0 0 m
0 -3.5 l

gsave
0.000 setgray
fill
grestore
stroke
grestore
} bind def
74.183 33.7 o
grestore
gsave
69.089205 20.621875 translate
0.000000 rotate
0.000000 0.000000 m /five glyphshow
5.089844 0.000000 m /zero glyphshow
grestore
[0.8 1.32] 0 setdash
0.690 setgray
gsave
334.8 100.8 36.14 33.7 clipbox
112.228409 33.7 m
112.228409 134.5 l
stroke
grestore
[] 0 setdash
0.000 setgray
gsave
/o {
gsave
newpath
translate
0.8 setlinewidth
1 setlinejoin
0 setlinecap
0 0 m
0 -3.5 l

gsave
0.000 setgray
fill
grestore
stroke
grestore
} bind def
112.228 33.7 o
grestore
gsave
104.587784 20.621875 translate
0.000000 rotate
0.000000 0.000000 m /one glyphshow
5.089844 0.000000 m /zero glyphshow
10.179688 0.000000 m /zero glyphshow
grestore
[0.8 1.32] 0 setdash
0.690 setgray
gsave
334.8 100.8 36.14 33.7 clipbox
150.273864 33.7 m
150.273864 134.5 l
stroke
grestore
[] 0 setdash
0.000 setgray
gsave
/o {
gsave
newpath
translate
0.8 setlinewidth
1 setlinejoin
0 setlinecap
0 0 m
0 -3.5 l

gsave
0.000 setgray
fill
grestore
stroke
grestore
} bind def
150.274 33.7 o
grestore
gsave
142.633239 20.621875 translate
0.000000 rotate
0.000000 0.000000 m /one glyphshow
5.089844 0.000000 m /five glyphshow
10.179688 0.000000 m /zero glyphshow
grestore
[0.8 1.32] 0 setdash
0.690 setgray
gsave
334.8 100.8 36.14 33.7 clipbox
188.319318 33.7 m
188.319318 134.5 l
stroke
grestore
[] 0 setdash
0.000 setgray
gsave
/o {
gsave
newpath
translate
0.8 setlinewidth
1 setlinejoin
0 setlinecap
0 0 m
0 -3.5 l

gsave
0.000 setgray
fill
grestore
stroke
grestore
} bind def
188.319 33.7 o
grestore
gsave
180.678693 20.621875 translate
0.000000 rotate
0.000000 0.000000 m /two glyphshow
5.089844 0.000000 m /zero glyphshow
10.179688 0.000000 m /zero glyphshow
grestore
[0.8 1.32] 0 setdash
0.690 setgray
gsave
334.8 100.8 36.14 33.7 clipbox
226.364773 33.7 m
226.364773 134.5 l
stroke
grestore
[] 0 setdash
0.000 setgray
gsave
/o {
gsave
newpath
translate
0.8 setlinewidth
1 setlinejoin
0 setlinecap
0 0 m
0 -3.5 l

gsave
0.000 setgray
fill
grestore
stroke
grestore
} bind def
226.365 33.7 o
grestore
gsave
218.724148 20.621875 translate
0.000000 rotate
0.000000 0.000000 m /two glyphshow
5.089844 0.000000 m /five glyphshow
10.179688 0.000000 m /zero glyphshow
grestore
[0.8 1.32] 0 setdash
0.690 setgray
gsave
334.8 100.8 36.14 33.7 clipbox
264.410227 33.7 m
264.410227 134.5 l
stroke
grestore
[] 0 setdash
0.000 setgray
gsave
/o {
gsave
newpath
translate
0.8 setlinewidth
1 setlinejoin
0 setlinecap
0 0 m
0 -3.5 l

gsave
0.000 setgray
fill
grestore
stroke
grestore
} bind def
264.41 33.7 o
grestore
gsave
256.769602 20.621875 translate
0.000000 rotate
0.000000 0.000000 m /three glyphshow
5.089844 0.000000 m /zero glyphshow
10.179688 0.000000 m /zero glyphshow
grestore
[0.8 1.32] 0 setdash
0.690 setgray
gsave
334.8 100.8 36.14 33.7 clipbox
302.455682 33.7 m
302.455682 134.5 l
stroke
grestore
[] 0 setdash
0.000 setgray
gsave
/o {
gsave
newpath
translate
0.8 setlinewidth
1 setlinejoin
0 setlinecap
0 0 m
0 -3.5 l

gsave
0.000 setgray
fill
grestore
stroke
grestore
} bind def
302.456 33.7 o
grestore
gsave
294.815057 20.621875 translate
0.000000 rotate
0.000000 0.000000 m /three glyphshow
5.089844 0.000000 m /five glyphshow
10.179688 0.000000 m /zero glyphshow
grestore
[0.8 1.32] 0 setdash
0.690 setgray
gsave
334.8 100.8 36.14 33.7 clipbox
340.501136 33.7 m
340.501136 134.5 l
stroke
grestore
[] 0 setdash
0.000 setgray
gsave
/o {
gsave
newpath
translate
0.8 setlinewidth
1 setlinejoin
0 setlinecap
0 0 m
0 -3.5 l

gsave
0.000 setgray
fill
grestore
stroke
grestore
} bind def
340.501 33.7 o
grestore
gsave
332.860511 20.621875 translate
0.000000 rotate
0.000000 0.000000 m /four glyphshow
5.089844 0.000000 m /zero glyphshow
10.179688 0.000000 m /zero glyphshow
grestore
gsave
172.865625 8.871875 translate
0.000000 rotate
0.000000 0.000000 m /T glyphshow
4.886719 0.000000 m /i glyphshow
7.109375 0.000000 m /m glyphshow
14.902344 0.000000 m /e glyphshow
19.824219 0.000000 m /space glyphshow
22.367188 0.000000 m /bracketleft glyphshow
25.488281 0.000000 m /s glyphshow
29.656250 0.000000 m /e glyphshow
34.578125 0.000000 m /c glyphshow
38.976562 0.000000 m /o glyphshow
43.871094 0.000000 m /n glyphshow
48.941406 0.000000 m /d glyphshow
54.019531 0.000000 m /s glyphshow
58.187500 0.000000 m /bracketright glyphshow
grestore
[0.8 1.32] 0 setdash
0.690 setgray
gsave
334.8 100.8 36.14 33.7 clipbox
36.1375 38.276031 m
370.9375 38.276031 l
stroke
grestore
[] 0 setdash
0.000 setgray
gsave
/o {
gsave
newpath
translate
0.8 setlinewidth
1 setlinejoin
0 setlinecap
0 0 m
-3.5 0 l

gsave
0.000 setgray
fill
grestore
stroke
grestore
} bind def
36.1375 38.276 o
grestore
gsave
24.043750 35.236968 translate
0.000000 rotate
0.000000 0.000000 m /zero glyphshow
grestore
[0.8 1.32] 0 setdash
0.690 setgray
gsave
334.8 100.8 36.14 33.7 clipbox
36.1375 63.239842 m
370.9375 63.239842 l
stroke
grestore
[] 0 setdash
0.000 setgray
gsave
/o {
gsave
newpath
translate
0.8 setlinewidth
1 setlinejoin
0 setlinecap
0 0 m
-3.5 0 l

gsave
0.000 setgray
fill
grestore
stroke
grestore
} bind def
36.1375 63.2398 o
grestore
gsave
18.950000 60.200779 translate
0.000000 rotate
0.000000 0.000000 m /one glyphshow
5.089844 0.000000 m /zero glyphshow
grestore
[0.8 1.32] 0 setdash
0.690 setgray
gsave
334.8 100.8 36.14 33.7 clipbox
36.1375 88.203653 m
370.9375 88.203653 l
stroke
grestore
[] 0 setdash
0.000 setgray
gsave
/o {
gsave
newpath
translate
0.8 setlinewidth
1 setlinejoin
0 setlinecap
0 0 m
-3.5 0 l

gsave
0.000 setgray
fill
grestore
stroke
grestore
} bind def
36.1375 88.2037 o
grestore
gsave
18.950000 85.164591 translate
0.000000 rotate
0.000000 0.000000 m /two glyphshow
5.089844 0.000000 m /zero glyphshow
grestore
[0.8 1.32] 0 setdash
0.690 setgray
gsave
334.8 100.8 36.14 33.7 clipbox
36.1375 113.167464 m
370.9375 113.167464 l
stroke
grestore
[] 0 setdash
0.000 setgray
gsave
/o {
gsave
newpath
translate
0.8 setlinewidth
1 setlinejoin
0 setlinecap
0 0 m
-3.5 0 l

gsave
0.000 setgray
fill
grestore
stroke
grestore
} bind def
36.1375 113.167 o
grestore
gsave
18.950000 110.128402 translate
0.000000 rotate
0.000000 0.000000 m /three glyphshow
5.089844 0.000000 m /zero glyphshow
grestore
gsave
13.278125 68.193750 translate
90.000000 rotate
0.000000 0.000000 m /l glyphshow
2.222656 0.000000 m /o glyphshow
7.117188 0.000000 m /a glyphshow
12.019531 0.000000 m /d glyphshow
17.097656 0.000000 m /a glyphshow
22.000000 0.000000 m /v glyphshow
26.734375 0.000000 m /g glyphshow
grestore
1.500 setlinewidth
2 setlinecap
0.173 0.627 0.173 setrgbcolor
gsave
334.8 100.8 36.14 33.7 clipbox
36.1375 38.350922 m
36.1375 38.325958 l
51.211699 38.325958 l
51.211699 40.323063 l
54.889642 40.323063 l
54.889642 42.59477 l
59.392389 42.59477 l
59.392389 42.245277 l
64.439767 42.245277 l
64.439767 42.544842 l
69.392173 42.544842 l
69.392173 46.114667 l
73.881599 46.114667 l
73.881599 47.687388 l
78.349547 47.687388 l
78.349547 47.937026 l
84.465877 47.937026 l
84.465877 53.703666 l
90.896574 53.703666 l
90.896574 62.840421 l
97.745387 62.840421 l
97.745387 74.648304 l
105.781249 74.648304 l
105.781249 85.981874 l
112.737521 85.981874 l
112.737521 96.316892 l
119.528642 96.316892 l
119.528642 106.202561 l
127.144112 106.202561 l
127.144112 114.964859 l
134.930651 114.964859 l
134.930651 119.408417 l
141.791587 119.408417 l
141.791587 129.918182 l
148.341693 129.918182 l
148.341693 129.568688 l
156.782467 129.568688 l
156.782467 123.502482 l
164.245685 123.502482 l
164.245685 110.396481 l
171.924406 110.396481 l
171.924406 101.833894 l
179.660261 101.833894 l
179.660261 94.419642 l
186.749501 94.419642 l
186.749501 88.827748 l
195.247126 88.827748 l
195.247126 90.47536 l
202.437141 90.47536 l
202.437141 91.898297 l
206.854826 91.898297 l
206.854826 92.996705 l
211.152979 92.996705 l
211.152979 92.821958 l
215.301549 92.821958 l
215.301549 90.849817 l
219.090524 90.849817 l
219.090524 86.630933 l
222.660509 86.630933 l
222.660509 82.761542 l
226.743463 82.761542 l
226.743463 79.191717 l
231.212894 79.191717 l
231.212894 75.921458 l
234.843695 75.921458 l
234.843695 73.125511 l
238.448206 73.125511 l
238.448206 70.329564 l
246.209942 70.329564 l
246.209942 67.758292 l
250.007239 67.758292 l
250.007239 65.411694 l
253.678358 65.411694 l
253.678358 63.239842 l
257.792062 63.239842 l
257.792062 61.217773 l
261.102049 61.217773 l
261.102049 59.395415 l
265.166411 59.395415 l
265.166411 57.697876 l
269.228698 57.697876 l
269.228698 56.15012 l
272.523795 56.15012 l
272.523795 54.702218 l
276.584949 54.702218 l
276.584949 53.4041 l
280.649648 53.4041 l
280.649648 52.180874 l
283.944479 52.180874 l
283.944479 51.057502 l
288.002836 51.057502 l
288.002836 50.033986 l
292.06912 50.033986 l
292.06912 49.110325 l
295.369039 49.110325 l
295.369039 48.236591 l
299.425045 48.236591 l
299.425045 47.437749 l
303.483292 47.437749 l
303.483292 46.688835 l
306.785002 46.688835 l
306.785002 46.052258 l
310.842474 46.052258 l
310.842474 45.415681 l
314.830819 45.415681 l
314.830819 44.841513 l
318.131344 44.841513 l
318.131344 44.317273 l
322.188045 44.317273 l
322.188045 43.817997 l
326.246662 43.817997 l
326.246662 43.368648 l
329.54509 43.368648 l
329.54509 42.981709 l
333.601628 42.981709 l
333.601628 42.59477 l
337.573136 42.59477 l
337.573136 42.245277 l
341.085401 42.245277 l
341.085401 42.120458 l
345.148219 42.120458 l
345.148219 41.820892 l
349.202399 41.820892 l
349.202399 41.54629 l
352.495818 41.54629 l
352.495818 41.271688 l
356.556405 41.271688 l
356.556405 41.02205 l
360.630901 41.02205 l
360.630901 40.822339 l
363.930776 40.822339 l
363.930776 40.597665 l
367.984162 40.597665 l
367.984162 40.422918 l
372.041273 40.422918 l
372.041273 40.248172 l
375.341985 40.248172 l
375.341985 40.098389 l
379.399815 40.098389 l
379.399815 40.098389 l
stroke
grestore
0.839 0.153 0.157 setrgbcolor
gsave
334.8 100.8 36.14 33.7 clipbox
36.1375 38.390379 m
36.1375 38.459673 l
40.209451 38.459673 l
40.209451 38.293226 l
59.392389 38.39396 l
59.392389 38.474315 l
69.392173 38.43 l
69.392173 38.360866 l
73.881599 38.360866 l
73.881599 38.504963 l
105.781249 38.493339 l
105.781249 38.303058 l
134.930651 38.376528 l
134.930651 38.457232 l
148.341693 38.400619 l
148.341693 38.318061 l
164.245685 38.408704 l
164.245685 38.441944 l
206.854826 38.350503 l
206.854826 38.297602 l
226.743463 38.403705 l
226.743463 38.465724 l
234.843695 38.524632 l
234.843695 38.35297 l
242.66394 38.407552 l
242.66394 38.478706 l
246.209942 38.478706 l
246.209942 38.296206 l
250.007239 38.296206 l
250.007239 38.505723 l
257.792062 38.485762 l
257.792062 38.361302 l
276.584949 38.379572 l
276.584949 38.518132 l
283.944479 38.451699 l
283.944479 38.295168 l
292.06912 38.317467 l
292.06912 38.42549 l
295.369039 38.42549 l
295.369039 38.307547 l
310.842474 38.281818 l
310.842474 38.501201 l
314.830819 38.501201 l
314.830819 38.300441 l
318.131344 38.300441 l
318.131344 38.506921 l
322.188045 38.506921 l
322.188045 38.293514 l
329.54509 38.309483 l
329.54509 38.511141 l
333.601628 38.511141 l
333.601628 38.299471 l
337.573136 38.299471 l
337.573136 38.427719 l
341.085401 38.427719 l
341.085401 38.29613 l
345.148219 38.29613 l
345.148219 38.418051 l
379.399815 38.366648 l
379.399815 38.366648 l
stroke
grestore
0.800 setlinewidth
0 setlinejoin
[] 0 setdash
0.000 setgray
gsave
36.1375 33.7 m
36.1375 134.5 l
stroke
grestore
gsave
370.9375 33.7 m
370.9375 134.5 l
stroke
grestore
gsave
36.1375 33.7 m
370.9375 33.7 l
stroke
grestore
gsave
36.1375 134.5 m
370.9375 134.5 l
stroke
grestore
1.000 setlinewidth
0 setlinecap
0.800 setgray
gsave
270.7375 98.1 m
365.3375 98.1 l
366.404167 98.1 366.9375 98.633333 366.9375 99.7 c
366.9375 128.9 l
366.9375 129.966667 366.404167 130.5 365.3375 130.5 c
270.7375 130.5 l
269.670833 130.5 269.1375 129.966667 269.1375 128.9 c
269.1375 99.7 l
269.1375 98.633333 269.670833 98.1 270.7375 98.1 c
cl
gsave
1.000 setgray
fill
grestore
stroke
grestore
1.500 setlinewidth
1 setlinejoin
2 setlinecap
[] 0 setdash
0.173 0.627 0.173 setrgbcolor
gsave
272.3375 122.1 m
288.3375 122.1 l
stroke
grestore
0.000 setgray
gsave
294.737500 119.300000 translate
0.000000 rotate
/DejaVuSans findfont
8.0 scalefont
setfont
0.000000 0.853125 moveto
/F glyphshow

4.601562 0.853125 moveto
/i glyphshow

6.824219 0.853125 moveto
/l glyphshow

9.046875 0.853125 moveto
/e glyphshow

13.968750 0.853125 moveto
/s glyphshow

18.136719 0.853125 moveto
/e glyphshow

23.058594 0.853125 moveto
/r glyphshow

26.347656 0.853125 moveto
/v glyphshow

31.082031 0.853125 moveto
/e glyphshow

36.003906 0.853125 moveto
/r glyphshow

39.292969 0.853125 moveto
/space glyphshow

41.835938 0.853125 moveto
/l glyphshow

44.058594 0.853125 moveto
/o glyphshow

48.953125 0.853125 moveto
/a glyphshow

53.855469 0.853125 moveto
/d glyphshow

58.933594 0.853125 moveto
/space glyphshow

/DejaVuSans-Oblique findfont
8.0 scalefont
setfont
61.476562 0.853125 moveto
/f glyphshow

/DejaVuSans findfont
5.6 scalefont
setfont
64.888698 3.920313 moveto
/one glyphshow

/DejaVuSans-Oblique findfont
5.6 scalefont
setfont
64.292969 -1.334375 moveto
/k glyphshow


grestore
0.839 0.153 0.157 setrgbcolor
gsave
272.3375 107.1 m
288.3375 107.1 l
stroke
grestore
0.000 setgray
gsave
294.737500 104.300000 translate
0.000000 rotate
/DejaVuSans findfont
8.0 scalefont
setfont
0.000000 0.776563 moveto
/F glyphshow

4.601562 0.776563 moveto
/i glyphshow

6.824219 0.776563 moveto
/l glyphshow

9.046875 0.776563 moveto
/e glyphshow

13.968750 0.776563 moveto
/s glyphshow

18.136719 0.776563 moveto
/e glyphshow

23.058594 0.776563 moveto
/r glyphshow

26.347656 0.776563 moveto
/v glyphshow

31.082031 0.776563 moveto
/e glyphshow

36.003906 0.776563 moveto
/r glyphshow

39.292969 0.776563 moveto
/space glyphshow

41.835938 0.776563 moveto
/l glyphshow

44.058594 0.776563 moveto
/o glyphshow

48.953125 0.776563 moveto
/a glyphshow

53.855469 0.776563 moveto
/d glyphshow

58.933594 0.776563 moveto
/space glyphshow

/DejaVuSans-Oblique findfont
8.0 scalefont
setfont
61.476562 0.776563 moveto
/f glyphshow

/DejaVuSans findfont
5.6 scalefont
setfont
64.888698 3.843750 moveto
/two glyphshow

/DejaVuSans-Oblique findfont
5.6 scalefont
setfont
64.292969 -1.410937 moveto
/k glyphshow


grestore

end
showpage
