%!PS-Adobe-3.0 EPSF-3.0
%%Title: results_fs.eps
%%Creator: matplotlib version 2.2.2, http://matplotlib.org/
%%CreationDate: Sun Jun 10 18:19:19 2018
%%Orientation: portrait
%%BoundingBox: 115 262 496 529
%%EndComments
%%BeginProlog
/mpldict 9 dict def
mpldict begin
/m { moveto } bind def
/l { lineto } bind def
/r { rlineto } bind def
/c { curveto } bind def
/cl { closepath } bind def
/box {
m
1 index 0 r
0 exch r
neg 0 r
cl
} bind def
/clipbox {
box
clip
newpath
} bind def
%!PS-Adobe-3.0 Resource-Font
%%Title: DejaVu Sans
%%Copyright: Copyright (c) 2003 by Bitstream, Inc. All Rights Reserved. Copyright (c) 2006 by Tavmjong Bah. All Rights Reserved. DejaVu changes are in public domain 
%%Creator: Converted from TrueType to type 3 by PPR
25 dict begin
/_d{bind def}bind def
/_m{moveto}_d
/_l{lineto}_d
/_cl{closepath eofill}_d
/_c{curveto}_d
/_sc{7 -1 roll{setcachedevice}{pop pop pop pop pop pop}ifelse}_d
/_e{exec}_d
/FontName /DejaVuSans def
/PaintType 0 def
/FontMatrix[.001 0 0 .001 0 0]def
/FontBBox[-1021 -463 1793 1232]def
/FontType 3 def
/Encoding [ /space /zero /one /two /three /four /five /six /A /F /J /R /T /W /bracketleft /bracketright /a /b /c /d /e /f /g /i /j /l /m /n /o /r /s /t /u /v ] def
/FontInfo 10 dict dup begin
/FamilyName (DejaVu Sans) def
/FullName (DejaVu Sans) def
/Notice (Copyright (c) 2003 by Bitstream, Inc. All Rights Reserved. Copyright (c) 2006 by Tavmjong Bah. All Rights Reserved. DejaVu changes are in public domain ) def
/Weight (Book) def
/Version (Version 2.35) def
/ItalicAngle 0.0 def
/isFixedPitch false def
/UnderlinePosition -130 def
/UnderlineThickness 90 def
end readonly def
/CharStrings 35 dict dup begin
/.notdef 0 def
/space{318 0 0 0 0 0 _sc
}_d
/zero{636 0 66 -13 570 742 _sc
318 664 _m
267 664 229 639 203 589 _c
177 539 165 464 165 364 _c
165 264 177 189 203 139 _c
229 89 267 64 318 64 _c
369 64 407 89 433 139 _c
458 189 471 264 471 364 _c
471 464 458 539 433 589 _c
407 639 369 664 318 664 _c
318 742 _m
399 742 461 709 505 645 _c
548 580 570 486 570 364 _c
570 241 548 147 505 83 _c
461 19 399 -13 318 -13 _c
236 -13 173 19 130 83 _c
87 147 66 241 66 364 _c
66 486 87 580 130 645 _c
173 709 236 742 318 742 _c
_cl}_d
/one{636 0 110 0 544 729 _sc
124 83 _m
285 83 _l
285 639 _l
110 604 _l
110 694 _l
284 729 _l
383 729 _l
383 83 _l
544 83 _l
544 0 _l
124 0 _l
124 83 _l
_cl}_d
/two{{636 0 73 0 536 742 _sc
192 83 _m
536 83 _l
536 0 _l
73 0 _l
73 83 _l
110 121 161 173 226 239 _c
290 304 331 346 348 365 _c
380 400 402 430 414 455 _c
426 479 433 504 433 528 _c
433 566 419 598 392 622 _c
365 646 330 659 286 659 _c
255 659 222 653 188 643 _c
154 632 117 616 78 594 _c
78 694 _l
118 710 155 722 189 730 _c
223 738 255 742 284 742 _c
}_e{359 742 419 723 464 685 _c
509 647 532 597 532 534 _c
532 504 526 475 515 449 _c
504 422 484 390 454 354 _c
446 344 420 317 376 272 _c
332 227 271 164 192 83 _c
_cl}_e}_d
/three{{636 0 76 -13 556 742 _sc
406 393 _m
453 383 490 362 516 330 _c
542 298 556 258 556 212 _c
556 140 531 84 482 45 _c
432 6 362 -13 271 -13 _c
240 -13 208 -10 176 -4 _c
144 1 110 10 76 22 _c
76 117 _l
103 101 133 89 166 81 _c
198 73 232 69 268 69 _c
330 69 377 81 409 105 _c
441 129 458 165 458 212 _c
458 254 443 288 413 312 _c
383 336 341 349 287 349 _c
}_e{202 349 _l
202 430 _l
291 430 _l
339 430 376 439 402 459 _c
428 478 441 506 441 543 _c
441 580 427 609 401 629 _c
374 649 336 659 287 659 _c
260 659 231 656 200 650 _c
169 644 135 635 98 623 _c
98 711 _l
135 721 170 729 203 734 _c
235 739 266 742 296 742 _c
370 742 429 725 473 691 _c
517 657 539 611 539 553 _c
539 513 527 479 504 451 _c
481 423 448 403 406 393 _c
_cl}_e}_d
/four{636 0 49 0 580 729 _sc
378 643 _m
129 254 _l
378 254 _l
378 643 _l
352 729 _m
476 729 _l
476 254 _l
580 254 _l
580 172 _l
476 172 _l
476 0 _l
378 0 _l
378 172 _l
49 172 _l
49 267 _l
352 729 _l
_cl}_d
/five{{636 0 77 -13 549 729 _sc
108 729 _m
495 729 _l
495 646 _l
198 646 _l
198 467 _l
212 472 227 476 241 478 _c
255 480 270 482 284 482 _c
365 482 429 459 477 415 _c
525 370 549 310 549 234 _c
549 155 524 94 475 51 _c
426 8 357 -13 269 -13 _c
238 -13 207 -10 175 -6 _c
143 -1 111 6 77 17 _c
77 116 _l
106 100 136 88 168 80 _c
199 72 232 69 267 69 _c
}_e{323 69 368 83 401 113 _c
433 143 450 183 450 234 _c
450 284 433 324 401 354 _c
368 384 323 399 267 399 _c
241 399 214 396 188 390 _c
162 384 135 375 108 363 _c
108 729 _l
_cl}_e}_d
/six{{636 0 70 -13 573 742 _sc
330 404 _m
286 404 251 388 225 358 _c
199 328 186 286 186 234 _c
186 181 199 139 225 109 _c
251 79 286 64 330 64 _c
374 64 409 79 435 109 _c
461 139 474 181 474 234 _c
474 286 461 328 435 358 _c
409 388 374 404 330 404 _c
526 713 _m
526 623 _l
501 635 476 644 451 650 _c
425 656 400 659 376 659 _c
310 659 260 637 226 593 _c
}_e{192 549 172 482 168 394 _c
187 422 211 444 240 459 _c
269 474 301 482 336 482 _c
409 482 467 459 509 415 _c
551 371 573 310 573 234 _c
573 159 550 99 506 54 _c
462 9 403 -13 330 -13 _c
246 -13 181 19 137 83 _c
92 147 70 241 70 364 _c
70 479 97 571 152 639 _c
206 707 280 742 372 742 _c
396 742 421 739 447 735 _c
472 730 498 723 526 713 _c
_cl}_e}_d
/A{684 0 8 0 676 729 _sc
342 632 _m
208 269 _l
476 269 _l
342 632 _l
286 729 _m
398 729 _l
676 0 _l
573 0 _l
507 187 _l
178 187 _l
112 0 _l
8 0 _l
286 729 _l
_cl}_d
/F{575 0 98 0 517 729 _sc
98 729 _m
517 729 _l
517 646 _l
197 646 _l
197 431 _l
486 431 _l
486 348 _l
197 348 _l
197 0 _l
98 0 _l
98 729 _l
_cl}_d
/J{295 0 -51 -199 197 729 _sc
98 729 _m
197 729 _l
197 51 _l
197 -36 180 -99 147 -139 _c
113 -179 60 -199 -13 -199 _c
-51 -199 _l
-51 -116 _l
-20 -116 _l
22 -116 53 -103 71 -79 _c
89 -55 98 -11 98 51 _c
98 729 _l
_cl}_d
/R{{695 0 98 0 666 729 _sc
444 342 _m
465 334 486 319 506 296 _c
526 272 546 240 566 199 _c
666 0 _l
560 0 _l
467 187 _l
443 235 419 268 397 284 _c
374 300 343 308 304 308 _c
197 308 _l
197 0 _l
98 0 _l
98 729 _l
321 729 _l
404 729 466 711 507 677 _c
548 642 569 589 569 519 _c
569 473 558 434 537 404 _c
515 374 484 353 444 342 _c
197 648 _m
197 389 _l
321 389 _l
}_e{368 389 404 400 428 422 _c
452 444 465 476 465 519 _c
465 561 452 593 428 615 _c
404 637 368 648 321 648 _c
197 648 _l
_cl}_e}_d
/T{611 0 -2 0 614 729 _sc
-2 729 _m
614 729 _l
614 646 _l
355 646 _l
355 0 _l
256 0 _l
256 646 _l
-2 646 _l
-2 729 _l
_cl}_d
/W{989 0 33 0 956 729 _sc
33 729 _m
133 729 _l
286 113 _l
439 729 _l
550 729 _l
703 113 _l
856 729 _l
956 729 _l
773 0 _l
649 0 _l
495 633 _l
340 0 _l
216 0 _l
33 729 _l
_cl}_d
/bracketleft{390 0 86 -131 293 760 _sc
86 760 _m
293 760 _l
293 690 _l
176 690 _l
176 -61 _l
293 -61 _l
293 -131 _l
86 -131 _l
86 760 _l
_cl}_d
/bracketright{390 0 97 -131 304 760 _sc
304 760 _m
304 -131 _l
97 -131 _l
97 -61 _l
214 -61 _l
214 690 _l
97 690 _l
97 760 _l
304 760 _l
_cl}_d
/a{{613 0 60 -13 522 560 _sc
343 275 _m
270 275 220 266 192 250 _c
164 233 150 205 150 165 _c
150 133 160 107 181 89 _c
202 70 231 61 267 61 _c
317 61 357 78 387 114 _c
417 149 432 196 432 255 _c
432 275 _l
343 275 _l
522 312 _m
522 0 _l
432 0 _l
432 83 _l
411 49 385 25 355 10 _c
325 -5 287 -13 243 -13 _c
187 -13 142 2 109 33 _c
76 64 60 106 60 159 _c
}_e{60 220 80 266 122 298 _c
163 329 224 345 306 345 _c
432 345 _l
432 354 _l
432 395 418 427 391 450 _c
364 472 326 484 277 484 _c
245 484 215 480 185 472 _c
155 464 127 453 100 439 _c
100 522 _l
132 534 164 544 195 550 _c
226 556 256 560 286 560 _c
365 560 424 539 463 498 _c
502 457 522 395 522 312 _c
_cl}_e}_d
/b{{635 0 91 -13 580 760 _sc
487 273 _m
487 339 473 390 446 428 _c
418 466 381 485 334 485 _c
286 485 249 466 222 428 _c
194 390 181 339 181 273 _c
181 207 194 155 222 117 _c
249 79 286 61 334 61 _c
381 61 418 79 446 117 _c
473 155 487 207 487 273 _c
181 464 _m
199 496 223 520 252 536 _c
281 552 316 560 356 560 _c
422 560 476 533 518 481 _c
559 428 580 359 580 273 _c
}_e{580 187 559 117 518 65 _c
476 13 422 -13 356 -13 _c
316 -13 281 -5 252 10 _c
223 25 199 49 181 82 _c
181 0 _l
91 0 _l
91 760 _l
181 760 _l
181 464 _l
_cl}_e}_d
/c{{550 0 55 -13 488 560 _sc
488 526 _m
488 442 _l
462 456 437 466 411 473 _c
385 480 360 484 334 484 _c
276 484 230 465 198 428 _c
166 391 150 339 150 273 _c
150 206 166 154 198 117 _c
230 80 276 62 334 62 _c
360 62 385 65 411 72 _c
437 79 462 90 488 104 _c
488 21 _l
462 9 436 0 410 -5 _c
383 -10 354 -13 324 -13 _c
242 -13 176 12 128 64 _c
}_e{79 115 55 185 55 273 _c
55 362 79 432 128 483 _c
177 534 244 560 330 560 _c
358 560 385 557 411 551 _c
437 545 463 537 488 526 _c
_cl}_e}_d
/d{{635 0 55 -13 544 760 _sc
454 464 _m
454 760 _l
544 760 _l
544 0 _l
454 0 _l
454 82 _l
435 49 411 25 382 10 _c
353 -5 319 -13 279 -13 _c
213 -13 159 13 117 65 _c
75 117 55 187 55 273 _c
55 359 75 428 117 481 _c
159 533 213 560 279 560 _c
319 560 353 552 382 536 _c
411 520 435 496 454 464 _c
148 273 _m
148 207 161 155 188 117 _c
215 79 253 61 301 61 _c
}_e{348 61 385 79 413 117 _c
440 155 454 207 454 273 _c
454 339 440 390 413 428 _c
385 466 348 485 301 485 _c
253 485 215 466 188 428 _c
161 390 148 339 148 273 _c
_cl}_e}_d
/e{{615 0 55 -13 562 560 _sc
562 296 _m
562 252 _l
149 252 _l
153 190 171 142 205 110 _c
238 78 284 62 344 62 _c
378 62 412 66 444 74 _c
476 82 509 95 541 113 _c
541 28 _l
509 14 476 3 442 -3 _c
408 -9 373 -13 339 -13 _c
251 -13 182 12 131 62 _c
80 112 55 181 55 268 _c
55 357 79 428 127 481 _c
175 533 241 560 323 560 _c
397 560 455 536 498 489 _c
}_e{540 441 562 377 562 296 _c
472 322 _m
471 371 457 410 431 440 _c
404 469 368 484 324 484 _c
274 484 234 469 204 441 _c
174 413 156 373 152 322 _c
472 322 _l
_cl}_e}_d
/f{352 0 23 0 371 760 _sc
371 760 _m
371 685 _l
285 685 _l
253 685 230 678 218 665 _c
205 652 199 629 199 595 _c
199 547 _l
347 547 _l
347 477 _l
199 477 _l
199 0 _l
109 0 _l
109 477 _l
23 477 _l
23 547 _l
109 547 _l
109 585 _l
109 645 123 690 151 718 _c
179 746 224 760 286 760 _c
371 760 _l
_cl}_d
/g{{635 0 55 -207 544 560 _sc
454 280 _m
454 344 440 395 414 431 _c
387 467 349 485 301 485 _c
253 485 215 467 188 431 _c
161 395 148 344 148 280 _c
148 215 161 165 188 129 _c
215 93 253 75 301 75 _c
349 75 387 93 414 129 _c
440 165 454 215 454 280 _c
544 68 _m
544 -24 523 -93 482 -139 _c
440 -184 377 -207 292 -207 _c
260 -207 231 -204 203 -200 _c
175 -195 147 -188 121 -178 _c
}_e{121 -91 _l
147 -105 173 -115 199 -122 _c
225 -129 251 -133 278 -133 _c
336 -133 380 -117 410 -87 _c
439 -56 454 -10 454 52 _c
454 96 _l
435 64 411 40 382 24 _c
353 8 319 0 279 0 _c
211 0 157 25 116 76 _c
75 127 55 195 55 280 _c
55 364 75 432 116 483 _c
157 534 211 560 279 560 _c
319 560 353 552 382 536 _c
411 520 435 496 454 464 _c
454 547 _l
544 547 _l
}_e{544 68 _l
_cl}_e}_d
/i{278 0 94 0 184 760 _sc
94 547 _m
184 547 _l
184 0 _l
94 0 _l
94 547 _l
94 760 _m
184 760 _l
184 646 _l
94 646 _l
94 760 _l
_cl}_d
/j{278 0 -17 -207 184 760 _sc
94 547 _m
184 547 _l
184 -9 _l
184 -78 170 -128 144 -160 _c
117 -191 74 -207 16 -207 _c
-17 -207 _l
-17 -131 _l
6 -131 _l
40 -131 63 -123 75 -107 _c
87 -91 94 -58 94 -9 _c
94 547 _l
94 760 _m
184 760 _l
184 646 _l
94 646 _l
94 760 _l
_cl}_d
/l{278 0 94 0 184 760 _sc
94 760 _m
184 760 _l
184 0 _l
94 0 _l
94 760 _l
_cl}_d
/m{{974 0 91 0 889 560 _sc
520 442 _m
542 482 569 511 600 531 _c
631 550 668 560 711 560 _c
767 560 811 540 842 500 _c
873 460 889 403 889 330 _c
889 0 _l
799 0 _l
799 327 _l
799 379 789 418 771 444 _c
752 469 724 482 686 482 _c
639 482 602 466 575 435 _c
548 404 535 362 535 309 _c
535 0 _l
445 0 _l
445 327 _l
445 379 435 418 417 444 _c
398 469 369 482 331 482 _c
}_e{285 482 248 466 221 435 _c
194 404 181 362 181 309 _c
181 0 _l
91 0 _l
91 547 _l
181 547 _l
181 462 _l
201 495 226 520 255 536 _c
283 552 317 560 357 560 _c
397 560 430 550 458 530 _c
486 510 506 480 520 442 _c
_cl}_e}_d
/n{634 0 91 0 549 560 _sc
549 330 _m
549 0 _l
459 0 _l
459 327 _l
459 379 448 417 428 443 _c
408 469 378 482 338 482 _c
289 482 251 466 223 435 _c
195 404 181 362 181 309 _c
181 0 _l
91 0 _l
91 547 _l
181 547 _l
181 462 _l
202 494 227 519 257 535 _c
286 551 320 560 358 560 _c
420 560 468 540 500 501 _c
532 462 549 405 549 330 _c
_cl}_d
/o{612 0 55 -13 557 560 _sc
306 484 _m
258 484 220 465 192 427 _c
164 389 150 338 150 273 _c
150 207 163 156 191 118 _c
219 80 257 62 306 62 _c
354 62 392 80 420 118 _c
448 156 462 207 462 273 _c
462 337 448 389 420 427 _c
392 465 354 484 306 484 _c
306 560 _m
384 560 445 534 490 484 _c
534 433 557 363 557 273 _c
557 183 534 113 490 63 _c
445 12 384 -13 306 -13 _c
227 -13 165 12 121 63 _c
77 113 55 183 55 273 _c
55 363 77 433 121 484 _c
165 534 227 560 306 560 _c
_cl}_d
/r{411 0 91 0 411 560 _sc
411 463 _m
401 469 390 473 378 476 _c
366 478 353 480 339 480 _c
288 480 249 463 222 430 _c
194 397 181 350 181 288 _c
181 0 _l
91 0 _l
91 547 _l
181 547 _l
181 462 _l
199 495 224 520 254 536 _c
284 552 321 560 365 560 _c
371 560 378 559 386 559 _c
393 558 401 557 411 555 _c
411 463 _l
_cl}_d
/s{{521 0 54 -13 472 560 _sc
443 531 _m
443 446 _l
417 458 391 468 364 475 _c
336 481 308 485 279 485 _c
234 485 200 478 178 464 _c
156 450 145 430 145 403 _c
145 382 153 366 169 354 _c
185 342 217 330 265 320 _c
296 313 _l
360 299 405 279 432 255 _c
458 230 472 195 472 151 _c
472 100 452 60 412 31 _c
372 1 316 -13 246 -13 _c
216 -13 186 -10 154 -5 _c
}_e{122 0 89 8 54 20 _c
54 113 _l
87 95 120 82 152 74 _c
184 65 216 61 248 61 _c
290 61 323 68 346 82 _c
368 96 380 117 380 144 _c
380 168 371 187 355 200 _c
339 213 303 226 247 238 _c
216 245 _l
160 257 119 275 95 299 _c
70 323 58 356 58 399 _c
58 450 76 490 112 518 _c
148 546 200 560 268 560 _c
301 560 332 557 362 552 _c
391 547 418 540 443 531 _c
}_e{_cl}_e}_d
/t{392 0 27 0 368 702 _sc
183 702 _m
183 547 _l
368 547 _l
368 477 _l
183 477 _l
183 180 _l
183 135 189 106 201 94 _c
213 81 238 75 276 75 _c
368 75 _l
368 0 _l
276 0 _l
206 0 158 13 132 39 _c
106 65 93 112 93 180 _c
93 477 _l
27 477 _l
27 547 _l
93 547 _l
93 702 _l
183 702 _l
_cl}_d
/u{634 0 85 -13 543 560 _sc
85 216 _m
85 547 _l
175 547 _l
175 219 _l
175 167 185 129 205 103 _c
225 77 255 64 296 64 _c
344 64 383 79 411 110 _c
439 141 453 183 453 237 _c
453 547 _l
543 547 _l
543 0 _l
453 0 _l
453 84 _l
431 50 405 26 377 10 _c
348 -5 315 -13 277 -13 _c
214 -13 166 6 134 45 _c
101 83 85 140 85 216 _c
311 560 _m
311 560 _l
_cl}_d
/v{592 0 30 0 562 547 _sc
30 547 _m
125 547 _l
296 88 _l
467 547 _l
562 547 _l
357 0 _l
235 0 _l
30 547 _l
_cl}_d
end readonly def

/BuildGlyph
 {exch begin
 CharStrings exch
 2 copy known not{pop /.notdef}if
 true 3 1 roll get exec
 end}_d

/BuildChar {
 1 index /Encoding get exch get
 1 index /BuildGlyph get exec
}_d

FontName currentdict end definefont pop
%!PS-Adobe-3.0 Resource-Font
%%Title: DejaVu Sans Oblique
%%Copyright: Copyright (c) 2003 by Bitstream, Inc. All Rights Reserved. Copyright (c) 2006 by Tavmjong Bah. All Rights Reserved. DejaVu changes are in public domain 
%%Creator: Converted from TrueType to type 3 by PPR
25 dict begin
/_d{bind def}bind def
/_m{moveto}_d
/_l{lineto}_d
/_cl{closepath eofill}_d
/_c{curveto}_d
/_sc{7 -1 roll{setcachedevice}{pop pop pop pop pop pop}ifelse}_d
/_e{exec}_d
/FontName /DejaVuSans-Oblique def
/PaintType 0 def
/FontMatrix[.001 0 0 .001 0 0]def
/FontBBox[-1016 -350 1659 1068]def
/FontType 3 def
/Encoding [ /a /f /k /m /q /r /x ] def
/FontInfo 10 dict dup begin
/FamilyName (DejaVu Sans) def
/FullName (DejaVu Sans Oblique) def
/Notice (Copyright (c) 2003 by Bitstream, Inc. All Rights Reserved. Copyright (c) 2006 by Tavmjong Bah. All Rights Reserved. DejaVu changes are in public domain ) def
/Weight (Oblique) def
/Version (Version 2.35) def
/ItalicAngle -11.0 def
/isFixedPitch false def
/UnderlinePosition -130 def
/UnderlineThickness 90 def
end readonly def
/CharStrings 8 dict dup begin
/.notdef 0 def
/a{{613 0 41 -13 547 560 _sc
537 312 _m
476 0 _l
386 0 _l
403 83 _l
376 50 346 26 312 10 _c
278 -5 241 -13 200 -13 _c
153 -13 115 1 85 29 _c
55 57 41 93 41 138 _c
41 202 66 252 117 289 _c
168 326 238 345 328 345 _c
453 345 _l
458 369 _l
458 371 459 374 459 377 _c
459 380 460 385 460 392 _c
460 421 448 444 424 460 _c
400 476 367 484 325 484 _c
}_e{295 484 265 480 235 472 _c
204 464 172 453 140 439 _c
156 522 _l
190 534 223 544 255 550 _c
287 556 319 560 349 560 _c
413 560 462 546 496 518 _c
530 490 547 449 547 396 _c
547 385 546 372 544 358 _c
542 343 540 328 537 312 _c
440 275 _m
350 275 _l
276 275 222 265 187 245 _c
151 225 134 195 134 154 _c
134 125 143 102 161 86 _c
179 70 204 62 236 62 _c
}_e{284 62 327 79 363 114 _c
399 149 424 196 436 255 _c
440 275 _l
_cl}_e}_d
/f{352 0 68 0 478 760 _sc
478 760 _m
464 685 _l
378 685 _l
345 685 321 678 307 665 _c
292 652 281 629 274 595 _c
264 547 _l
412 547 _l
399 477 _l
251 477 _l
158 0 _l
68 0 _l
161 477 _l
75 477 _l
88 547 _l
174 547 _l
181 585 _l
193 649 215 695 246 721 _c
277 747 326 760 393 760 _c
478 760 _l
_cl}_d
/k{579 0 35 0 612 760 _sc
183 760 _m
273 760 _l
187 317 _l
495 547 _l
612 547 _l
268 285 _l
519 0 _l
410 0 _l
177 267 _l
125 0 _l
35 0 _l
183 760 _l
_cl}_d
/m{{974 0 35 0 906 560 _sc
898 330 _m
834 0 _l
744 0 _l
807 327 _l
809 341 811 353 813 363 _c
814 373 815 381 815 389 _c
815 418 806 441 790 457 _c
774 473 751 482 722 482 _c
678 482 639 465 605 433 _c
571 400 549 357 539 305 _c
479 0 _l
389 0 _l
453 327 _l
455 339 457 350 459 360 _c
460 370 461 380 461 388 _c
461 418 452 441 436 457 _c
420 473 397 482 369 482 _c
}_e{325 482 285 465 251 433 _c
217 400 195 357 185 305 _c
125 0 _l
35 0 _l
142 547 _l
232 547 _l
215 462 _l
239 494 267 518 300 535 _c
333 551 368 560 406 560 _c
445 560 477 549 503 529 _c
529 508 544 479 550 442 _c
577 480 609 510 645 530 _c
681 550 719 560 759 560 _c
805 560 841 546 867 519 _c
893 492 906 454 906 405 _c
906 394 905 382 904 369 _c
}_e{902 356 900 343 898 330 _c
_cl}_e}_d
/q{{635 0 46 -205 597 560 _sc
417 82 _m
393 50 364 27 332 11 _c
299 -5 263 -13 223 -13 _c
167 -13 124 5 93 42 _c
61 79 46 130 46 196 _c
46 248 55 299 75 348 _c
94 397 122 441 158 481 _c
181 506 208 525 239 539 _c
269 553 301 560 335 560 _c
375 560 409 552 435 536 _c
461 520 479 496 491 464 _c
507 546 _l
597 546 _l
451 -205 _l
361 -205 _l
417 82 _l
139 209 _m
}_e{139 161 149 124 169 99 _c
189 73 219 61 257 61 _c
313 61 362 88 402 142 _c
442 196 462 262 462 340 _c
462 386 451 422 431 447 _c
410 472 380 485 342 485 _c
313 485 287 478 263 465 _c
239 451 218 432 200 407 _c
181 380 166 349 155 313 _c
144 277 139 243 139 209 _c
_cl}_e}_d
/r{411 0 35 0 463 560 _sc
446 464 _m
436 468 426 472 414 475 _c
402 477 390 479 377 479 _c
329 479 287 460 251 424 _c
215 388 192 339 180 279 _c
125 0 _l
35 0 _l
142 547 _l
232 547 _l
215 462 _l
238 493 266 517 300 534 _c
333 551 368 560 406 560 _c
415 560 424 559 434 558 _c
444 557 453 555 463 553 _c
446 464 _l
_cl}_d
/x{592 0 -25 0 600 547 _sc
600 547 _m
349 279 _l
503 0 _l
400 0 _l
284 217 _l
83 0 _l
-25 0 _l
243 288 _l
100 547 _l
203 547 _l
308 349 _l
491 547 _l
600 547 _l
_cl}_d
end readonly def

/BuildGlyph
 {exch begin
 CharStrings exch
 2 copy known not{pop /.notdef}if
 true 3 1 roll get exec
 end}_d

/BuildChar {
 1 index /Encoding get exch get
 1 index /BuildGlyph get exec
}_d

FontName currentdict end definefont pop
end
%%EndProlog
mpldict begin
115.181 262.92 translate
381.637 266.16 0 0 clipbox
gsave
0 0 m
381.6375 0 l
381.6375 266.16 l
0 266.16 l
cl
1.000 setgray
fill
grestore
gsave
36.1375 154.66 m
370.9375 154.66 l
370.9375 255.46 l
36.1375 255.46 l
cl
1.000 setgray
fill
grestore
0.800 setlinewidth
1 setlinejoin
0 setlinecap
[0.8 1.32] 0 setdash
0.690 setgray
gsave
334.8 100.8 36.14 154.7 clipbox
36.1375 154.66 m
36.1375 255.46 l
stroke
grestore
[] 0 setdash
0.000 setgray
gsave
/o {
gsave
newpath
translate
0.8 setlinewidth
1 setlinejoin
0 setlinecap
0 0 m
0 -3.5 l

gsave
0.000 setgray
fill
grestore
stroke
grestore
} bind def
36.1375 154.66 o
grestore
/DejaVuSans findfont
8.000 scalefont
setfont
gsave
33.590625 141.581875 translate
0.000000 rotate
0.000000 0.000000 m /zero glyphshow
grestore
[0.8 1.32] 0 setdash
0.690 setgray
gsave
334.8 100.8 36.14 154.7 clipbox
97.456181 154.66 m
97.456181 255.46 l
stroke
grestore
[] 0 setdash
0.000 setgray
gsave
/o {
gsave
newpath
translate
0.8 setlinewidth
1 setlinejoin
0 setlinecap
0 0 m
0 -3.5 l

gsave
0.000 setgray
fill
grestore
stroke
grestore
} bind def
97.4562 154.66 o
grestore
gsave
89.815556 141.581875 translate
0.000000 rotate
0.000000 0.000000 m /one glyphshow
5.089844 0.000000 m /zero glyphshow
10.179688 0.000000 m /zero glyphshow
grestore
[0.8 1.32] 0 setdash
0.690 setgray
gsave
334.8 100.8 36.14 154.7 clipbox
158.774863 154.66 m
158.774863 255.46 l
stroke
grestore
[] 0 setdash
0.000 setgray
gsave
/o {
gsave
newpath
translate
0.8 setlinewidth
1 setlinejoin
0 setlinecap
0 0 m
0 -3.5 l

gsave
0.000 setgray
fill
grestore
stroke
grestore
} bind def
158.775 154.66 o
grestore
gsave
151.134238 141.581875 translate
0.000000 rotate
0.000000 0.000000 m /two glyphshow
5.089844 0.000000 m /zero glyphshow
10.179688 0.000000 m /zero glyphshow
grestore
[0.8 1.32] 0 setdash
0.690 setgray
gsave
334.8 100.8 36.14 154.7 clipbox
220.093544 154.66 m
220.093544 255.46 l
stroke
grestore
[] 0 setdash
0.000 setgray
gsave
/o {
gsave
newpath
translate
0.8 setlinewidth
1 setlinejoin
0 setlinecap
0 0 m
0 -3.5 l

gsave
0.000 setgray
fill
grestore
stroke
grestore
} bind def
220.094 154.66 o
grestore
gsave
212.452919 141.581875 translate
0.000000 rotate
0.000000 0.000000 m /three glyphshow
5.089844 0.000000 m /zero glyphshow
10.179688 0.000000 m /zero glyphshow
grestore
[0.8 1.32] 0 setdash
0.690 setgray
gsave
334.8 100.8 36.14 154.7 clipbox
281.412225 154.66 m
281.412225 255.46 l
stroke
grestore
[] 0 setdash
0.000 setgray
gsave
/o {
gsave
newpath
translate
0.8 setlinewidth
1 setlinejoin
0 setlinecap
0 0 m
0 -3.5 l

gsave
0.000 setgray
fill
grestore
stroke
grestore
} bind def
281.412 154.66 o
grestore
gsave
273.771600 141.581875 translate
0.000000 rotate
0.000000 0.000000 m /four glyphshow
5.089844 0.000000 m /zero glyphshow
10.179688 0.000000 m /zero glyphshow
grestore
[0.8 1.32] 0 setdash
0.690 setgray
gsave
334.8 100.8 36.14 154.7 clipbox
342.730907 154.66 m
342.730907 255.46 l
stroke
grestore
[] 0 setdash
0.000 setgray
gsave
/o {
gsave
newpath
translate
0.8 setlinewidth
1 setlinejoin
0 setlinecap
0 0 m
0 -3.5 l

gsave
0.000 setgray
fill
grestore
stroke
grestore
} bind def
342.731 154.66 o
grestore
gsave
335.090282 141.581875 translate
0.000000 rotate
0.000000 0.000000 m /five glyphshow
5.089844 0.000000 m /zero glyphshow
10.179688 0.000000 m /zero glyphshow
grestore
gsave
172.865625 129.831875 translate
0.000000 rotate
0.000000 0.000000 m /T glyphshow
4.886719 0.000000 m /i glyphshow
7.109375 0.000000 m /m glyphshow
14.902344 0.000000 m /e glyphshow
19.824219 0.000000 m /space glyphshow
22.367188 0.000000 m /bracketleft glyphshow
25.488281 0.000000 m /s glyphshow
29.656250 0.000000 m /e glyphshow
34.578125 0.000000 m /c glyphshow
38.976562 0.000000 m /o glyphshow
43.871094 0.000000 m /n glyphshow
48.941406 0.000000 m /d glyphshow
54.019531 0.000000 m /s glyphshow
58.187500 0.000000 m /bracketright glyphshow
grestore
[0.8 1.32] 0 setdash
0.690 setgray
gsave
334.8 100.8 36.14 154.7 clipbox
36.1375 159.241818 m
370.9375 159.241818 l
stroke
grestore
[] 0 setdash
0.000 setgray
gsave
/o {
gsave
newpath
translate
0.8 setlinewidth
1 setlinejoin
0 setlinecap
0 0 m
-3.5 0 l

gsave
0.000 setgray
fill
grestore
stroke
grestore
} bind def
36.1375 159.242 o
grestore
gsave
24.043750 156.202756 translate
0.000000 rotate
0.000000 0.000000 m /zero glyphshow
grestore
[0.8 1.32] 0 setdash
0.690 setgray
gsave
334.8 100.8 36.14 154.7 clipbox
36.1375 189.787273 m
370.9375 189.787273 l
stroke
grestore
[] 0 setdash
0.000 setgray
gsave
/o {
gsave
newpath
translate
0.8 setlinewidth
1 setlinejoin
0 setlinecap
0 0 m
-3.5 0 l

gsave
0.000 setgray
fill
grestore
stroke
grestore
} bind def
36.1375 189.787 o
grestore
gsave
18.950000 186.748210 translate
0.000000 rotate
0.000000 0.000000 m /two glyphshow
5.089844 0.000000 m /zero glyphshow
grestore
[0.8 1.32] 0 setdash
0.690 setgray
gsave
334.8 100.8 36.14 154.7 clipbox
36.1375 220.332727 m
370.9375 220.332727 l
stroke
grestore
[] 0 setdash
0.000 setgray
gsave
/o {
gsave
newpath
translate
0.8 setlinewidth
1 setlinejoin
0 setlinecap
0 0 m
-3.5 0 l

gsave
0.000 setgray
fill
grestore
stroke
grestore
} bind def
36.1375 220.333 o
grestore
gsave
18.950000 217.293665 translate
0.000000 rotate
0.000000 0.000000 m /four glyphshow
5.089844 0.000000 m /zero glyphshow
grestore
[0.8 1.32] 0 setdash
0.690 setgray
gsave
334.8 100.8 36.14 154.7 clipbox
36.1375 250.878182 m
370.9375 250.878182 l
stroke
grestore
[] 0 setdash
0.000 setgray
gsave
/o {
gsave
newpath
translate
0.8 setlinewidth
1 setlinejoin
0 setlinecap
0 0 m
-3.5 0 l

gsave
0.000 setgray
fill
grestore
stroke
grestore
} bind def
36.1375 250.878 o
grestore
gsave
18.950000 247.839119 translate
0.000000 rotate
0.000000 0.000000 m /six glyphshow
5.089844 0.000000 m /zero glyphshow
grestore
gsave
13.278125 196.810000 translate
90.000000 rotate
0.000000 0.000000 m /J glyphshow
2.359375 0.000000 m /o glyphshow
7.253906 0.000000 m /b glyphshow
12.332031 0.000000 m /s glyphshow
grestore
1.500 setlinewidth
[5.55 2.4] 0 setdash
0.502 setgray
gsave
334.8 100.8 36.14 154.7 clipbox
36.1375 250.878182 m
39.423493 250.878182 l
42.090004 250.878182 l
45.446091 250.878182 l
48.727966 250.878182 l
51.30312 250.878182 l
54.747207 250.878182 l
57.685454 250.878182 l
60.649426 250.878182 l
65.254078 250.878182 l
68.672966 250.878182 l
72.934594 250.878182 l
78.008753 250.878182 l
82.648651 250.878182 l
86.588668 250.878182 l
91.841798 250.878182 l
95.315469 250.878182 l
99.813287 250.878182 l
103.023479 250.878182 l
107.452675 250.878182 l
111.90379 250.878182 l
116.1144 250.878182 l
119.609604 250.878182 l
123.733954 250.878182 l
128.777384 250.878182 l
133.182271 250.878182 l
138.425052 250.878182 l
142.840066 250.878182 l
146.580533 250.878182 l
150.290407 250.878182 l
155.349205 250.878182 l
159.806075 250.878182 l
164.169977 250.878182 l
167.895185 250.878182 l
171.46188 250.878182 l
175.049166 250.878182 l
179.331173 250.878182 l
183.77172 250.878182 l
187.461069 250.878182 l
190.755671 250.878182 l
195.141426 250.878182 l
199.407957 250.878182 l
203.751406 250.878182 l
207.660722 250.878182 l
211.830607 250.878182 l
216.209901 250.878182 l
220.568658 250.878182 l
225.734707 250.878182 l
230.129338 250.878182 l
233.593904 250.878182 l
237.911831 250.878182 l
242.045776 250.878182 l
245.469464 250.878182 l
248.461908 250.878182 l
251.239355 250.878182 l
254.613359 250.878182 l
257.370943 250.878182 l
260.736059 250.878182 l
263.480797 250.878182 l
266.837062 250.878182 l
269.560116 250.878182 l
272.880502 250.878182 l
276.196092 250.878182 l
278.896105 250.878182 l
282.230099 250.878182 l
284.941184 250.878182 l
288.269324 250.878182 l
291.598931 250.878182 l
294.926719 250.878182 l
298.252852 250.878182 l
301.12734 250.878182 l
304.444794 250.878182 l
307.150813 250.878182 l
310.473087 250.878182 l
313.180783 250.878182 l
316.499519 250.878182 l
319.819041 250.878182 l
323.143797 250.878182 l
326.459318 250.878182 l
329.162504 250.878182 l
332.486696 250.878182 l
335.192256 250.878182 l
338.507393 250.878182 l
341.823931 250.878182 l
344.5344 250.878182 l
347.855604 250.878182 l
350.558462 250.878182 l
353.878194 250.878182 l
357.205962 250.878182 l
360.697435 250.878182 l
363.399863 250.878182 l
366.7179 250.878182 l
370.041773 250.878182 l
372.745176 250.878182 l
376.061427 250.878182 l
378.764353 250.878182 l
382.088126 250.878182 l
382.6375 250.878182 l
stroke
grestore
2 setlinecap
[] 0 setdash
0.122 0.467 0.706 setrgbcolor
gsave
334.8 100.8 36.14 154.7 clipbox
36.1375 159.241818 m
51.30312 159.241818 l
51.30312 172.987273 l
57.685454 172.987273 l
57.685454 189.787273 l
60.649426 189.787273 l
60.649426 202.005455 l
68.672966 202.005455 l
68.672966 209.641818 l
72.934594 209.641818 l
72.934594 208.114545 l
86.588668 208.114545 l
86.588668 215.750909 l
91.841798 215.750909 l
91.841798 205.06 l
95.315469 205.06 l
95.315469 212.696364 l
99.813287 212.696364 l
99.813287 203.532727 l
103.023479 203.532727 l
103.023479 200.478182 l
107.452675 200.478182 l
107.452675 195.896364 l
111.90379 195.896364 l
111.90379 192.841818 l
116.1144 192.841818 l
116.1144 206.587273 l
123.733954 206.587273 l
123.733954 205.06 l
128.777384 205.06 l
128.777384 202.005455 l
133.182271 202.005455 l
133.182271 208.114545 l
138.425052 208.114545 l
138.425052 203.532727 l
142.840066 203.532727 l
142.840066 206.587273 l
146.580533 206.587273 l
146.580533 205.06 l
150.290407 205.06 l
150.290407 198.950909 l
155.349205 198.950909 l
155.349205 197.423636 l
159.806075 197.423636 l
159.806075 200.478182 l
164.169977 200.478182 l
164.169977 202.005455 l
175.049166 202.005455 l
175.049166 208.114545 l
179.331173 208.114545 l
179.331173 211.169091 l
183.77172 211.169091 l
183.77172 206.587273 l
187.461069 206.587273 l
187.461069 200.478182 l
190.755671 200.478182 l
190.755671 192.841818 l
195.141426 192.841818 l
195.141426 203.532727 l
199.407957 203.532727 l
199.407957 195.896364 l
203.751406 195.896364 l
203.751406 203.532727 l
207.660722 203.532727 l
207.660722 208.114545 l
211.830607 208.114545 l
211.830607 211.169091 l
216.209901 211.169091 l
216.209901 209.641818 l
220.568658 209.641818 l
220.568658 202.005455 l
230.129338 202.005455 l
230.129338 194.369091 l
233.593904 194.369091 l
233.593904 189.787273 l
237.911831 189.787273 l
237.911831 202.005455 l
242.045776 202.005455 l
242.045776 195.896364 l
245.469464 195.896364 l
245.469464 197.423636 l
248.461908 197.423636 l
248.461908 189.787273 l
251.239355 189.787273 l
251.239355 185.205455 l
254.613359 185.205455 l
254.613359 182.150909 l
257.370943 182.150909 l
257.370943 180.623636 l
263.480797 180.623636 l
263.480797 168.405455 l
266.837062 168.405455 l
266.837062 159.241818 l
382.6375 159.241818 l
382.6375 159.241818 l
stroke
grestore
1.000 0.498 0.055 setrgbcolor
gsave
334.8 100.8 36.14 154.7 clipbox
36.1375 159.241818 m
48.727966 159.241818 l
48.727966 168.405455 l
51.30312 168.405455 l
51.30312 159.241818 l
54.747207 159.241818 l
54.747207 169.932727 l
57.685454 169.932727 l
57.685454 159.241818 l
65.254078 159.241818 l
65.254078 171.46 l
68.672966 171.46 l
68.672966 159.241818 l
78.008753 159.241818 l
78.008753 160.769091 l
82.648651 160.769091 l
82.648651 159.241818 l
111.90379 159.241818 l
111.90379 169.932727 l
116.1144 169.932727 l
116.1144 159.241818 l
150.290407 159.241818 l
150.290407 168.405455 l
155.349205 168.405455 l
155.349205 165.350909 l
159.806075 165.350909 l
159.806075 159.241818 l
171.46188 159.241818 l
171.46188 168.405455 l
175.049166 168.405455 l
175.049166 159.241818 l
190.755671 159.241818 l
190.755671 169.932727 l
195.141426 169.932727 l
195.141426 159.241818 l
233.593904 159.241818 l
233.593904 168.405455 l
237.911831 168.405455 l
237.911831 159.241818 l
242.045776 159.241818 l
242.045776 168.405455 l
245.469464 168.405455 l
245.469464 159.241818 l
382.6375 159.241818 l
382.6375 159.241818 l
stroke
grestore
0.800 setlinewidth
0 setlinejoin
[] 0 setdash
0.000 setgray
gsave
36.1375 154.66 m
36.1375 255.46 l
stroke
grestore
gsave
370.9375 154.66 m
370.9375 255.46 l
stroke
grestore
gsave
36.1375 154.66 m
370.9375 154.66 l
stroke
grestore
gsave
36.1375 255.46 m
370.9375 255.46 l
stroke
grestore
1.000 setlinewidth
0 setlinecap
0.800 setgray
gsave
242.7375 210.06 m
365.3375 210.06 l
366.404167 210.06 366.9375 210.593333 366.9375 211.66 c
366.9375 249.86 l
366.9375 250.926667 366.404167 251.46 365.3375 251.46 c
242.7375 251.46 l
241.670833 251.46 241.1375 250.926667 241.1375 249.86 c
241.1375 211.66 l
241.1375 210.593333 241.670833 210.06 242.7375 210.06 c
cl
gsave
1.000 setgray
fill
grestore
stroke
grestore
1.500 setlinewidth
1 setlinejoin
[5.55 2.4] 0 setdash
0.502 setgray
gsave
244.3375 244.06 m
260.3375 244.06 l
stroke
grestore
0.000 setgray
gsave
266.737500 241.260000 translate
0.000000 rotate
/DejaVuSans findfont
8.0 scalefont
setfont
0.000000 0.921875 moveto
/A glyphshow

5.472656 0.921875 moveto
/v glyphshow

10.207031 0.921875 moveto
/a glyphshow

15.109375 0.921875 moveto
/i glyphshow

17.332031 0.921875 moveto
/l glyphshow

19.554688 0.921875 moveto
/a glyphshow

24.457031 0.921875 moveto
/b glyphshow

29.535156 0.921875 moveto
/l glyphshow

31.757812 0.921875 moveto
/e glyphshow

36.679688 0.921875 moveto
/space glyphshow

39.222656 0.921875 moveto
/r glyphshow

42.511719 0.921875 moveto
/e glyphshow

47.433594 0.921875 moveto
/s glyphshow

51.601562 0.921875 moveto
/o glyphshow

56.496094 0.921875 moveto
/u glyphshow

61.566406 0.921875 moveto
/r glyphshow

64.855469 0.921875 moveto
/c glyphshow

69.253906 0.921875 moveto
/e glyphshow

74.175781 0.921875 moveto
/s glyphshow

78.343750 0.921875 moveto
/space glyphshow

/DejaVuSans-Oblique findfont
8.0 scalefont
setfont
80.886719 0.921875 moveto
/r glyphshow

/DejaVuSans-Oblique findfont
5.6 scalefont
setfont
84.175781 -0.390625 moveto
/m glyphshow

89.630859 -0.390625 moveto
/a glyphshow

93.062500 -0.390625 moveto
/x glyphshow


grestore
2 setlinecap
[] 0 setdash
0.122 0.467 0.706 setrgbcolor
gsave
244.3375 231.06 m
260.3375 231.06 l
stroke
grestore
0.000 setgray
gsave
266.737500 228.260000 translate
0.000000 rotate
/DejaVuSans findfont
8.0 scalefont
setfont
0.000000 0.921875 moveto
/R glyphshow

5.558594 0.921875 moveto
/u glyphshow

10.628906 0.921875 moveto
/n glyphshow

15.699219 0.921875 moveto
/n glyphshow

20.769531 0.921875 moveto
/i glyphshow

22.992188 0.921875 moveto
/n glyphshow

28.062500 0.921875 moveto
/g glyphshow

33.140625 0.921875 moveto
/space glyphshow

35.683594 0.921875 moveto
/j glyphshow

37.906250 0.921875 moveto
/o glyphshow

42.800781 0.921875 moveto
/b glyphshow

47.878906 0.921875 moveto
/s glyphshow

52.046875 0.921875 moveto
/space glyphshow

/DejaVuSans-Oblique findfont
8.0 scalefont
setfont
54.589844 0.921875 moveto
/r glyphshow

/DejaVuSans-Oblique findfont
5.6 scalefont
setfont
57.878906 -0.390625 moveto
/k glyphshow


grestore
1.000 0.498 0.055 setrgbcolor
gsave
244.3375 218.06 m
260.3375 218.06 l
stroke
grestore
0.000 setgray
gsave
266.737500 215.260000 translate
0.000000 rotate
/DejaVuSans findfont
8.0 scalefont
setfont
0.000000 0.921875 moveto
/W glyphshow

7.910156 0.921875 moveto
/a glyphshow

12.812500 0.921875 moveto
/i glyphshow

15.035156 0.921875 moveto
/t glyphshow

18.171875 0.921875 moveto
/i glyphshow

20.394531 0.921875 moveto
/n glyphshow

25.464844 0.921875 moveto
/g glyphshow

30.542969 0.921875 moveto
/space glyphshow

33.085938 0.921875 moveto
/j glyphshow

35.308594 0.921875 moveto
/o glyphshow

40.203125 0.921875 moveto
/b glyphshow

45.281250 0.921875 moveto
/s glyphshow

49.449219 0.921875 moveto
/space glyphshow

/DejaVuSans-Oblique findfont
8.0 scalefont
setfont
51.992188 0.921875 moveto
/q glyphshow

/DejaVuSans-Oblique findfont
5.6 scalefont
setfont
57.070312 -0.390625 moveto
/k glyphshow


grestore
gsave
36.1375 33.7 m
370.9375 33.7 l
370.9375 134.5 l
36.1375 134.5 l
cl
1.000 setgray
fill
grestore
0.800 setlinewidth
0 setlinecap
[0.8 1.32] 0 setdash
0.690 setgray
gsave
334.8 100.8 36.14 33.7 clipbox
36.1375 33.7 m
36.1375 134.5 l
stroke
grestore
[] 0 setdash
0.000 setgray
gsave
/o {
gsave
newpath
translate
0.8 setlinewidth
1 setlinejoin
0 setlinecap
0 0 m
0 -3.5 l

gsave
0.000 setgray
fill
grestore
stroke
grestore
} bind def
36.1375 33.7 o
grestore
gsave
33.590625 20.621875 translate
0.000000 rotate
0.000000 0.000000 m /zero glyphshow
grestore
[0.8 1.32] 0 setdash
0.690 setgray
gsave
334.8 100.8 36.14 33.7 clipbox
97.456181 33.7 m
97.456181 134.5 l
stroke
grestore
[] 0 setdash
0.000 setgray
gsave
/o {
gsave
newpath
translate
0.8 setlinewidth
1 setlinejoin
0 setlinecap
0 0 m
0 -3.5 l

gsave
0.000 setgray
fill
grestore
stroke
grestore
} bind def
97.4562 33.7 o
grestore
gsave
89.815556 20.621875 translate
0.000000 rotate
0.000000 0.000000 m /one glyphshow
5.089844 0.000000 m /zero glyphshow
10.179688 0.000000 m /zero glyphshow
grestore
[0.8 1.32] 0 setdash
0.690 setgray
gsave
334.8 100.8 36.14 33.7 clipbox
158.774863 33.7 m
158.774863 134.5 l
stroke
grestore
[] 0 setdash
0.000 setgray
gsave
/o {
gsave
newpath
translate
0.8 setlinewidth
1 setlinejoin
0 setlinecap
0 0 m
0 -3.5 l

gsave
0.000 setgray
fill
grestore
stroke
grestore
} bind def
158.775 33.7 o
grestore
gsave
151.134238 20.621875 translate
0.000000 rotate
0.000000 0.000000 m /two glyphshow
5.089844 0.000000 m /zero glyphshow
10.179688 0.000000 m /zero glyphshow
grestore
[0.8 1.32] 0 setdash
0.690 setgray
gsave
334.8 100.8 36.14 33.7 clipbox
220.093544 33.7 m
220.093544 134.5 l
stroke
grestore
[] 0 setdash
0.000 setgray
gsave
/o {
gsave
newpath
translate
0.8 setlinewidth
1 setlinejoin
0 setlinecap
0 0 m
0 -3.5 l

gsave
0.000 setgray
fill
grestore
stroke
grestore
} bind def
220.094 33.7 o
grestore
gsave
212.452919 20.621875 translate
0.000000 rotate
0.000000 0.000000 m /three glyphshow
5.089844 0.000000 m /zero glyphshow
10.179688 0.000000 m /zero glyphshow
grestore
[0.8 1.32] 0 setdash
0.690 setgray
gsave
334.8 100.8 36.14 33.7 clipbox
281.412225 33.7 m
281.412225 134.5 l
stroke
grestore
[] 0 setdash
0.000 setgray
gsave
/o {
gsave
newpath
translate
0.8 setlinewidth
1 setlinejoin
0 setlinecap
0 0 m
0 -3.5 l

gsave
0.000 setgray
fill
grestore
stroke
grestore
} bind def
281.412 33.7 o
grestore
gsave
273.771600 20.621875 translate
0.000000 rotate
0.000000 0.000000 m /four glyphshow
5.089844 0.000000 m /zero glyphshow
10.179688 0.000000 m /zero glyphshow
grestore
[0.8 1.32] 0 setdash
0.690 setgray
gsave
334.8 100.8 36.14 33.7 clipbox
342.730907 33.7 m
342.730907 134.5 l
stroke
grestore
[] 0 setdash
0.000 setgray
gsave
/o {
gsave
newpath
translate
0.8 setlinewidth
1 setlinejoin
0 setlinecap
0 0 m
0 -3.5 l

gsave
0.000 setgray
fill
grestore
stroke
grestore
} bind def
342.731 33.7 o
grestore
gsave
335.090282 20.621875 translate
0.000000 rotate
0.000000 0.000000 m /five glyphshow
5.089844 0.000000 m /zero glyphshow
10.179688 0.000000 m /zero glyphshow
grestore
gsave
172.865625 8.871875 translate
0.000000 rotate
0.000000 0.000000 m /T glyphshow
4.886719 0.000000 m /i glyphshow
7.109375 0.000000 m /m glyphshow
14.902344 0.000000 m /e glyphshow
19.824219 0.000000 m /space glyphshow
22.367188 0.000000 m /bracketleft glyphshow
25.488281 0.000000 m /s glyphshow
29.656250 0.000000 m /e glyphshow
34.578125 0.000000 m /c glyphshow
38.976562 0.000000 m /o glyphshow
43.871094 0.000000 m /n glyphshow
48.941406 0.000000 m /d glyphshow
54.019531 0.000000 m /s glyphshow
58.187500 0.000000 m /bracketright glyphshow
grestore
[0.8 1.32] 0 setdash
0.690 setgray
gsave
334.8 100.8 36.14 33.7 clipbox
36.1375 38.276992 m
370.9375 38.276992 l
stroke
grestore
[] 0 setdash
0.000 setgray
gsave
/o {
gsave
newpath
translate
0.8 setlinewidth
1 setlinejoin
0 setlinecap
0 0 m
-3.5 0 l

gsave
0.000 setgray
fill
grestore
stroke
grestore
} bind def
36.1375 38.277 o
grestore
gsave
24.043750 35.237929 translate
0.000000 rotate
0.000000 0.000000 m /zero glyphshow
grestore
[0.8 1.32] 0 setdash
0.690 setgray
gsave
334.8 100.8 36.14 33.7 clipbox
36.1375 61.187289 m
370.9375 61.187289 l
stroke
grestore
[] 0 setdash
0.000 setgray
gsave
/o {
gsave
newpath
translate
0.8 setlinewidth
1 setlinejoin
0 setlinecap
0 0 m
-3.5 0 l

gsave
0.000 setgray
fill
grestore
stroke
grestore
} bind def
36.1375 61.1873 o
grestore
gsave
24.043750 58.148227 translate
0.000000 rotate
0.000000 0.000000 m /one glyphshow
grestore
[0.8 1.32] 0 setdash
0.690 setgray
gsave
334.8 100.8 36.14 33.7 clipbox
36.1375 84.097587 m
370.9375 84.097587 l
stroke
grestore
[] 0 setdash
0.000 setgray
gsave
/o {
gsave
newpath
translate
0.8 setlinewidth
1 setlinejoin
0 setlinecap
0 0 m
-3.5 0 l

gsave
0.000 setgray
fill
grestore
stroke
grestore
} bind def
36.1375 84.0976 o
grestore
gsave
24.043750 81.058524 translate
0.000000 rotate
0.000000 0.000000 m /two glyphshow
grestore
[0.8 1.32] 0 setdash
0.690 setgray
gsave
334.8 100.8 36.14 33.7 clipbox
36.1375 107.007884 m
370.9375 107.007884 l
stroke
grestore
[] 0 setdash
0.000 setgray
gsave
/o {
gsave
newpath
translate
0.8 setlinewidth
1 setlinejoin
0 setlinecap
0 0 m
-3.5 0 l

gsave
0.000 setgray
fill
grestore
stroke
grestore
} bind def
36.1375 107.008 o
grestore
gsave
24.043750 103.968822 translate
0.000000 rotate
0.000000 0.000000 m /three glyphshow
grestore
[0.8 1.32] 0 setdash
0.690 setgray
gsave
334.8 100.8 36.14 33.7 clipbox
36.1375 129.918182 m
370.9375 129.918182 l
stroke
grestore
[] 0 setdash
0.000 setgray
gsave
/o {
gsave
newpath
translate
0.8 setlinewidth
1 setlinejoin
0 setlinecap
0 0 m
-3.5 0 l

gsave
0.000 setgray
fill
grestore
stroke
grestore
} bind def
36.1375 129.918 o
grestore
gsave
24.043750 126.879119 translate
0.000000 rotate
0.000000 0.000000 m /four glyphshow
grestore
gsave
18.371875 68.193750 translate
90.000000 rotate
0.000000 0.000000 m /l glyphshow
2.222656 0.000000 m /o glyphshow
7.117188 0.000000 m /a glyphshow
12.019531 0.000000 m /d glyphshow
17.097656 0.000000 m /a glyphshow
22.000000 0.000000 m /v glyphshow
26.734375 0.000000 m /g glyphshow
grestore
1.500 setlinewidth
[5.55 2.4] 0 setdash
0.502 setgray
gsave
334.8 100.8 36.14 33.7 clipbox
36.1375 129.918182 m
39.423493 129.918182 l
42.090004 129.918182 l
45.446091 129.918182 l
48.727966 129.918182 l
51.30312 129.918182 l
54.747207 129.918182 l
57.685454 129.918182 l
60.649426 129.918182 l
65.254078 129.918182 l
68.672966 129.918182 l
72.934594 129.918182 l
78.008753 129.918182 l
82.648651 129.918182 l
86.588668 129.918182 l
91.841798 129.918182 l
95.315469 129.918182 l
99.813287 129.918182 l
103.023479 129.918182 l
107.452675 129.918182 l
111.90379 129.918182 l
116.1144 129.918182 l
119.609604 129.918182 l
123.733954 129.918182 l
128.777384 129.918182 l
133.182271 129.918182 l
138.425052 129.918182 l
142.840066 129.918182 l
146.580533 129.918182 l
150.290407 129.918182 l
155.349205 129.918182 l
159.806075 129.918182 l
164.169977 129.918182 l
167.895185 129.918182 l
171.46188 129.918182 l
175.049166 129.918182 l
179.331173 129.918182 l
183.77172 129.918182 l
187.461069 129.918182 l
190.755671 129.918182 l
195.141426 129.918182 l
199.407957 129.918182 l
203.751406 129.918182 l
207.660722 129.918182 l
211.830607 129.918182 l
216.209901 129.918182 l
220.568658 129.918182 l
225.734707 129.918182 l
230.129338 129.918182 l
233.593904 129.918182 l
237.911831 129.918182 l
242.045776 129.918182 l
245.469464 129.918182 l
248.461908 129.918182 l
251.239355 129.918182 l
254.613359 129.918182 l
257.370943 129.918182 l
260.736059 129.918182 l
263.480797 129.918182 l
266.837062 129.918182 l
269.560116 129.918182 l
272.880502 129.918182 l
276.196092 129.918182 l
278.896105 129.918182 l
282.230099 129.918182 l
284.941184 129.918182 l
288.269324 129.918182 l
291.598931 129.918182 l
294.926719 129.918182 l
298.252852 129.918182 l
301.12734 129.918182 l
304.444794 129.918182 l
307.150813 129.918182 l
310.473087 129.918182 l
313.180783 129.918182 l
316.499519 129.918182 l
319.819041 129.918182 l
323.143797 129.918182 l
326.459318 129.918182 l
329.162504 129.918182 l
332.486696 129.918182 l
335.192256 129.918182 l
338.507393 129.918182 l
341.823931 129.918182 l
344.5344 129.918182 l
347.855604 129.918182 l
350.558462 129.918182 l
353.878194 129.918182 l
357.205962 129.918182 l
360.697435 129.918182 l
363.399863 129.918182 l
366.7179 129.918182 l
370.041773 129.918182 l
372.745176 129.918182 l
376.061427 129.918182 l
378.764353 129.918182 l
382.088126 129.918182 l
382.6375 129.918182 l
stroke
grestore
2 setlinecap
[] 0 setdash
0.173 0.627 0.173 setrgbcolor
gsave
334.8 100.8 36.14 33.7 clipbox
36.1375 40.041085 m
39.423493 40.041085 l
39.423493 39.789071 l
45.446091 39.789071 l
45.446091 39.537058 l
48.727966 39.537058 l
48.727966 39.285045 l
54.747207 39.285045 l
54.747207 57.43 l
57.685454 57.43 l
57.685454 74.566903 l
60.649426 74.566903 l
60.649426 83.891394 l
65.254078 83.891394 l
65.254078 90.191726 l
68.672966 90.191726 l
68.672966 98.508164 l
72.934594 98.508164 l
72.934594 89.183673 l
78.008753 89.183673 l
78.008753 93.215885 l
82.648651 93.215885 l
82.648651 103.044403 l
86.588668 103.044403 l
86.588668 106.068562 l
91.841798 106.068562 l
91.841798 100.52427 l
95.315469 100.52427 l
95.315469 103.044403 l
99.813287 103.044403 l
99.813287 98.004137 l
103.023479 98.004137 l
103.023479 93.215885 l
107.452675 93.215885 l
107.452675 109.848761 l
111.90379 109.848761 l
111.90379 104.304469 l
116.1144 104.304469 l
116.1144 119.173252 l
119.609604 119.173252 l
119.609604 119.929292 l
123.733954 119.929292 l
123.733954 123.457478 l
128.777384 123.457478 l
128.777384 110.352788 l
133.182271 110.352788 l
133.182271 118.669226 l
138.425052 118.669226 l
138.425052 112.368894 l
142.840066 112.368894 l
142.840066 118.669226 l
146.580533 118.669226 l
146.580533 124.213518 l
150.290407 124.213518 l
150.290407 111.108828 l
155.349205 111.108828 l
155.349205 113.376947 l
159.806075 113.376947 l
159.806075 107.328628 l
164.169977 107.328628 l
164.169977 120.181305 l
167.895185 120.181305 l
167.895185 119.677279 l
171.46188 119.677279 l
171.46188 113.124934 l
175.049166 113.124934 l
175.049166 119.677279 l
179.331173 119.677279 l
179.331173 123.205465 l
183.77172 123.205465 l
183.77172 116.401106 l
187.461069 116.401106 l
187.461069 110.352788 l
190.755671 110.352788 l
190.755671 99.264204 l
195.141426 99.264204 l
195.141426 114.385 l
199.407957 114.385 l
199.407957 129.918182 l
203.751406 129.918182 l
203.751406 126.481637 l
207.660722 126.481637 l
207.660722 121.441372 l
211.830607 121.441372 l
211.830607 123.961504 l
216.209901 123.961504 l
216.209901 122.197412 l
220.568658 122.197412 l
220.568658 120.181305 l
225.734707 120.181305 l
225.734707 123.961504 l
230.129338 123.961504 l
230.129338 128.497743 l
233.593904 128.497743 l
233.593904 114.637013 l
237.911831 114.637013 l
237.911831 124.465531 l
242.045776 124.465531 l
242.045776 129.75781 l
245.469464 129.75781 l
245.469464 129.918182 l
251.239355 129.918182 l
251.239355 117.913186 l
257.370943 117.913186 l
257.370943 111.612854 l
260.736059 111.612854 l
260.736059 105.816549 l
263.480797 105.816549 l
263.480797 100.272257 l
266.837062 100.272257 l
266.837062 95.484005 l
269.560116 95.484005 l
269.560116 90.695752 l
272.880502 90.695752 l
272.880502 82.631328 l
278.896105 82.631328 l
278.896105 79.103142 l
282.230099 79.103142 l
282.230099 79.859182 l
284.941184 79.859182 l
284.941184 76.583009 l
288.269324 76.583009 l
288.269324 70.786704 l
291.598931 70.786704 l
291.598931 68.014558 l
294.926719 68.014558 l
294.926719 65.746438 l
298.252852 65.746438 l
298.252852 63.478319 l
301.12734 63.478319 l
301.12734 67.510531 l
304.444794 67.510531 l
304.444794 65.242412 l
307.150813 65.242412 l
307.150813 62.974292 l
313.180783 62.974292 l
313.180783 60.958186 l
316.499519 60.958186 l
316.499519 59.194093 l
319.819041 59.194093 l
319.819041 57.43 l
323.143797 57.43 l
323.143797 55.917921 l
326.459318 55.917921 l
326.459318 54.657854 l
329.162504 54.657854 l
329.162504 53.145775 l
332.486696 53.145775 l
332.486696 52.137722 l
335.192256 52.137722 l
335.192256 50.877655 l
338.507393 50.877655 l
338.507393 49.869602 l
341.823931 49.869602 l
341.823931 48.861549 l
344.5344 48.861549 l
344.5344 48.105509 l
347.855604 48.105509 l
347.855604 47.34947 l
350.558462 47.34947 l
350.558462 46.59343 l
353.878194 46.59343 l
353.878194 45.83739 l
357.205962 45.83739 l
357.205962 45.333363 l
360.697435 45.333363 l
360.697435 44.829337 l
363.399863 44.829337 l
363.399863 44.32531 l
366.7179 44.32531 l
366.7179 45.83739 l
370.041773 45.83739 l
370.041773 45.08135 l
372.745176 45.08135 l
372.745176 44.577324 l
376.061427 44.577324 l
376.061427 60.202146 l
378.764353 60.202146 l
378.764353 58.438054 l
382.088126 58.438054 l
382.088126 56.925974 l
382.6375 56.925974 l
382.6375 56.925974 l
stroke
grestore
0.839 0.153 0.157 setrgbcolor
gsave
334.8 100.8 36.14 33.7 clipbox
36.1375 40.395533 m
36.1375 40.132472 l
39.423493 40.132472 l
39.423493 39.970082 l
42.090004 39.970082 l
42.090004 38.978996 l
45.446091 38.978996 l
45.446091 39.806025 l
48.727966 39.806025 l
48.727966 38.740162 l
51.30312 38.740162 l
51.30312 39.097839 l
54.747207 39.097839 l
54.747207 39.805775 l
57.685454 39.805775 l
57.685454 39.159331 l
60.649426 39.159331 l
60.649426 39.940102 l
65.254078 39.940102 l
65.254078 39.401835 l
68.672966 39.401835 l
68.672966 38.720239 l
72.934594 38.720239 l
72.934594 39.408012 l
78.008753 39.408012 l
78.008753 38.598997 l
82.648651 38.598997 l
82.648651 39.008083 l
86.588668 39.008083 l
86.588668 40.325463 l
91.841798 40.325463 l
91.841798 39.977297 l
95.315469 39.977297 l
95.315469 40.276381 l
99.813287 40.276381 l
99.813287 39.070422 l
107.452675 39.176392 l
107.452675 38.281818 l
111.90379 38.281818 l
111.90379 40.154314 l
116.1144 40.154314 l
116.1144 39.013546 l
119.609604 39.013546 l
119.609604 40.015441 l
123.733954 40.015441 l
123.733954 38.564897 l
128.777384 38.564897 l
128.777384 39.364899 l
133.182271 39.364899 l
133.182271 40.107933 l
138.425052 40.107933 l
138.425052 39.921878 l
142.840066 39.921878 l
142.840066 40.181464 l
150.290407 40.094469 l
150.290407 40.052863 l
155.349205 40.052863 l
155.349205 38.698708 l
159.806075 38.698708 l
159.806075 40.564252 l
164.169977 40.564252 l
164.169977 38.599797 l
167.895185 38.599797 l
167.895185 38.380136 l
171.46188 38.380136 l
171.46188 39.265022 l
175.049166 39.265022 l
175.049166 38.948621 l
179.331173 38.948621 l
179.331173 39.696816 l
183.77172 39.696816 l
183.77172 38.63095 l
187.461069 38.63095 l
187.461069 39.791292 l
190.755671 39.791292 l
190.755671 38.956968 l
195.141426 38.956968 l
195.141426 38.333402 l
199.407957 38.333402 l
199.407957 38.817665 l
203.751406 38.817665 l
203.751406 39.424377 l
207.660722 39.424377 l
207.660722 39.89939 l
211.830607 39.89939 l
211.830607 40.481023 l
216.209901 40.481023 l
216.209901 38.849488 l
230.129338 38.854393 l
230.129338 38.729683 l
233.593904 38.729683 l
233.593904 39.313083 l
237.911831 39.313083 l
237.911831 40.256261 l
242.045776 40.256261 l
242.045776 38.936865 l
245.469464 38.936865 l
245.469464 39.48455 l
248.461908 39.48455 l
248.461908 39.796059 l
251.239355 39.796059 l
251.239355 40.556005 l
254.613359 40.556005 l
254.613359 38.394781 l
257.370943 38.394781 l
257.370943 38.84625 l
260.736059 38.84625 l
260.736059 40.390638 l
263.480797 40.390638 l
263.480797 39.54998 l
266.837062 39.54998 l
266.837062 38.517696 l
269.560116 38.517696 l
269.560116 39.229032 l
272.880502 39.229032 l
272.880502 40.49514 l
276.196092 40.49514 l
276.196092 39.218457 l
278.896105 39.218457 l
278.896105 39.476334 l
282.230099 39.476334 l
282.230099 38.882239 l
288.269324 38.927376 l
288.269324 40.072448 l
291.598931 40.072448 l
291.598931 39.583351 l
294.926719 39.583351 l
294.926719 39.161723 l
298.252852 39.161723 l
298.252852 38.617251 l
301.12734 38.617251 l
301.12734 39.916265 l
304.444794 39.916265 l
304.444794 39.595867 l
307.150813 39.595867 l
307.150813 38.990771 l
310.473087 38.990771 l
310.473087 39.934965 l
313.180783 39.934965 l
313.180783 38.878496 l
316.499519 38.878496 l
316.499519 39.130355 l
319.819041 39.130355 l
319.819041 38.459229 l
323.143797 38.459229 l
323.143797 39.311272 l
326.459318 39.311272 l
326.459318 39.514035 l
329.162504 39.514035 l
329.162504 38.896545 l
332.486696 38.896545 l
332.486696 38.509771 l
335.192256 38.509771 l
335.192256 39.013978 l
338.507393 39.013978 l
338.507393 40.461003 l
341.823931 40.461003 l
341.823931 39.170515 l
344.5344 39.170515 l
344.5344 38.775581 l
350.558462 38.781263 l
350.558462 39.778576 l
353.878194 39.778576 l
353.878194 38.788289 l
357.205962 38.788289 l
357.205962 38.451472 l
360.697435 38.451472 l
360.697435 39.412763 l
363.399863 39.412763 l
363.399863 39.929054 l
366.7179 39.929054 l
366.7179 40.195077 l
370.041773 40.195077 l
370.041773 39.352763 l
376.061427 39.451954 l
376.061427 39.902562 l
378.764353 39.902562 l
378.764353 38.460323 l
382.088126 38.460323 l
382.088126 40.45054 l
382.6375 40.45054 l
382.6375 40.45054 l
stroke
grestore
0.800 setlinewidth
0 setlinejoin
[] 0 setdash
0.000 setgray
gsave
36.1375 33.7 m
36.1375 134.5 l
stroke
grestore
gsave
370.9375 33.7 m
370.9375 134.5 l
stroke
grestore
gsave
36.1375 33.7 m
370.9375 33.7 l
stroke
grestore
gsave
36.1375 134.5 m
370.9375 134.5 l
stroke
grestore
1.000 setlinewidth
0 setlinecap
0.800 setgray
gsave
270.7375 86.35 m
365.3375 86.35 l
366.404167 86.35 366.9375 86.883333 366.9375 87.95 c
366.9375 128.9 l
366.9375 129.966667 366.404167 130.5 365.3375 130.5 c
270.7375 130.5 l
269.670833 130.5 269.1375 129.966667 269.1375 128.9 c
269.1375 87.95 l
269.1375 86.883333 269.670833 86.35 270.7375 86.35 c
cl
gsave
1.000 setgray
fill
grestore
stroke
grestore
1.500 setlinewidth
1 setlinejoin
[5.55 2.4] 0 setdash
0.502 setgray
gsave
272.3375 124.021875 m
288.3375 124.021875 l
stroke
grestore
0.000 setgray
gsave
294.737500 121.221875 translate
0.000000 rotate
0.000000 0.000000 m /R glyphshow
5.558594 0.000000 m /e glyphshow
10.480469 0.000000 m /f glyphshow
13.296875 0.000000 m /e glyphshow
18.218750 0.000000 m /r glyphshow
21.507812 0.000000 m /e glyphshow
26.429688 0.000000 m /n glyphshow
31.500000 0.000000 m /c glyphshow
35.898438 0.000000 m /e glyphshow
grestore
2 setlinecap
[] 0 setdash
0.173 0.627 0.173 setrgbcolor
gsave
272.3375 110.35 m
288.3375 110.35 l
stroke
grestore
0.000 setgray
gsave
294.737500 107.550000 translate
0.000000 rotate
/DejaVuSans findfont
8.0 scalefont
setfont
0.000000 0.853125 moveto
/F glyphshow

4.601562 0.853125 moveto
/i glyphshow

6.824219 0.853125 moveto
/l glyphshow

9.046875 0.853125 moveto
/e glyphshow

13.968750 0.853125 moveto
/s glyphshow

18.136719 0.853125 moveto
/e glyphshow

23.058594 0.853125 moveto
/r glyphshow

26.347656 0.853125 moveto
/v glyphshow

31.082031 0.853125 moveto
/e glyphshow

36.003906 0.853125 moveto
/r glyphshow

39.292969 0.853125 moveto
/space glyphshow

41.835938 0.853125 moveto
/l glyphshow

44.058594 0.853125 moveto
/o glyphshow

48.953125 0.853125 moveto
/a glyphshow

53.855469 0.853125 moveto
/d glyphshow

58.933594 0.853125 moveto
/space glyphshow

/DejaVuSans-Oblique findfont
8.0 scalefont
setfont
61.476562 0.853125 moveto
/f glyphshow

/DejaVuSans findfont
5.6 scalefont
setfont
64.888698 3.920313 moveto
/one glyphshow

/DejaVuSans-Oblique findfont
5.6 scalefont
setfont
64.292969 -1.334375 moveto
/k glyphshow


grestore
0.839 0.153 0.157 setrgbcolor
gsave
272.3375 95.35 m
288.3375 95.35 l
stroke
grestore
0.000 setgray
gsave
294.737500 92.550000 translate
0.000000 rotate
/DejaVuSans findfont
8.0 scalefont
setfont
0.000000 0.776563 moveto
/F glyphshow

4.601562 0.776563 moveto
/i glyphshow

6.824219 0.776563 moveto
/l glyphshow

9.046875 0.776563 moveto
/e glyphshow

13.968750 0.776563 moveto
/s glyphshow

18.136719 0.776563 moveto
/e glyphshow

23.058594 0.776563 moveto
/r glyphshow

26.347656 0.776563 moveto
/v glyphshow

31.082031 0.776563 moveto
/e glyphshow

36.003906 0.776563 moveto
/r glyphshow

39.292969 0.776563 moveto
/space glyphshow

41.835938 0.776563 moveto
/l glyphshow

44.058594 0.776563 moveto
/o glyphshow

48.953125 0.776563 moveto
/a glyphshow

53.855469 0.776563 moveto
/d glyphshow

58.933594 0.776563 moveto
/space glyphshow

/DejaVuSans-Oblique findfont
8.0 scalefont
setfont
61.476562 0.776563 moveto
/f glyphshow

/DejaVuSans findfont
5.6 scalefont
setfont
64.888698 3.843750 moveto
/two glyphshow

/DejaVuSans-Oblique findfont
5.6 scalefont
setfont
64.292969 -1.410937 moveto
/k glyphshow


grestore

end
showpage
