\relax 
\providecommand\hyper@newdestlabel[2]{}
\@writefile{toc}{\defcounter {refsection}{0}\relax }\@writefile{toc}{\contentsline {chapter}{\numberline {3}Modeling and control}{9}{chapter.3}}
\@writefile{lof}{\defcounter {refsection}{0}\relax }\@writefile{lof}{\addvspace {10\p@ }}
\@writefile{lot}{\defcounter {refsection}{0}\relax }\@writefile{lot}{\addvspace {10\p@ }}
\@writefile{toc}{\defcounter {refsection}{0}\relax }\@writefile{toc}{\contentsline {section}{\numberline {3.1}Queue modeling}{9}{section.3.1}}
\@writefile{toc}{\defcounter {refsection}{0}\relax }\@writefile{toc}{\contentsline {subsection}{\numberline {3.1.1}Previous work}{9}{subsection.3.1.1}}
\newlabel{comp_pentea}{{3.1a}{9}{\relax }{figure.caption.10}{}}
\newlabel{sub@comp_pentea}{{a}{9}{\relax }{figure.caption.10}{}}
\@writefile{lof}{\defcounter {refsection}{0}\relax }\@writefile{lof}{\contentsline {figure}{\numberline {3.1}{\ignorespaces Time evolution of the number of jobs in the queue when performing open-loop experiments with sample jobs of 30 seconds of average duration. The experiments consisted of: a) campaigns of 200 jobs, when varying the number of available resources in the cluster; b) campaigns of varying number of jobs using a fixed number of available resources.\relax }}{9}{figure.caption.10}}
\newlabel{comp_pente}{{3.1}{9}{Time evolution of the number of jobs in the queue when performing open-loop experiments with sample jobs of 30 seconds of average duration. The experiments consisted of: a) campaigns of 200 jobs, when varying the number of available resources in the cluster; b) campaigns of varying number of jobs using a fixed number of available resources.\relax }{figure.caption.10}{}}
\@writefile{toc}{\defcounter {refsection}{0}\relax }\@writefile{toc}{\contentsline {subsection}{\numberline {3.1.2}Components involved}{10}{subsection.3.1.2}}
\@writefile{toc}{\defcounter {refsection}{0}\relax }\@writefile{toc}{\contentsline {subsubsection}{Overview}{10}{subsubsection*.11}}
\@writefile{lof}{\defcounter {refsection}{0}\relax }\@writefile{lof}{\contentsline {figure}{\numberline {3.2}{\ignorespaces Example of system dynamics.\relax }}{10}{figure.caption.12}}
\newlabel{modeled}{{3.2}{10}{Example of system dynamics.\relax }{figure.caption.12}{}}
\newlabel{my-label}{{\caption@xref {my-label}{ on input line 45}}{10}{Overview}{table.caption.13}{}}
\@writefile{lot}{\defcounter {refsection}{0}\relax }\@writefile{lot}{\contentsline {table}{\numberline {3.1}{\ignorespaces Relevant system variables, description and unit.\relax }}{10}{table.caption.13}}
\@writefile{toc}{\defcounter {refsection}{0}\relax }\@writefile{toc}{\contentsline {subsubsection}{Maximum number of jobs allowed $r_{max}$}{10}{subsubsection*.14}}
\@writefile{toc}{\defcounter {refsection}{0}\relax }\@writefile{toc}{\contentsline {subsubsection}{Job allocation's buffer $b$}{11}{subsubsection*.15}}
\@writefile{toc}{\defcounter {refsection}{0}\relax }\@writefile{toc}{\contentsline {subsubsection}{Spilling rate}{11}{subsubsection*.16}}
\@writefile{toc}{\defcounter {refsection}{0}\relax }\@writefile{toc}{\contentsline {subsection}{\numberline {3.1.3}Fluid modeling}{12}{subsection.3.1.3}}
\@writefile{toc}{\defcounter {refsection}{0}\relax }\@writefile{toc}{\contentsline {subsubsection}{Dynamical model}{12}{subsubsection*.17}}
\newlabel{buffer}{{3.1.2}{12}{Dynamical model}{equation.3.1.2}{}}
\@writefile{toc}{\defcounter {refsection}{0}\relax }\@writefile{toc}{\contentsline {subsubsection}{Maximum cluster usage}{12}{subsubsection*.18}}
\newlabel{maximum_usage_section}{{3.1.3}{12}{Maximum cluster usage}{subsubsection*.18}{}}
\newlabel{maximum_usage}{{3.1.3}{13}{Maximum cluster usage}{equation.3.1.3}{}}
\@writefile{toc}{\defcounter {refsection}{0}\relax }\@writefile{toc}{\contentsline {subsubsection}{Simulation model}{13}{subsubsection*.19}}
\newlabel{eq:buffer2}{{3.1.4}{13}{Simulation model}{equation.3.1.4}{}}
\@writefile{toc}{\defcounter {refsection}{0}\relax }\@writefile{toc}{\contentsline {subsection}{\numberline {3.1.4}Model validation}{13}{subsection.3.1.4}}
\newlabel{section_validation}{{3.1.4}{13}{Model validation}{subsection.3.1.4}{}}
\@writefile{lof}{\defcounter {refsection}{0}\relax }\@writefile{lof}{\contentsline {figure}{\numberline {3.3}{\ignorespaces 10 identical experiments were carried out. As an example, only 4 are shown in this Figure, and compared to the model output.\relax }}{14}{figure.caption.20}}
\newlabel{all_experiments}{{3.3}{14}{10 identical experiments were carried out. As an example, only 4 are shown in this Figure, and compared to the model output.\relax }{figure.caption.20}{}}
\@writefile{lof}{\defcounter {refsection}{0}\relax }\@writefile{lof}{\contentsline {figure}{\numberline {3.4}{\ignorespaces The mean and standard deviation values are computed for all the experiments, and compared to the model output.\relax }}{14}{figure.caption.21}}
\newlabel{average_experiments}{{3.4}{14}{The mean and standard deviation values are computed for all the experiments, and compared to the model output.\relax }{figure.caption.21}{}}
\@writefile{toc}{\defcounter {refsection}{0}\relax }\@writefile{toc}{\contentsline {section}{\numberline {3.2}Filesystem analysis}{15}{section.3.2}}
\@writefile{toc}{\defcounter {refsection}{0}\relax }\@writefile{toc}{\contentsline {subsection}{\numberline {3.2.1}Considered scenario}{15}{subsection.3.2.1}}
\@writefile{toc}{\defcounter {refsection}{0}\relax }\@writefile{toc}{\contentsline {subsubsection}{Measuring disk I/O}{15}{subsubsection*.22}}
\@writefile{toc}{\defcounter {refsection}{0}\relax }\@writefile{toc}{\contentsline {subsection}{\numberline {3.2.2}Dynamical model}{15}{subsection.3.2.2}}
\newlabel{fsgeneral}{{3.2.5}{15}{Dynamical model}{equation.3.2.5}{}}
\@writefile{lof}{\defcounter {refsection}{0}\relax }\@writefile{lof}{\contentsline {figure}{\numberline {3.5}{\ignorespaces Open-loop experiment performed to analyze the homogeneous response of the system.\relax }}{16}{figure.caption.23}}
\newlabel{open_loop}{{3.5}{16}{Open-loop experiment performed to analyze the homogeneous response of the system.\relax }{figure.caption.23}{}}
\@writefile{toc}{\defcounter {refsection}{0}\relax }\@writefile{toc}{\contentsline {subsubsection}{Data reading}{16}{subsubsection*.24}}
\newlabel{my-label}{{\caption@xref {my-label}{ on input line 227}}{16}{Data reading}{table.caption.25}{}}
\@writefile{lot}{\defcounter {refsection}{0}\relax }\@writefile{lot}{\contentsline {table}{\numberline {3.2}{\ignorespaces Relevant system variables, description and unit.\relax }}{16}{table.caption.25}}
\@writefile{lof}{\defcounter {refsection}{0}\relax }\@writefile{lof}{\contentsline {figure}{\numberline {3.6}{\ignorespaces Different experiments targeted to understand how the size of the file used by jobs affects the load of the fileserver.\relax }}{17}{figure.caption.26}}
\newlabel{fs_filesizes}{{3.6}{17}{Different experiments targeted to understand how the size of the file used by jobs affects the load of the fileserver.\relax }{figure.caption.26}{}}
\@writefile{toc}{\defcounter {refsection}{0}\relax }\@writefile{toc}{\contentsline {subsection}{\numberline {3.2.3}Model validation}{17}{subsection.3.2.3}}
\@writefile{toc}{\defcounter {refsection}{0}\relax }\@writefile{toc}{\contentsline {subsection}{\numberline {3.2.4}Multi-storage infrastructure}{17}{subsection.3.2.4}}
\@writefile{lof}{\defcounter {refsection}{0}\relax }\@writefile{lof}{\contentsline {figure}{\numberline {3.7}{\ignorespaces 3 different results for the same experiment. Starting jobs $b$ are computed from the increments of the running jobs curve $\Delta r_k = r_k-r_{k-1}$.\relax }}{18}{figure.caption.27}}
\newlabel{valid1}{{3.7}{18}{3 different results for the same experiment. Starting jobs $b$ are computed from the increments of the running jobs curve $\Delta r_k = r_k-r_{k-1}$.\relax }{figure.caption.27}{}}
\@writefile{lof}{\defcounter {refsection}{0}\relax }\@writefile{lof}{\contentsline {figure}{\numberline {3.8}{\ignorespaces The mean and standard deviation values are computed for all the experiments, and compared to the model output.\relax }}{18}{figure.caption.28}}
\newlabel{valid2}{{3.8}{18}{The mean and standard deviation values are computed for all the experiments, and compared to the model output.\relax }{figure.caption.28}{}}
\newlabel{multi-server}{{3.2.6}{18}{Multi-storage infrastructure}{equation.3.2.6}{}}
\@writefile{toc}{\defcounter {refsection}{0}\relax }\@writefile{toc}{\contentsline {section}{\numberline {3.3}Parameter estimation}{19}{section.3.3}}
\@writefile{lof}{\defcounter {refsection}{0}\relax }\@writefile{lof}{\contentsline {figure}{\numberline {3.9}{\ignorespaces Comparison between methods for estimating the parameter $p$: a recursive estimation algorithm (with form $\mathaccentV {hat}05E{p}_k = \mathaccentV {hat}05E{p}_{k-1} + \alpha _k e$, being $e$ the prediction error computed from $\mathaccentV {hat}05E{p}_{k-1}$ and $\alpha _k$ the updating gain) and the EKF were tried and compared in simulation.\relax }}{20}{figure.caption.29}}
\newlabel{estimation_ekf}{{3.9}{20}{Comparison between methods for estimating the parameter $p$: a recursive estimation algorithm (with form $\hat {p}_k = \hat {p}_{k-1} + \alpha _k e$, being $e$ the prediction error computed from $\hat {p}_{k-1}$ and $\alpha _k$ the updating gain) and the EKF were tried and compared in simulation.\relax }{figure.caption.29}{}}
\@writefile{lof}{\defcounter {refsection}{0}\relax }\@writefile{lof}{\contentsline {figure}{\numberline {3.10}{\ignorespaces Comparison between methods for estimating the parameter $p$: a recursive estimation algorithm (with form $\mathaccentV {hat}05E{p}_k = \mathaccentV {hat}05E{p}_{k-1} + \alpha _k e$, being $e$ the prediction error computed from $\mathaccentV {hat}05E{p}_{k-1}$ and $\alpha _k$ the updating gain) and the EKF were tried and compared in simulation.\relax }}{20}{figure.caption.30}}
\newlabel{estimation_ekf}{{3.10}{20}{Comparison between methods for estimating the parameter $p$: a recursive estimation algorithm (with form $\hat {p}_k = \hat {p}_{k-1} + \alpha _k e$, being $e$ the prediction error computed from $\hat {p}_{k-1}$ and $\alpha _k$ the updating gain) and the EKF were tried and compared in simulation.\relax }{figure.caption.30}{}}
\@writefile{toc}{\defcounter {refsection}{0}\relax }\@writefile{toc}{\contentsline {section}{\numberline {3.4}Control scheme}{21}{section.3.4}}
\@writefile{lof}{\defcounter {refsection}{0}\relax }\@writefile{lof}{\contentsline {figure}{\numberline {3.11}{\ignorespaces Control scheme\relax }}{21}{figure.caption.31}}
\newlabel{control_scheme}{{3.11}{21}{Control scheme\relax }{figure.caption.31}{}}
\@setckpt{chapter4}{
\setcounter{page}{23}
\setcounter{equation}{6}
\setcounter{enumi}{0}
\setcounter{enumii}{0}
\setcounter{enumiii}{0}
\setcounter{enumiv}{0}
\setcounter{footnote}{3}
\setcounter{mpfootnote}{0}
\setcounter{part}{0}
\setcounter{chapter}{3}
\setcounter{section}{4}
\setcounter{subsection}{0}
\setcounter{subsubsection}{0}
\setcounter{paragraph}{0}
\setcounter{subparagraph}{0}
\setcounter{figure}{11}
\setcounter{table}{2}
\setcounter{parentequation}{0}
\setcounter{Item}{0}
\setcounter{Hfootnote}{6}
\setcounter{bookmark@seq@number}{33}
\setcounter{ContinuedFloat}{0}
\setcounter{subfigure}{0}
\setcounter{subtable}{0}
\setcounter{pseudocode}{0}
\setcounter{pseudonum}{0}
\setcounter{tabx@nest}{0}
\setcounter{listtotal}{0}
\setcounter{listcount}{0}
\setcounter{liststart}{0}
\setcounter{liststop}{0}
\setcounter{citecount}{0}
\setcounter{citetotal}{0}
\setcounter{multicitecount}{0}
\setcounter{multicitetotal}{0}
\setcounter{instcount}{27}
\setcounter{maxnames}{3}
\setcounter{minnames}{3}
\setcounter{maxitems}{3}
\setcounter{minitems}{1}
\setcounter{citecounter}{0}
\setcounter{savedcitecounter}{0}
\setcounter{uniquelist}{0}
\setcounter{uniquename}{0}
\setcounter{refsection}{0}
\setcounter{refsegment}{0}
\setcounter{maxextratitle}{0}
\setcounter{maxextratitleyear}{0}
\setcounter{maxextradate}{0}
\setcounter{maxextraalpha}{0}
\setcounter{abbrvpenalty}{50}
\setcounter{highnamepenalty}{50}
\setcounter{lownamepenalty}{25}
\setcounter{maxparens}{3}
\setcounter{parenlevel}{0}
\setcounter{mincomprange}{10}
\setcounter{maxcomprange}{100000}
\setcounter{mincompwidth}{1}
\setcounter{afterword}{0}
\setcounter{savedafterword}{0}
\setcounter{annotator}{0}
\setcounter{savedannotator}{0}
\setcounter{author}{0}
\setcounter{savedauthor}{0}
\setcounter{bookauthor}{0}
\setcounter{savedbookauthor}{0}
\setcounter{commentator}{0}
\setcounter{savedcommentator}{0}
\setcounter{editor}{0}
\setcounter{savededitor}{0}
\setcounter{editora}{0}
\setcounter{savededitora}{0}
\setcounter{editorb}{0}
\setcounter{savededitorb}{0}
\setcounter{editorc}{0}
\setcounter{savededitorc}{0}
\setcounter{foreword}{0}
\setcounter{savedforeword}{0}
\setcounter{holder}{0}
\setcounter{savedholder}{0}
\setcounter{introduction}{0}
\setcounter{savedintroduction}{0}
\setcounter{namea}{0}
\setcounter{savednamea}{0}
\setcounter{nameb}{0}
\setcounter{savednameb}{0}
\setcounter{namec}{0}
\setcounter{savednamec}{0}
\setcounter{translator}{0}
\setcounter{savedtranslator}{0}
\setcounter{shortauthor}{0}
\setcounter{savedshortauthor}{0}
\setcounter{shorteditor}{0}
\setcounter{savedshorteditor}{0}
\setcounter{labelname}{0}
\setcounter{savedlabelname}{0}
\setcounter{institution}{0}
\setcounter{savedinstitution}{0}
\setcounter{lista}{0}
\setcounter{savedlista}{0}
\setcounter{listb}{0}
\setcounter{savedlistb}{0}
\setcounter{listc}{0}
\setcounter{savedlistc}{0}
\setcounter{listd}{0}
\setcounter{savedlistd}{0}
\setcounter{liste}{0}
\setcounter{savedliste}{0}
\setcounter{listf}{0}
\setcounter{savedlistf}{0}
\setcounter{location}{0}
\setcounter{savedlocation}{0}
\setcounter{organization}{0}
\setcounter{savedorganization}{0}
\setcounter{origlocation}{0}
\setcounter{savedoriglocation}{0}
\setcounter{origpublisher}{0}
\setcounter{savedorigpublisher}{0}
\setcounter{publisher}{0}
\setcounter{savedpublisher}{0}
\setcounter{language}{0}
\setcounter{savedlanguage}{0}
\setcounter{origlanguage}{0}
\setcounter{savedoriglanguage}{0}
\setcounter{pageref}{0}
\setcounter{savedpageref}{0}
\setcounter{textcitecount}{0}
\setcounter{textcitetotal}{0}
\setcounter{textcitemaxnames}{0}
\setcounter{biburlnumpenalty}{0}
\setcounter{biburlucpenalty}{0}
\setcounter{biburllcpenalty}{0}
\setcounter{smartand}{1}
\setcounter{bbx:relatedcount}{0}
\setcounter{bbx:relatedtotal}{0}
\setcounter{cbx@tempcnta}{0}
\setcounter{cbx@tempcntb}{20}
\setcounter{ind}{1}
\setcounter{Pro}{0}
\setcounter{The}{0}
\setcounter{Exp}{0}
\setcounter{section@level}{0}
}
