\relax 
\providecommand\hyper@newdestlabel[2]{}
\providecommand\HyperFirstAtBeginDocument{\AtBeginDocument}
\HyperFirstAtBeginDocument{\ifx\hyper@anchor\@undefined
\global\let\oldcontentsline\contentsline
\gdef\contentsline#1#2#3#4{\oldcontentsline{#1}{#2}{#3}}
\global\let\oldnewlabel\newlabel
\gdef\newlabel#1#2{\newlabelxx{#1}#2}
\gdef\newlabelxx#1#2#3#4#5#6{\oldnewlabel{#1}{{#2}{#3}}}
\AtEndDocument{\ifx\hyper@anchor\@undefined
\let\contentsline\oldcontentsline
\let\newlabel\oldnewlabel
\fi}
\fi}
\global\let\hyper@last\relax 
\gdef\HyperFirstAtBeginDocument#1{#1}
\providecommand\HyField@AuxAddToFields[1]{}
\providecommand\HyField@AuxAddToCoFields[2]{}
\bibstyle{biblatex}
\bibdata{thesis-blx,biblio}
\citation{biblatex-control}
\abx@aux@refcontext{none/global//global/global}
\@writefile{toc}{\boolfalse {citerequest}\boolfalse {citetracker}\boolfalse {pagetracker}\boolfalse {backtracker}\relax }
\@writefile{lof}{\boolfalse {citerequest}\boolfalse {citetracker}\boolfalse {pagetracker}\boolfalse {backtracker}\relax }
\@writefile{lot}{\boolfalse {citerequest}\boolfalse {citetracker}\boolfalse {pagetracker}\boolfalse {backtracker}\relax }
\@writefile{toc}{\defcounter {refsection}{0}\relax }\@writefile{toc}{\contentsline {chapter}{\hbox to\@tempdima {\hfil }Abstract}{ii}{figure.caption.2}}
\@input{chapter2.aux}
\citation{kephart2003vision}
\abx@aux@cite{kephart2003vision}
\abx@aux@segm{0}{0}{kephart2003vision}
\citation{ctrl-theory-comp}
\abx@aux@cite{ctrl-theory-comp}
\abx@aux@segm{0}{0}{ctrl-theory-comp}
\citation{sefsas-fb-assurances}
\abx@aux@cite{sefsas-fb-assurances}
\abx@aux@segm{0}{0}{sefsas-fb-assurances}
\citation{lu2002feedback}
\abx@aux@cite{lu2002feedback}
\abx@aux@segm{0}{0}{lu2002feedback}
\citation{lu2005feedback}
\abx@aux@cite{lu2005feedback}
\abx@aux@segm{0}{0}{lu2005feedback}
\citation{park2011predictable}
\abx@aux@cite{park2011predictable}
\abx@aux@segm{0}{0}{park2011predictable}
\citation{park2011predictable}
\abx@aux@segm{0}{0}{park2011predictable}
\citation{ghazzawi2012mpc}
\abx@aux@cite{ghazzawi2012mpc}
\abx@aux@segm{0}{0}{ghazzawi2012mpc}
\citation{ghazzawi2012control}
\abx@aux@cite{ghazzawi2012control}
\abx@aux@segm{0}{0}{ghazzawi2012control}
\citation{park2011predictable}
\abx@aux@segm{0}{0}{park2011predictable}
\citation{stahl2018}
\abx@aux@cite{stahl2018}
\abx@aux@segm{0}{0}{stahl2018}
\citation{malrait2011experience}
\abx@aux@cite{malrait2011experience}
\abx@aux@segm{0}{0}{malrait2011experience}
\@input{chapter3.aux}
\citation{biscarat2014synergy}
\abx@aux@cite{biscarat2014synergy}
\abx@aux@segm{0}{0}{biscarat2014synergy}
\citation{aad2008atlas}
\abx@aux@cite{aad2008atlas}
\abx@aux@segm{0}{0}{aad2008atlas}
\citation{capit2005batch}
\abx@aux@cite{capit2005batch}
\abx@aux@segm{0}{0}{capit2005batch}
\citation{foster2003grid}
\abx@aux@cite{foster2003grid}
\abx@aux@segm{0}{0}{foster2003grid}
\citation{pinte2006monte}
\abx@aux@cite{pinte2006monte}
\abx@aux@segm{0}{0}{pinte2006monte}
\citation{bendel1989comparison}
\abx@aux@cite{bendel1989comparison}
\abx@aux@segm{0}{0}{bendel1989comparison}
\citation{georgiou2007evaluations}
\abx@aux@cite{georgiou2007evaluations}
\abx@aux@segm{0}{0}{georgiou2007evaluations}
\citation{jain2012input}
\abx@aux@cite{jain2012input}
\abx@aux@segm{0}{0}{jain2012input}
\@input{chapter4.aux}
\citation{stahl2018}
\abx@aux@segm{0}{0}{stahl2018}
\citation{stahl2018}
\abx@aux@segm{0}{0}{stahl2018}
\citation{malrait2011experience}
\abx@aux@segm{0}{0}{malrait2011experience}
\citation{ghazzawi2012mpc}
\abx@aux@segm{0}{0}{ghazzawi2012mpc}
\citation{gunther2011linux}
\abx@aux@cite{gunther2011linux}
\abx@aux@segm{0}{0}{gunther2011linux}
\citation{wan2000unscented}
\abx@aux@cite{wan2000unscented}
\abx@aux@segm{0}{0}{wan2000unscented}
\citation{wan2000unscented}
\abx@aux@segm{0}{0}{wan2000unscented}
\@input{chapter5.aux}
\citation{stahl2018}
\abx@aux@segm{0}{0}{stahl2018}
\@input{chapter6.aux}
\@input{ref.aux}
\abx@aux@refcontextdefaultsdone
\abx@aux@defaultrefcontext{0}{kephart2003vision}{none/global//global/global}
\abx@aux@defaultrefcontext{0}{ctrl-theory-comp}{none/global//global/global}
\abx@aux@defaultrefcontext{0}{sefsas-fb-assurances}{none/global//global/global}
\abx@aux@defaultrefcontext{0}{lu2002feedback}{none/global//global/global}
\abx@aux@defaultrefcontext{0}{lu2005feedback}{none/global//global/global}
\abx@aux@defaultrefcontext{0}{park2011predictable}{none/global//global/global}
\abx@aux@defaultrefcontext{0}{ghazzawi2012mpc}{none/global//global/global}
\abx@aux@defaultrefcontext{0}{ghazzawi2012control}{none/global//global/global}
\abx@aux@defaultrefcontext{0}{stahl2018}{none/global//global/global}
\abx@aux@defaultrefcontext{0}{malrait2011experience}{none/global//global/global}
\abx@aux@defaultrefcontext{0}{biscarat2014synergy}{none/global//global/global}
\abx@aux@defaultrefcontext{0}{aad2008atlas}{none/global//global/global}
\abx@aux@defaultrefcontext{0}{capit2005batch}{none/global//global/global}
\abx@aux@defaultrefcontext{0}{foster2003grid}{none/global//global/global}
\abx@aux@defaultrefcontext{0}{pinte2006monte}{none/global//global/global}
\abx@aux@defaultrefcontext{0}{bendel1989comparison}{none/global//global/global}
\abx@aux@defaultrefcontext{0}{georgiou2007evaluations}{none/global//global/global}
\abx@aux@defaultrefcontext{0}{jain2012input}{none/global//global/global}
\abx@aux@defaultrefcontext{0}{gunther2011linux}{none/global//global/global}
\abx@aux@defaultrefcontext{0}{wan2000unscented}{none/global//global/global}
